R	1:0	2:1	3:0	4:0	5:0	6:0	7:1	8:0	9:0	10:0	11:0	12:0	13:1	14:0	15:0	16:0	17:0	18:0	19:0	20:1	
L	1:0	2:0	3:0	4:1	5:0	6:0	7:0	8:1	9:0	10:0	11:0	12:1	13:0	14:0	15:0	16:1	17:0	18:0	19:0	20:0	
L	1:0	2:0	3:1	4:0	5:0	6:0	7:0	8:1	9:0	10:0	11:1	12:0	13:0	14:0	15:0	16:0	17:0	18:1	19:0	20:0	
R	1:1	2:0	3:0	4:0	5:0	6:0	7:0	8:0	9:1	10:0	11:0	12:0	13:1	14:0	15:0	16:0	17:1	18:0	19:0	20:0	
L	1:0	2:1	3:0	4:0	5:0	6:0	7:0	8:0	9:1	10:0	11:1	12:0	13:0	14:0	15:0	16:1	17:0	18:0	19:0	20:0	
L	1:0	2:0	3:0	4:0	5:1	6:0	7:0	8:1	9:0	10:0	11:1	12:0	13:0	14:0	15:0	16:0	17:0	18:0	19:0	20:1	
R	1:0	2:1	3:0	4:0	5:0	6:1	7:0	8:0	9:0	10:0	11:0	12:0	13:0	14:0	15:1	16:0	17:0	18:1	19:0	20:0	
L	1:0	2:0	3:0	4:1	5:0	6:0	7:1	8:0	9:0	10:0	11:0	12:1	13:0	14:0	15:0	16:1	17:0	18:0	19:0	20:0	
R	1:1	2:0	3:0	4:0	5:0	6:0	7:0	8:1	9:0	10:0	11:0	12:0	13:0	14:1	15:0	16:0	17:0	18:0	19:0	20:1	
R	1:1	2:0	3:0	4:0	5:0	6:1	7:0	8:0	9:0	10:0	11:1	12:0	13:0	14:0	15:0	16:0	17:0	18:0	19:0	20:1	
L	1:0	2:0	3:1	4:0	5:0	6:0	7:0	8:0	9:1	10:0	11:1	12:0	13:0	14:0	15:0	16:0	17:1	18:0	19:0	20:0	
L	1:0	2:0	3:1	4:0	5:0	6:0	7:0	8:0	9:0	10:1	11:0	12:0	13:1	14:0	15:0	16:0	17:1	18:0	19:0	20:0	
R	1:0	2:0	3:1	4:0	5:0	6:0	7:1	8:0	9:0	10:0	11:0	12:0	13:0	14:0	15:1	16:0	17:1	18:0	19:0	20:0	
R	1:1	2:0	3:0	4:0	5:0	6:0	7:0	8:1	9:0	10:0	11:0	12:0	13:1	14:0	15:0	16:0	17:0	18:0	19:1	20:0	
R	1:0	2:0	3:0	4:1	5:0	6:1	7:0	8:0	9:0	10:0	11:0	12:0	13:1	14:0	15:0	16:0	17:0	18:0	19:0	20:1	
R	1:1	2:0	3:0	4:0	5:0	6:0	7:1	8:0	9:0	10:0	11:0	12:0	13:0	14:0	15:1	16:0	17:0	18:0	19:0	20:1	
L	1:0	2:0	3:0	4:0	5:1	6:0	7:0	8:0	9:1	10:0	11:0	12:0	13:1	14:0	15:0	16:0	17:0	18:0	19:1	20:0	
R	1:1	2:0	3:0	4:0	5:0	6:0	7:0	8:0	9:1	10:0	11:0	12:0	13:0	14:1	15:0	16:0	17:0	18:0	19:0	20:1	
R	1:0	2:1	3:0	4:0	5:0	6:0	7:1	8:0	9:0	10:0	11:0	12:0	13:0	14:0	15:1	16:0	17:0	18:0	19:1	20:0	
L	1:0	2:0	3:0	4:0	5:1	6:0	7:0	8:0	9:1	10:0	11:1	12:0	13:0	14:0	15:0	16:0	17:0	18:0	19:0	20:1	
R	1:1	2:0	3:0	4:0	5:0	6:0	7:0	8:1	9:0	10:0	11:1	12:0	13:0	14:0	15:0	16:0	17:0	18:0	19:0	20:1	
R	1:0	2:1	3:0	4:0	5:0	6:1	7:0	8:0	9:0	10:0	11:0	12:0	13:0	14:0	15:1	16:0	17:1	18:0	19:0	20:0	
L	1:0	2:0	3:0	4:1	5:0	6:0	7:0	8:0	9:1	10:0	11:0	12:1	13:0	14:0	15:0	16:0	17:1	18:0	19:0	20:0	
L	1:0	2:1	3:0	4:0	5:0	6:0	7:0	8:1	9:0	10:0	11:0	12:0	13:1	14:0	15:0	16:1	17:0	18:0	19:0	20:0	
L	1:0	2:1	3:0	4:0	5:0	6:0	7:0	8:1	9:0	10:0	11:0	12:1	13:0	14:0	15:0	16:0	17:1	18:0	19:0	20:0	
L	1:0	2:0	3:0	4:0	5:1	6:0	7:0	8:0	9:0	10:1	11:1	12:0	13:0	14:0	15:0	16:0	17:1	18:0	19:0	20:0	
L	1:0	2:0	3:0	4:0	5:1	6:0	7:0	8:1	9:0	10:0	11:0	12:1	13:0	14:0	15:0	16:0	17:0	18:0	19:1	20:0	
L	1:0	2:0	3:0	4:0	5:1	6:0	7:0	8:0	9:0	10:1	11:0	12:0	13:0	14:1	15:0	16:0	17:0	18:0	19:1	20:0	
R	1:1	2:0	3:0	4:0	5:0	6:0	7:1	8:0	9:0	10:0	11:0	12:1	13:0	14:0	15:0	16:0	17:1	18:0	19:0	20:0	
L	1:0	2:0	3:0	4:0	5:1	6:0	7:0	8:1	9:0	10:0	11:0	12:0	13:0	14:1	15:0	16:0	17:0	18:1	19:0	20:0	
L	1:0	2:1	3:0	4:0	5:0	6:0	7:0	8:1	9:0	10:0	11:1	12:0	13:0	14:0	15:0	16:1	17:0	18:0	19:0	20:0	
B	1:1	2:0	3:0	4:0	5:0	6:0	7:0	8:0	9:1	10:0	11:0	12:0	13:0	14:1	15:0	16:1	17:0	18:0	19:0	20:0	
L	1:1	2:0	3:0	4:0	5:0	6:0	7:0	8:0	9:0	10:1	11:1	12:0	13:0	14:0	15:0	16:0	17:0	18:0	19:1	20:0	
R	1:0	2:0	3:0	4:1	5:0	6:0	7:1	8:0	9:0	10:0	11:0	12:0	13:0	14:0	15:1	16:0	17:0	18:0	19:1	20:0	
L	1:0	2:0	3:0	4:1	5:0	6:0	7:0	8:0	9:0	10:1	11:1	12:0	13:0	14:0	15:0	16:0	17:0	18:1	19:0	20:0	
R	1:0	2:1	3:0	4:0	5:0	6:1	7:0	8:0	9:0	10:0	11:0	12:0	13:1	14:0	15:0	16:0	17:0	18:0	19:1	20:0	
L	1:0	2:0	3:0	4:0	5:1	6:0	7:0	8:0	9:0	10:1	11:0	12:0	13:1	14:0	15:0	16:0	17:1	18:0	19:0	20:0	
R	1:0	2:1	3:0	4:0	5:0	6:0	7:0	8:1	9:0	10:0	11:0	12:0	13:0	14:0	15:1	16:0	17:1	18:0	19:0	20:0	
R	1:0	2:0	3:0	4:1	5:0	6:1	7:0	8:0	9:0	10:0	11:0	12:0	13:1	14:0	15:0	16:0	17:1	18:0	19:0	20:0	
R	1:0	2:1	3:0	4:0	5:0	6:0	7:0	8:0	9:1	10:0	11:0	12:1	13:0	14:0	15:0	16:0	17:0	18:0	19:0	20:1	
R	1:1	2:0	3:0	4:0	5:0	6:0	7:1	8:0	9:0	10:0	11:0	12:0	13:0	14:1	15:0	16:0	17:0	18:0	19:0	20:1	
L	1:0	2:0	3:1	4:0	5:0	6:0	7:0	8:0	9:0	10:1	11:1	12:0	13:0	14:0	15:0	16:0	17:0	18:0	19:1	20:0	
L	1:0	2:0	3:0	4:1	5:0	6:1	7:0	8:0	9:0	10:0	11:1	12:0	13:0	14:0	15:0	16:0	17:1	18:0	19:0	20:0	
L	1:0	2:0	3:0	4:0	5:1	6:0	7:0	8:0	9:0	10:1	11:0	12:0	13:1	14:0	15:0	16:0	17:0	18:1	19:0	20:0	
L	1:0	2:0	3:0	4:0	5:1	6:0	7:1	8:0	9:0	10:0	11:0	12:0	13:0	14:1	15:0	16:0	17:1	18:0	19:0	20:0	
R	1:0	2:0	3:0	4:0	5:1	6:1	7:0	8:0	9:0	10:0	11:0	12:0	13:0	14:1	15:0	16:0	17:1	18:0	19:0	20:0	
R	1:0	2:0	3:0	4:0	5:1	6:1	7:0	8:0	9:0	10:0	11:0	12:0	13:0	14:0	15:1	16:0	17:0	18:0	19:0	20:1	
L	1:0	2:0	3:0	4:0	5:1	6:1	7:0	8:0	9:0	10:0	11:1	12:0	13:0	14:0	15:0	16:0	17:1	18:0	19:0	20:0	
R	1:0	2:0	3:0	4:0	5:1	6:0	7:1	8:0	9:0	10:0	11:0	12:0	13:1	14:0	15:0	16:0	17:0	18:0	19:0	20:1	
L	1:0	2:0	3:0	4:1	5:0	6:0	7:1	8:0	9:0	10:0	11:0	12:1	13:0	14:0	15:0	16:0	17:1	18:0	19:0	20:0	
L	1:0	2:0	3:0	4:0	5:1	6:0	7:0	8:0	9:1	10:0	11:0	12:1	13:0	14:0	15:0	16:0	17:0	18:0	19:1	20:0	
R	1:0	2:1	3:0	4:0	5:0	6:0	7:1	8:0	9:0	10:0	11:0	12:0	13:0	14:0	15:1	16:1	17:0	18:0	19:0	20:0	
B	1:0	2:0	3:1	4:0	5:0	6:1	7:0	8:0	9:0	10:0	11:0	12:0	13:1	14:0	15:0	16:1	17:0	18:0	19:0	20:0	
R	1:0	2:0	3:0	4:1	5:0	6:1	7:0	8:0	9:0	10:0	11:0	12:1	13:0	14:0	15:0	16:0	17:0	18:1	19:0	20:0	
R	1:0	2:0	3:0	4:1	5:0	6:1	7:0	8:0	9:0	10:0	11:0	12:0	13:0	14:0	15:1	16:0	17:0	18:0	19:1	20:0	
L	1:0	2:0	3:0	4:0	5:1	6:0	7:0	8:0	9:0	10:1	11:0	12:0	13:0	14:0	15:1	16:0	17:0	18:1	19:0	20:0	
L	1:0	2:1	3:0	4:0	5:0	6:0	7:0	8:0	9:1	10:0	11:0	12:0	13:1	14:0	15:0	16:1	17:0	18:0	19:0	20:0	
L	1:0	2:0	3:1	4:0	5:0	6:0	7:0	8:1	9:0	10:0	11:1	12:0	13:0	14:0	15:0	16:0	17:0	18:0	19:1	20:0	
R	1:0	2:1	3:0	4:0	5:0	6:1	7:0	8:0	9:0	10:0	11:0	12:0	13:0	14:1	15:0	16:0	17:0	18:0	19:1	20:0	
L	1:0	2:1	3:0	4:0	5:0	6:0	7:0	8:1	9:0	10:0	11:1	12:0	13:0	14:0	15:0	16:0	17:1	18:0	19:0	20:0	
R	1:0	2:0	3:1	4:0	5:0	6:1	7:0	8:0	9:0	10:0	11:0	12:0	13:0	14:1	15:0	16:0	17:0	18:0	19:1	20:0	
L	1:0	2:0	3:0	4:1	5:0	6:1	7:0	8:0	9:0	10:0	11:0	12:1	13:0	14:0	15:0	16:1	17:0	18:0	19:0	20:0	
L	1:0	2:0	3:0	4:0	5:1	6:0	7:0	8:1	9:0	10:0	11:0	12:0	13:0	14:1	15:0	16:1	17:0	18:0	19:0	20:0	
R	1:0	2:0	3:0	4:0	5:1	6:1	7:0	8:0	9:0	10:0	11:0	12:0	13:1	14:0	15:0	16:0	17:0	18:0	19:0	20:1	
R	1:0	2:1	3:0	4:0	5:0	6:0	7:0	8:0	9:1	10:0	11:0	12:0	13:1	14:0	15:0	16:0	17:0	18:0	19:1	20:0	
L	1:0	2:0	3:1	4:0	5:0	6:0	7:0	8:0	9:1	10:0	11:0	12:0	13:0	14:1	15:0	16:1	17:0	18:0	19:0	20:0	
R	1:0	2:1	3:0	4:0	5:0	6:1	7:0	8:0	9:0	10:0	11:1	12:0	13:0	14:0	15:0	16:0	17:0	18:0	19:1	20:0	
R	1:0	2:1	3:0	4:0	5:0	6:0	7:1	8:0	9:0	10:0	11:0	12:1	13:0	14:0	15:0	16:0	17:0	18:0	19:1	20:0	
R	1:1	2:0	3:0	4:0	5:0	6:0	7:0	8:0	9:1	10:0	11:0	12:0	13:1	14:0	15:0	16:0	17:0	18:0	19:0	20:1	
L	1:1	2:0	3:0	4:0	5:0	6:0	7:0	8:0	9:1	10:0	11:1	12:0	13:0	14:0	15:0	16:0	17:0	18:1	19:0	20:0	
L	1:0	2:0	3:0	4:0	5:1	6:0	7:0	8:0	9:1	10:0	11:0	12:1	13:0	14:0	15:0	16:0	17:0	18:1	19:0	20:0	
L	1:0	2:0	3:0	4:0	5:1	6:0	7:0	8:0	9:0	10:1	11:0	12:0	13:0	14:0	15:1	16:0	17:1	18:0	19:0	20:0	
L	1:0	2:0	3:0	4:1	5:0	6:0	7:0	8:0	9:1	10:0	11:1	12:0	13:0	14:0	15:0	16:1	17:0	18:0	19:0	20:0	
R	1:1	2:0	3:0	4:0	5:0	6:0	7:0	8:0	9:1	10:0	11:0	12:1	13:0	14:0	15:0	16:0	17:0	18:0	19:0	20:1	
B	1:0	2:0	3:0	4:0	5:1	6:1	7:0	8:0	9:0	10:0	11:0	12:0	13:0	14:0	15:1	16:1	17:0	18:0	19:0	20:0	
R	1:0	2:0	3:1	4:0	5:0	6:0	7:0	8:1	9:0	10:0	11:0	12:0	13:0	14:0	15:1	16:0	17:0	18:0	19:0	20:1	
L	1:0	2:1	3:0	4:0	5:0	6:0	7:0	8:0	9:1	10:0	11:0	12:1	13:0	14:0	15:0	16:1	17:0	18:0	19:0	20:0	
R	1:0	2:0	3:1	4:0	5:0	6:1	7:0	8:0	9:0	10:0	11:0	12:0	13:0	14:0	15:1	16:0	17:0	18:0	19:0	20:1	
R	1:0	2:0	3:1	4:0	5:0	6:0	7:0	8:1	9:0	10:0	11:0	12:0	13:0	14:1	15:0	16:0	17:0	18:0	19:1	20:0	
R	1:1	2:0	3:0	4:0	5:0	6:0	7:1	8:0	9:0	10:0	11:0	12:0	13:0	14:1	15:0	16:0	17:1	18:0	19:0	20:0	
