no	1:0.279412	2:1	3:0	4:0	5:0	6:0	7:0	8:0	9:0	10:0	11:0	12:0	13:0	14:1	15:0	16:0	17:0	18:1	19:0	20:0	21:0	22:0.069328	23:1	24:0	25:0	26:0	27:1	28:0.466667	29:0	30:0	31:0	32:0	33:1	34:0	35:0	36:0	37:0	38:0	39:0	40:0	41:0.097319	42:0.020408	43:0	44:0	45:1	46:0	47:0	48:0	
no	1:0.161765	2:0	3:0	4:0	5:1	6:0	7:0	8:0	9:0	10:0	11:0	12:0	13:0	14:0	15:0	16:1	17:0	18:0	19:0	20:1	21:0	22:0.131649	23:0	24:0	25:0	26:0	27:1	28:0.966667	29:0	30:0	31:1	32:0	33:0	34:0	35:0	36:0	37:0	38:0	39:0	40:0	41:0.024495	42:0.040816	43:0	44:0	45:1	46:0	47:0	48:0	
no	1:0.161765	2:0	3:0	4:0	5:0	6:0	7:0	8:0	9:0	10:0	11:0	12:0	13:1	14:0	15:1	16:0	17:0	18:1	19:0	20:0	21:0	22:0.043207	23:1	24:0	25:0	26:0	27:1	28:0.433333	29:0	30:0	31:0	32:0	33:0	34:0	35:1	36:0	37:0	38:0	39:0	40:0	41:0.012248	42:0.020408	43:0	44:0	45:1	46:0	47:0	48:0	
no	1:0.191176	2:0	3:0	4:0	5:0	6:0	7:0	8:0	9:1	10:0	11:0	12:0	13:0	14:0	15:0	16:1	17:0	18:1	19:0	20:0	21:0	22:0.044912	23:1	24:0	25:0	26:0	27:1	28:0.566667	29:0	30:0	31:0	32:0	33:1	34:0	35:0	36:0	37:0	38:0	39:0	40:0	41:0.040053	42:0	43:0.423165	44:0.16	45:0	46:0	47:1	48:0	
no	1:0.470588	2:0	3:0	4:0	5:1	6:0	7:0	8:0	9:0	10:0	11:0	12:0	13:0	14:1	15:0	16:0	17:0	18:0	19:0	20:1	21:0	22:0.032496	23:1	24:1	25:0	26:0	27:1	28:0.433333	29:0	30:0	31:0	32:0	33:0	34:0	35:0	36:1	37:0	38:0	39:0	40:0	41:0.080768	42:0.020408	43:0	44:0	45:1	46:0	47:0	48:0	
no	1:0.323529	2:0	3:0	4:0	5:0	6:0	7:0	8:0	9:1	10:0	11:0	12:0	13:0	14:1	15:0	16:0	17:0	18:0	19:1	20:0	21:0	22:0.044523	23:0	24:0	25:0	26:0	27:1	28:0.733333	29:0	30:0	31:0	32:0	33:0	34:0	35:1	36:0	37:0	38:0	39:0	40:0	41:0.023171	42:0.081633	43:0	44:0	45:1	46:0	47:0	48:0	
no	1:0.176471	2:0	3:0	4:0	5:0	6:0	7:0	8:0	9:0	10:0	11:0	12:0	13:1	14:1	15:0	16:0	17:0	18:1	19:0	20:0	21:0	22:0.051181	23:1	24:0	25:1	26:0	27:0	28:0.166667	29:0	30:0	31:0	32:0	33:0	34:1	35:0	36:0	37:0	38:0	39:0	40:0	41:0.004965	42:0.346939	43:0	44:0	45:1	46:0	47:0	48:0	
no	1:0.323529	2:0	3:0	4:0	5:0	6:0	7:0	8:0	9:0	10:1	11:0	12:0	13:0	14:1	15:0	16:0	17:0	18:0	19:0	20:1	21:0	22:0.125005	23:1	24:0	25:0	26:0	27:1	28:0.566667	29:0	30:0	31:0	32:0	33:0	34:0	35:0	36:0	37:0	38:0	39:1	40:0	41:0.086395	42:0	43:0	44:0	45:1	46:0	47:0	48:0	
no	1:0.382353	2:0	3:0	4:0	5:0	6:0	7:0	8:0	9:0	10:1	11:0	12:0	13:0	14:1	15:0	16:0	17:0	18:1	19:0	20:0	21:0	22:0.053946	23:0	24:0	25:0	26:0	27:1	28:0.966667	29:0	30:0	31:0	32:1	33:0	34:0	35:0	36:0	37:0	38:0	39:0	40:0	41:0.024495	42:0.020408	43:0.202982	44:0.04	45:0	46:0	47:0	48:1	
no	1:0.220588	2:0	3:0	4:0	5:0	6:0	7:0	8:0	9:0	10:0	11:0	12:1	13:0	14:0	15:0	16:1	17:0	18:1	19:0	20:0	21:0	22:0.112106	23:0	24:0	25:0	26:0	27:1	28:0.633333	29:0	30:0	31:0	32:0	33:0	34:0	35:0	36:0	37:0	38:0	39:1	40:0	41:0.066534	42:0.102041	43:0	44:0	45:1	46:0	47:0	48:0	
no	1:0.205882	2:0	3:0	4:0	5:0	6:0	7:0	8:0	9:0	10:0	11:0	12:1	13:0	14:0	15:1	16:0	17:0	18:0	19:0	20:1	21:0	22:0.039288	23:1	24:0	25:1	26:0	27:0	28:0.733333	29:0	30:0	31:0	32:0	33:1	34:0	35:0	36:0	37:0	38:0	39:0	40:0	41:0.174115	42:0	43:0	44:0	45:1	46:0	47:0	48:0	
no	1:0.529412	2:0	3:0	4:0	5:1	6:0	7:0	8:0	9:0	10:0	11:0	12:0	13:0	14:1	15:0	16:0	17:0	18:0	19:0	20:1	21:0	22:0.051717	23:0	24:0	25:0	26:0	27:1	28:0.6	29:0	30:0	31:0	32:0	33:0	34:0	35:0	36:0	37:0	38:0	39:1	40:0	41:0.039722	42:0.020408	43:0	44:0	45:1	46:0	47:0	48:0	
yes	1:0.191176	2:0	3:0	4:0	5:0	6:0	7:0	8:0	9:0	10:0	11:0	12:0	13:1	14:0	15:0	16:1	17:0	18:1	19:0	20:0	21:0	22:0.08314	23:0	24:0	25:0	26:0	27:1	28:0.033333	29:0	30:0	31:0	32:0	33:0	34:0	35:1	36:0	37:0	38:0	39:0	40:0	41:0.116518	42:0	43:0	44:0	45:1	46:0	47:0	48:0	
no	1:0.235294	2:0	3:0	4:0	5:0	6:0	7:0	8:0	9:0	10:0	11:0	12:1	13:0	14:1	15:0	16:0	17:0	18:1	19:0	20:0	21:0	22:0.073851	23:0	24:0	25:0	26:0	27:1	28:0.6	29:0	30:0	31:0	32:0	33:0	34:0	35:0	36:0	37:0	38:0	39:1	40:0	41:0.083416	42:0.040816	43:0	44:0	45:1	46:0	47:0	48:0	
no	1:0.514706	2:0	3:0	4:0	5:0	6:0	7:0	8:0	9:0	10:0	11:0	12:1	13:0	14:1	15:0	16:0	17:0	18:0	19:0	20:1	21:0	22:0.045785	23:0	24:0	25:0	26:0	27:1	28:0.233333	29:0	30:0	31:0	32:0	33:0	34:0	35:0	36:1	37:0	38:0	39:0	40:0	41:0.137703	42:0.061224	43:0	44:0	45:1	46:0	47:0	48:0	
no	1:0.205882	2:0	3:0	4:0	5:0	6:0	7:0	8:0	9:0	10:0	11:0	12:0	13:1	14:1	15:0	16:0	17:0	18:0	19:1	20:0	21:0	22:0.137139	23:0	24:0	25:0	26:1	27:0	28:0.633333	29:0	30:0	31:0	32:0	33:0	34:0	35:0	36:0	37:0	38:0	39:1	40:0	41:0.036412	42:0.020408	43:0	44:0	45:1	46:0	47:0	48:0	
yes	1:0.382353	2:0	3:0	4:0	5:1	6:0	7:0	8:0	9:0	10:0	11:0	12:0	13:0	14:1	15:0	16:0	17:0	18:0	19:0	20:1	21:0	22:0.047717	23:0	24:0	25:0	26:0	27:1	28:0.966667	29:0	30:0	31:0	32:1	33:0	34:0	35:0	36:0	37:0	38:0	39:0	40:0	41:0.192982	42:0	43:0	44:0	45:1	46:0	47:0	48:0	
no	1:0.176471	2:0	3:0	4:0	5:0	6:0	7:0	8:0	9:1	10:0	11:0	12:0	13:0	14:0	15:1	16:0	17:0	18:1	19:0	20:0	21:0	22:0.038402	23:1	24:0	25:1	26:0	27:0	28:0.833333	29:0	30:0	31:0	32:0	33:1	34:0	35:0	36:0	37:0	38:0	39:0	40:0	41:0.058921	42:0.081633	43:0	44:0	45:1	46:0	47:0	48:0	
no	1:0.367647	2:0	3:0	4:0	5:0	6:0	7:0	8:0	9:0	10:0	11:0	12:0	13:1	14:0	15:0	16:1	17:0	18:1	19:0	20:0	21:0	22:0.045892	23:0	24:0	25:1	26:0	27:0	28:0.366667	29:0	30:0	31:0	32:0	33:0	34:1	35:0	36:0	37:0	38:0	39:0	40:0	41:0.034757	42:0.020408	43:0	44:0	45:1	46:0	47:0	48:0	
no	1:0.323529	2:0	3:0	4:0	5:0	6:0	7:0	8:0	9:0	10:1	11:0	12:0	13:0	14:1	15:0	16:0	17:0	18:0	19:1	20:0	21:0	22:0.049033	23:0	24:0	25:1	26:0	27:0	28:0.166667	29:0	30:0	31:0	32:0	33:0	34:1	35:0	36:0	37:0	38:0	39:0	40:0	41:0.010924	42:0.040816	43:0	44:0	45:1	46:0	47:0	48:0	
no	1:0.485294	2:1	3:0	4:0	5:0	6:0	7:0	8:0	9:0	10:0	11:0	12:0	13:0	14:1	15:0	16:0	17:0	18:1	19:0	20:0	21:0	22:0.053771	23:0	24:0	25:1	26:0	27:0	28:0.366667	29:0	30:0	31:0	32:0	33:0	34:1	35:0	36:0	37:0	38:0	39:0	40:0	41:0.088381	42:0	43:0	44:0	45:1	46:0	47:0	48:0	
no	1:0.102941	2:1	3:0	4:0	5:0	6:0	7:0	8:0	9:0	10:0	11:0	12:0	13:0	14:0	15:1	16:0	17:0	18:1	19:0	20:0	21:1	22:0.044429	23:1	24:0	25:1	26:0	27:0	28:0.4	29:0	30:0	31:0	32:0	33:1	34:0	35:0	36:0	37:0	38:0	39:0	40:0	41:0.05859	42:0.081633	43:0	44:0	45:1	46:0	47:0	48:0	
no	1:0.308824	2:0	3:0	4:0	5:0	6:0	7:0	8:0	9:0	10:1	11:0	12:0	13:0	14:0	15:1	16:0	17:0	18:1	19:0	20:0	21:0	22:0.06965	23:0	24:1	25:1	26:0	27:0	28:0.633333	29:0	30:0	31:0	32:0	33:0	34:1	35:0	36:0	37:0	38:0	39:0	40:0	41:0.087719	42:0	43:0	44:0	45:1	46:0	47:0	48:0	
no	1:0.338235	2:1	3:0	4:0	5:0	6:0	7:0	8:0	9:0	10:0	11:0	12:0	13:0	14:0	15:0	16:1	17:0	18:1	19:0	20:0	21:0	22:0.044872	23:1	24:0	25:0	26:0	27:1	28:0.1	29:0	30:1	31:0	32:0	33:0	34:0	35:0	36:0	37:0	38:0	39:0	40:0	41:0.031116	42:0	43:0.306193	44:0.12	45:0	46:0	47:1	48:0	
no	1:0.426471	2:0	3:0	4:0	5:0	6:0	7:0	8:0	9:0	10:0	11:0	12:1	13:0	14:1	15:0	16:0	17:0	18:1	19:0	20:0	21:0	22:0.187487	23:0	24:0	25:0	26:1	27:0	28:1	29:0	30:0	31:0	32:0	33:0	34:0	35:1	36:0	37:0	38:0	39:0	40:0	41:0.000331	42:0.040816	43:0	44:0	45:1	46:0	47:0	48:0	
no	1:0.117647	2:0	3:0	4:0	5:0	6:0	7:0	8:0	9:0	10:0	11:0	12:0	13:1	14:0	15:1	16:0	17:0	18:1	19:0	20:0	21:0	22:0.044603	23:1	24:0	25:0	26:0	27:1	28:0.7	29:0	30:0	31:0	32:0	33:0	34:0	35:1	36:0	37:0	38:0	39:0	40:0	41:0.173121	42:0	43:0	44:0	45:1	46:0	47:0	48:0	
no	1:0.367647	2:1	3:0	4:0	5:0	6:0	7:0	8:0	9:0	10:0	11:0	12:0	13:0	14:1	15:0	16:0	17:0	18:1	19:0	20:0	21:0	22:0.076724	23:1	24:0	25:0	26:0	27:1	28:0.9	29:1	30:0	31:0	32:0	33:0	34:0	35:0	36:0	37:0	38:0	39:0	40:0	41:0.058259	42:0.020408	43:0	44:0	45:1	46:0	47:0	48:0	
no	1:0.235294	2:0	3:0	4:0	5:0	6:0	7:0	8:0	9:0	10:0	11:0	12:1	13:0	14:0	15:1	16:0	17:0	18:1	19:0	20:0	21:0	22:0.045395	23:1	24:0	25:1	26:0	27:0	28:0.233333	29:0	30:0	31:0	32:0	33:1	34:0	35:0	36:0	37:0	38:0	39:0	40:0	41:0.151274	42:0.040816	43:0	44:0	45:1	46:0	47:0	48:0	
no	1:0.117647	2:0	3:0	4:0	5:0	6:0	7:0	8:0	9:0	10:0	11:0	12:0	13:1	14:0	15:0	16:1	17:0	18:1	19:0	20:0	21:0	22:0.042805	23:0	24:0	25:0	26:0	27:1	28:0.566667	29:0	30:0	31:0	32:0	33:0	34:0	35:1	36:0	37:0	38:0	39:0	40:0	41:0.070506	42:0	43:0	44:0	45:1	46:0	47:0	48:0	
no	1:0.426471	2:0	3:0	4:0	5:0	6:0	7:0	8:0	9:0	10:0	11:0	12:1	13:0	14:1	15:0	16:0	17:1	18:0	19:0	20:0	21:0	22:0.118871	23:0	24:0	25:1	26:0	27:0	28:0.5	29:0	30:0	31:0	32:0	33:0	34:1	35:0	36:0	37:0	38:0	39:0	40:0	41:0.046011	42:0.081633	43:0	44:0	45:1	46:0	47:0	48:0	
no	1:0.205882	2:0	3:0	4:0	5:0	6:0	7:0	8:0	9:0	10:0	11:0	12:1	13:0	14:1	15:0	16:0	17:0	18:1	19:0	20:0	21:0	22:0.045248	23:1	24:0	25:0	26:1	27:0	28:0.933333	29:0	30:0	31:0	32:0	33:0	34:0	35:0	36:1	37:0	38:0	39:0	40:0	41:0.017544	42:0.020408	43:0	44:0	45:1	46:0	47:0	48:0	
no	1:0.308824	2:0	3:0	4:0	5:0	6:0	7:0	8:0	9:0	10:1	11:0	12:0	13:0	14:1	15:0	16:0	17:0	18:0	19:0	20:1	21:0	22:0.227943	23:0	24:0	25:0	26:0	27:1	28:0.466667	29:0	30:0	31:0	32:0	33:0	34:0	35:0	36:0	37:0	38:1	39:0	40:0	41:0.044356	42:0	43:0.15711	44:0.32	45:0	46:1	47:0	48:0	
no	1:0.191176	2:0	3:0	4:0	5:1	6:0	7:0	8:0	9:0	10:0	11:0	12:0	13:0	14:0	15:0	16:1	17:0	18:0	19:0	20:1	21:0	22:0.213688	23:0	24:0	25:0	26:0	27:1	28:0.433333	29:0	30:0	31:0	32:0	33:0	34:0	35:0	36:1	37:0	38:0	39:0	40:0	41:0.065872	42:0.081633	43:0.097477	44:0.04	45:0	46:0	47:1	48:0	
no	1:0.294118	2:0	3:0	4:0	5:0	6:0	7:0	8:0	9:1	10:0	11:0	12:0	13:0	14:1	15:0	16:0	17:0	18:0	19:1	20:0	21:0	22:0.064684	23:1	24:0	25:0	26:0	27:1	28:0.333333	29:0	30:0	31:0	32:0	33:1	34:0	35:0	36:0	37:0	38:0	39:0	40:0	41:0.09765	42:0.020408	43:0	44:0	45:1	46:0	47:0	48:0	
no	1:0.323529	2:0	3:0	4:0	5:1	6:0	7:0	8:0	9:0	10:0	11:0	12:0	13:0	14:1	15:0	16:0	17:0	18:0	19:0	20:1	21:0	22:0.045436	23:1	24:0	25:1	26:0	27:0	28:0.2	29:0	30:0	31:0	32:0	33:1	34:0	35:0	36:0	37:0	38:0	39:0	40:0	41:0.251572	42:0.040816	43:0	44:0	45:1	46:0	47:0	48:0	
yes	1:0.485294	2:1	3:0	4:0	5:0	6:0	7:0	8:0	9:0	10:0	11:0	12:0	13:0	14:0	15:0	16:1	17:1	18:0	19:0	20:0	21:0	22:0.074361	23:0	24:0	25:0	26:0	27:1	28:0.766667	29:0	30:1	31:0	32:0	33:0	34:0	35:0	36:0	37:0	38:0	39:0	40:0	41:0.078782	42:0.020408	43:0	44:0	45:1	46:0	47:0	48:0	
yes	1:0.117647	2:1	3:0	4:0	5:0	6:0	7:0	8:0	9:0	10:0	11:0	12:0	13:0	14:1	15:0	16:0	17:0	18:1	19:0	20:0	21:0	22:0.053999	23:1	24:1	25:0	26:0	27:1	28:0.166667	29:0	30:0	31:0	32:0	33:1	34:0	35:0	36:0	37:0	38:0	39:0	40:0	41:0.21483	42:0	43:0.384174	44:0.08	45:0	46:0	47:0	48:1	
yes	1:0.764706	2:0	3:0	4:0	5:0	6:0	7:0	8:0	9:0	10:0	11:1	12:0	13:0	14:1	15:0	16:0	17:0	18:1	19:0	20:0	21:0	22:0.082724	23:0	24:0	25:0	26:0	27:1	28:0.533333	29:0	30:1	31:0	32:0	33:0	34:0	35:0	36:0	37:0	38:0	39:0	40:0	41:0.059914	42:0	43:0	44:0	45:1	46:0	47:0	48:0	
no	1:0.25	2:0	3:0	4:0	5:0	6:0	7:1	8:0	9:0	10:0	11:0	12:0	13:0	14:1	15:0	16:0	17:0	18:0	19:1	20:0	21:0	22:0.046845	23:1	24:0	25:1	26:0	27:0	28:0.366667	29:0	30:0	31:0	32:0	33:1	34:0	35:0	36:0	37:0	38:0	39:0	40:0	41:0.01953	42:0.081633	43:0	44:0	45:1	46:0	47:0	48:0	
no	1:0.235294	2:0	3:0	4:0	5:0	6:0	7:0	8:0	9:1	10:0	11:0	12:0	13:0	14:1	15:0	16:0	17:0	18:1	19:0	20:0	21:0	22:0.048563	23:1	24:0	25:0	26:0	27:1	28:0.566667	29:0	30:0	31:0	32:0	33:1	34:0	35:0	36:0	37:0	38:0	39:0	40:0	41:0.000993	42:0.122449	43:0.422018	44:1	45:0	46:0	47:1	48:0	
no	1:0.323529	2:0	3:0	4:0	5:0	6:0	7:0	8:0	9:0	10:0	11:0	12:1	13:0	14:0	15:0	16:1	17:0	18:1	19:0	20:0	21:0	22:0.056268	23:0	24:1	25:0	26:0	27:1	28:0.2	29:0	30:0	31:0	32:0	33:0	34:0	35:1	36:0	37:0	38:0	39:0	40:0	41:0.018537	42:0.061224	43:0	44:0	45:1	46:0	47:0	48:0	
no	1:0.588235	2:0	3:0	4:1	5:0	6:0	7:0	8:0	9:0	10:0	11:0	12:0	13:0	14:0	15:1	16:0	17:0	18:1	19:0	20:0	21:0	22:0.083677	23:0	24:0	25:0	26:1	27:0	28:0.066667	29:0	30:1	31:0	32:0	33:0	34:0	35:0	36:0	37:0	38:0	39:0	40:0	41:0.081761	42:0	43:0	44:0	45:1	46:0	47:0	48:0	
no	1:0.308824	2:0	3:0	4:0	5:0	6:0	7:0	8:0	9:1	10:0	11:0	12:0	13:0	14:1	15:0	16:0	17:0	18:0	19:1	20:0	21:0	22:0.08212	23:1	24:0	25:0	26:0	27:1	28:0.433333	29:0	30:0	31:0	32:0	33:1	34:0	35:0	36:0	37:0	38:0	39:0	40:0	41:0.055942	42:0.102041	43:0.405963	44:0.92	45:0	46:0	47:1	48:0	
no	1:0.117647	2:0	3:0	4:0	5:0	6:0	7:0	8:0	9:0	10:0	11:0	12:0	13:1	14:0	15:0	16:1	17:0	18:1	19:0	20:0	21:0	22:0.042442	23:0	24:0	25:0	26:0	27:1	28:0.233333	29:0	30:0	31:0	32:0	33:0	34:0	35:1	36:0	37:0	38:0	39:0	40:0	41:0.092354	42:0.020408	43:0	44:0	45:1	46:0	47:0	48:0	
no	1:0.294118	2:0	3:0	4:0	5:1	6:0	7:0	8:0	9:0	10:0	11:0	12:0	13:0	14:0	15:0	16:1	17:0	18:0	19:0	20:1	21:1	22:0.039087	23:1	24:0	25:0	26:0	27:1	28:0.6	29:0	30:0	31:0	32:0	33:0	34:0	35:0	36:1	37:0	38:0	39:0	40:0	41:0.089374	42:0.061224	43:0	44:0	45:1	46:0	47:0	48:0	
no	1:0.088235	2:0	3:0	4:0	5:0	6:0	7:0	8:0	9:1	10:0	11:0	12:0	13:0	14:0	15:0	16:1	17:0	18:1	19:0	20:0	21:0	22:0.056724	23:1	24:0	25:0	26:0	27:1	28:0.2	29:0	30:0	31:0	32:0	33:0	34:0	35:1	36:0	37:0	38:0	39:0	40:0	41:0.036081	42:0.061224	43:0	44:0	45:1	46:0	47:0	48:0	
no	1:0.308824	2:0	3:0	4:0	5:0	6:0	7:0	8:0	9:1	10:0	11:0	12:0	13:0	14:1	15:0	16:0	17:0	18:1	19:0	20:0	21:0	22:0.057248	23:0	24:1	25:1	26:0	27:0	28:0.366667	29:0	30:0	31:0	32:0	33:0	34:1	35:0	36:0	37:0	38:0	39:0	40:0	41:0.045018	42:0	43:0	44:0	45:1	46:0	47:0	48:0	
no	1:0.132353	2:0	3:0	4:0	5:0	6:0	7:0	8:0	9:1	10:0	11:0	12:0	13:0	14:0	15:0	16:1	17:0	18:1	19:0	20:0	21:0	22:0.050053	23:1	24:0	25:1	26:0	27:0	28:0.4	29:0	30:0	31:0	32:0	33:1	34:0	35:0	36:0	37:0	38:0	39:0	40:0	41:0.148295	42:0.020408	43:0	44:0	45:1	46:0	47:0	48:0	
no	1:0.544118	2:0	3:0	4:0	5:0	6:0	7:0	8:0	9:0	10:0	11:1	12:0	13:0	14:1	15:0	16:0	17:0	18:0	19:1	20:0	21:0	22:0.070053	23:0	24:1	25:1	26:0	27:0	28:0.6	29:0	30:0	31:0	32:0	33:0	34:1	35:0	36:0	37:0	38:0	39:0	40:0	41:0.013572	42:0.163265	43:0	44:0	45:1	46:0	47:0	48:0	
no	1:0.382353	2:0	3:0	4:0	5:0	6:0	7:0	8:0	9:1	10:0	11:0	12:0	13:0	14:1	15:0	16:0	17:0	18:0	19:1	20:0	21:0	22:0.044469	23:0	24:0	25:1	26:0	27:0	28:0.733333	29:0	30:0	31:0	32:0	33:1	34:0	35:0	36:0	37:0	38:0	39:0	40:0	41:0.188679	42:0.081633	43:0	44:0	45:1	46:0	47:0	48:0	
no	1:0.191176	2:0	3:0	4:0	5:1	6:0	7:0	8:0	9:0	10:0	11:0	12:0	13:0	14:0	15:0	16:1	17:0	18:0	19:0	20:1	21:0	22:0.049127	23:1	24:0	25:0	26:0	27:1	28:0.566667	29:0	30:0	31:0	32:0	33:1	34:0	35:0	36:0	37:0	38:0	39:0	40:0	41:0.069182	42:0	43:0.303899	44:0.24	45:0	46:0	47:1	48:0	
no	1:0.338235	2:0	3:0	4:0	5:0	6:0	7:0	8:0	9:0	10:0	11:0	12:1	13:0	14:1	15:0	16:0	17:0	18:1	19:0	20:0	21:0	22:0.071717	23:1	24:1	25:0	26:0	27:1	28:0.266667	29:0	30:0	31:0	32:0	33:0	34:0	35:1	36:0	37:0	38:0	39:0	40:0	41:0.063555	42:0	43:0	44:0	45:1	46:0	47:0	48:0	
no	1:0.573529	2:0	3:0	4:0	5:0	6:0	7:0	8:0	9:0	10:0	11:1	12:0	13:0	14:1	15:0	16:0	17:0	18:1	19:0	20:0	21:0	22:0.047624	23:0	24:0	25:0	26:0	27:1	28:0.866667	29:0	30:0	31:0	32:0	33:0	34:0	35:0	36:1	37:0	38:0	39:0	40:0	41:0.027805	42:0.061224	43:0	44:0	45:1	46:0	47:0	48:0	
no	1:0.191176	2:0	3:0	4:0	5:0	6:0	7:1	8:0	9:0	10:0	11:0	12:0	13:0	14:1	15:0	16:0	17:1	18:0	19:0	20:0	21:0	22:0.045449	23:1	24:0	25:0	26:0	27:1	28:0.666667	29:0	30:0	31:0	32:0	33:0	34:0	35:0	36:0	37:0	38:0	39:1	40:0	41:0.050976	42:0	43:0.155963	44:0.04	45:0	46:0	47:1	48:0	
no	1:0.308824	2:0	3:0	4:0	5:0	6:0	7:0	8:0	9:0	10:0	11:0	12:1	13:0	14:1	15:0	16:0	17:0	18:1	19:0	20:0	21:0	22:0.047919	23:1	24:0	25:1	26:0	27:0	28:0.5	29:0	30:0	31:0	32:0	33:1	34:0	35:0	36:0	37:0	38:0	39:0	40:0	41:0.240649	42:0.061224	43:0	44:0	45:1	46:0	47:0	48:0	
yes	1:0.191176	2:0	3:0	4:0	5:1	6:0	7:0	8:0	9:0	10:0	11:0	12:0	13:0	14:0	15:0	16:1	17:0	18:0	19:0	20:1	21:0	22:0.04502	23:0	24:0	25:0	26:0	27:1	28:0.666667	29:0	30:0	31:0	32:0	33:0	34:0	35:0	36:1	37:0	38:0	39:0	40:0	41:0.225753	42:0.081633	43:0	44:0	45:1	46:0	47:0	48:0	
no	1:0.558824	2:0	3:0	4:0	5:0	6:0	7:1	8:0	9:0	10:0	11:0	12:0	13:0	14:0	15:1	16:0	17:0	18:1	19:0	20:0	21:1	22:0.044805	23:1	24:0	25:0	26:0	27:1	28:0.333333	29:0	30:0	31:0	32:0	33:1	34:0	35:0	36:0	37:0	38:0	39:0	40:0	41:0.214499	42:0	43:0.425459	44:0.16	45:0	46:1	47:0	48:0	
no	1:0.588235	2:0	3:0	4:0	5:1	6:0	7:0	8:0	9:0	10:0	11:0	12:0	13:0	14:1	15:0	16:0	17:0	18:0	19:0	20:1	21:0	22:0.065744	23:0	24:0	25:0	26:1	27:0	28:0.9	29:0	30:0	31:0	32:0	33:0	34:0	35:0	36:1	37:0	38:0	39:0	40:0	41:0.028798	42:0.081633	43:0	44:0	45:1	46:0	47:0	48:0	
yes	1:0.132353	2:0	3:0	4:0	5:1	6:0	7:0	8:0	9:0	10:0	11:0	12:0	13:0	14:0	15:0	16:1	17:0	18:0	19:0	20:1	21:0	22:0.044469	23:1	24:0	25:0	26:0	27:1	28:0.5	29:0	30:0	31:0	32:0	33:0	34:0	35:1	36:0	37:0	38:0	39:0	40:0	41:0.252565	42:0.081633	43:0	44:0	45:1	46:0	47:0	48:0	
no	1:0.176471	2:0	3:0	4:0	5:0	6:0	7:0	8:0	9:1	10:0	11:0	12:0	13:0	14:0	15:0	16:1	17:0	18:1	19:0	20:0	21:0	22:0.069731	23:0	24:0	25:0	26:0	27:1	28:0.2	29:0	30:0	31:0	32:0	33:1	34:0	35:0	36:0	37:0	38:0	39:0	40:0	41:0.173784	42:0.020408	43:0	44:0	45:1	46:0	47:0	48:0	
no	1:0.117647	2:0	3:0	4:0	5:0	6:0	7:0	8:0	9:0	10:0	11:0	12:1	13:0	14:0	15:0	16:1	17:0	18:1	19:0	20:0	21:0	22:0.054791	23:1	24:0	25:1	26:0	27:0	28:0.266667	29:0	30:0	31:0	32:0	33:1	34:0	35:0	36:0	37:0	38:0	39:0	40:0	41:0.103608	42:0.020408	43:0	44:0	45:1	46:0	47:0	48:0	
no	1:0.102941	2:0	3:0	4:0	5:0	6:0	7:0	8:0	9:0	10:0	11:0	12:0	13:1	14:0	15:0	16:1	17:0	18:1	19:0	20:0	21:0	22:0.04514	23:1	24:0	25:0	26:0	27:1	28:0.366667	29:0	30:0	31:0	32:0	33:0	34:0	35:0	36:1	37:0	38:0	39:0	40:0	41:0.049321	42:0	43:0	44:0	45:1	46:0	47:0	48:0	
no	1:0.191176	2:0	3:0	4:0	5:0	6:0	7:0	8:0	9:1	10:0	11:0	12:0	13:0	14:1	15:0	16:0	17:0	18:1	19:0	20:0	21:0	22:0.051409	23:1	24:0	25:1	26:0	27:0	28:0.133333	29:0	30:0	31:0	32:0	33:1	34:0	35:0	36:0	37:0	38:0	39:0	40:0	41:0.173452	42:0	43:0	44:0	45:1	46:0	47:0	48:0	
no	1:0.338235	2:0	3:0	4:0	5:1	6:0	7:0	8:0	9:0	10:0	11:0	12:0	13:0	14:0	15:0	16:1	17:0	18:0	19:0	20:1	21:0	22:0.19087	23:0	24:0	25:0	26:0	27:1	28:0.1	29:0	30:0	31:0	32:0	33:1	34:0	35:0	36:0	37:0	38:0	39:0	40:0	41:0.023171	42:0.040816	43:0	44:0	45:1	46:0	47:0	48:0	
no	1:0.529412	2:0	3:0	4:0	5:0	6:0	7:0	8:0	9:1	10:0	11:0	12:0	13:0	14:1	15:0	16:0	17:0	18:0	19:1	20:0	21:0	22:0.066603	23:1	24:0	25:0	26:0	27:1	28:0.366667	29:0	30:0	31:0	32:0	33:1	34:0	35:0	36:0	37:0	38:0	39:0	40:0	41:0.015889	42:0.040816	43:0	44:0	45:1	46:0	47:0	48:0	
no	1:0.397059	2:0	3:0	4:0	5:1	6:0	7:0	8:0	9:0	10:0	11:0	12:0	13:0	14:0	15:1	16:0	17:0	18:0	19:0	20:1	21:0	22:0.128616	23:1	24:0	25:0	26:1	27:0	28:0.566667	29:0	30:0	31:0	32:0	33:0	34:0	35:0	36:0	37:0	38:0	39:1	40:0	41:0.081099	42:0.040816	43:0.129587	44:0.08	45:0	46:0	47:1	48:0	
no	1:0.088235	2:0	3:0	4:0	5:0	6:0	7:0	8:1	9:0	10:0	11:0	12:0	13:0	14:0	15:0	16:1	17:0	18:1	19:0	20:0	21:0	22:0.068496	23:0	24:0	25:0	26:0	27:1	28:0.533333	29:0	30:0	31:0	32:1	33:0	34:0	35:0	36:0	37:0	38:0	39:0	40:0	41:0.072824	42:0	43:0.370413	44:0.12	45:0	46:0	47:1	48:0	
no	1:0.544118	2:0	3:0	4:0	5:0	6:0	7:0	8:0	9:0	10:1	11:0	12:0	13:0	14:1	15:0	16:0	17:0	18:1	19:0	20:0	21:0	22:0.055207	23:0	24:1	25:0	26:0	27:1	28:0.266667	29:0	30:0	31:0	32:0	33:0	34:0	35:1	36:0	37:0	38:0	39:0	40:0	41:0.054949	42:0	43:0	44:0	45:1	46:0	47:0	48:0	
no	1:0.279412	2:1	3:0	4:0	5:0	6:0	7:0	8:0	9:0	10:0	11:0	12:0	13:0	14:0	15:0	16:1	17:0	18:1	19:0	20:0	21:0	22:0.04416	23:0	24:0	25:0	26:0	27:1	28:0.633333	29:0	30:0	31:0	32:0	33:0	34:0	35:0	36:0	37:0	38:0	39:1	40:0	41:0.014565	42:0.020408	43:0	44:0	45:1	46:0	47:0	48:0	
yes	1:0.794118	2:0	3:0	4:0	5:0	6:0	7:0	8:0	9:0	10:0	11:1	12:0	13:0	14:1	15:0	16:0	17:1	18:0	19:0	20:0	21:0	22:0.051436	23:0	24:0	25:0	26:1	27:0	28:0.5	29:0	30:0	31:0	32:0	33:0	34:0	35:0	36:0	37:0	38:1	39:0	40:0	41:0.142337	42:0	43:0.066514	44:0.04	45:0	46:0	47:1	48:0	
no	1:0.338235	2:1	3:0	4:0	5:0	6:0	7:0	8:0	9:0	10:0	11:0	12:0	13:0	14:0	15:1	16:0	17:0	18:1	19:0	20:0	21:0	22:0.045315	23:0	24:0	25:1	26:0	27:0	28:0.5	29:0	30:0	31:0	32:0	33:1	34:0	35:0	36:0	37:0	38:0	39:0	40:0	41:0.027805	42:0.102041	43:0	44:0	45:1	46:0	47:0	48:0	
no	1:0.529412	2:0	3:0	4:0	5:0	6:0	7:0	8:0	9:1	10:0	11:0	12:0	13:0	14:1	15:0	16:0	17:1	18:0	19:0	20:0	21:0	22:0.044778	23:0	24:0	25:0	26:0	27:1	28:0.4	29:0	30:0	31:0	32:0	33:0	34:0	35:0	36:1	37:0	38:0	39:0	40:0	41:0.039391	42:0.020408	43:0	44:0	45:1	46:0	47:0	48:0	
no	1:0.352941	2:0	3:0	4:0	5:1	6:0	7:0	8:0	9:0	10:0	11:0	12:0	13:0	14:1	15:0	16:0	17:0	18:0	19:0	20:1	21:0	22:0.08161	23:1	24:0	25:1	26:0	27:0	28:0.466667	29:0	30:0	31:0	32:0	33:1	34:0	35:0	36:0	37:0	38:0	39:0	40:0	41:0.103608	42:0.122449	43:0	44:0	45:1	46:0	47:0	48:0	
no	1:0.367647	2:0	3:0	4:0	5:1	6:0	7:0	8:0	9:0	10:0	11:0	12:0	13:0	14:1	15:0	16:0	17:0	18:0	19:0	20:1	21:0	22:0.2775	23:0	24:0	25:1	26:0	27:0	28:0.566667	29:0	30:0	31:0	32:0	33:0	34:1	35:0	36:0	37:0	38:0	39:0	40:0	41:0.15624	42:0	43:0	44:0	45:1	46:0	47:0	48:0	
no	1:0.205882	2:0	3:0	4:0	5:1	6:0	7:0	8:0	9:0	10:0	11:0	12:0	13:0	14:0	15:0	16:1	17:0	18:1	19:0	20:0	21:0	22:0.065382	23:1	24:0	25:0	26:0	27:1	28:0.533333	29:0	30:0	31:0	32:1	33:0	34:0	35:0	36:0	37:0	38:0	39:0	40:0	41:0.030785	42:0	43:0	44:0	45:1	46:0	47:0	48:0	
no	1:0.264706	2:0	3:0	4:0	5:0	6:0	7:0	8:0	9:0	10:0	11:0	12:1	13:0	14:1	15:0	16:0	17:0	18:1	19:0	20:0	21:0	22:0.050241	23:0	24:0	25:0	26:0	27:1	28:0.866667	29:0	30:0	31:0	32:0	33:0	34:0	35:0	36:1	37:0	38:0	39:0	40:0	41:0.049652	42:0.061224	43:0	44:0	45:1	46:0	47:0	48:0	
no	1:0.220588	2:0	3:0	4:0	5:0	6:0	7:0	8:0	9:1	10:0	11:0	12:0	13:0	14:1	15:0	16:0	17:0	18:1	19:0	20:0	21:0	22:0.044563	23:1	24:1	25:0	26:0	27:1	28:0.033333	29:0	30:1	31:0	32:0	33:0	34:0	35:0	36:0	37:0	38:0	39:0	40:0	41:0.05528	42:0.020408	43:0.222477	44:0.08	45:0	46:1	47:0	48:0	
no	1:0.338235	2:0	3:0	4:1	5:0	6:0	7:0	8:0	9:0	10:0	11:0	12:0	13:0	14:1	15:0	16:0	17:0	18:1	19:0	20:0	21:0	22:0.153609	23:1	24:0	25:1	26:0	27:0	28:0.966667	29:0	30:0	31:0	32:0	33:1	34:0	35:0	36:0	37:0	38:0	39:0	40:0	41:0.021516	42:0	43:0	44:0	45:1	46:0	47:0	48:0	
no	1:0.323529	2:0	3:0	4:0	5:0	6:0	7:1	8:0	9:0	10:0	11:0	12:0	13:0	14:1	15:0	16:0	17:0	18:1	19:0	20:0	21:0	22:0.061234	23:1	24:0	25:0	26:0	27:1	28:0.266667	29:0	30:0	31:0	32:0	33:0	34:0	35:1	36:0	37:0	38:0	39:0	40:0	41:0.128103	42:0	43:0	44:0	45:1	46:0	47:0	48:0	
no	1:0.382353	2:0	3:0	4:0	5:0	6:0	7:0	8:0	9:0	10:0	11:0	12:1	13:0	14:1	15:0	16:0	17:0	18:1	19:0	20:0	21:0	22:0.064294	23:1	24:0	25:0	26:0	27:1	28:0.233333	29:0	30:0	31:0	32:0	33:0	34:0	35:1	36:0	37:0	38:0	39:0	40:0	41:0.116187	42:0	43:0	44:0	45:1	46:0	47:0	48:0	
no	1:0.514706	2:0	3:0	4:0	5:0	6:0	7:0	8:0	9:0	10:0	11:0	12:0	13:1	14:1	15:0	16:0	17:1	18:0	19:0	20:0	21:0	22:0.04965	23:0	24:1	25:0	26:0	27:1	28:0.6	29:0	30:0	31:0	32:0	33:0	34:0	35:0	36:0	37:0	38:0	39:1	40:0	41:0.023171	42:0	43:0.175459	44:0.04	45:0	46:0	47:0	48:1	
no	1:0.367647	2:0	3:0	4:1	5:0	6:0	7:0	8:0	9:0	10:0	11:0	12:0	13:0	14:1	15:0	16:0	17:0	18:1	19:0	20:0	21:0	22:0.04855	23:1	24:0	25:1	26:0	27:0	28:0.366667	29:0	30:0	31:0	32:0	33:1	34:0	35:0	36:0	37:0	38:0	39:0	40:0	41:0.041377	42:0.020408	43:0	44:0	45:1	46:0	47:0	48:0	
no	1:0.294118	2:1	3:0	4:0	5:0	6:0	7:0	8:0	9:0	10:0	11:0	12:0	13:0	14:1	15:0	16:0	17:0	18:1	19:0	20:0	21:0	22:0.049919	23:0	24:0	25:0	26:0	27:1	28:0.966667	29:0	30:0	31:0	32:0	33:0	34:0	35:1	36:0	37:0	38:0	39:0	40:0	41:0.082423	42:0.081633	43:0	44:0	45:1	46:0	47:0	48:0	
yes	1:0.279412	2:0	3:0	4:0	5:0	6:0	7:0	8:0	9:0	10:0	11:0	12:1	13:0	14:1	15:0	16:0	17:0	18:1	19:0	20:0	21:0	22:0.134777	23:0	24:0	25:0	26:0	27:1	28:0.8	29:0	30:0	31:0	32:0	33:0	34:0	35:0	36:0	37:0	38:0	39:1	40:0	41:0.075472	42:0	43:0.111239	44:0.16	45:0	46:0	47:0	48:1	
no	1:0.191176	2:0	3:0	4:0	5:0	6:0	7:0	8:0	9:0	10:0	11:0	12:1	13:0	14:1	15:0	16:0	17:0	18:1	19:0	20:0	21:0	22:0.047865	23:1	24:0	25:1	26:0	27:0	28:0.1	29:0	30:0	31:0	32:0	33:0	34:1	35:0	36:0	37:0	38:0	39:0	40:0	41:0.083747	42:0.040816	43:0	44:0	45:1	46:0	47:0	48:0	
no	1:0.205882	2:0	3:0	4:0	5:0	6:0	7:0	8:0	9:1	10:0	11:0	12:0	13:0	14:0	15:1	16:0	17:0	18:1	19:0	20:0	21:0	22:0.050832	23:0	24:0	25:0	26:0	27:1	28:0.7	29:0	30:0	31:0	32:0	33:0	34:0	35:1	36:0	37:0	38:0	39:0	40:0	41:0.131082	42:0.020408	43:0	44:0	45:1	46:0	47:0	48:0	
no	1:0.602941	2:0	3:0	4:0	5:0	6:0	7:0	8:0	9:1	10:0	11:0	12:0	13:0	14:1	15:0	16:0	17:1	18:0	19:0	20:0	21:0	22:0.045865	23:1	24:0	25:1	26:0	27:0	28:0.133333	29:0	30:0	31:0	32:0	33:1	34:0	35:0	36:0	37:0	38:0	39:0	40:0	41:0.005958	42:0	43:0	44:0	45:1	46:0	47:0	48:0	
no	1:0.308824	2:0	3:0	4:0	5:1	6:0	7:0	8:0	9:0	10:0	11:0	12:0	13:0	14:1	15:0	16:0	17:0	18:0	19:0	20:1	21:0	22:0.037825	23:0	24:1	25:0	26:0	27:1	28:0.933333	29:0	30:0	31:0	32:0	33:0	34:0	35:1	36:0	37:0	38:0	39:0	40:0	41:0.098974	42:0.020408	43:0	44:0	45:1	46:0	47:0	48:0	
no	1:0.338235	2:0	3:0	4:0	5:0	6:0	7:0	8:0	9:0	10:0	11:0	12:0	13:1	14:1	15:0	16:0	17:0	18:1	19:0	20:0	21:0	22:0.048389	23:1	24:0	25:0	26:0	27:1	28:0.333333	29:0	30:0	31:0	32:0	33:1	34:0	35:0	36:0	37:0	38:0	39:0	40:0	41:0.072162	42:0.040816	43:0	44:0	45:1	46:0	47:0	48:0	
no	1:0.220588	2:0	3:0	4:0	5:1	6:0	7:0	8:0	9:0	10:0	11:0	12:0	13:0	14:0	15:0	16:1	17:0	18:0	19:0	20:1	21:0	22:0.045597	23:0	24:0	25:0	26:0	27:1	28:0.133333	29:0	30:1	31:0	32:0	33:0	34:0	35:0	36:0	37:0	38:0	39:0	40:0	41:0.075141	42:0	43:0	44:0	45:1	46:0	47:0	48:0	
no	1:0.205882	2:0	3:0	4:0	5:0	6:0	7:0	8:0	9:0	10:0	11:0	12:0	13:1	14:1	15:0	16:0	17:0	18:0	19:1	20:0	21:0	22:0.044469	23:1	24:0	25:0	26:0	27:1	28:0.566667	29:0	30:0	31:0	32:0	33:0	34:0	35:1	36:0	37:0	38:0	39:0	40:0	41:0.114863	42:0.020408	43:0	44:0	45:1	46:0	47:0	48:0	
no	1:0.205882	2:0	3:0	4:0	5:1	6:0	7:0	8:0	9:0	10:0	11:0	12:0	13:0	14:1	15:0	16:0	17:0	18:0	19:0	20:1	21:0	22:0.046483	23:0	24:0	25:0	26:0	27:1	28:0.666667	29:0	30:0	31:0	32:0	33:0	34:0	35:0	36:1	37:0	38:0	39:0	40:0	41:0.048659	42:0.020408	43:0	44:0	45:1	46:0	47:0	48:0	
no	1:0.220588	2:0	3:0	4:0	5:0	6:0	7:1	8:0	9:0	10:0	11:0	12:0	13:0	14:1	15:0	16:0	17:0	18:0	19:0	20:1	21:0	22:0.045879	23:1	24:0	25:1	26:0	27:0	28:0.9	29:0	30:0	31:0	32:0	33:1	34:0	35:0	36:0	37:0	38:0	39:0	40:0	41:0.081099	42:0.020408	43:0	44:0	45:1	46:0	47:0	48:0	
no	1:0.308824	2:0	3:0	4:0	5:0	6:0	7:0	8:0	9:1	10:0	11:0	12:0	13:0	14:1	15:0	16:0	17:0	18:0	19:1	20:0	21:0	22:0.060657	23:0	24:1	25:0	26:1	27:0	28:0.5	29:0	30:0	31:0	32:0	33:0	34:0	35:1	36:0	37:0	38:0	39:0	40:0	41:0.06521	42:0.081633	43:0	44:0	45:1	46:0	47:0	48:0	
no	1:0.279412	2:0	3:0	4:1	5:0	6:0	7:0	8:0	9:0	10:0	11:0	12:0	13:0	14:0	15:0	16:1	17:0	18:0	19:0	20:1	21:0	22:0.044469	23:0	24:0	25:0	26:0	27:1	28:0.166667	29:0	30:1	31:0	32:0	33:0	34:0	35:0	36:0	37:0	38:0	39:0	40:0	41:0.011586	42:0.020408	43:0	44:0	45:1	46:0	47:0	48:0	
no	1:0.514706	2:0	3:0	4:0	5:0	6:0	7:0	8:0	9:1	10:0	11:0	12:0	13:0	14:0	15:1	16:0	17:0	18:0	19:1	20:0	21:0	22:0.042026	23:0	24:0	25:0	26:0	27:1	28:0.266667	29:0	30:0	31:0	32:0	33:0	34:0	35:1	36:0	37:0	38:0	39:0	40:0	41:0.031116	42:0	43:0	44:0	45:1	46:0	47:0	48:0	
no	1:0.102941	2:0	3:0	4:0	5:0	6:0	7:0	8:0	9:0	10:0	11:0	12:1	13:0	14:0	15:0	16:1	17:0	18:1	19:0	20:0	21:0	22:0.061583	23:1	24:0	25:1	26:0	27:0	28:0.633333	29:0	30:0	31:0	32:0	33:0	34:1	35:0	36:0	37:0	38:0	39:0	40:0	41:0.004634	42:0.163265	43:0	44:0	45:1	46:0	47:0	48:0	
no	1:0.529412	2:0	3:0	4:0	5:0	6:1	7:0	8:0	9:0	10:0	11:0	12:0	13:0	14:1	15:0	16:0	17:0	18:1	19:0	20:0	21:0	22:0.046335	23:0	24:0	25:0	26:0	27:1	28:0.7	29:0	30:0	31:0	32:0	33:0	34:0	35:0	36:1	37:0	38:0	39:0	40:0	41:0.083416	42:0.020408	43:0	44:0	45:1	46:0	47:0	48:0	
no	1:0.161765	2:0	3:0	4:0	5:1	6:0	7:0	8:0	9:0	10:0	11:0	12:0	13:0	14:1	15:0	16:0	17:0	18:0	19:0	20:1	21:0	22:0.046496	23:0	24:0	25:0	26:0	27:1	28:0.6	29:0	30:0	31:0	32:0	33:0	34:0	35:0	36:1	37:0	38:0	39:0	40:0	41:0.025819	42:0.061224	43:0	44:0	45:1	46:0	47:0	48:0	
no	1:0.470588	2:0	3:0	4:0	5:0	6:1	7:0	8:0	9:0	10:0	11:0	12:0	13:0	14:0	15:1	16:0	17:0	18:0	19:0	20:1	21:0	22:0.049436	23:1	24:0	25:0	26:0	27:1	28:0.6	29:0	30:0	31:0	32:0	33:0	34:0	35:0	36:1	37:0	38:0	39:0	40:0	41:0.034757	42:0.040816	43:0	44:0	45:1	46:0	47:0	48:0	
no	1:0.220588	2:0	3:0	4:0	5:0	6:0	7:0	8:0	9:0	10:1	11:0	12:0	13:0	14:1	15:0	16:0	17:0	18:0	19:1	20:0	21:0	22:0.054026	23:1	24:0	25:1	26:0	27:0	28:0.033333	29:0	30:0	31:0	32:0	33:0	34:1	35:0	36:0	37:0	38:0	39:0	40:0	41:0.106587	42:0.040816	43:0	44:0	45:1	46:0	47:0	48:0	
no	1:0.25	2:0	3:0	4:0	5:1	6:0	7:0	8:0	9:0	10:0	11:0	12:0	13:0	14:0	15:0	16:1	17:0	18:1	19:0	20:0	21:0	22:0.044469	23:0	24:0	25:0	26:0	27:1	28:0.4	29:0	30:0	31:0	32:0	33:0	34:0	35:0	36:1	37:0	38:0	39:0	40:0	41:0.108904	42:0.081633	43:0	44:0	45:1	46:0	47:0	48:0	
no	1:0.544118	2:1	3:0	4:0	5:0	6:0	7:0	8:0	9:0	10:0	11:0	12:0	13:0	14:1	15:0	16:0	17:0	18:1	19:0	20:0	21:0	22:0.270949	23:0	24:0	25:0	26:0	27:1	28:0.2	29:0	30:0	31:0	32:0	33:0	34:0	35:0	36:0	37:0	38:1	39:0	40:0	41:0.072493	42:0	43:0	44:0	45:1	46:0	47:0	48:0	
no	1:0.470588	2:0	3:0	4:0	5:0	6:0	7:0	8:0	9:1	10:0	11:0	12:0	13:0	14:0	15:1	16:0	17:0	18:0	19:1	20:0	21:0	22:0.044966	23:1	24:0	25:0	26:0	27:1	28:0.4	29:0	30:0	31:0	32:0	33:1	34:0	35:0	36:0	37:0	38:0	39:0	40:0	41:0.111552	42:0	43:0	44:0	45:1	46:0	47:0	48:0	
no	1:0.147059	2:0	3:0	4:0	5:0	6:0	7:0	8:0	9:0	10:0	11:0	12:0	13:1	14:1	15:0	16:0	17:0	18:1	19:0	20:0	21:0	22:0.094777	23:0	24:0	25:0	26:0	27:1	28:0.9	29:0	30:0	31:0	32:0	33:1	34:0	35:0	36:0	37:0	38:0	39:0	40:0	41:0.105263	42:0.040816	43:0	44:0	45:1	46:0	47:0	48:0	
no	1:0.25	2:1	3:0	4:0	5:0	6:0	7:0	8:0	9:0	10:0	11:0	12:0	13:0	14:1	15:0	16:0	17:0	18:1	19:0	20:0	21:0	22:0.057865	23:1	24:0	25:1	26:0	27:0	28:0.433333	29:0	30:0	31:0	32:0	33:1	34:0	35:0	36:0	37:0	38:0	39:0	40:0	41:0.344257	42:0.020408	43:0	44:0	45:1	46:0	47:0	48:0	
no	1:0.073529	2:0	3:0	4:0	5:0	6:0	7:0	8:1	9:0	10:0	11:0	12:0	13:0	14:0	15:0	16:1	17:0	18:1	19:0	20:0	21:0	22:0.051288	23:1	24:0	25:0	26:1	27:0	28:0.566667	29:0	30:0	31:0	32:0	33:1	34:0	35:0	36:0	37:0	38:0	39:0	40:0	41:0.002648	42:0.040816	43:0.430046	44:0.04	45:0	46:1	47:0	48:0	
no	1:0.176471	2:0	3:0	4:0	5:1	6:0	7:0	8:0	9:0	10:0	11:0	12:0	13:0	14:1	15:0	16:0	17:0	18:0	19:0	20:1	21:0	22:0.05063	23:0	24:0	25:0	26:0	27:1	28:0.9	29:0	30:0	31:0	32:0	33:0	34:0	35:0	36:1	37:0	38:0	39:0	40:0	41:0.002979	42:0.265306	43:0	44:0	45:1	46:0	47:0	48:0	
no	1:0.235294	2:0	3:0	4:0	5:0	6:0	7:0	8:0	9:0	10:0	11:0	12:1	13:0	14:1	15:0	16:0	17:0	18:1	19:0	20:0	21:0	22:0.067382	23:1	24:0	25:1	26:0	27:0	28:0.033333	29:0	30:0	31:0	32:0	33:0	34:1	35:0	36:0	37:0	38:0	39:0	40:0	41:0.139689	42:0.040816	43:0	44:0	45:1	46:0	47:0	48:0	
no	1:0.411765	2:0	3:0	4:0	5:0	6:0	7:0	8:0	9:0	10:1	11:0	12:0	13:0	14:1	15:0	16:0	17:0	18:0	19:0	20:1	21:0	22:0.075382	23:1	24:0	25:0	26:0	27:1	28:0.166667	29:0	30:0	31:0	32:0	33:1	34:0	35:0	36:0	37:0	38:0	39:0	40:0	41:0.105594	42:0.020408	43:0.418578	44:0.04	45:0	46:0	47:1	48:0	
yes	1:0.544118	2:0	3:0	4:0	5:0	6:0	7:0	8:0	9:0	10:0	11:1	12:0	13:0	14:1	15:0	16:0	17:0	18:1	19:0	20:0	21:0	22:0.058482	23:0	24:0	25:0	26:1	27:0	28:0.066667	29:0	30:0	31:0	32:0	33:0	34:0	35:1	36:0	37:0	38:0	39:0	40:0	41:0.115525	42:0.020408	43:0	44:0	45:1	46:0	47:0	48:0	
no	1:0.911765	2:0	3:0	4:0	5:0	6:0	7:0	8:0	9:0	10:0	11:1	12:0	13:0	14:1	15:0	16:0	17:0	18:1	19:0	20:0	21:0	22:0.044483	23:0	24:0	25:0	26:0	27:1	28:0.6	29:0	30:0	31:0	32:0	33:0	34:0	35:0	36:1	37:0	38:0	39:0	40:0	41:0.020192	42:0.081633	43:0	44:0	45:1	46:0	47:0	48:0	
no	1:0.191176	2:0	3:0	4:0	5:0	6:0	7:0	8:0	9:0	10:1	11:0	12:0	13:0	14:1	15:0	16:0	17:0	18:0	19:0	20:1	21:0	22:0.047006	23:1	24:0	25:1	26:0	27:0	28:0.166667	29:0	30:0	31:0	32:0	33:0	34:1	35:0	36:0	37:0	38:0	39:0	40:0	41:0.033764	42:0.020408	43:0	44:0	45:1	46:0	47:0	48:0	
no	1:0.294118	2:0	3:0	4:0	5:0	6:0	7:0	8:0	9:0	10:0	11:0	12:1	13:0	14:0	15:0	16:1	17:0	18:1	19:0	20:0	21:0	22:0.045838	23:1	24:0	25:0	26:0	27:1	28:0.433333	29:0	30:0	31:0	32:0	33:0	34:0	35:0	36:1	37:0	38:0	39:0	40:0	41:0.088712	42:0.020408	43:0	44:0	45:1	46:0	47:0	48:0	
no	1:0.191176	2:0	3:0	4:0	5:0	6:0	7:0	8:0	9:1	10:0	11:0	12:0	13:0	14:0	15:0	16:1	17:0	18:0	19:0	20:1	21:0	22:0.084925	23:1	24:0	25:0	26:0	27:1	28:0.2	29:0	30:0	31:0	32:0	33:1	34:0	35:0	36:0	37:0	38:0	39:0	40:0	41:0.095002	42:0.020408	43:0	44:0	45:1	46:0	47:0	48:0	
yes	1:0.338235	2:0	3:0	4:0	5:1	6:0	7:0	8:0	9:0	10:0	11:0	12:0	13:0	14:0	15:1	16:0	17:1	18:0	19:0	20:0	21:0	22:0.14785	23:0	24:0	25:0	26:0	27:1	28:0.5	29:0	30:1	31:0	32:0	33:0	34:0	35:0	36:0	37:0	38:0	39:0	40:0	41:0.044356	42:0.020408	43:0	44:0	45:1	46:0	47:0	48:0	
no	1:0.176471	2:0	3:0	4:0	5:1	6:0	7:0	8:0	9:0	10:0	11:0	12:0	13:0	14:1	15:0	16:0	17:0	18:0	19:0	20:1	21:0	22:0.060348	23:1	24:0	25:1	26:0	27:0	28:0.866667	29:0	30:0	31:0	32:0	33:1	34:0	35:0	36:0	37:0	38:0	39:0	40:0	41:0.222443	42:0.102041	43:0	44:0	45:1	46:0	47:0	48:0	
no	1:0.088235	2:0	3:0	4:0	5:0	6:0	7:0	8:0	9:0	10:0	11:0	12:1	13:0	14:1	15:0	16:0	17:0	18:0	19:0	20:1	21:0	22:0.056737	23:1	24:0	25:0	26:0	27:1	28:0.366667	29:0	30:0	31:0	32:0	33:1	34:0	35:0	36:0	37:0	38:0	39:0	40:0	41:0.059914	42:0.020408	43:0	44:0	45:1	46:0	47:0	48:0	
no	1:0.264706	2:0	3:0	4:0	5:0	6:0	7:0	8:0	9:1	10:0	11:0	12:0	13:0	14:1	15:0	16:0	17:0	18:1	19:0	20:0	21:0	22:0.057274	23:1	24:0	25:1	26:0	27:0	28:0.033333	29:0	30:0	31:0	32:0	33:0	34:1	35:0	36:0	37:0	38:0	39:0	40:0	41:0.131744	42:0.163265	43:0	44:0	45:1	46:0	47:0	48:0	
no	1:0.191176	2:0	3:0	4:0	5:0	6:0	7:0	8:0	9:0	10:0	11:0	12:1	13:0	14:0	15:0	16:1	17:0	18:0	19:0	20:1	21:0	22:0.053932	23:1	24:0	25:0	26:0	27:1	28:0.633333	29:0	30:0	31:0	32:1	33:0	34:0	35:0	36:0	37:0	38:0	39:0	40:0	41:0.005296	42:0.061224	43:0	44:0	45:1	46:0	47:0	48:0	
yes	1:0.191176	2:0	3:0	4:0	5:0	6:0	7:0	8:0	9:1	10:0	11:0	12:0	13:0	14:1	15:0	16:0	17:0	18:1	19:0	20:0	21:0	22:0.072509	23:1	24:0	25:0	26:0	27:1	28:0.433333	29:0	30:0	31:0	32:0	33:0	34:0	35:0	36:0	37:0	38:0	39:1	40:0	41:0.04237	42:0	43:0	44:0	45:1	46:0	47:0	48:0	
no	1:0.235294	2:0	3:0	4:0	5:0	6:1	7:0	8:0	9:0	10:0	11:0	12:0	13:0	14:0	15:1	16:0	17:0	18:1	19:0	20:0	21:0	22:0.044993	23:0	24:0	25:0	26:0	27:1	28:1	29:0	30:0	31:0	32:0	33:0	34:0	35:1	36:0	37:0	38:0	39:0	40:0	41:0.047997	42:0.020408	43:0	44:0	45:1	46:0	47:0	48:0	
no	1:0.382353	2:0	3:0	4:0	5:0	6:0	7:0	8:0	9:0	10:0	11:0	12:1	13:0	14:1	15:0	16:0	17:0	18:1	19:0	20:0	21:0	22:0.046013	23:1	24:0	25:0	26:0	27:1	28:0.166667	29:0	30:0	31:0	32:0	33:1	34:0	35:0	36:0	37:0	38:0	39:0	40:0	41:0.034426	42:0	43:0	44:0	45:1	46:0	47:0	48:0	
no	1:0.602941	2:0	3:0	4:0	5:1	6:0	7:0	8:0	9:0	10:0	11:0	12:0	13:0	14:1	15:0	16:0	17:0	18:0	19:1	20:0	21:0	22:0.047852	23:1	24:1	25:0	26:0	27:1	28:0.4	29:0	30:0	31:0	32:1	33:0	34:0	35:0	36:0	37:0	38:0	39:0	40:0	41:0.039391	42:0.020408	43:0.169725	44:0.12	45:0	46:0	47:1	48:0	
no	1:0.279412	2:0	3:0	4:0	5:0	6:0	7:0	8:0	9:1	10:0	11:0	12:0	13:0	14:0	15:1	16:0	17:0	18:1	19:0	20:0	21:0	22:0.044469	23:1	24:0	25:0	26:0	27:1	28:0.333333	29:0	30:0	31:0	32:0	33:1	34:0	35:0	36:0	37:0	38:0	39:0	40:0	41:0.190665	42:0	43:0.199541	44:0.04	45:0	46:0	47:1	48:0	
no	1:0.102941	2:0	3:0	4:0	5:0	6:0	7:0	8:0	9:1	10:0	11:0	12:0	13:0	14:0	15:0	16:1	17:0	18:1	19:0	20:0	21:0	22:0.049785	23:1	24:0	25:1	26:0	27:0	28:0.9	29:0	30:0	31:0	32:0	33:1	34:0	35:0	36:0	37:0	38:0	39:0	40:0	41:0.098643	42:0	43:0	44:0	45:1	46:0	47:0	48:0	
no	1:0.338235	2:0	3:0	4:0	5:0	6:0	7:0	8:0	9:0	10:1	11:0	12:0	13:0	14:0	15:1	16:0	17:0	18:0	19:0	20:1	21:0	22:0.049301	23:1	24:0	25:1	26:0	27:0	28:0.766667	29:0	30:0	31:0	32:0	33:0	34:1	35:0	36:0	37:0	38:0	39:0	40:0	41:0.035088	42:0.081633	43:0	44:0	45:1	46:0	47:0	48:0	
no	1:0.176471	2:1	3:0	4:0	5:0	6:0	7:0	8:0	9:0	10:0	11:0	12:0	13:0	14:1	15:0	16:0	17:0	18:1	19:0	20:0	21:0	22:0.044536	23:1	24:1	25:0	26:0	27:1	28:0.5	29:0	30:0	31:0	32:0	33:0	34:0	35:1	36:0	37:0	38:0	39:0	40:0	41:0.032109	42:0.122449	43:0	44:0	45:1	46:0	47:0	48:0	
no	1:0.176471	2:0	3:0	4:0	5:1	6:0	7:0	8:0	9:0	10:0	11:0	12:0	13:0	14:1	15:0	16:0	17:0	18:0	19:0	20:1	21:0	22:0.076616	23:0	24:0	25:0	26:0	27:1	28:0.866667	29:0	30:0	31:0	32:1	33:0	34:0	35:0	36:0	37:0	38:0	39:0	40:0	41:0.070837	42:0	43:0	44:0	45:1	46:0	47:0	48:0	
no	1:0.147059	2:0	3:0	4:0	5:0	6:0	7:0	8:0	9:0	10:0	11:0	12:1	13:0	14:0	15:0	16:1	17:0	18:1	19:0	20:0	21:0	22:0.054912	23:1	24:0	25:1	26:0	27:0	28:0.166667	29:0	30:0	31:0	32:0	33:0	34:1	35:0	36:0	37:0	38:0	39:0	40:0	41:0.658722	42:0.020408	43:0	44:0	45:1	46:0	47:0	48:0	
no	1:0.235294	2:1	3:0	4:0	5:0	6:0	7:0	8:0	9:0	10:0	11:0	12:0	13:0	14:0	15:0	16:1	17:0	18:1	19:0	20:0	21:0	22:0.068764	23:1	24:0	25:0	26:0	27:1	28:0.8	29:0	30:0	31:0	32:0	33:1	34:0	35:0	36:0	37:0	38:0	39:0	40:0	41:0.020192	42:0.020408	43:0	44:0	45:1	46:0	47:0	48:0	
no	1:0.426471	2:0	3:0	4:0	5:1	6:0	7:0	8:0	9:0	10:0	11:0	12:0	13:0	14:1	15:0	16:0	17:0	18:0	19:0	20:1	21:0	22:0.049342	23:0	24:0	25:0	26:0	27:1	28:0.566667	29:0	30:0	31:0	32:0	33:0	34:0	35:0	36:0	37:0	38:0	39:1	40:0	41:0.020854	42:0	43:0	44:0	45:1	46:0	47:0	48:0	
no	1:0.073529	2:0	3:0	4:0	5:0	6:0	7:0	8:0	9:1	10:0	11:0	12:0	13:0	14:0	15:0	16:1	17:0	18:0	19:1	20:0	21:0	22:0.045959	23:1	24:1	25:1	26:0	27:0	28:0.866667	29:0	30:0	31:0	32:0	33:1	34:0	35:0	36:0	37:0	38:0	39:0	40:0	41:0.012579	42:0.061224	43:0	44:0	45:1	46:0	47:0	48:0	
no	1:0.132353	2:0	3:0	4:0	5:1	6:0	7:0	8:0	9:0	10:0	11:0	12:0	13:0	14:0	15:0	16:1	17:0	18:0	19:0	20:1	21:0	22:0.076415	23:0	24:0	25:0	26:0	27:1	28:0.433333	29:0	30:0	31:0	32:0	33:0	34:0	35:0	36:0	37:1	38:0	39:0	40:0	41:0.129096	42:0.020408	43:0	44:0	45:1	46:0	47:0	48:0	
no	1:0.558824	2:0	3:0	4:0	5:0	6:0	7:0	8:0	9:0	10:0	11:1	12:0	13:0	14:1	15:0	16:0	17:0	18:1	19:0	20:0	21:0	22:0.045905	23:0	24:0	25:0	26:0	27:1	28:0.433333	29:0	30:0	31:0	32:0	33:0	34:0	35:1	36:0	37:0	38:0	39:0	40:0	41:0.026812	42:0.020408	43:0	44:0	45:1	46:0	47:0	48:0	
yes	1:0.205882	2:0	3:0	4:0	5:0	6:0	7:0	8:0	9:1	10:0	11:0	12:0	13:0	14:1	15:0	16:0	17:0	18:1	19:0	20:0	21:0	22:0.046335	23:1	24:1	25:0	26:0	27:1	28:0.566667	29:0	30:0	31:0	32:0	33:1	34:0	35:0	36:0	37:0	38:0	39:0	40:0	41:0.24098	42:0.020408	43:0.334862	44:0.2	45:0	46:0	47:1	48:0	
no	1:0.191176	2:0	3:0	4:0	5:1	6:0	7:0	8:0	9:0	10:0	11:0	12:0	13:0	14:0	15:0	16:1	17:0	18:0	19:0	20:1	21:0	22:0.052174	23:1	24:0	25:0	26:0	27:1	28:0.433333	29:0	30:0	31:0	32:1	33:0	34:0	35:0	36:0	37:0	38:0	39:0	40:0	41:0.084409	42:0.020408	43:0.167431	44:0.12	45:0	46:0	47:1	48:0	
no	1:0.191176	2:0	3:0	4:0	5:0	6:0	7:0	8:0	9:0	10:0	11:0	12:0	13:1	14:0	15:0	16:1	17:0	18:1	19:0	20:0	21:0	22:0.049919	23:1	24:0	25:1	26:0	27:0	28:0.166667	29:0	30:0	31:0	32:0	33:1	34:0	35:0	36:0	37:0	38:0	39:0	40:0	41:0.073817	42:0	43:0	44:0	45:1	46:0	47:0	48:0	
no	1:0.132353	2:0	3:0	4:0	5:0	6:0	7:0	8:0	9:0	10:0	11:0	12:1	13:0	14:1	15:0	16:0	17:0	18:1	19:0	20:0	21:0	22:0.047583	23:1	24:1	25:0	26:0	27:1	28:0.933333	29:1	30:0	31:0	32:0	33:0	34:0	35:0	36:0	37:0	38:0	39:0	40:0	41:0.022509	42:0	43:0.300459	44:0.04	45:0	46:0	47:1	48:0	
no	1:0.323529	2:0	3:0	4:0	5:1	6:0	7:0	8:0	9:0	10:0	11:0	12:0	13:0	14:1	15:0	16:0	17:0	18:0	19:0	20:1	21:0	22:0.084952	23:1	24:0	25:0	26:0	27:1	28:0.433333	29:0	30:0	31:0	32:0	33:0	34:0	35:1	36:0	37:0	38:0	39:0	40:0	41:0.025157	42:0.040816	43:0	44:0	45:1	46:0	47:0	48:0	
no	1:0.294118	2:0	3:0	4:0	5:0	6:0	7:0	8:0	9:1	10:0	11:0	12:0	13:0	14:1	15:0	16:0	17:0	18:0	19:1	20:0	21:0	22:0.055207	23:1	24:0	25:0	26:0	27:1	28:0.6	29:0	30:0	31:0	32:0	33:0	34:0	35:0	36:0	37:0	38:0	39:1	40:0	41:0.023833	42:0.102041	43:0	44:0	45:1	46:0	47:0	48:0	
no	1:0.176471	2:0	3:0	4:0	5:0	6:0	7:0	8:0	9:0	10:0	11:0	12:1	13:0	14:1	15:0	16:0	17:0	18:1	19:0	20:0	21:0	22:0.046764	23:0	24:0	25:0	26:0	27:1	28:0.866667	29:0	30:0	31:0	32:0	33:0	34:0	35:0	36:1	37:0	38:0	39:0	40:0	41:0.025488	42:0.040816	43:0	44:0	45:1	46:0	47:0	48:0	
no	1:0.455882	2:0	3:0	4:0	5:1	6:0	7:0	8:0	9:0	10:0	11:0	12:0	13:0	14:1	15:0	16:0	17:0	18:1	19:0	20:0	21:0	22:0.054295	23:0	24:0	25:0	26:0	27:1	28:0.2	29:0	30:0	31:0	32:1	33:0	34:0	35:0	36:0	37:0	38:0	39:0	40:0	41:0.242304	42:0.122449	43:0	44:0	45:1	46:0	47:0	48:0	
no	1:0.294118	2:0	3:0	4:0	5:0	6:0	7:0	8:0	9:0	10:0	11:0	12:0	13:1	14:1	15:0	16:0	17:0	18:1	19:0	20:0	21:0	22:0.044469	23:1	24:0	25:0	26:0	27:1	28:0.233333	29:0	30:0	31:0	32:0	33:1	34:0	35:0	36:0	37:0	38:0	39:0	40:0	41:0.165177	42:0	43:0	44:0	45:1	46:0	47:0	48:0	
