Clus run Shutlle_AUTO_LANDING
*****************************

Date: 11/29/17 12:40 PM
File: shuttleAut.out
Attributes: 7 (input: 6, output: 1)
Missing values: Yes

[General]
Verbose = 1
Compatibility = Latest
RandomSeed = 0
ResourceInfoLoaded = No

[Data]
File = shuttleAut.arff
TestSet = None
PruneSet = None
XVal = 10
RemoveMissingTarget = No
NormalizeData = None

[Attributes]
Target = 7
Clustering = 7
Descriptive = 1-6
Key = None
Disable = None
Weights = Normalize
ClusteringWeights = 1.0
ReduceMemoryNominalAttrs = No

[Constraints]
Syntactic = None
MaxSize = Infinity
MaxError = 0.0
MaxDepth = 6

[Output]
ShowModels = {Default, Pruned, Others}
TrainErrors = Yes
ValidErrors = Yes
TestErrors = Yes
AllFoldModels = Yes
AllFoldErrors = No
AllFoldDatasets = No
UnknownFrequency = No
BranchFrequency = No
ShowInfo = {Count}
PrintModelAndExamples = No
WriteErrorFile = No
WritePredictions = {Test}
ModelIDFiles = No
WriteCurves = No
OutputXMLModel = No
OutputPythonModel = No
OutputDatabaseQueries = No

[Nominal]
MEstimate = 1.0

[Model]
MinimalWeight = 1.0
MinimalNumberExamples = 0
MinimalKnownWeight = 0.0
ParamTuneNumberFolds = 10
ClassWeights = 0.0
NominalSubsetTests = Yes

[Tree]
Heuristic = Gain
PruningMethod = None
BinarySplit = Yes
ConvertToRules = No
AlternativeSplits = No
Optimize = {}
MSENominal = No
SplitSampling = None
InductionOrder = DepthFirst

[Ensemble]
Iterations = 50
EnsembleMethod = RForest
VotingType = Majority
SelectRandomSubspaces = 5
PrintAllModels = Yes
PrintAllModelFiles = No
PrintPaths = Yes
Optimize = No
OOBestimate = No
FeatureRanking = No
WriteEnsemblePredictions = No
WriteBagTrainingFiles = No
EnsembleRandomDepth = No
BagSelection = -1
BagSize = 0

Run: 01
*******

Statistics
----------

FTValue (FTest): 1.0
Induction Time: 0.984 sec
Pruning Time: 0 sec
Model information
     Default: Nodes = 1 (Leaves: 1)
     Original: FOREST with 50 models (Total nodes: 330 and leaves: 190)
	 Model 1: Nodes = 9 (Leaves: 5)
	 Model 2: Nodes = 3 (Leaves: 2)
	 Model 3: Nodes = 7 (Leaves: 4)
	 Model 4: Nodes = 5 (Leaves: 3)
	 Model 5: Nodes = 7 (Leaves: 4)
	 Model 6: Nodes = 7 (Leaves: 4)
	 Model 7: Nodes = 5 (Leaves: 3)
	 Model 8: Nodes = 7 (Leaves: 4)
	 Model 9: Nodes = 5 (Leaves: 3)
	 Model 10: Nodes = 3 (Leaves: 2)
	 Model 11: Nodes = 5 (Leaves: 3)
	 Model 12: Nodes = 7 (Leaves: 4)
	 Model 13: Nodes = 5 (Leaves: 3)
	 Model 14: Nodes = 13 (Leaves: 7)
	 Model 15: Nodes = 7 (Leaves: 4)
	 Model 16: Nodes = 7 (Leaves: 4)
	 Model 17: Nodes = 7 (Leaves: 4)
	 Model 18: Nodes = 3 (Leaves: 2)
	 Model 19: Nodes = 3 (Leaves: 2)
	 Model 20: Nodes = 7 (Leaves: 4)
	 Model 21: Nodes = 5 (Leaves: 3)
	 Model 22: Nodes = 9 (Leaves: 5)
	 Model 23: Nodes = 5 (Leaves: 3)
	 Model 24: Nodes = 7 (Leaves: 4)
	 Model 25: Nodes = 7 (Leaves: 4)
	 Model 26: Nodes = 7 (Leaves: 4)
	 Model 27: Nodes = 7 (Leaves: 4)
	 Model 28: Nodes = 7 (Leaves: 4)
	 Model 29: Nodes = 7 (Leaves: 4)
	 Model 30: Nodes = 3 (Leaves: 2)
	 Model 31: Nodes = 7 (Leaves: 4)
	 Model 32: Nodes = 7 (Leaves: 4)
	 Model 33: Nodes = 5 (Leaves: 3)
	 Model 34: Nodes = 5 (Leaves: 3)
	 Model 35: Nodes = 7 (Leaves: 4)
	 Model 36: Nodes = 3 (Leaves: 2)
	 Model 37: Nodes = 9 (Leaves: 5)
	 Model 38: Nodes = 7 (Leaves: 4)
	 Model 39: Nodes = 7 (Leaves: 4)
	 Model 40: Nodes = 9 (Leaves: 5)
	 Model 41: Nodes = 7 (Leaves: 4)
	 Model 42: Nodes = 9 (Leaves: 5)
	 Model 43: Nodes = 9 (Leaves: 5)
	 Model 44: Nodes = 9 (Leaves: 5)
	 Model 45: Nodes = 7 (Leaves: 4)
	 Model 46: Nodes = 9 (Leaves: 5)
	 Model 47: Nodes = 9 (Leaves: 5)
	 Model 48: Nodes = 7 (Leaves: 4)
	 Model 49: Nodes = 7 (Leaves: 4)
	 Model 50: Nodes = 5 (Leaves: 3)


Training error
--------------

Number of examples: 15
Classification Error
   Default: 
   Attribute: class
     REAL\PRED | 1 |  2 |
     -----------------------
             1 | 0 |  6 |  6
             2 | 0 |  9 |  9
     -----------------------
               | 0 | 15 | 15
     Accuracy: 0.6
     Cramer's coefficient: 0

   Original: 
   Attribute: class
     REAL\PRED | 1 |  2 |
     -----------------------
             1 | 5 |  1 |  6
             2 | 0 |  9 |  9
     -----------------------
               | 5 | 10 | 15
     Accuracy: 0.933333
     Cramer's coefficient: 0.866025

Weighted mean squared error (MSE) for Nominal Attributes (Weights [2.083])
   Default        : [1]
   Original       : [0.4379]

Default Model
*************

[2] [9.0]: 15

Original Model
**************

Model 1: 

magnitide = 4
+--yes: [1] [2.8]: 3
+--no:  magnitide = 3
        +--yes: wind = 1
        |       +--yes: [1] [1.5]: 2.5
        |       +--no:  [2] [2.4]: 3.5
        +--no:  error = 2
                +--yes: [1] [1.2000000000000002]: 1.285714
                +--no:  [2] [4.314285714285714]: 4.714286

Model 2: 

magnitide in {3,4}
+--yes: [1] [4.0]: 5
+--no:  [2] [8.0]: 10

Model 3: 

sign = 1
+--yes: error = 3
|       +--yes: [2] [2.6666666666666665]: 3.333333
|       +--no:  visibility = 1
|               +--yes: [1] [4.666666666666667]: 5.333333
|               +--no:  [2] [1.3333333333333335]: 1.333333
+--no:  [1] [3.666666666666667]: 5

Model 4: 

error = 1
+--yes: [1] [1.2727272727272727]: 1.363636
+--no:  stability = 1
        +--yes: [2] [10.76923076923077]: 11.538462
        +--no:  [1] [1.958041958041958]: 2.097902

Model 5: 

magnitide in {1,2}
+--yes: wind = 1
|       +--yes: error in {1,2}
|       |       +--yes: [1] [2.0]: 2.142857
|       |       +--no:  [2] [3.857142857142857]: 3.857143
|       +--no:  [2] [2.75]: 5.25
+--no:  [1] [3.5]: 3.75

Model 6: 

magnitide = 3
+--yes: error = 4
|       +--yes: [2] [1.1538461538461537]: 1.153846
|       +--no:  [1] [1.3636363636363638]: 1.573427
+--no:  error in {3,4}
        +--yes: [2] [10.384615384615385]: 10.384615
        +--no:  [1] [1.6363636363636362]: 1.888112

Model 7: 

sign = 1
+--yes: error in {3,4}
|       +--yes: [2] [6.8939393939393945]: 7.954545
|       +--no:  [1] [3.93939393939394]: 4.545455
+--no:  [1] [1.9999999999999996]: 2.5

Model 8: 

error = 4
+--yes: [2] [3.230769230769231]: 3.461538
+--no:  magnitide = 1
        +--yes: error = 3
        |       +--yes: [2] [2.1794871794871797]: 2.692308
        |       +--no:  [1] [1.0769230769230769]: 1.153846
        +--no:  [1] [6.17948717948718]: 7.692308

Model 9: 

sign = 1
+--yes: [2] [12.0]: 12.857143
+--no:  error = 3
        +--yes: [1] [1.0]: 1.071429
        +--no:  [2] [0.9285714285714289]: 1.071429

Model 10: 

error in {1,2}
+--yes: [1] [7.5]: 7.5
+--no:  [2] [7.0]: 7.5

Model 11: 

magnitide = 4
+--yes: [1] [3.25]: 3.75
+--no:  error in {3,4}
        +--yes: [2] [7.0]: 7.5
        +--no:  [1] [3.25]: 3.75

Model 12: 

error = 1
+--yes: [1] [2.0]: 2
+--no:  error = 3
        +--yes: magnitide = 3
        |       +--yes: [1] [1.0]: 1
        |       +--no:  [2] [4.0]: 4
        +--no:  [2] [8.0]: 8

Model 13: 

magnitide in {3,4}
+--yes: wind = 1
|       +--yes: [1] [3.073170731707317]: 3.658537
|       +--no:  [2] [1.4146341463414633]: 2.591463
+--no:  [2] [7.0]: 8.75

Model 14: 

magnitide in {3,4}
+--yes: magnitide = 3
|       +--yes: error = 4
|       |       +--yes: [2] [1.0769230769230769]: 1.153846
|       |       +--no:  [1] [2.034188034188034]: 2.179487
|       +--no:  [1] [1.5555555555555556]: 1.666667
+--no:  wind = 1
        +--yes: error in {3,4}
        |       +--yes: [2] [4.615384615384615]: 4.945055
        |       +--no:  [1] [1.3846153846153848]: 1.483516
        +--no:  error = 3
                +--yes: [2] [1.1282051282051282]: 1.923077
                +--no:  [1] [0.8241758241758241]: 1.648352

Model 15: 

error in {3,4}
+--yes: wind = 1
|       +--yes: magnitide = 3
|       |       +--yes: [1] [1.0]: 1.923077
|       |       +--no:  [2] [2.3076923076923075]: 2.307692
|       +--no:  [2] [8.461538461538462]: 8.461538
+--no:  [1] [2.0]: 2.307692

Model 16: 

wind = 1
+--yes: magnitide = 1
|       +--yes: [2] [1.5714285714285714]: 2.142857
|       +--no:  [1] [3.571428571428571]: 4.285714
+--no:  error in {3,4}
        +--yes: [2] [5.6103896103896105]: 7.012987
        +--no:  [1] [1.4545454545454541]: 1.558442

Model 17: 

error = 4
+--yes: [2] [6.0]: 6.923077
+--no:  magnitide = 3
        +--yes: [1] [2.019230769230769]: 2.019231
        +--no:  error = 1
                +--yes: [1] [1.7307692307692308]: 1.730769
                +--no:  [2] [3.0]: 4.326923

Model 18: 

error = 2
+--yes: [1] [2.0]: 2
+--no:  [2] [12.0]: 13

Model 19: 

magnitide = 4
+--yes: [1] [3.8181818181818183]: 4.090909
+--no:  [2] [8.727272727272727]: 10.909091

Model 20: 

sign = 1
+--yes: stability = 1
|       +--yes: [2] [10.833333333333334]: 10.833333
|       +--no:  [1] [1.6666666666666667]: 1.666667
+--no:  error = 3
        +--yes: [1] [1.1538461538461537]: 1.153846
        +--no:  [2] [1.1666666666666665]: 1.346154

Model 21: 

magnitide in {1,2}
+--yes: error in {1,2}
|       +--yes: [1] [1.875]: 2.34375
|       +--no:  [2] [6.40625]: 7.03125
+--no:  [1] [4.5]: 5.625

Model 22: 

sign = 1
+--yes: error in {1,2}
|       +--yes: [1] [2.25]: 2.410714
|       +--no:  magnitide = 3
|               +--yes: [1] [1.0]: 1.875
|               +--no:  [2] [6.964285714285714]: 6.964286
+--no:  error in {1,3}
        +--yes: [1] [2.5]: 2.678571
        +--no:  [2] [0.8214285714285714]: 1.071429

Model 23: 

magnitide in {3,4}
+--yes: [1] [4.666666666666667]: 6.666667
+--no:  error in {1,2}
        +--yes: [1] [1.9230769230769231]: 1.923077
        +--no:  [2] [5.0]: 6.410256

Model 24: 

magnitide in {3,4}
+--yes: visibility = 1
|       +--yes: [1] [5.857142857142857]: 6.857143
|       +--no:  [2] [1.7142857142857142]: 1.714286
+--no:  stability = 1
        +--yes: [2] [3.9642857142857144]: 4.821429
        +--no:  [1] [1.2857142857142858]: 1.607143

Model 25: 

stability = 1
+--yes: magnitide in {1,2}
|       +--yes: [2] [6.526315789473684]: 7.894737
|       +--no:  error = 4
|               +--yes: [2] [1.0923076923076924]: 1.384615
|               +--no:  [1] [2.1085020242914982]: 2.259109
+--no:  [1] [3.230769230769231]: 3.461538

Model 26: 

sign = 1
+--yes: magnitide in {1,2}
|       +--yes: [2] [6.136363636363637]: 6.136364
|       +--no:  wind = 1
|               +--yes: [1] [2.484848484848485]: 3.181818
|               +--no:  [2] [1.3484848484848486]: 1.590909
+--no:  [1] [3.2727272727272725]: 4.090909

Model 27: 

magnitide = 4
+--yes: [1] [3.4285714285714284]: 4.285714
+--no:  error in {3,4}
        +--yes: stability = 1
        |       +--yes: [2] [6.428571428571428]: 7.142857
        |       +--no:  [1] [1.1428571428571426]: 1.428571
        +--no:  [1] [1.7142857142857144]: 2.142857

Model 28: 

sign = 1
+--yes: magnitide in {1,2}
|       +--yes: error = 3
|       |       +--yes: [2] [3.0]: 3.214286
|       |       +--no:  [1] [1.0844155844155843]: 1.655844
|       +--no:  [1] [3.12987012987013]: 3.701299
+--no:  [1] [5.571428571428571]: 6.428571

Model 29: 

error = 4
+--yes: [2] [5.416666666666666]: 6.25
+--no:  magnitide = 3
        +--yes: [1] [2.27906976744186]: 2.44186
        +--no:  wind = 1
                +--yes: [2] [2.2443693693693696]: 3.665541
                +--no:  [1] [2.466425728053635]: 2.642599

Model 30: 

sign = 1
+--yes: [2] [10.0]: 12.5
+--no:  [1] [1.5]: 2.5

Model 31: 

error in {1,2}
+--yes: [1] [4.285714285714286]: 4.285714
+--no:  magnitide in {1,2}
        +--yes: [2] [7.0]: 7
        +--no:  wind = 1
                +--yes: [1] [1.3571428571428572]: 1.857143
                +--no:  [2] [1.5]: 1.857143

Model 32: 

error = 2
+--yes: [1] [3.5]: 3.75
+--no:  magnitide = 3
        +--yes: [1] [1.3125]: 1.40625
        +--no:  stability = 1
                +--yes: [2] [7.5625]: 8.4375
                +--no:  [1] [1.3125]: 1.40625

Model 33: 

sign = 1
+--yes: error = 2
|       +--yes: [1] [2.051282051282051]: 2.051282
|       +--no:  [2] [9.777777777777779]: 11.282051
+--no:  [1] [1.4444444444444446]: 1.666667

Model 34: 

sign = 1
+--yes: [2] [8.666666666666666]: 10
+--no:  error = 4
        +--yes: [2] [1.3333333333333335]: 1.428571
        +--no:  [1] [3.571428571428571]: 3.571429

Model 35: 

magnitide in {3,4}
+--yes: wind = 1
|       +--yes: [1] [3.5757575757575757]: 4.545455
|       +--no:  [2] [1.4848484848484849]: 2.272727
+--no:  error in {3,4}
        +--yes: [2] [6.461538461538462]: 6.923077
        +--no:  [1] [1.1748251748251748]: 1.258741

Model 36: 

sign = 1
+--yes: [2] [10.4]: 12
+--no:  [1] [2.4000000000000004]: 3

Model 37: 

magnitide in {1,2}
+--yes: sign = 1
|       +--yes: error = 2
|       |       +--yes: [1] [1.4583333333333328]: 1.5625
|       |       +--no:  [2] [4.0625]: 4.6875
|       +--no:  error = 4
|               +--yes: [2] [1.3541666666666672]: 1.5625
|               +--no:  [1] [2.708333333333334]: 2.901786
+--no:  [1] [4.0]: 4.285714

Model 38: 

magnitide = 3
+--yes: [1] [4.333333333333333]: 5
+--no:  wind = 1
        +--yes: [2] [6.000000000000001]: 6.923077
        +--no:  error = 3
                +--yes: [1] [1.4444444444444446]: 1.666667
                +--no:  [2] [1.1111111111111107]: 1.410256

Model 39: 

magnitide = 1
+--yes: sign = 1
|       +--yes: error in {1,2}
|       |       +--yes: [1] [1.6216216216216215]: 1.621622
|       |       +--no:  [2] [4.45945945945946]: 4.459459
|       +--no:  [1] [1.711711711711712]: 2.252252
+--no:  [1] [5.666666666666666]: 6.666667

Model 40: 

error = 4
+--yes: [2] [5.909090909090909]: 6.818182
+--no:  sign = 1
        +--yes: wind = 1
        |       +--yes: [1] [1.7727272727272725]: 2.045455
        |       +--no:  error = 3
        |               +--yes: [2] [2.3636363636363638]: 2.727273
        |               +--no:  [1] [1.1818181818181819]: 1.363636
        +--no:  [1] [1.7727272727272727]: 2.045455

Model 41: 

magnitide in {3,4}
+--yes: [1] [3.090909090909091]: 4.090909
+--no:  error in {3,4}
        +--yes: stability = 1
        |       +--yes: [2] [8.0]: 8
        |       +--no:  [1] [1.2307692307692308]: 1.230769
        +--no:  [1] [1.6783216783216783]: 1.678322

Model 42: 

magnitide = 2
+--yes: wind = 1
|       +--yes: [2] [2.1666666666666665]: 2.5
|       +--no:  sign = 1
|               +--yes: [2] [3.25]: 3.75
|               +--no:  [1] [1.1666666666666667]: 1.25
+--no:  error = 4
        +--yes: [2] [1.0909090909090908]: 1.363636
        +--no:  [1] [4.7272727272727275]: 6.136364

Model 43: 

error = 4
+--yes: [2] [3.0]: 4.090909
+--no:  magnitide = 1
        +--yes: [1] [1.0]: 2
        +--no:  wind = 1
                +--yes: [1] [3.8456507521255716]: 3.845651
                +--no:  sign = 1
                        +--yes: [2] [1.0]: 1.922825
                        +--no:  [1] [3.140614780902551]: 3.140615

Model 44: 

magnitide in {1,2}
+--yes: wind = 1
|       +--yes: [2] [4.602739726027398]: 5.753425
|       +--no:  error = 3
|               +--yes: [2] [2.0]: 2.636364
|               +--no:  [1] [0.7584059775840597]: 1.155666
+--no:  error = 4
        +--yes: [2] [1.0]: 1.22449
        +--no:  [1] [4.230055658627087]: 4.230056

Model 45: 

wind = 1
+--yes: magnitide in {3,4}
|       +--yes: [1] [4.673469387755102]: 5.816327
|       +--no:  [2] [2.571428571428571]: 2.755102
+--no:  magnitide = 4
        +--yes: [1] [1.8367346938775513]: 1.836735
        +--no:  [2] [4.285714285714286]: 4.591837

Model 46: 

sign = 1
+--yes: magnitide in {1,2}
|       +--yes: [2] [2.4]: 3
|       +--no:  [1] [1.0666666666666667]: 2
+--no:  magnitide = 4
        +--yes: [1] [2.4761904761904763]: 2.857143
        +--no:  error = 4
                +--yes: [2] [3.8461538461538463]: 3.846154
                +--no:  [1] [2.8571428571428577]: 3.296703

Model 47: 

wind = 1
+--yes: [1] [3.714285714285714]: 4.285714
+--no:  sign = 1
        +--yes: error in {3,4}
        |       +--yes: stability = 1
        |       |       +--yes: [2] [5.142857142857142]: 5.510204
        |       |       +--no:  [1] [1.5027829313543595]: 1.502783
        |       +--no:  [1] [1.558441558441558]: 1.558442
        +--no:  [1] [1.8571428571428579]: 2.142857

Model 48: 

error in {1,2}
+--yes: [1] [4.333333333333333]: 5
+--no:  wind = 1
        +--yes: magnitide = 1
        |       +--yes: [2] [2.3076923076923075]: 2.307692
        |       +--no:  [1] [2.3333333333333335]: 2.692308
        +--no:  [2] [4.666666666666667]: 5

Model 49: 

magnitide = 3
+--yes: wind = 1
|       +--yes: [1] [2.7058823529411766]: 3.529412
|       +--no:  [2] [1.576470588235294]: 2.470588
+--no:  stability = 1
        +--yes: [2] [6.514285714285714]: 7.714286
        +--no:  [1] [1.2]: 1.285714

Model 50: 

magnitide in {3,4}
+--yes: error = 4
|       +--yes: [2] [1.24]: 1.8
|       +--no:  [1] [1.9854545454545454]: 2.290909
+--no:  [2] [9.454545454545455]: 10.909091


