@relation banknote-weka.filters.unsupervised.attribute.Normalize-S1.0-T0.0

@ATTRIBUTE varWav numeric
@ATTRIBUTE skewnessWav numeric
@ATTRIBUTE curtosisWav numeric
@ATTRIBUTE entropy numeric
@ATTRIBUTE Class {0,1}

@data
0.663717,0.257915,0.578879,0.769902,1
0.382919,0.168021,0.560239,0.621166,1
0.301452,0.684475,0.202678,0.389654,1
0.794265,0.554162,0.260445,0.868318,0
0.716743,0.54185,0.326366,0.946971,0
0.776973,0.370036,0.372361,0.776722,0
0.548906,0.800851,0.295582,0.484183,0
0.151144,0.649014,0.263361,0.64127,1
0.670424,0.81843,0.217,0.479955,1
0.561248,0.5801,0.090025,0.764023,0
0.447893,0.51684,0.23003,0.756263,1
0.504373,0.455362,0.592832,0.845975,1
0.546731,0.661093,0.020225,0.38248,1
0.190403,0.031282,0.902147,0.624458,0
0.741846,0.763455,0.20039,0.856322,1
0.898607,0.895007,0.051785,0.440919,0
0.807318,0.368098,0.351063,0.775663,0
0.366008,0.957103,0.210282,0.061495,0
0.456008,0.301508,0.392698,0.870318,0
0.725923,0.390474,0.339139,0.727457,1
0.779929,0.785057,0.155285,0.691125,0
0.166512,0.284164,0.718293,0.679606,0
0.539656,0.625706,0.413923,0.842331,0
0.506135,0.783818,0.261515,0.708408,1
0.552295,0.661093,0.024064,0.377661,0
0.271459,0.582809,0.235492,0.559672,1
0.821409,0.931011,0.051711,0.390473,0
0.913636,0.892762,0.042777,0.430454,1
0.481856,0.348894,0.31847,0.863024,1
0.745841,0.780334,0.170603,0.797533,0
0.135286,0.816338,0.229623,0.36825,0
0.701685,0.740611,0.207624,0.714288,1
0.813643,0.422377,0.296987,0.842331,0
0.568141,0.556796,0.121287,0.771548,0
0.490809,0.864189,0.319504,0.37907,0
0.487632,0.630353,0.081866,0.512171,1
0.543025,0.648857,0.03868,0.43069,1
0.454824,0.580332,0.163366,0.671959,0
0.306536,0.581728,0.519599,0.740978,1
0.558668,0.521796,0.150783,0.810114,1
0.690767,0.612621,0.317914,0.795535,1
0.762045,0.542315,0.30064,0.835864,1
0.621768,0.339218,0.568837,0.636451,0
0.334884,0.987068,0.354643,0.250907,0
0.451089,0.873327,0.064592,0.095002,0
0.462631,0.279595,0.433817,0.877838,0
0.219862,0.613474,0.254797,0.67184,1
0.550264,0.918469,0.167907,0.383771,1
0.808962,0.89934,0.061641,0.385772,0
0.471816,0.581728,0.130924,0.715346,1
0.55114,0.587689,0.08604,0.747797,0
0,0.859621,0.238888,0.351437,0
0.801196,0.405498,0.322455,0.822812,0
0.381044,0.617885,0.118629,0.574138,1
0.232337,0.026867,0.958253,0.567664,1
0.810909,0.523887,0.269118,0.865728,0
0.830056,0.601084,0.268971,0.852795,0
0.807866,0.935191,0.072049,0.406112,0
0.847291,0.825783,0.117414,0.641743,0
0.354657,0.257298,0.468921,0.734394,1
0.670121,0.649167,0.242912,0.803059,0
0.707296,0.540147,0.406466,0.751443,1
0.397342,0.324662,0.51539,0.793182,1
0.508349,0.828417,0.249592,0.430335,0
0.498357,0.448858,0.586628,0.809291,1
0.406111,0.249398,0.470911,0.805764,1
0.430356,0.27921,0.458401,0.850443,0
0.800071,0.727915,0.142882,0.779661,1
0.773893,0.885327,0.052009,0.380243,0
0.853731,0.776772,0.141702,0.745446,1
0.591632,0.900504,0.172486,0.409995,0
0.351694,0.628415,0.12376,0.556853,1
0.409673,0.915524,0.301045,0.513344,0
0.557003,0.696865,0.003136,0.222219,1
0.339369,0.962911,0.360549,0.282304,0
0.747968,0.549516,0.295806,0.813054,0
0.489991,0.587842,0.121326,0.704058,1
0.283358,0.259389,0.690387,0.68478,1
0.601937,0.509562,0.507343,0.708761,0
0.780362,0.611767,0.284141,0.828691,0
0.758569,0.509639,0.336705,1,0
0.298776,0.49276,0.339914,0.902534,1
0.526544,0.702825,0.010627,0.196587,1
0.210408,0.65722,0.199578,0.397174,0
0.888281,0.520557,0.232945,0.881248,1
0.409327,0.522261,0.266719,0.920993,1
0.432829,0.867056,0.264763,0.292297,0
0.88306,0.646769,0.173705,0.869373,0
0.331458,0.576306,0.189575,0.64268,0
0.251758,0.586297,0.235751,0.555325,0
0.330283,0.618813,0.200759,0.517463,0
0.529528,0.521873,0.152149,0.821755,0
0.11945,0.856679,0.209654,0.23915,0
0.79464,0.932635,0.058539,0.382244,0
0.109404,0.752072,0.266387,0.174955,1
0.855988,0.80573,0.122213,0.666194,1
0.644809,0.551839,0.409787,0.851266,0
0.673179,0.853581,0.088069,0.659147,1
0.000411,0.863104,0.234865,0.364494,1
0.330405,0.991716,0.267236,0.082417,1
0.709474,0.594734,0.306916,0.812113,0
0.037398,0.87464,0.216778,0.14403,1
0.664474,0.487727,0.463235,0.711466,1
0.524753,0.346417,0.319021,0.908645,0
0.622785,0.691443,0.286984,0.784717,1
0.330766,0.17708,0.609477,0.69818,0
0.516301,0.750212,0.160967,0.552261,1
0.855894,0.545412,0.29824,0.885249,0
0.599752,0.845297,0.161708,0.613992,1
0.617305,0.728453,0.231801,0.77484,1
0.584651,0.828496,0.16739,0.627158,0
0.295113,0.205806,0.669899,0.883012,1
0.807318,0.368098,0.351063,0.775663,0
0.522963,0.498103,0.56057,0.859967,0
0.545604,0.651723,0.052189,0.596243,1
0.411282,0.573443,0.532737,0.871018,0
0.293858,0.018193,0.808099,0.538394,0
0.86012,0.575221,0.227704,0.926403,1
0.248981,0.269455,0.681121,0.762377,1
0.800042,0.509175,0.247267,0.82387,1
0.543583,0.897948,0.18046,0.412113,0
0.700005,0.917769,0.081276,0.398238,1
0.451975,0.445143,0.331204,0.880193,0
0.340949,0.48974,0.313154,0.736509,1
0.374799,0.562293,0.239442,0.679724,1
0.307913,0.638017,0.187434,0.491239,1
0.362532,0.653347,0.144209,0.423398,0
0.20316,0.74998,0.234532,0.273012,0
0.808962,0.89934,0.061641,0.385772,0
0.808631,0.841734,0.097517,0.722988,1
0.842099,0.402788,0.34305,0.887476,0
0.310689,0.532404,0.332789,0.797063,1
0.707909,0.771971,0.181748,0.784129,0
0.791316,0.584747,0.226708,0.88924,1
0.678587,0.259464,0.590467,0.736509,1
0.813643,0.422377,0.296987,0.842331,0
0.757848,0.772435,0.182191,0.71076,0
0.551631,0.663338,0.022147,0.369432,0
0.320922,0.475882,0.395503,0.847975,0
0.761598,0.752304,0.151076,0.775428,1
0.51658,0.523732,0.207329,0.865494,1
0.210408,0.65722,0.199578,0.397174,1
0.758937,0.359581,0.378525,0.770137,0
0.674174,0.647697,0.252509,0.815405,0
0.62898,0.672782,0.032149,0.559672,1
0.227845,0.698646,0.187951,0.315348,1
0.612408,0.650327,0.053004,0.632096,1
0.881214,0.823384,0.087665,0.634569,0
0.691748,0.33008,0.502251,0.739449,0
0.798664,0.524041,0.266092,0.884776,0
0.495805,0.736042,0.249186,0.713582,0
0.508349,0.828417,0.249592,0.430335,0
0.53542,0.770269,0.305809,0.721577,0
0.520344,0.809835,0.239294,0.432809,0
0.348585,0.174603,0.615383,0.751443,1
0.801448,0.80124,0.13801,0.670904,0
0.351578,0.574989,0.22966,0.624694,1
0.506761,0.477042,0.187213,0.836334,1
0.33135,0.987768,0.259411,0.080653,0
0.518496,0.812698,0.273991,0.47349,1
0.842164,0.415795,0.349878,0.886303,1
0.381787,0.297481,0.480582,0.887476,0
0.409673,0.915524,0.301045,0.513344,0
0.277971,0.231902,0.738962,0.724634,0
0.668498,0.668602,0.020781,0.585304,1
0.413611,0.524816,0.260555,0.938742,0
0.576795,0.607898,0.419751,0.796945,0
0.028204,0.769569,0.25727,0.087246,1
0.464865,0.608209,0.104198,0.695593,1
0.384787,0.619977,0.125276,0.563672,1
0.545299,0.393262,0.360807,0.687717,1
0.208713,0.781883,0.224124,0.193768,0
0.322934,0.451567,0.292446,0.807057,0
0.642429,0.806348,0.217443,0.507815,0
0.773893,0.885327,0.052009,0.380243,0
0.771593,0.787766,0.129963,0.67325,1
0.789073,0.580253,0.296689,0.865258,1
0.322329,0.479597,0.344343,0.762142,0
0.572386,0.693998,0.019084,0.268902,0
0.381282,0.51235,0.195074,0.743565,1
0.547713,0.38583,0.301157,0.877365,1
0.758937,0.359581,0.378525,0.770137,0
0.224448,0.287805,0.662627,0.685007,0
0.361552,0.659311,0.20039,0.670431,0
0.456008,0.301508,0.392698,0.870318,1
0.774095,0.367248,0.414845,0.900179,0
0.376681,0.177233,0.61612,0.766139,0
0.632816,0.663338,0.023473,0.549797,0
0.581348,0.556639,0.128636,0.831278,0
0.80085,0.649478,0.258968,0.813171,0
0.526958,0.605421,0.105305,0.722753,1
0.545299,0.393262,0.360807,0.687717,0
0.81207,0.770422,0.172559,0.846446,1
0.376681,0.177233,0.61612,0.766139,1
0.640331,0.744716,0.263914,0.827516,0
0.553739,0.710029,0.003024,0.220692,0
0.52329,0.489353,0.265501,0.804235,1
0.79384,0.662099,0.258119,0.80788,1
0.58393,0.559737,0.113942,0.787304,1
0.377813,0.95997,0.315846,0.297826,0
0.438661,0.518776,0.495681,0.642443,1
0.550264,0.918469,0.167907,0.383771,0
0.800042,0.509175,0.247267,0.82387,0
0.463864,0.365621,0.307287,0.831983,1
0.561575,0.651412,0.037982,0.400702,1
0.521162,0.758886,0.314446,0.697944,0
0.700517,0.630043,0.243724,0.830573,0
0.27487,0.245451,0.729291,0.691242,0
0.333932,0.173517,0.630258,0.717933,0
0.874608,0.638095,0.173003,0.879011,0
0.434885,0.508246,0.188689,0.777545,1
0.545951,0.551451,0.401077,0.681952,0
0.050891,0.862794,0.228332,0.160379,1
0.398063,0.921021,0.347591,0.404703,0
0.184324,0.018118,0.973347,0.484538,1
0.637201,0.473558,0.29429,0.753558,0
0.571009,0.770344,0.263988,0.761672,1
0.347864,0.468447,0.356891,0.810349,1
0.569546,0.515679,0.512215,0.728985,1
0.621848,0.54789,0.128042,0.852207,1
0.218131,0.204335,0.764245,0.646562,0
0.478304,0.509562,0.230325,0.769197,1
0.86299,0.541153,0.261035,0.887249,0
0.221556,0.653115,0.201866,0.41235,0
0.353994,0.574061,0.224087,0.618575,1
0.418637,0.45211,0.336188,0.824223,0
0.904059,0.573286,0.229513,0.952617,0
0.605319,0.555015,0.126754,0.813641,1
0.633689,0.695084,0.317656,0.834217,0
0.198235,0.640419,0.260998,0.686539,1
0.427118,0.916762,0.317914,0.263491,0
0.792203,0.60898,0.29326,0.85938,1
0.44307,0.347502,0.322528,0.8234,1
0.427154,0.640187,0.169755,0.599298,1
0.531078,0.481765,0.576148,0.840214,0
0.508532,0.648625,0.03787,0.376251,1
0.591805,0.657916,0.014875,0.405294,1
0.535968,0.510027,0.226338,0.809173,1
0.512604,0.608594,0.101062,0.720754,1
0.643403,0.60782,0.335115,0.811525,0
0.126041,0.322803,0.672854,0.675605,0
0.791186,0.406272,0.323045,0.805293,0
0.510014,0.476035,0.28813,0.847622,0
0.190771,0.70097,0.199762,0.279722,1
0.373818,0.810453,0.156021,0.610109,0
0.751927,0.637631,0.266904,0.80012,0
0.265503,0.503135,0.319577,0.831983,1
0.464865,0.608209,0.104198,0.695593,0
0.511102,0.767324,0.273845,0.692418,0
0.765723,0.881147,0.056286,0.462315,0
0.760127,0.633758,0.237486,0.762259,1
0.248332,0.004258,0.98612,0.550615,1
0.58393,0.559737,0.113942,0.787304,0
0.561806,0.787612,0.277274,0.72828,0
0.8715,0.495548,0.249445,0.877838,0
0.573686,0.640262,0.053004,0.625049,0
0.769444,0.552148,0.257381,0.834923,1
0.316084,0.455283,0.286506,0.792242,1
0.645984,0.742934,0.237928,0.594361,0
0.209218,0.644909,0.207108,0.423752,0
0.518957,0.519783,0.155246,0.831396,0
0.732024,0.631824,0.262549,0.816698,1
0.255003,0.045142,0.880811,0.708879,0
0.50601,0.508865,0.222832,0.888186,1
0.373494,0.483623,0.337037,0.786128,1
0.671058,0.347502,0.385203,0.721577,0
0.882915,0.527603,0.235456,0.884539,0
0.653253,0.505923,0.450462,0.875138,1
0.737786,0.387611,0.347225,0.75885,0
0.479411,0.514595,0.224862,0.736628,0
0.581997,0.880837,0.168755,0.614938,1
0.387361,0.437165,0.295953,0.841978,1
0.111921,0.856058,0.21102,0.233858,0
0.786513,0.654047,0.258045,0.809291,0
0.22535,0.615098,0.261699,0.706175,1
0.084309,0.858693,0.215892,0.227866,0
0.487787,0.821757,0.092718,0.547442,1
0.653167,0.584515,0.362875,0.816228,0
0.400356,0.432364,0.296875,0.858556,1
0.318276,0.522106,0.305068,0.865728,1
0.713512,0.858535,0.070649,0.667731,1
0.695253,0.647001,0.260555,0.851032,0
0.376479,0.618349,0.196588,0.563318,0
0.485889,0.614634,0.108148,0.71758,1
0.718142,0.920635,0.083675,0.402466,1
0.554259,0.656213,0.034993,0.409167,1
0.468918,0.789547,0.247784,0.645035,0
0.709993,0.855362,0.08268,0.684307,0
0.347864,0.468447,0.356891,0.810349,1
0.414087,0.899576,0.100506,0.244087,0
0.339816,0.142935,0.592832,0.606936,0
0.472297,0.629889,0.148642,0.519581,1
0.625735,0.638327,0.35158,0.785187,0
0.699385,0.915913,0.085192,0.406585,1
0.547713,0.38583,0.301157,0.877365,0
0.063381,0.84127,0.218403,0.446793,1
0.397342,0.324662,0.51539,0.793182,1
0.382919,0.168021,0.560239,0.621166,1
0.070838,0.863183,0.208916,0.198114,0
0.785338,0.895314,0.061602,0.3933,0
0.7814,0.814168,0.117966,0.607054,0
0.527217,0.701976,0.005829,0.196123,0
0.695253,0.647001,0.260555,0.851032,0
0.453178,0.610222,0.096483,0.662439,1
0.596384,0.6662,0.027682,0.421515,0
0.43765,0.275262,0.469068,0.871137,1
0.720882,0.555632,0.255535,0.858556,0
0.289582,0.513046,0.25727,0.772254,1
0.155478,0.779328,0.220285,0.144503,0
0.330283,0.618813,0.200759,0.517463,1
0.645609,0.84731,0.126974,0.708526,1
0.541657,0.491676,0.545842,0.810467,1
0.680686,0.524196,0.436548,0.907935,0
0.503362,0.747271,0.27506,0.674432,1
0.516262,0.655128,0.036539,0.379543,1
0.740786,0.808671,0.075443,0.666785,0
0.763833,0.837787,0.086445,0.668076,1
0.748675,0.342702,0.399268,0.755675,0
0.556791,0.66953,0.030892,0.400702,1
0.696342,0.815021,0.067215,0.658438,0
0.322754,0.25784,0.552597,0.841625,1
0.363275,0.496864,0.28514,0.927694,0
0.363852,0.15989,0.644802,0.765552,1
0.45673,0.307315,0.402111,0.85938,0
0.060706,0.840185,0.22811,0.440565,1
0.509081,0.840649,0.287979,0.416578,0
0.749973,0.354238,0.487225,0.793888,0
0.80602,0.74433,0.123062,0.759438,0
0.401243,0.520712,0.177651,0.7331,0
0.562567,0.526287,0.156611,0.8535,1
0.165567,0.632134,0.274026,0.659374,1
0.250525,0.208051,0.662076,0.865258,1
0.822541,0.399226,0.330058,0.848679,1
0.803229,0.896631,0.05832,0.396947,1
0.398063,0.921021,0.347591,0.404703,0
0.50523,0.572433,0.167023,0.708056,0
0.283358,0.259389,0.690387,0.68478,1
0.872856,0.501974,0.246972,0.86808,1
0.538722,0.479829,0.181489,0.806469,1
0.237385,0.011768,0.985603,0.524755,0
0.612249,0.33279,0.587111,0.585541,1
0.438237,0.86752,0.302264,0.335097,1
0.47841,0.535656,0.205004,0.837157,1
0.380921,0.96144,0.342977,0.475018,1
0.780124,0.783971,0.162259,0.813759,1
0.358133,0.920325,0.341612,0.337452,0
0.62616,0.67441,0.016533,0.535212,0
0.248981,0.269455,0.681121,0.762377,1
0.19217,0.308943,0.698951,0.740155,0
0.392806,0.269455,0.433153,0.691477,0
0.635816,0.274641,0.578805,0.695593,0
0.658712,0.260549,0.592315,0.722518,0
0.365121,0.636235,0.169238,0.542504,1
0.543651,0.722182,0.304332,0.734394,0
0.750016,0.902903,0.06703,0.440919,1
0.342066,0.319783,0.470248,0.860673,0
0.521595,0.85699,0.06725,0.247852,1
0.80822,0.386294,0.384651,0.876192,0
0.414087,0.899576,0.100506,0.244087,1
0.737851,0.730624,0.219731,0.749914,0
0.726579,0.418351,0.327585,0.804823,0
0.381708,0.278435,0.490439,0.790243,1
0.270911,0.666436,0.208178,0.611528,0
0.885879,0.927992,0.040196,0.404348,0
0.314108,0.51173,0.25428,0.782836,1
0.469563,0.51173,0.218329,0.872073,1
0.345001,0.166393,0.631477,0.69912,0
0.516349,0.530003,0.185404,0.816228,1
0.446747,0.632598,0.097999,0.510052,0
0.548984,0.51444,0.281224,0.726163,0
0.373494,0.483623,0.337037,0.786128,0
0.235626,0.609522,0.263619,0.74909,1
0.622526,0.598143,0.093385,0.76661,1
0.590896,0.567247,0.454856,0.737685,0
0.703705,0.358189,0.408275,0.792712,0
0.599463,0.816028,0.219251,0.578248,0
0.44307,0.347502,0.322528,0.8234,1
0.238849,0.029965,0.786947,0.533221,1
0.391183,0.556253,0.212423,0.722753,1
0.516262,0.655128,0.036539,0.379543,1
0.757833,0.362986,0.412445,0.917465,1
0.404157,0.461786,0.318802,0.815522,1
0.750016,0.902903,0.06703,0.440919,0
0.389669,0.641036,0.153182,0.453149,0
0.443263,0.591251,0.125828,0.661375,1
0.250092,0.662949,0.224308,0.584477,1
0.555444,0.904066,0.167282,0.421279,0
0.633458,0.335424,0.581571,0.589423,0
0.322329,0.479597,0.344343,0.762142,1
0.561239,0.529074,0.322455,0.821284,1
0.555694,0.513666,0.21962,0.798592,0
0.235626,0.609522,0.263619,0.74909,1
0.720882,0.555632,0.255535,0.858556,0
0.556791,0.66953,0.030892,0.400702,1
0.898607,0.895007,0.051785,0.440919,1
0.796479,0.380876,0.380959,0.801649,0
0.783405,0.524041,0.314446,0.964256,0
0.806193,0.533798,0.274801,0.943452,0
0.702154,0.769726,0.210356,0.818109,0
0.457539,0.449244,0.212866,0.766022,1
0.250842,0.201701,0.761587,0.660675,1
0.757285,0.931165,0.046619,0.314166,0
0.285731,0.538134,0.344196,0.755675,1
0.219862,0.613474,0.254797,0.67184,1
0.932314,0.735193,0.106378,0.749914,0
0.816167,0.416106,0.319797,0.863141,0
0.394385,0.555168,0.197031,0.701001,0
0.647167,0.741464,0.238925,0.590596,0
0.315399,0.124275,0.620329,0.619757,0
0.766213,0.569338,0.271738,0.904644,0
0.548906,0.800851,0.295582,0.484183,0
0.646763,0.805577,0.22047,0.497477,1
0.786081,0.544715,0.275245,0.931922,0
0.444494,0.637242,0.069283,0.477718,1
0.53204,0.771197,0.25775,0.726633,0
0.299937,0.661167,0.219583,0.67114,1
0.763393,0.56175,0.313744,0.973194,0
0.572425,0.806348,0.109367,0.601298,0
0.451378,0.940456,0.2115,0.136274,1
0.375462,0.262562,0.445629,0.727221,1
0.743677,0.774759,0.182674,0.798592,0
0.794265,0.554162,0.260445,0.868318,1
0.839661,0.725902,0.13624,0.794829,1
0.112592,0.821525,0.2397,0.319694,1
0.6927,0.768952,0.201017,0.812348,0
0.680967,0.865581,0.083124,0.472426,0
0.405195,0.478358,0.329321,0.813171,1
0.590262,0.546573,0.462718,0.725457,0
0.250294,0.047929,0.869072,0.734511,1
0.774816,0.777083,0.147974,0.765552,1
0.312528,0.259928,0.552265,0.830926,1
0.518168,0.47464,0.270963,0.821636,0
0.822498,0.532714,0.289237,0.960965,0
0.115433,0.786142,0.232429,0.089473,0
0.563944,0.763919,0.1785,0.681133,0
0.40769,0.332868,0.506753,0.80835,1
0.402347,0.4566,0.332643,0.822577,1
0.262048,0.697175,0.194595,0.334743,0
0.843166,0.334649,0.376565,0.754381,0
0.532599,0.520015,0.215339,0.790596,1
0.778768,0.312426,0.392513,0.663375,0
0.38783,0.464189,0.313744,0.824812,1
0.436774,0.266125,0.478627,0.826927,1
0.4521,0.236702,0.507381,0.810114,0
0.897403,0.631513,0.178021,0.919583,1
0.490501,0.448626,0.319689,0.890186,1
0.350612,0.641811,0.17492,0.535212,1
0.661575,0.439025,0.337885,0.771666,0
0.428474,0.244055,0.486786,0.81082,0
0.452456,0.64483,0.079505,0.465606,0
0.502679,0.65536,0.032076,0.390591,0
0.572386,0.693998,0.019084,0.268902,1
0.55114,0.552768,0.132401,0.786128,1
0.749973,0.354238,0.487225,0.793888,1
0.387361,0.437165,0.295953,0.841978,1
0.290101,0.581881,0.259485,0.736039,1
0.814018,0.560201,0.256421,0.863377,0
0.499184,0.772589,0.267347,0.716404,0
0.601937,0.509562,0.507343,0.708761,0
0.524012,0.495857,0.210319,0.88654,1
0.799335,0.351065,0.432192,0.880657,1
0.369982,0.28486,0.469214,0.821402,1
0.605636,0.635618,0.414957,0.848797,0
0.535968,0.510027,0.226338,0.809173,1
0.890495,0.712506,0.103203,0.729338,0
0.511584,0.779249,0.139229,0.490775,0
0.574687,0.868294,0.199172,0.625167,0
0.897403,0.631513,0.178021,0.919583,0
0.716101,0.532094,0.425477,0.755087,0
0.605665,0.673867,0.31965,0.806469,0
0.374547,0.526984,0.261035,0.906289,0
0.202554,0.699342,0.206517,0.29347,0
0.258284,0.616029,0.23468,0.684307,0
0.720002,0.792645,0.185625,0.696886,0
0.373818,0.810453,0.156021,0.610109,1
0.250294,0.047929,0.869072,0.734511,1
0.763538,0.866049,0.053891,0.417524,0
0.226929,0.666511,0.214711,0.578721,0
0.777831,0.545102,0.269008,0.8689,0
0.380099,0.112503,0.667909,0.685953,1
0.699702,0.633915,0.312232,0.794241,1
0.62934,0.842741,0.173261,0.651263,1
0.345384,0.946884,0.339285,0.4796,0
0.641484,0.745337,0.271553,0.591769,1
0.401243,0.520712,0.177651,0.7331,1
0.391183,0.556253,0.212423,0.722753,0
0.922174,0.896321,0.021556,0.382953,1
0.109404,0.752072,0.266387,0.174955,1
0.15886,0.765157,0.217258,0.179192,1
0.328704,0.970421,0.349215,0.437037,0
0.562452,0.628725,0.35335,0.771078,0
0.598814,0.681145,0.170272,0.617993,0
0.225119,0.667749,0.217517,0.58495,0
0.544055,0.539837,0.176914,0.813641,1
0.291053,0.057452,0.742727,0.58084,1
0.467916,0.218891,0.517014,0.844917,1
0.322495,0.259232,0.615418,0.97143,0
0.803301,0.532946,0.299533,0.860555,1
0.422315,0.468525,0.325225,0.847504,1
0.612963,0.512195,0.40772,0.831043,0
0.860517,0.389703,0.375053,0.876429,0
0.643403,0.60782,0.335115,0.811525,1
0.232597,0.707705,0.199689,0.283477,1
0.145094,0.796129,0.221946,0.095002,1
0.617305,0.728453,0.231801,0.77484,0
0.480277,0.829345,0.320869,0.437155,0
0.451696,0.642664,0.07755,0.453849,1
0.428474,0.244055,0.486786,0.81082,1
0.855894,0.545412,0.29824,0.885249,0
0.713526,0.852496,0.065699,0.473835,0
0.531575,0.348662,0.424662,0.687362,0
0.847291,0.825783,0.117414,0.641743,1
0.418241,0.451103,0.205078,0.758144,0
0.769004,0.839643,0.106783,0.736628,0
0.129914,0.763298,0.219141,0.153441,1
0.6041,0.74433,0.247747,0.822577,1
0.754797,0.509872,0.262327,0.803764,1
0.806777,0.786916,0.145209,0.699003,0
0.575342,0.838715,0.157279,0.658674,0
0.501187,0.530081,0.213567,0.764729,0
0.402347,0.4566,0.332643,0.822577,1
0.246587,0.664887,0.212275,0.422225,0
0.590262,0.546573,0.462718,0.725457,1
0.535224,0.541929,0.260336,0.736863,1
0.151144,0.649014,0.263361,0.64127,1
0.701094,0.632673,0.242395,0.830455,1
0.315658,0.035926,0.773472,0.603763,0
0.764518,0.564306,0.283331,0.927812,1
0.38478,0.63918,0.129373,0.57743,1
0.342982,0.311498,0.477739,0.857498,1
0.363852,0.15989,0.644802,0.765552,1
0.704029,0.855209,0.08508,0.689243,1
0.256034,0.059851,0.846706,0.721224,1
0.448663,0.539759,0.206665,0.729338,1
0.656369,0.478203,0.452237,0.750619,0
0.229821,0.647154,0.211168,0.426216,0
0.592036,0.857997,0.137825,0.703941,0
0.7138,0.774216,0.193524,0.821284,0
0.728735,0.39071,0.44873,0.852442,1
0.356669,0.249477,0.512844,0.746622,1
0.741644,0.748356,0.232983,0.645735,0
0.684414,0.278978,0.570758,0.796005,1
0.531575,0.348662,0.424662,0.687362,0
0.19217,0.308943,0.698951,0.740155,1
0.38276,0.590862,0.562082,0.862318,0
0.527044,0.54278,0.19847,0.780484,1
0.581262,0.856215,0.20098,0.621521,0
0.546885,0.741075,0.300196,0.735334,0
0.457106,0.626016,0.072863,0.491239,1
0.803013,0.717924,0.149232,0.798709,0
0.218131,0.204335,0.764245,0.646562,1
0.487787,0.821757,0.092718,0.547442,0
0.343386,0.50391,0.285213,0.902416,0
0.265503,0.503135,0.319577,0.831983,0
0.670215,0.322956,0.412592,0.66373,0
0.596153,0.843826,0.132363,0.703941,1
0.824683,0.528765,0.315665,0.886422,0
0.250525,0.208051,0.662076,0.865258,1
0.780557,0.407432,0.324893,0.762965,0
0.880889,0.66357,0.142292,0.814347,0
0.885843,0.909716,0.050346,0.388127,0
0.29393,0.128997,0.606117,0.585068,1
0.568805,0.645684,0.071312,0.650327,1
0.786081,0.544715,0.275245,0.931922,1
0.37645,0.25784,0.463274,0.782483,0
0.387679,0.504142,0.289052,0.779544,0
0.682604,0.872088,0.095083,0.524982,1
0.529528,0.521873,0.152149,0.821755,1
0.426252,0.586603,0.552265,0.8702,1
0.8873,0.664423,0.160635,0.869136,0
0.463864,0.365621,0.307287,0.831983,0
0.473606,0.352614,0.313447,0.845622,0
0.611521,0.540379,0.14041,0.870664,1
0.757538,0.348894,0.38033,0.791301,0
0.060706,0.840185,0.22811,0.440565,1
0.790754,0.393883,0.376677,0.853383,0
0.559939,0.513356,0.471984,0.654437,0
0.217835,0.03639,0.900597,0.690302,0
0.525427,0.570498,0.16658,0.724047,0
0.725923,0.390474,0.339139,0.727457,0
0.743591,0.643281,0.236636,0.771195,0
0.606185,0.336662,0.590359,0.605999,0
0.647434,0.820907,0.226708,0.571901,0
0.334884,0.987068,0.354643,0.250907,0
0.448268,0.62617,0.172301,0.644089,0
0.535224,0.541929,0.260336,0.736863,1
0.405621,0.431047,0.29311,0.83363,1
0.803301,0.532946,0.299533,0.860555,0
0.328819,0.242042,0.52233,0.723576,1
0.814018,0.560201,0.256421,0.863377,0
0.442367,0.219666,0.519818,0.80835,1
0.765788,0.605189,0.309169,0.843859,0
0.545296,0.393262,0.360807,0.687715,1
0.385133,0.514982,0.184924,0.728985,1
0.307581,0.302207,0.48265,0.811525,1
0.795729,0.348198,0.388416,0.767315,0
0.498684,0.47232,0.186733,0.829867,1
0.581644,0.773595,0.141293,0.530629,0
0.863661,0.605575,0.220137,0.924984,0
0.312096,0.943943,0.318578,0.416933,0
0.825635,0.923501,0.030525,0.374724,1
0.621062,0.811459,0.240217,0.577657,1
0.463527,0.511962,0.21401,0.82293,0
0.404171,0.445681,0.40115,0.827398,1
0.766451,0.399533,0.348737,0.799532,1
0.385328,0.249088,0.477149,0.792478,1
0.783629,0.399069,0.333418,0.824576,1
0.046456,0.756641,0.274396,0.175546,1
0.620557,0.548896,0.142844,0.836804,0
0.478372,0.631281,0.100174,0.532748,1
0.587521,0.793884,0.245421,0.501468,0
0.373818,0.810453,0.156021,0.610109,0
0.361552,0.659311,0.20039,0.670431,1
0.15886,0.765157,0.217258,0.179192,0
0.615256,0.64367,0.054072,0.647617,1
0.506674,0.880141,0.234348,0.630568,1
0.796631,0.532559,0.286394,0.924402,1
0.652431,0.258536,0.57803,0.75544,0
0.249681,0.532559,0.328766,0.735687,1
0.602211,0.699574,0.313929,0.797298,1
0.360427,0.561286,0.235714,0.678069,1
0.743677,0.774759,0.182674,0.798592,0
0.670121,0.649167,0.242912,0.803059,0
0.142389,0.321253,0.676878,0.698414,0
0.580793,0.549129,0.126457,0.816111,0
0.429937,0.597676,0.116307,0.661256,0
0.142389,0.321253,0.676878,0.698414,1
0.921792,0.498799,0.244093,0.902416,0
0.373818,0.810453,0.156021,0.610109,0
0.870714,0.822299,0.11461,0.683243,0
0.682323,0.757337,0.195111,0.798003,0
0.756377,0.625784,0.271962,0.826927,0
0.820796,0.316917,0.394874,0.713229,1
0.837,0.379634,0.351283,0.802471,1
0.76136,0.896631,0.043518,0.324632,1
0.757833,0.362986,0.412445,0.917465,0
0.62898,0.672782,0.032149,0.559672,1
0.658633,0.550677,0.423775,0.889477,1
0.344691,0.968797,0.240143,0.071842,0
0.289582,0.513046,0.25727,0.772254,1
0.403659,0.595588,0.207366,0.625631,1
0.457443,0.389003,0.405247,0.914055,0
0.936006,0.746108,0.116122,0.744035,0
0.219198,0.010298,0.989222,0.475372,0
0.364465,0.552768,0.215413,0.713582,0
0.740721,0.804956,0.211426,0.546269,1
0.842906,0.909484,0.030194,0.394828,0
0.894266,0.655903,0.152997,0.875374,0
0.414498,0.615408,0.191494,0.592478,0
0.230318,0.036236,0.903289,0.660793,1
0.57488,0.373288,0.427725,0.750384,1
0.53204,0.771197,0.25775,0.726633,1
0.65334,0.582656,0.100286,0.796357,1
0.138683,0.764151,0.225563,0.184366,1
0.835659,0.820982,0.121804,0.644326,0
0.62086,0.812002,0.225268,0.580012,0
0.766213,0.569338,0.271738,0.904644,0
0.305988,0.589006,0.20947,0.585186,1
0.472441,0.621833,0.070756,0.495358,1
0.778768,0.312426,0.392513,0.663375,0
0.467705,0.635618,0.085192,0.522991,1
0.038487,0.843516,0.237707,0.419288,0
0.730913,0.406194,0.323488,0.797533,0
0.582834,0.25598,0.584785,0.659147,0
0.499338,0.456289,0.573636,0.774723,0
0.451089,0.873327,0.064592,0.095002,1
0.405195,0.478358,0.329321,0.813171,1
0.633689,0.695084,0.317656,0.834217,1
0.580793,0.549129,0.126457,0.816111,1
0.438661,0.264186,0.442493,0.807174,1
0.375239,0.279595,0.471135,0.795064,1
0.33404,0.655439,0.210393,0.659492,1
0.046456,0.756641,0.274396,0.175546,0
0.385703,0.619588,0.133655,0.601999,1
0.762687,0.86566,0.071273,0.663966,0
0.653066,0.74518,0.244056,0.829044,0
0.926602,0.702825,0.13129,0.817169,0
0.281231,0.027563,0.903069,0.717109,0
0.384491,0.336584,0.495272,0.813406,1
0.60449,0.669994,0.025171,0.540977,0
0.418486,0.270615,0.435143,0.774252,0
0.250842,0.201701,0.761587,0.660675,1
0.351535,0.520015,0.182635,0.698884,0
0.548984,0.514442,0.281224,0.726161,0
0.591632,0.900504,0.172486,0.409995,1
0.716743,0.54185,0.326366,0.946971,1
0.265661,0.244444,0.720615,0.72534,0
0.390693,0.277971,0.428354,0.792712,1
0.837447,0.785135,0.086445,0.641389,1
0.38478,0.63918,0.129373,0.57743,1
0.028204,0.769569,0.25727,0.087246,1
0.845077,0.388539,0.378043,0.911582,1
0.721084,0.343476,0.482172,0.829279,1
0.62934,0.842741,0.173261,0.651263,0
0.53077,0.478203,0.274875,0.857851,0
0.504373,0.494386,0.560346,0.818462,1
0.626622,0.53341,0.432119,0.888659,1
0.456278,0.349052,0.323527,0.822577,1
0.548175,0.503755,0.235603,0.817874,0
0.347302,0.984591,0.354531,0.456677,0
0.767316,0.78219,0.171564,0.796592,0
0.495767,0.800776,0.279673,0.447739,0
0.521442,0.541618,0.205668,0.77778,0
0.745841,0.780334,0.170603,0.797533,0
0.266556,0.496477,0.341133,0.826105,1
0.324528,0.490747,0.343348,0.885949,0
0.605319,0.555015,0.126754,0.813641,1
0.791201,0.568175,0.305585,0.858909,0
0.837332,0.348662,0.364572,0.777662,1
0.395539,0.145644,0.577031,0.679015,1
0.316884,0.894697,0.170379,0.279831,1
0.856637,0.890049,0.04145,0.383771,0
0.482732,0.50089,0.207108,0.834217,1
0.451089,0.873327,0.064592,0.095002,0
0.589447,0.663723,0.374093,0.85397,1
0.548984,0.514442,0.281224,0.726161,0
0.374864,0.191793,0.558541,0.716639,1
0.39802,0.272939,0.47571,0.856675,1
0.53542,0.770269,0.305809,0.721577,0
0.711464,0.622376,0.236194,0.829279,1
0.132488,0.786991,0.230768,0.11346,1
0.796631,0.532559,0.286394,0.924402,0
0.40769,0.332868,0.506753,0.80835,1
0.155478,0.779328,0.220285,0.144503,1
0.481606,0.629268,0.077735,0.524164,1
0.827265,0.42741,0.301157,0.859967,0
0.467916,0.218891,0.517014,0.844917,1
0.666111,0.566936,0.27761,0.855264,0
0.652431,0.258536,0.57803,0.75544,1
0.417426,0.922495,0.310901,0.384126,1
0.276702,0.510027,0.269746,0.781425,0
0.360427,0.561286,0.235714,0.678069,1
0.297651,0.667053,0.20803,0.410586,0
0.541994,0.641115,0.033588,0.40964,1
0.048619,0.8151,0.246012,0.484419,1
0.545299,0.393262,0.360807,0.687717,1
0.69301,0.646844,0.254169,0.740272,1
0.520344,0.809835,0.239294,0.432809,1
0.347936,0.570266,0.196403,0.670668,0
0.358169,0.563142,0.200058,0.66232,1
0.270911,0.666436,0.208178,0.611528,1
0.705363,0.792334,0.230805,0.547205,1
0.648977,0.323962,0.598738,0.647272,0
0.281231,0.027563,0.903069,0.717109,1
0.048619,0.8151,0.246012,0.484419,1
0.710361,0.938368,0.083861,0.375424,0
0.316884,0.894697,0.170379,0.279831,0
0.285731,0.538134,0.344196,0.755675,1
0.69301,0.646844,0.254169,0.740272,0
0.599752,0.845297,0.161708,0.613992,0
0.390693,0.277971,0.428354,0.792712,0
0.572011,0.600078,0.093975,0.766492,0
0.825635,0.923501,0.030525,0.374724,0
0.447595,0.545489,0.157021,0.759791,1
0.179492,0.044442,0.89292,0.641034,1
0.403796,0.638559,0.142844,0.464552,1
0.577633,0.784435,0.282848,0.553907,0
0.803013,0.717924,0.149232,0.798709,0
0.286221,0.49547,0.330575,0.847856,1
0.610785,0.829113,0.137274,0.598352,1
0.508128,0.538908,0.200094,0.846211,1
0.784876,0.89036,0.043776,0.330278,0
