@relation breastCancer-weka.filters.unsupervised.ATTRIBUTE.Normalize-S1.0-T0.0-weka.filters.unsupervised.ATTRIBUTE.ReplaceMissingValues

@ATTRIBUTE clump_thickniss numeric
@ATTRIBUTE unif_cell_size numeric
@ATTRIBUTE unif_cell_shape numeric
@ATTRIBUTE marginal_adhesion numeric
@ATTRIBUTE single_epithelial_cell_size numeric
@ATTRIBUTE bare_nuclei numeric
@ATTRIBUTE bland_chromatin numeric
@ATTRIBUTE normal_nucleoli numeric
@ATTRIBUTE mitoses numeric
@ATTRIBUTE class {2,4}

@data
0.222222,0,0,0,0.222222,0,0.111111,0,0,2
1,0.555556,0.333333,0,0.222222,0.333333,0.222222,0.111111,0.222222,4
0.666667,0.444444,0.555556,1,0.333333,1,0.444444,0.222222,0,4
0,0,0,0,0.111111,0,0.222222,0,0,2
0.222222,0,0.222222,0,0.222222,0.333333,0,0,0,2
0.777778,1,1,0.777778,0.444444,1,0.666667,0.777778,0,4
0.444444,0.333333,0.555556,1,0.111111,1,0.333333,0,0,4
1,1,1,1,0.555556,1,0.777778,0,0.444444,4
0.777778,0.666667,0.555556,0.333333,0.333333,1,0.444444,0,0,4
0,0,0,0,0.222222,0.111111,0.111111,0,0,2
0.333333,0,0,0,0.222222,0,0.111111,0.111111,0,2
0.222222,0,0.333333,0,0.111111,0,0,0,0,2
0.444444,0,0.111111,1,0.333333,0.444444,0.111111,0,0,2
0.333333,0,0,0.222222,0,0.444444,0.111111,0,0,4
0.444444,0,0,0,0.111111,0,0.222222,0,0,2
0,0,0,0,0.111111,0,0.222222,0,0,2
0.222222,0,0,0,0.111111,0,0,0,0,2
0,0,0.222222,0,0.111111,0,0,0,0,2
0.111111,0.222222,0,0,0.111111,0,0.111111,0,0,2
0.111111,0,0,0,0.111111,0,0,0,0,2
0,0.111111,0.111111,0,0.111111,0,0,0,0,2
0.555556,0.777778,0.666667,0.777778,0.555556,0.777778,0.777778,0.888889,0,4
1,1,1,1,1,1,0.333333,1,1,4
0.777778,0.222222,0.777778,0.222222,0.333333,0.888889,0.777778,0.888889,0.777778,4
1,1,1,0,0.555556,0,0.111111,0.777778,0,4
0,0,0,0,0.111111,0.222222,0.222222,0,0,2
0,0,0,0,0.111111,0,0.222222,0,0,2
0.444444,0,0,0.222222,0.111111,0,0,0,0,2
