@relation abalone

@ATTRIBUTE Sex=M numeric
@ATTRIBUTE Sex=F numeric
@ATTRIBUTE Sex=I numeric
@ATTRIBUTE Length numeric
@ATTRIBUTE Diameter numeric
@ATTRIBUTE Height numeric
@ATTRIBUTE Whole_weight numeric
@ATTRIBUTE Shucked_weight numeric
@ATTRIBUTE Viscera_weight numeric
@ATTRIBUTE Shell_weight numeric
@ATTRIBUTE binaryClass {1,0}

@data
0,1,0,0.736486,0.714286,0.141593,0.393306,0.378278,0.321264,0.278525,1
0,1,0,0.594595,0.571429,0.119469,0.182044,0.134835,0.17314,0.15994,1
1,0,0,0.851351,0.848739,0.19469,0.700903,0.549092,0.40553,0.755855,0
1,0,0,0.695946,0.655462,0.123894,0.329024,0.238736,0.307439,0.277529,0
0,1,0,0.736486,0.764706,0.154867,0.449265,0.363484,0.424621,0.31988,1
0,1,0,0.722973,0.714286,0.168142,0.458119,0.350034,0.423963,0.362232,0
0,0,1,0.243243,0.218487,0.053097,0.032052,0.025555,0.026991,0.023418,1
1,0,0,0.675676,0.655462,0.150442,0.361431,0.368527,0.285714,0.22571,1
1,0,0,0.668919,0.663866,0.137168,0.321587,0.218561,0.248848,0.352267,0
0,0,1,0.256757,0.252101,0.061947,0.036657,0.025555,0.053325,0.033383,1
0,1,0,0.641892,0.621849,0.119469,0.300868,0.242771,0.257406,0.267564,0
0,1,0,0.5,0.462185,0.09292,0.159554,0.120377,0.134957,0.121076,1
1,0,0,0.743243,0.756303,0.163717,0.40889,0.349025,0.315997,0.350772,0
1,0,0,0.885135,0.890756,0.199115,0.789269,0.832885,0.55497,0.559542,0
0,0,1,0.608108,0.546218,0.119469,0.217106,0.174849,0.20869,0.172895,1
1,0,0,0.77027,0.747899,0.159292,0.516735,0.401816,0.318631,0.435974,0
0,0,1,0.317568,0.268908,0.066372,0.044448,0.037323,0.03555,0.03438,1
0,0,1,0.52027,0.487395,0.09292,0.146272,0.125084,0.113891,0.108122,1
1,0,0,0.763514,0.739496,0.150442,0.402692,0.362139,0.370639,0.282511,0
0,0,1,0.486486,0.470588,0.097345,0.117585,0.090451,0.101382,0.094669,1
0,1,0,0.668919,0.655462,0.128319,0.310076,0.276395,0.285056,0.217738,1
0,1,0,0.722973,0.705882,0.123894,0.400567,0.354069,0.309414,0.347285,0
0,1,0,0.493243,0.462185,0.10177,0.141137,0.095494,0.148124,0.118087,1
1,0,0,0.777027,0.756303,0.168142,0.450505,0.3961,0.302172,0.388142,0
1,0,0,0.878378,0.831933,0.176991,0.534089,0.586752,0.560895,0.505232,1
1,0,0,0.668919,0.697479,0.137168,0.419338,0.426698,0.304147,0.274539,0
0,0,1,0.567568,0.529412,0.110619,0.168408,0.123739,0.092166,0.166916,0
1,0,0,0.72973,0.697479,0.132743,0.384452,0.333894,0.371955,0.266069,1
1,0,0,0.891892,0.865546,0.185841,0.791039,0.786483,0.608953,0.528151,0
0,0,1,0.662162,0.630252,0.132743,0.290243,0.222596,0.221198,0.287494,0
0,0,1,0.695946,0.705882,0.128319,0.344431,0.313719,0.271889,0.256602,0
0,1,0,0.72973,0.705882,0.137168,0.363025,0.299933,0.328506,0.282511,1
1,0,0,0.72973,0.672269,0.132743,0.32991,0.256221,0.324556,0.259093,0
1,0,0,0.141892,0.117647,0.044248,0.007438,0.005044,0.006583,0.00847,1
1,0,0,0.337838,0.310924,0.066372,0.054188,0.031271,0.046083,0.058296,1
1,0,0,0.540541,0.529412,0.110619,0.189481,0.148621,0.159315,0.147982,1
0,1,0,0.614865,0.596639,0.128319,0.291659,0.251513,0.267939,0.242651,1
0,1,0,0.506757,0.453782,0.119469,0.154418,0.120713,0.152732,0.108122,1
0,0,1,0.445946,0.436975,0.09292,0.122189,0.107263,0.102699,0.098156,1
1,0,0,0.317568,0.319328,0.084071,0.052417,0.034633,0.044108,0.046338,1
0,0,1,0.344595,0.252101,0.084071,0.055782,0.05111,0.041475,0.041854,1
0,1,0,0.77027,0.747899,0.150442,0.418806,0.322461,0.360105,0.352267,0
1,0,0,0.763514,0.857143,0.20354,0.537985,0.432414,0.489138,0.403089,0
1,0,0,0.689189,0.764706,0.141593,0.430671,0.429052,0.316656,0.297459,0
0,1,0,0.486486,0.445378,0.106195,0.133345,0.101547,0.119816,0.123069,0
1,0,0,0.52027,0.546218,0.119469,0.170002,0.138534,0.160632,0.143,0
1,0,0,0.695946,0.722689,0.106195,0.321941,0.261601,0.238973,0.287494,0
0,1,0,0.831081,0.882353,0.172566,0.586506,0.475454,0.475313,0.468361,0
1,0,0,0.5,0.529412,0.110619,0.181689,0.167115,0.113891,0.156951,1
1,0,0,0.608108,0.638655,0.137168,0.376483,0.32616,0.306122,0.282511,1
1,0,0,0.641892,0.647059,0.141593,0.348149,0.311701,0.263989,0.267564,1
1,0,0,0.52027,0.495798,0.106195,0.181689,0.149966,0.14154,0.154459,0
0,0,1,0.331081,0.336134,0.088496,0.061449,0.04842,0.053983,0.063279,1
0,0,1,0.52027,0.478992,0.088496,0.136001,0.120713,0.114549,0.094669,1
0,1,0,0.594595,0.588235,0.106195,0.228086,0.194015,0.184332,0.174888,0
0,1,0,0.817568,0.781513,0.163717,0.545068,0.401816,0.519421,0.45441,0
0,1,0,0.804054,0.789916,0.168142,0.54011,0.386348,0.464121,0.436971,0
1,0,0,0.614865,0.638655,0.141593,0.312024,0.211836,0.215273,0.332337,0
0,1,0,0.702703,0.630252,0.185841,0.539224,0.438467,0.520737,0.407075,0
1,0,0,0.695946,0.705882,0.123894,0.345316,0.310356,0.265964,0.272546,0
0,0,1,0.648649,0.630252,0.110619,0.247388,0.22764,0.177749,0.207275,1
0,0,1,0.675676,0.663866,0.132743,0.30317,0.301278,0.217907,0.212755,0
1,0,0,0.804054,0.815126,0.172566,0.430317,0.357095,0.359447,0.328849,0
0,0,1,0.581081,0.546218,0.119469,0.190012,0.177202,0.124424,0.16293,1
1,0,0,0.939189,0.915966,0.190265,0.776519,0.706456,0.63397,0.580468,0
1,0,0,0.736486,0.731092,0.168142,0.430671,0.366174,0.38973,0.352267,0
1,0,0,0.540541,0.512605,0.123894,0.181158,0.161399,0.136932,0.152965,1
0,1,0,0.831081,0.840336,0.181416,0.642642,0.522865,0.578012,0.511709,0
1,0,0,0.777027,0.739496,0.150442,0.451213,0.417283,0.302831,0.396114,0
1,0,0,0.709459,0.739496,0.154867,0.45989,0.415938,0.373272,0.325859,0
1,0,0,0.716216,0.697479,0.159292,0.394369,0.321453,0.337064,0.318386,0
0,1,0,0.513514,0.504202,0.106195,0.158491,0.118359,0.136274,0.147982,1
0,1,0,0.716216,0.739496,0.150442,0.385869,0.292872,0.356814,0.332337,0
0,0,1,0.331081,0.336134,0.075221,0.061094,0.047747,0.042791,0.055306,1
0,0,1,0.614865,0.613445,0.123894,0.238888,0.171486,0.243581,0.20578,1
0,1,0,0.72973,0.747899,0.146018,0.469276,0.402824,0.396313,0.352267,0
0,1,0,0.574324,0.537815,0.123894,0.213211,0.162071,0.185648,0.176881,0
0,1,0,0.695946,0.705882,0.137168,0.343368,0.248823,0.308756,0.277529,0
1,0,0,0.709459,0.689076,0.146018,0.370285,0.312038,0.308097,0.312407,0
1,0,0,0.905405,0.857143,0.190265,0.683195,0.601883,0.603028,0.496761,0
0,0,1,0.641892,0.663866,0.115044,0.284045,0.226295,0.184332,0.227703,1
0,0,1,0.675676,0.663866,0.128319,0.280857,0.244116,0.197498,0.257598,0
0,1,0,0.668919,0.647059,0.110619,0.305649,0.246469,0.226465,0.267564,0
1,0,0,0.736486,0.756303,0.163717,0.540287,0.463349,0.483871,0.347285,0
1,0,0,0.459459,0.420168,0.088496,0.114397,0.104237,0.065833,0.089188,1
0,0,1,0.75,0.731092,0.150442,0.430317,0.370208,0.278473,0.307424,0
1,0,0,0.608108,0.546218,0.110619,0.229502,0.203093,0.203423,0.156951,1
0,1,0,0.608108,0.630252,0.119469,0.298034,0.290182,0.23634,0.179372,1
1,0,0,0.641892,0.638655,0.128319,0.297857,0.219906,0.251481,0.252616,0
1,0,0,0.587838,0.588235,0.132743,0.248451,0.232683,0.175774,0.186348,1
0,1,0,0.783784,0.798319,0.146018,0.453869,0.391392,0.164582,0.39711,1
0,0,1,0.621622,0.605042,0.132743,0.203471,0.241089,0.17709,0.22272,1
0,1,0,0.743243,0.731092,0.097345,0.401629,0.353396,0.251481,0.289985,1
0,0,1,0.398649,0.361345,0.079646,0.06499,0.046402,0.0553,0.063279,1
0,1,0,0.628378,0.613445,0.123894,0.284399,0.247478,0.226465,0.207773,0
0,0,1,0.432432,0.411765,0.106195,0.105366,0.084398,0.088874,0.087693,1
0,1,0,0.878378,0.857143,0.185841,0.758102,0.691997,0.640553,0.499751,0
1,0,0,0.601351,0.596639,0.10177,0.272003,0.176194,0.206057,0.257598,0
0,1,0,0.716216,0.747899,0.163717,0.395431,0.314728,0.339697,0.332337,1
0,0,1,0.418919,0.386555,0.075221,0.085709,0.081036,0.057933,0.066268,1
0,1,0,0.736486,0.705882,0.141593,0.399327,0.310693,0.352864,0.327354,0
1,0,0,0.695946,0.689076,0.119469,0.349743,0.284129,0.261356,0.277529,1
1,0,0,0.635135,0.663866,0.132743,0.275722,0.254539,0.213298,0.213752,1
0,0,1,0.378378,0.386555,0.084071,0.079865,0.063551,0.061883,0.069756,1
0,0,1,0.513514,0.478992,0.10177,0.171418,0.174849,0.085583,0.129547,1
1,0,0,0.608108,0.588235,0.106195,0.266867,0.251849,0.204082,0.198804,1
0,1,0,0.702703,0.714286,0.141593,0.427661,0.350706,0.389072,0.317389,1
1,0,0,0.567568,0.579832,0.119469,0.215336,0.182246,0.188282,0.142003,1
1,0,0,0.574324,0.579832,0.146018,0.291482,0.170141,0.269256,0.282511,0
0,0,1,0.601351,0.588235,0.123894,0.238888,0.191997,0.191573,0.20279,0
0,1,0,0.587838,0.563025,0.09292,0.216044,0.125084,0.19684,0.192825,0
1,0,0,0.675676,0.672269,0.137168,0.358066,0.314391,0.273864,0.292476,0
0,0,1,0.641892,0.655462,0.110619,0.237294,0.193006,0.179065,0.207773,0
0,0,1,0.601351,0.571429,0.128319,0.272003,0.284465,0.186307,0.187344,1
0,1,0,0.709459,0.705882,0.132743,0.356118,0.296907,0.290323,0.277529,0
0,0,1,0.405405,0.378151,0.070796,0.078449,0.076664,0.055958,0.053313,1
0,0,1,0.641892,0.647059,0.146018,0.304055,0.209146,0.221856,0.297459,0
0,0,1,0.513514,0.504202,0.110619,0.187887,0.150639,0.16524,0.144494,1
1,0,0,0.709459,0.680672,0.137168,0.339118,0.298924,0.24819,0.292476,0
1,0,0,0.72973,0.705882,0.154867,0.389942,0.311029,0.406847,0.270055,0
1,0,0,0.594595,0.546218,0.119469,0.233575,0.19267,0.275181,0.152965,0
0,1,0,0.608108,0.630252,0.110619,0.287232,0.22226,0.217907,0.175386,0
1,0,0,0.756757,0.789916,0.181416,0.52488,0.3692,0.40948,0.427005,0
0,1,0,0.817568,0.848739,0.172566,0.628829,0.578346,0.423305,0.412058,0
1,0,0,0.608108,0.521008,0.150442,0.339472,0.29388,0.292298,0.273543,0
0,0,1,0.277027,0.268908,0.061947,0.043209,0.041695,0.02765,0.028401,1
0,1,0,0.668919,0.663866,0.159292,0.320878,0.269334,0.285056,0.252616,1
0,0,1,0.418919,0.394958,0.079646,0.081459,0.056826,0.064516,0.078226,1
0,0,1,0.378378,0.378151,0.097345,0.078449,0.054136,0.068466,0.078226,1
0,1,0,0.77027,0.781513,0.154867,0.471932,0.447882,0.35023,0.352267,0
0,1,0,0.722973,0.739496,0.146018,0.383035,0.303631,0.358789,0.3144,1
0,0,1,0.466216,0.445378,0.097345,0.10873,0.076664,0.084266,0.092676,1
1,0,0,0.77027,0.722689,0.132743,0.431911,0.382313,0.359447,0.327354,1
0,0,1,0.304054,0.268908,0.044248,0.041261,0.031607,0.028966,0.040359,1
0,0,1,0.547297,0.529412,0.110619,0.191783,0.163416,0.132324,0.16293,1
0,0,1,0.364865,0.386555,0.088496,0.078095,0.057498,0.075708,0.073244,1
0,0,1,0.52027,0.487395,0.09292,0.158314,0.131137,0.123766,0.124564,1
0,0,1,0.391892,0.361345,0.075221,0.069063,0.054136,0.042133,0.063279,1
1,0,0,0.547297,0.529412,0.115044,0.227023,0.234028,0.151415,0.133034,1
0,1,0,0.655405,0.613445,0.159292,0.588808,0.520847,0.460171,0.449427,1
1,0,0,0.722973,0.722689,0.150442,0.361431,0.281103,0.315997,0.35725,0
0,0,1,0.587838,0.588235,0.110619,0.23995,0.232347,0.183015,0.17987,1
1,0,0,0.662162,0.647059,0.10177,0.324597,0.271015,0.234365,0.287494,0
0,0,1,0.648649,0.630252,0.132743,0.276607,0.231338,0.230415,0.244644,1
0,0,1,0.567568,0.504202,0.106195,0.175137,0.143241,0.136932,0.147484,1
0,0,1,0.52027,0.478992,0.079646,0.135293,0.12004,0.088874,0.108122,1
0,1,0,0.635135,0.630252,0.123894,0.293961,0.292199,0.223173,0.198804,1
0,0,1,0.506757,0.495798,0.115044,0.193023,0.164089,0.184332,0.138515,1
1,0,0,0.736486,0.722689,0.128319,0.354525,0.312374,0.288348,0.277529,0
0,0,1,0.364865,0.336134,0.084071,0.068178,0.061533,0.048058,0.053313,1
1,0,0,0.702703,0.680672,0.150442,0.399327,0.38265,0.335747,0.262581,0
0,0,1,0.371622,0.352941,0.070796,0.067292,0.0538,0.060566,0.05132,1
0,0,1,0.47973,0.445378,0.097345,0.129449,0.11197,0.133641,0.103139,1
0,1,0,0.608108,0.579832,0.10177,0.222242,0.17115,0.18894,0.177877,0
0,0,1,0.405405,0.378151,0.070796,0.082345,0.074983,0.05925,0.065272,1
0,1,0,0.743243,0.714286,0.137168,0.425536,0.393746,0.314022,0.315894,0
1,0,0,0.675676,0.697479,0.123894,0.295909,0.233692,0.227781,0.237668,0
0,1,0,0.601351,0.571429,0.159292,0.225961,0.105582,0.144174,0.242651,0
1,0,0,0.547297,0.537815,0.128319,0.274482,0.144586,0.170507,0.167912,1
1,0,0,0.72973,0.731092,0.150442,0.404817,0.329859,0.273206,0.340309,0
0,0,1,0.668919,0.613445,0.115044,0.273597,0.237054,0.197498,0.23418,1
0,0,1,0.331081,0.302521,0.057522,0.048344,0.038332,0.028966,0.048331,1
0,1,0,0.52027,0.504202,0.115044,0.161502,0.128447,0.138249,0.128052,0
0,1,0,0.709459,0.680672,0.132743,0.436692,0.404506,0.360105,0.287494,1
0,0,1,0.364865,0.336134,0.084071,0.064105,0.049765,0.050033,0.058296,1
1,0,0,0.662162,0.621849,0.141593,0.333097,0.234364,0.287031,0.272546,0
0,1,0,0.52027,0.495798,0.10177,0.155127,0.127102,0.134299,0.128052,1
1,0,0,0.648649,0.663866,0.128319,0.323358,0.268325,0.323239,0.282511,0
1,0,0,0.675676,0.579832,0.137168,0.329556,0.241762,0.321264,0.297459,0
0,0,1,0.391892,0.361345,0.079646,0.075615,0.066913,0.063858,0.063777,1
0,1,0,0.804054,0.823529,0.141593,0.545245,0.401816,0.337064,0.491779,0
1,0,0,0.871622,0.831933,0.181416,0.76607,0.742771,0.690586,0.401096,0
1,0,0,0.635135,0.680672,0.141593,0.31716,0.228648,0.217248,0.342302,0
0,1,0,0.763514,0.789916,0.154867,0.488755,0.433759,0.40948,0.367215,1
0,1,0,0.790541,0.739496,0.185841,0.547547,0.486214,0.463463,0.389636,0
1,0,0,0.722973,0.722689,0.154867,0.440057,0.365165,0.390388,0.342302,0
1,0,0,0.722973,0.663866,0.168142,0.381973,0.347007,0.327847,0.290982,0
1,0,0,0.72973,0.697479,0.128319,0.363556,0.297579,0.371297,0.282511,0
0,1,0,0.722973,0.722689,0.132743,0.43864,0.404506,0.383147,0.305929,0
1,0,0,0.655405,0.663866,0.128319,0.330618,0.285138,0.215932,0.270055,0
0,0,1,0.574324,0.571429,0.106195,0.189481,0.144923,0.142199,0.176383,1
0,0,1,0.540541,0.504202,0.10177,0.183283,0.186954,0.115207,0.130543,1
0,0,1,0.391892,0.361345,0.066372,0.07774,0.063215,0.057933,0.068261,1
1,0,0,0.790541,0.781513,0.168142,0.551089,0.507061,0.391705,0.39711,0
0,0,1,0.472973,0.453782,0.097345,0.111564,0.090114,0.062541,0.088191,1
0,0,1,0.277027,0.260504,0.048673,0.036834,0.027236,0.034233,0.029397,1
0,1,0,0.405405,0.361345,0.119469,0.210731,0.182246,0.171824,0.165421,1
0,1,0,0.844595,0.87395,0.181416,0.635913,0.489913,0.517446,0.513204,0
0,0,1,0.277027,0.243697,0.057522,0.03099,0.023537,0.0237,0.028401,1
0,1,0,0.594595,0.537815,0.097345,0.214096,0.201412,0.171824,0.147982,1
1,0,0,0.777027,0.823529,0.141593,0.439348,0.326833,0.389072,0.476831,0
0,0,1,0.608108,0.579832,0.123894,0.245617,0.161063,0.210007,0.250623,0
1,0,0,0.736486,0.714286,0.146018,0.383744,0.322798,0.338381,0.302441,0
0,0,1,0.486486,0.462185,0.097345,0.145564,0.137525,0.125741,0.09417,1
0,1,0,0.756757,0.739496,0.154867,0.428192,0.474781,0.35813,0.320379,1
1,0,0,0.5,0.445378,0.106195,0.145918,0.133154,0.117841,0.115097,1
0,1,0,0.560811,0.521008,0.128319,0.224013,0.13349,0.213298,0.217738,0
0,0,1,0.540541,0.512605,0.097345,0.159377,0.127774,0.129691,0.128052,1
1,0,0,0.804054,0.781513,0.154867,0.52187,0.421318,0.498354,0.371201,0
1,0,0,0.851351,0.840336,0.190265,0.75757,0.703093,0.503621,0.524664,0
0,0,1,0.587838,0.672269,0.119469,0.242075,0.19267,0.202107,0.201295,1
0,1,0,0.689189,0.663866,0.141593,0.319639,0.271688,0.290981,0.231191,1
0,0,1,0.385135,0.361345,0.079646,0.072782,0.065232,0.050691,0.060289,1
1,0,0,0.506757,0.504202,0.10177,0.168939,0.142233,0.136932,0.147982,1
1,0,0,0.547297,0.529412,0.119469,0.22295,0.231002,0.132982,0.158944,1
0,0,1,0.648649,0.630252,0.137168,0.261201,0.210155,0.188282,0.277529,0
1,0,0,0.297297,0.285714,0.079646,0.048344,0.031607,0.059908,0.048331,1
1,0,0,0.682432,0.672269,0.172566,0.657694,0.634835,0.560237,0.437967,1
0,1,0,0.716216,0.731092,0.132743,0.401098,0.353396,0.347597,0.292476,1
0,1,0,0.885135,0.882353,0.168142,0.614663,0.455615,0.571429,0.516692,0
0,0,1,0.574324,0.529412,0.10177,0.202763,0.205111,0.146807,0.139013,1
0,1,0,0.506757,0.512605,0.110619,0.1762,0.13618,0.131007,0.167912,0
1,0,0,0.716216,0.672269,0.141593,0.396494,0.357767,0.358789,0.26856,0
0,0,1,0.675676,0.655462,0.141593,0.324243,0.30195,0.254115,0.237668,1
0,1,0,0.641892,0.630252,0.123894,0.286347,0.246806,0.211323,0.272546,1
1,0,0,0.682432,0.647059,0.154867,0.433327,0.362811,0.355497,0.323866,0
0,1,0,0.743243,0.773109,0.141593,0.446963,0.383658,0.428571,0.318386,1
1,0,0,0.621622,0.613445,0.141593,0.26368,0.233356,0.198815,0.216243,0
1,0,0,0.777027,0.764706,0.154867,0.465557,0.426026,0.34233,0.361236,0
1,0,0,0.297297,0.268908,0.066372,0.04498,0.032952,0.038183,0.038366,1
0,1,0,0.878378,0.882353,0.163717,0.538693,0.54035,0.472679,0.434479,1
1,0,0,0.689189,0.680672,0.132743,0.426421,0.390047,0.283739,0.320379,0
0,1,0,0.412162,0.445378,0.10177,0.228617,0.216543,0.173799,0.161933,1
1,0,0,0.682432,0.647059,0.132743,0.369931,0.34768,0.287031,0.27703,0
1,0,0,0.72973,0.705882,0.168142,0.506995,0.491258,0.400922,0.325859,1
1,0,0,0.790541,0.764706,0.146018,0.579246,0.51614,0.466096,0.389636,0
1,0,0,0.527027,0.512605,0.110619,0.153887,0.112979,0.140882,0.143,0
1,0,0,0.797297,0.789916,0.141593,0.482026,0.422327,0.366689,0.337319,1
1,0,0,0.554054,0.529412,0.137168,0.342129,0.281103,0.322581,0.23418,1
0,1,0,0.675676,0.638655,0.137168,0.31716,0.276059,0.305464,0.227703,1
1,0,0,0.52027,0.487395,0.097345,0.162033,0.157364,0.115866,0.114101,1
0,0,1,0.635135,0.621849,0.123894,0.287763,0.204438,0.303489,0.241654,0
0,0,1,0.486486,0.411765,0.106195,0.210554,0.173504,0.182357,0.162431,1
1,0,0,0.452703,0.411765,0.088496,0.105897,0.082717,0.090191,0.088191,1
1,0,0,0.695946,0.697479,0.141593,0.426421,0.321453,0.318631,0.306428,1
1,0,0,0.810811,0.789916,0.154867,0.495838,0.324143,0.42133,0.461883,0
0,1,0,0.567568,0.537815,0.132743,0.210731,0.175185,0.17709,0.175884,0
0,0,1,0.459459,0.445378,0.097345,0.131574,0.117014,0.098749,0.107125,1
0,1,0,0.871622,0.87395,0.172566,0.760935,0.721923,0.502304,0.581465,0
1,0,0,0.722973,0.705882,0.150442,0.362848,0.291863,0.306781,0.300947,0
0,0,1,0.439189,0.436975,0.075221,0.094032,0.077337,0.076366,0.074738,1
0,0,1,0.432432,0.428571,0.084071,0.110147,0.087424,0.094141,0.091181,1
1,0,0,0.844595,0.831933,0.176991,0.538693,0.465367,0.402238,0.437469,0
0,0,1,0.682432,0.647059,0.128319,0.279263,0.236382,0.215932,0.239661,0
1,0,0,0.668919,0.613445,0.137168,0.356295,0.252858,0.253456,0.337319,0
0,0,1,0.648649,0.672269,0.150442,0.298034,0.207128,0.250165,0.297459,0
0,0,1,0.412162,0.411765,0.088496,0.100584,0.087088,0.073074,0.088191,1
1,0,0,0.621622,0.647059,0.132743,0.238888,0.171486,0.182357,0.257598,0
1,0,0,0.614865,0.588235,0.110619,0.230034,0.18191,0.210665,0.183857,1
0,0,1,0.614865,0.630252,0.115044,0.248805,0.232011,0.185648,0.186846,1
1,0,0,0.898649,0.882353,0.181416,0.842571,0.547747,0.617512,0.484803,0
1,0,0,0.797297,0.773109,0.168142,0.5796,0.558171,0.470046,0.368211,0
0,0,1,0.135135,0.12605,0.048673,0.010448,0.006389,0.0079,0.010962,1
0,0,1,0.513514,0.453782,0.119469,0.289711,0.268662,0.225148,0.208769,1
1,0,0,0.574324,0.596639,0.132743,0.233752,0.188635,0.179724,0.217738,0
0,0,1,0.601351,0.546218,0.115044,0.188596,0.159045,0.159974,0.15147,1
1,0,0,0.668919,0.663866,0.123894,0.280857,0.226967,0.194207,0.242651,1
0,0,1,0.418919,0.394958,0.088496,0.090491,0.066577,0.079658,0.084205,1
1,0,0,0.756757,0.764706,0.163717,0.462546,0.365165,0.418038,0.37419,1
0,1,0,0.75,0.739496,0.176991,0.504162,0.442502,0.441738,0.37718,0
1,0,0,0.736486,0.722689,0.137168,0.36391,0.285138,0.304147,0.332337,0
0,1,0,0.756757,0.806723,0.168142,0.439171,0.386685,0.325214,0.387145,0
0,1,0,0.682432,0.705882,0.119469,0.326899,0.262273,0.21659,0.272546,0
0,1,0,0.709459,0.689076,0.141593,0.400567,0.31271,0.379197,0.295466,0
0,0,1,0.716216,0.722689,0.132743,0.437755,0.424008,0.296906,0.327354,0
1,0,0,0.439189,0.411765,0.110619,0.146981,0.127774,0.117841,0.115595,1
0,0,1,0.324324,0.260504,0.053097,0.043563,0.039677,0.048716,0.033383,1
0,1,0,0.567568,0.579832,0.137168,0.227554,0.162071,0.173799,0.20279,0
1,0,0,0.689189,0.705882,0.132743,0.376483,0.356759,0.261356,0.285999,0
0,0,1,0.243243,0.226891,0.044248,0.028688,0.019166,0.02765,0.025411,1
0,0,1,0.337838,0.327731,0.061947,0.061094,0.058171,0.046083,0.038366,1
0,0,1,0.317568,0.310924,0.079646,0.050823,0.040013,0.040816,0.043348,1
1,0,0,0.790541,0.806723,0.168142,0.5626,0.431406,0.390388,0.5142,1
1,0,0,0.628378,0.596639,0.115044,0.197627,0.159045,0.139566,0.172895,1
0,1,0,0.736486,0.714286,0.146018,0.357889,0.357431,0.574062,0.321375,0
0,0,1,0.439189,0.428571,0.088496,0.101116,0.076328,0.082949,0.093174,0
0,1,0,0.72973,0.747899,0.146018,0.415973,0.327505,0.320606,0.342302,0
1,0,0,0.790541,0.747899,0.146018,0.466619,0.447882,0.353522,0.338316,1
0,1,0,0.581081,0.563025,0.10177,0.233044,0.204102,0.204082,0.172895,1
0,1,0,0.560811,0.546218,0.115044,0.190189,0.153329,0.177749,0.16293,0
1,0,0,0.837838,0.865546,0.20354,0.666903,0.582044,0.572087,0.496761,0
1,0,0,0.702703,0.705882,0.141593,0.465911,0.273705,0.307439,0.576482,0
0,1,0,0.506757,0.495798,0.119469,0.197627,0.154674,0.179724,0.143,0
1,0,0,0.371622,0.344538,0.079646,0.069417,0.048083,0.073074,0.058296,0
0,0,1,0.452703,0.453782,0.088496,0.138835,0.139206,0.085583,0.104136,1
0,1,0,0.614865,0.630252,0.132743,0.261732,0.217888,0.243581,0.193822,1
0,1,0,0.689189,0.680672,0.146018,0.374004,0.32616,0.328506,0.29148,1
0,1,0,0.682432,0.638655,0.137168,0.31043,0.285138,0.221198,0.240159,0
1,0,0,0.871622,0.87395,0.20354,0.803081,0.593477,0.524029,0.661186,0
1,0,0,0.527027,0.504202,0.09292,0.169116,0.151984,0.162607,0.123069,1
0,0,1,0.574324,0.563025,0.110619,0.205773,0.197041,0.17314,0.158445,1
0,0,1,0.675676,0.663866,0.150442,0.329201,0.240081,0.281764,0.257598,0
0,0,1,0.304054,0.277311,0.057522,0.041615,0.034297,0.01975,0.033383,1
1,0,0,0.736486,0.689076,0.168142,0.474411,0.382986,0.41738,0.352267,0
1,0,0,0.743243,0.714286,0.163717,0.426598,0.394082,0.381172,0.283508,1
0,0,1,0.641892,0.621849,0.132743,0.225607,0.180229,0.176432,0.214748,1
1,0,0,0.668919,0.605042,0.115044,0.310962,0.286819,0.256748,0.235675,0
1,0,0,0.756757,0.739496,0.137168,0.482203,0.391392,0.392363,0.292476,0
0,1,0,0.527027,0.495798,0.10177,0.148397,0.104573,0.119157,0.132536,1
0,0,1,0.5,0.462185,0.088496,0.154064,0.108944,0.098749,0.167912,0
0,1,0,0.547297,0.554622,0.119469,0.189127,0.126765,0.186307,0.170902,0
0,0,1,0.655405,0.655462,0.146018,0.293961,0.231675,0.235023,0.276532,1
1,0,0,0.722973,0.731092,0.141593,0.405171,0.400807,0.323239,0.262581,1
0,1,0,0.831081,0.815126,0.137168,0.514255,0.418964,0.408163,0.387145,1
1,0,0,0.75,0.789916,0.172566,0.464494,0.331204,0.337064,0.461883,0
0,1,0,0.790541,0.781513,0.159292,0.535506,0.35306,0.391047,0.41704,0
1,0,0,0.871622,0.915966,0.207965,0.792102,0.661063,0.540487,0.617339,0
0,0,1,0.148649,0.537815,0.106195,0.163804,0.131137,0.136932,0.147982,1
0,0,1,0.722973,0.714286,0.146018,0.387817,0.282784,0.346939,0.332337,0
0,1,0,0.439189,0.428571,0.10177,0.122012,0.098521,0.090849,0.113104,0
1,0,0,0.783784,0.806723,0.181416,0.581725,0.490585,0.472679,0.456901,0
1,0,0,0.506757,0.453782,0.10177,0.151762,0.14963,0.102699,0.113602,1
0,0,1,0.439189,0.436975,0.088496,0.113512,0.095494,0.096116,0.089188,1
1,0,0,0.722973,0.714286,0.123894,0.375598,0.346335,0.295589,0.288989,0
1,0,0,0.277027,0.243697,0.070796,0.031698,0.02152,0.02765,0.028401,1
0,0,1,0.331081,0.310924,0.061947,0.046396,0.038668,0.032916,0.039362,1
0,1,0,0.581081,0.596639,0.132743,0.224013,0.162744,0.175115,0.212755,0
0,1,0,0.655405,0.630252,0.128319,0.317337,0.261264,0.305464,0.242651,1
1,0,0,0.641892,0.680672,0.115044,0.250221,0.204438,0.190915,0.20279,0
1,0,0,0.371622,0.352941,0.097345,0.104303,0.091123,0.082291,0.083209,1
0,0,1,0.783784,0.773109,0.128319,0.442005,0.353396,0.371955,0.312407,0
0,0,1,0.344595,0.352941,0.075221,0.068709,0.051446,0.0395,0.04285,1
1,0,0,0.736486,0.764706,0.154867,0.453161,0.383658,0.313364,0.387145,0
0,1,0,0.743243,0.739496,0.146018,0.446255,0.340282,0.418038,0.387145,0
1,0,0,0.581081,0.647059,0.123894,0.292368,0.228985,0.243581,0.236672,1
0,0,1,0.540541,0.512605,0.119469,0.153533,0.131137,0.121132,0.123069,1
1,0,0,0.682432,0.647059,0.141593,0.293076,0.225622,0.263331,0.246139,1
0,1,0,0.635135,0.554622,0.132743,0.395431,0.364156,0.321264,0.282013,1
1,0,0,0.743243,0.739496,0.163717,0.489286,0.477135,0.394997,0.342302,0
0,1,0,0.736486,0.815126,0.146018,0.402692,0.335239,0.319947,0.35426,0
1,0,0,0.574324,0.521008,0.115044,0.209846,0.207128,0.142199,0.15147,1
0,0,1,0.533784,0.529412,0.106195,0.165929,0.123403,0.138249,0.152965,0
0,0,1,0.202703,0.176471,0.039823,0.015761,0.01614,0.019092,0.013453,1
0,1,0,0.486486,0.453782,0.097345,0.152825,0.119032,0.129032,0.152965,1
0,1,0,0.75,0.714286,0.141593,0.423942,0.353396,0.440421,0.312407,0
0,0,1,0.52027,0.495798,0.106195,0.172304,0.129119,0.137591,0.152965,0
0,0,1,0.47973,0.453782,0.079646,0.149814,0.145259,0.113891,0.093174,1
0,0,1,0.628378,0.638655,0.128319,0.342837,0.287492,0.289006,0.261584,0
0,0,1,0.074324,0.07563,0.026549,0.003896,0.002354,0.003292,0.002491,1
0,0,1,0.472973,0.436975,0.084071,0.129449,0.124748,0.088216,0.096662,1
0,1,0,0.635135,0.630252,0.141593,0.298211,0.264627,0.243581,0.2287,1
0,0,1,0.405405,0.378151,0.070796,0.071011,0.054808,0.062541,0.063279,1
0,1,0,0.52027,0.537815,0.106195,0.162387,0.118695,0.144174,0.147982,1
1,0,0,0.506757,0.470588,0.110619,0.122897,0.079354,0.138249,0.113104,0
0,0,1,0.662162,0.647059,0.154867,0.308659,0.27774,0.275839,0.207773,0
0,0,1,0.216216,0.176471,0.035398,0.016292,0.011769,0.023041,0.013453,1
1,0,0,0.533784,0.529412,0.159292,0.179919,0.12811,0.168532,0.160438,1
1,0,0,0.594595,0.563025,0.137168,0.251638,0.247814,0.179724,0.152965,1
1,0,0,0.533784,0.537815,0.115044,0.184523,0.143241,0.17314,0.143,1
1,0,0,0.513514,0.521008,0.084071,0.181335,0.150303,0.132324,0.147982,0
1,0,0,0.885135,0.907563,0.20354,1,0.770343,0.55102,0.892377,0
0,1,0,0.432432,0.436975,0.09292,0.123783,0.079018,0.119157,0.117588,0
0,1,0,0.716216,0.663866,0.172566,0.388171,0.322798,0.380513,0.312407,0
0,1,0,0.72973,0.697479,0.137168,0.383212,0.395091,0.274523,0.243647,1
0,1,0,0.682432,0.621849,0.137168,0.308482,0.242434,0.327189,0.236672,0
0,0,1,0.27027,0.277311,0.070796,0.047636,0.037323,0.036866,0.040359,1
0,1,0,0.689189,0.663866,0.150442,0.306889,0.222932,0.214615,0.267564,0
0,0,1,0.648649,0.621849,0.115044,0.228794,0.18998,0.174457,0.208271,1
1,0,0,0.709459,0.705882,0.154867,0.392421,0.342636,0.336406,0.282511,1
0,1,0,0.560811,0.537815,0.119469,0.216221,0.17115,0.133641,0.217738,0
0,0,1,0.432432,0.403361,0.084071,0.095803,0.076664,0.081633,0.083209,1
1,0,0,0.554054,0.554622,0.09292,0.19621,0.198386,0.136274,0.131041,1
1,0,0,0.682432,0.663866,0.123894,0.358066,0.254876,0.283739,0.35725,0
1,0,0,0.824324,0.806723,0.137168,0.489641,0.444183,0.281764,0.404584,0
1,0,0,0.871622,0.882353,0.168142,0.738976,0.668796,0.628703,0.527155,0
0,0,1,0.709459,0.714286,0.150442,0.324243,0.254876,0.292298,0.287494,1
0,1,0,0.675676,0.680672,0.163717,0.386754,0.300941,0.285056,0.342302,0
1,0,0,0.837838,0.865546,0.176991,0.71932,0.504371,0.559579,0.681116,0
1,0,0,0.77027,0.739496,0.132743,0.427661,0.404842,0.292298,0.336323,1
0,0,1,0.554054,0.537815,0.115044,0.195325,0.178211,0.146807,0.154958,1
1,0,0,0.783784,0.798319,0.154867,0.446786,0.32616,0.34628,0.412058,0
0,0,1,0.506757,0.521008,0.110619,0.162918,0.142905,0.129032,0.129547,1
1,0,0,0.75,0.764706,0.154867,0.474411,0.441493,0.344305,0.372197,0
0,0,1,0.277027,0.252101,0.061947,0.03524,0.0269,0.038841,0.028401,1
0,0,1,0.601351,0.605042,0.123894,0.225075,0.206456,0.175115,0.165919,1
0,1,0,0.608108,0.579832,0.119469,0.252169,0.213181,0.18104,0.20578,0
1,0,0,0.574324,0.563025,0.110619,0.183991,0.166443,0.15339,0.129048,1
0,0,1,0.533784,0.504202,0.106195,0.173366,0.118023,0.147465,0.130543,1
0,0,1,0.256757,0.235294,0.048673,0.029042,0.023874,0.022383,0.023418,1
0,0,1,0.391892,0.344538,0.10177,0.076501,0.062206,0.057933,0.068261,1
0,1,0,0.756757,0.747899,0.159292,0.463963,0.355077,0.326531,0.481814,0
0,1,0,0.689189,0.655462,0.123894,0.322649,0.288837,0.289664,0.250623,0
0,0,1,0.635135,0.638655,0.119469,0.272534,0.249496,0.194207,0.224714,1
0,1,0,0.722973,0.739496,0.163717,0.40765,0.359785,0.38183,0.242651,1
0,0,1,0.114865,0.109244,0.030973,0.006729,0.004371,0.005267,0.003488,1
0,1,0,0.47973,0.495798,0.079646,0.139897,0.105245,0.116524,0.118087,1
0,0,1,0.222973,0.210084,0.048673,0.018948,0.015131,0.016458,0.016442,1
0,0,1,0.574324,0.571429,0.128319,0.277847,0.222596,0.238315,0.243149,1
0,1,0,0.702703,0.647059,0.119469,0.340712,0.335911,0.225148,0.255107,0
0,1,0,0.587838,0.537815,0.097345,0.204888,0.191997,0.154707,0.145989,1
0,1,0,0.777027,0.747899,0.168142,0.517797,0.430733,0.445688,0.421525,1
0,0,1,0.682432,0.697479,0.132743,0.320524,0.297915,0.243581,0.242152,0
1,0,0,0.628378,0.613445,0.137168,0.260846,0.235709,0.199473,0.212755,0
1,0,0,0.709459,0.697479,0.154867,0.39065,0.326496,0.324556,0.312407,0
0,0,1,0.304054,0.294118,0.066372,0.044271,0.034297,0.038841,0.032885,1
0,0,1,0.47973,0.462185,0.084071,0.112626,0.078682,0.084924,0.121076,1
0,0,1,0.452703,0.420168,0.084071,0.092261,0.066577,0.067149,0.088191,1
1,0,0,0.358108,0.369748,0.079646,0.072428,0.048083,0.055958,0.068261,0
1,0,0,0.878378,0.865546,0.168142,0.824686,0.841964,0.711652,0.516692,1
0,1,0,0.804054,0.890756,0.141593,0.462901,0.365501,0.387097,0.410065,0
0,1,0,0.810811,0.815126,0.185841,0.563485,0.460659,0.418038,0.446936,0
1,0,0,0.777027,0.789916,0.168142,0.483974,0.401143,0.389072,0.39711,0
0,1,0,0.790541,0.798319,0.150442,0.506109,0.417619,0.406188,0.395117,0
1,0,0,0.756757,0.773109,0.150442,0.450859,0.341627,0.375905,0.337319,0
1,0,0,0.702703,0.672269,0.137168,0.367983,0.279085,0.276498,0.362232,0
1,0,0,0.364865,0.336134,0.070796,0.059146,0.039677,0.0553,0.052317,0
0,0,1,0.641892,0.621849,0.137168,0.308305,0.276395,0.245556,0.240159,0
0,1,0,0.722973,0.697479,0.141593,0.359483,0.28581,0.296248,0.317389,0
0,0,1,0.405405,0.394958,0.123894,0.105543,0.093477,0.081633,0.080717,1
0,0,1,0.385135,0.352941,0.084071,0.081282,0.069939,0.059908,0.073244,1
0,1,0,0.560811,0.512605,0.097345,0.176554,0.107599,0.140224,0.192825,0
0,1,0,0.608108,0.647059,0.110619,0.251284,0.214862,0.20869,0.189337,1
0,0,1,0.621622,0.563025,0.110619,0.21144,0.17384,0.195523,0.166916,1
1,0,0,0.648649,0.680672,0.141593,0.303878,0.224277,0.254115,0.272546,0
0,0,1,0.675676,0.621849,0.119469,0.281388,0.244116,0.257406,0.236672,0
0,1,0,0.621622,0.579832,0.132743,0.432796,0.414929,0.361422,0.285002,0
0,0,1,0.587838,0.588235,0.106195,0.215336,0.153329,0.171824,0.232686,0
0,1,0,0.709459,0.705882,0.137168,0.427838,0.438467,0.222515,0.317887,0
0,1,0,0.412162,0.394958,0.09292,0.090313,0.065905,0.066491,0.083209,0
1,0,0,0.716216,0.747899,0.154867,0.388171,0.319771,0.304806,0.372197,0
0,1,0,0.689189,0.663866,0.141593,0.380733,0.335239,0.37788,0.247633,0
0,1,0,0.621622,0.579832,0.132743,0.284222,0.224277,0.279131,0.207773,0
1,0,0,0.506757,0.495798,0.115044,0.164158,0.13887,0.136932,0.133034,1
0,1,0,0.736486,0.722689,0.137168,0.422348,0.342636,0.356155,0.349278,1
0,1,0,0.72973,0.705882,0.128319,0.336639,0.262609,0.25609,0.317389,1
0,1,0,0.527027,0.512605,0.106195,0.168054,0.128447,0.147465,0.157947,0
0,0,1,0.682432,0.680672,0.123894,0.32743,0.277404,0.242265,0.267564,0
0,1,0,0.587838,0.579832,0.123894,0.287763,0.308003,0.258065,0.192825,0
1,0,0,0.716216,0.705882,0.123894,0.395077,0.372562,0.337722,0.27155,1
0,1,0,0.533784,0.512605,0.115044,0.16646,0.121722,0.14944,0.147982,0
1,0,0,0.777027,0.781513,0.185841,0.593767,0.447545,0.404872,0.456901,0
0,1,0,0.621622,0.680672,0.128319,0.278201,0.22764,0.263331,0.197808,1
0,1,0,0.398649,0.403361,0.088496,0.094386,0.077673,0.073074,0.081714,1
1,0,0,0.459459,0.428571,0.079646,0.11422,0.087088,0.096116,0.113104,1
0,1,0,0.756757,0.747899,0.168142,0.456171,0.398117,0.400263,0.349278,1
1,0,0,0.716216,0.697479,0.159292,0.403223,0.251849,0.368664,0.382162,0
1,0,0,0.635135,0.596639,0.123894,0.260315,0.234028,0.19684,0.209766,1
1,0,0,0.709459,0.747899,0.141593,0.358775,0.267989,0.227781,0.327354,0
0,1,0,0.790541,0.798319,0.159292,0.536745,0.52152,0.396972,0.398107,0
1,0,0,0.844595,0.87395,0.168142,0.804321,0.735709,0.549704,0.63428,0
1,0,0,0.371622,0.352941,0.079646,0.062157,0.037996,0.054641,0.066268,0
0,0,1,0.472973,0.487395,0.110619,0.149814,0.106927,0.104016,0.151968,0
1,0,0,0.797297,0.781513,0.154867,0.48539,0.406859,0.420671,0.392128,0
0,1,0,0.574324,0.554622,0.10177,0.239596,0.197377,0.18104,0.192825,0
1,0,0,0.439189,0.436975,0.09292,0.100939,0.075656,0.048058,0.111111,0
0,0,1,0.641892,0.621849,0.128319,0.314503,0.290182,0.22449,0.233682,0
0,1,0,0.689189,0.672269,0.115044,0.309368,0.275723,0.271231,0.22272,1
0,1,0,0.628378,0.647059,0.141593,0.385514,0.262273,0.301514,0.352267,0
0,1,0,0.804054,0.756303,0.181416,0.482557,0.407868,0.39763,0.350274,1
0,0,1,0.378378,0.336134,0.070796,0.065522,0.051782,0.065833,0.056303,1
0,0,1,0.493243,0.453782,0.088496,0.146804,0.123739,0.113232,0.108122,1
0,0,1,0.445946,0.411765,0.09292,0.106959,0.097176,0.079658,0.078724,1
0,1,0,0.72973,0.672269,0.128319,0.394369,0.338601,0.312706,0.312407,0
0,0,1,0.405405,0.394958,0.075221,0.083761,0.078682,0.058591,0.067763,1
0,0,1,0.405405,0.319328,0.088496,0.138835,0.110962,0.119157,0.110613,1
1,0,0,0.587838,0.563025,0.119469,0.271649,0.263954,0.190915,0.187843,1
1,0,0,0.682432,0.680672,0.159292,0.404817,0.322125,0.364055,0.322372,0
1,0,0,0.716216,0.722689,0.154867,0.404817,0.290182,0.354839,0.402093,0
1,0,0,0.763514,0.756303,0.159292,0.458651,0.3961,0.410797,0.360239,0
0,1,0,0.648649,0.613445,0.123894,0.306712,0.221251,0.319289,0.207773,0
1,0,0,0.608108,0.613445,0.137168,0.297503,0.287155,0.185648,0.202292,1
0,0,1,0.351351,0.327731,0.070796,0.058438,0.044721,0.042133,0.055805,1
0,1,0,0.851351,0.840336,0.172566,0.619975,0.477135,0.554312,0.512706,0
0,1,0,0.554054,0.546218,0.132743,0.213565,0.14425,0.183673,0.177877,0
0,0,1,0.574324,0.537815,0.106195,0.191252,0.143914,0.152074,0.167912,1
0,1,0,0.77027,0.764706,0.141593,0.438994,0.390383,0.362739,0.312407,1
1,0,0,0.722973,0.714286,0.146018,0.43988,0.426026,0.337722,0.302441,0
0,0,1,0.277027,0.243697,0.066372,0.042678,0.035978,0.014483,0.033383,1
1,0,0,0.77027,0.747899,0.172566,0.495484,0.413921,0.462146,0.369706,0
0,1,0,0.722973,0.697479,0.146018,0.416681,0.37996,0.36603,0.29148,0
0,1,0,0.722973,0.663866,0.115044,0.308305,0.260928,0.225148,0.269557,0
1,0,0,0.412162,0.361345,0.084071,0.076855,0.055481,0.067149,0.068261,1
1,0,0,0.675676,0.672269,0.146018,0.306357,0.252522,0.236998,0.265571,1
1,0,0,0.743243,0.747899,0.159292,0.484682,0.433087,0.398288,0.367713,0
0,1,0,0.783784,0.773109,0.137168,0.462901,0.351715,0.454905,0.382162,0
1,0,0,0.72973,0.697479,0.154867,0.439171,0.380968,0.377222,0.3144,0
1,0,0,0.912162,0.831933,0.159292,0.669736,0.632818,0.522054,0.441953,0
1,0,0,0.608108,0.588235,0.119469,0.267576,0.221587,0.283739,0.192825,0
1,0,0,0.641892,0.605042,0.154867,0.368337,0.220915,0.305464,0.287992,0
0,1,0,0.662162,0.672269,0.154867,0.358066,0.229321,0.271889,0.347285,0
0,0,1,0.641892,0.605042,0.132743,0.279617,0.237054,0.231073,0.233682,0
0,1,0,0.635135,0.588235,0.154867,0.346379,0.173167,0.271889,0.37718,0
0,0,1,0.378378,0.369748,0.075221,0.077209,0.061197,0.078341,0.147982,1
0,0,1,0.317568,0.302521,0.066372,0.052948,0.036987,0.040816,0.048331,1
1,0,0,0.75,0.773109,0.137168,0.445192,0.275387,0.258723,0.407075,0
1,0,0,0.675676,0.672269,0.163717,0.408713,0.370881,0.319289,0.292476,0
1,0,0,0.932432,0.890756,0.159292,0.848592,0.757902,0.673469,0.530144,0
0,1,0,0.513514,0.521008,0.097345,0.135647,0.110962,0.059908,0.132536,0
1,0,0,0.695946,0.747899,0.146018,0.390473,0.306321,0.318631,0.337319,0
0,0,1,0.466216,0.445378,0.097345,0.127678,0.116342,0.082949,0.103139,1
1,0,0,0.560811,0.563025,0.132743,0.202231,0.150639,0.162607,0.167912,0
0,1,0,0.547297,0.579832,0.110619,0.268107,0.142233,0.235023,0.237668,0
0,1,0,0.527027,0.537815,0.119469,0.211794,0.148958,0.16919,0.227703,0
1,0,0,0.682432,0.663866,0.132743,0.327608,0.184936,0.238315,0.35725,0
0,1,0,0.601351,0.596639,0.10177,0.285107,0.191325,0.235023,0.232686,0
1,0,0,0.405405,0.394958,0.088496,0.097043,0.078346,0.073733,0.083209,1
1,0,0,0.547297,0.504202,0.141593,0.163627,0.147949,0.138907,0.236672,1
0,1,0,0.567568,0.554622,0.115044,0.243846,0.209482,0.235023,0.172895,0
1,0,0,0.540541,0.537815,0.115044,0.182575,0.13887,0.152732,0.167912,0
0,0,1,0.439189,0.428571,0.10177,0.110501,0.103228,0.077683,0.085202,1
0,0,1,0.081081,0.12605,0.035398,0.009563,0.007734,0.0079,0.006477,1
1,0,0,0.527027,0.478992,0.09292,0.171418,0.154674,0.135616,0.120578,1
1,0,0,0.75,0.798319,0.159292,0.452453,0.414929,0.336406,0.312407,1
0,0,1,0.445946,0.428571,0.097345,0.321587,0.279085,0.272548,0.097658,1
1,0,0,0.601351,0.554622,0.123894,0.232867,0.166443,0.267281,0.157947,1
0,1,0,0.412162,0.411765,0.079646,0.113157,0.103228,0.098091,0.093174,1
1,0,0,0.533784,0.521008,0.119469,0.184169,0.16039,0.200132,0.143,0
0,0,1,0.743243,0.697479,0.137168,0.422702,0.431742,0.269914,0.311908,0
0,0,1,0.344595,0.344538,0.070796,0.066584,0.050773,0.050033,0.063279,1
0,1,0,0.763514,0.705882,0.123894,0.379139,0.328514,0.301514,0.307424,1
1,0,0,0.52027,0.521008,0.110619,0.164689,0.126765,0.123766,0.155954,0
0,0,1,0.405405,0.378151,0.079646,0.075438,0.055817,0.078341,0.053313,1
1,0,0,0.75,0.756303,0.199115,0.539401,0.375925,0.438446,0.446936,0
0,1,0,0.675676,0.663866,0.141593,0.377546,0.373235,0.281106,0.255107,0
0,1,0,0.858108,0.747899,0.132743,0.465557,0.458978,0.36998,0.277529,0
1,0,0,0.587838,0.563025,0.110619,0.231804,0.175521,0.240948,0.172895,0
1,0,0,0.702703,0.663866,0.123894,0.296086,0.265972,0.254773,0.214748,0
1,0,0,0.378378,0.344538,0.075221,0.066761,0.0538,0.063199,0.053313,1
1,0,0,0.621622,0.596639,0.119469,0.304587,0.191325,0.200132,0.317389,0
1,0,0,0.709459,0.705882,0.168142,0.384452,0.270343,0.348914,0.322372,0
1,0,0,0.668919,0.655462,0.141593,0.358597,0.346335,0.215273,0.297459,0
1,0,0,0.560811,0.504202,0.137168,0.346733,0.312038,0.264648,0.248132,1
1,0,0,0.689189,0.663866,0.154867,0.398619,0.330531,0.344305,0.332337,0
0,1,0,0.743243,0.731092,0.137168,0.470338,0.448218,0.340355,0.327354,0
1,0,0,0.736486,0.697479,0.119469,0.360368,0.356759,0.263331,0.245142,1
0,0,1,0.398649,0.369748,0.123894,0.07774,0.06456,0.05925,0.059791,1
1,0,0,0.594595,0.563025,0.106195,0.216221,0.202421,0.179065,0.139512,1
0,0,1,0.641892,0.638655,0.146018,0.284045,0.227976,0.254773,0.241654,1
0,1,0,0.648649,0.621849,0.123894,0.278378,0.188971,0.209348,0.282511,0
1,0,0,0.371622,0.369748,0.097345,0.102886,0.081708,0.082949,0.08869,1
0,0,1,0.243243,0.218487,0.053097,0.030459,0.023874,0.026991,0.021425,1
1,0,0,0.608108,0.596639,0.115044,0.34992,0.259247,0.319289,0.292476,0
0,1,0,0.695946,0.689076,0.150442,0.368514,0.311029,0.315339,0.267564,0
0,0,1,0.310811,0.294118,0.066372,0.050823,0.039341,0.0395,0.048331,1
0,1,0,0.871622,0.87395,0.190265,0.743049,0.575319,0.634628,0.598406,0
0,0,1,0.378378,0.369748,0.079646,0.088188,0.06456,0.069124,0.078226,1
1,0,0,0.736486,0.747899,0.146018,0.462192,0.426698,0.334431,0.312407,1
1,0,0,0.574324,0.563025,0.115044,0.250398,0.184264,0.22054,0.177877,0
0,0,1,0.398649,0.361345,0.084071,0.081459,0.088433,0.053325,0.059791,1
0,0,1,0.236486,0.210084,0.053097,0.025146,0.018157,0.021725,0.020927,1
0,1,0,0.655405,0.647059,0.137168,0.343014,0.289509,0.345622,0.252616,1
0,0,1,0.594595,0.579832,0.110619,0.209138,0.177539,0.154049,0.165919,1
0,0,1,0.614865,0.588235,0.115044,0.233575,0.197377,0.183015,0.187843,1
0,0,1,0.121622,0.10084,0.013274,0.004427,0.003026,0.003292,0.003488,1
1,0,0,0.668919,0.638655,0.110619,0.316805,0.256893,0.240948,0.272546,1
0,0,1,0.486486,0.453782,0.088496,0.128918,0.116342,0.094799,0.107125,1
1,0,0,0.716216,0.705882,0.128319,0.312378,0.257229,0.250165,0.267564,1
0,1,0,0.891892,0.857143,0.199115,0.720737,0.584398,0.676761,0.564026,0
1,0,0,0.641892,0.647059,0.137168,0.323535,0.244452,0.25609,0.247633,1
0,0,1,0.385135,0.361345,0.075221,0.076678,0.070948,0.049375,0.060289,1
1,0,0,0.405405,0.386555,0.084071,0.088897,0.063887,0.075049,0.090683,1
0,0,1,0.277027,0.260504,0.066372,0.041615,0.03497,0.034233,0.028401,1
1,0,0,0.790541,0.798319,0.150442,0.491766,0.396436,0.278473,0.449925,0
0,1,0,0.547297,0.563025,0.110619,0.243846,0.146604,0.203423,0.197808,0
0,1,0,0.662162,0.663866,0.146018,0.313441,0.248151,0.314022,0.246637,0
1,0,0,0.52027,0.504202,0.097345,0.146272,0.143914,0.107307,0.128052,0
0,0,1,0.655405,0.621849,0.119469,0.289888,0.249159,0.242923,0.233682,1
1,0,0,0.668919,0.638655,0.115044,0.266159,0.234028,0.230415,0.191829,0
0,1,0,0.682432,0.680672,0.106195,0.35116,0.310356,0.313364,0.277529,0
0,1,0,0.824324,0.806723,0.154867,0.560475,0.481843,0.496379,0.418535,1
0,0,1,0.655405,0.621849,0.123894,0.324243,0.268662,0.259381,0.257598,0
1,0,0,0.763514,0.731092,0.123894,0.422171,0.298252,0.312706,0.372197,0
0,1,0,0.72973,0.739496,0.137168,0.381973,0.349025,0.249506,0.317389,1
0,0,1,0.189189,0.159664,0.048673,0.013813,0.009415,0.011192,0.010962,1
1,0,0,0.736486,0.714286,0.141593,0.380556,0.276395,0.332456,0.297459,0
0,1,0,0.709459,0.747899,0.141593,0.396671,0.341964,0.336406,0.306428,0
0,1,0,0.77027,0.747899,0.137168,0.431557,0.412576,0.310072,0.315894,0
0,1,0,0.668919,0.680672,0.150442,0.388879,0.276732,0.289664,0.37718,0
0,1,0,0.662162,0.663866,0.154867,0.437223,0.356086,0.322581,0.305431,0
0,1,0,0.601351,0.579832,0.110619,0.24243,0.197714,0.225148,0.18286,1
1,0,0,0.574324,0.546218,0.110619,0.203648,0.180229,0.165899,0.15147,1
1,0,0,0.743243,0.689076,0.123894,0.422525,0.323806,0.269256,0.39711,0
1,0,0,0.655405,0.596639,0.146018,0.32867,0.235037,0.311389,0.297459,0
1,0,0,0.635135,0.663866,0.132743,0.310784,0.259583,0.19684,0.26009,0
0,1,0,0.722973,0.630252,0.123894,0.321233,0.29388,0.262673,0.217738,1
0,1,0,0.783784,0.756303,0.168142,0.47689,0.398453,0.360764,0.422023,0
0,1,0,0.641892,0.689076,0.159292,0.428723,0.217552,0.269256,0.521674,0
0,1,0,0.783784,0.773109,0.150442,0.54011,0.569939,0.34628,0.328351,0
1,0,0,0.635135,0.647059,0.123894,0.296618,0.238736,0.250165,0.236173,0
0,1,0,0.635135,0.647059,0.119469,0.324597,0.287828,0.264648,0.235177,0
1,0,0,0.439189,0.420168,0.115044,0.103241,0.063887,0.088216,0.103139,1
1,0,0,0.601351,0.579832,0.128319,0.274305,0.236382,0.242265,0.18286,1
0,0,1,0.452703,0.453782,0.09292,0.127147,0.107263,0.086899,0.101146,1
1,0,0,0.506757,0.495798,0.115044,0.16221,0.116342,0.14549,0.133034,1
0,0,1,0.425676,0.411765,0.084071,0.114928,0.111298,0.075049,0.087195,1
0,0,1,0.243243,0.218487,0.057522,0.0255,0.019839,0.021066,0.018435,1
0,1,0,0.601351,0.588235,0.110619,0.2272,0.161735,0.227781,0.207773,0
1,0,0,0.716216,0.705882,0.168142,0.39791,0.3961,0.324556,0.257598,0
1,0,0,0.925676,0.92437,0.190265,0.768904,0.537996,0.646478,0.642252,0
0,0,1,0.432432,0.428571,0.075221,0.111564,0.102219,0.065833,0.091679,1
1,0,0,0.891892,0.840336,0.19469,0.825571,0.832885,0.479263,0.615845,0
1,0,0,0.662162,0.638655,0.163717,0.34691,0.220578,0.178407,0.387145,0
0,0,1,0.358108,0.344538,0.075221,0.066053,0.054136,0.04345,0.058296,1
0,1,0,0.858108,0.840336,0.150442,0.519922,0.360794,0.499671,0.428002,0
0,0,1,0.614865,0.596639,0.132743,0.216044,0.16308,0.200132,0.187344,0
0,1,0,0.533784,0.512605,0.097345,0.175137,0.158709,0.166557,0.128052,1
0,1,0,0.506757,0.504202,0.09292,0.184346,0.158709,0.152732,0.143,1
0,1,0,0.831081,0.789916,0.168142,0.527714,0.431406,0.513496,0.41704,0
0,1,0,0.756757,0.756303,0.128319,0.401098,0.338937,0.348914,0.312407,0
1,0,0,0.587838,0.605042,0.128319,0.265274,0.220915,0.240948,0.200797,1
0,1,0,0.662162,0.663866,0.154867,0.356827,0.299933,0.312047,0.262083,1
0,1,0,0.75,0.705882,0.137168,0.353639,0.303295,0.331139,0.262581,0
1,0,0,0.722973,0.714286,0.146018,0.439702,0.374243,0.351547,0.369208,1
1,0,0,0.709459,0.714286,0.079646,0.371171,0.306658,0.352864,0.277529,1
1,0,0,0.783784,0.789916,0.141593,0.51638,0.460659,0.408822,0.402093,0
1,0,0,0.668919,0.663866,0.119469,0.360545,0.36651,0.267939,0.247633,1
0,0,1,0.222973,0.193277,0.044248,0.018594,0.013114,0.020408,0.013951,1
0,1,0,0.864865,0.857143,0.159292,0.633257,0.566913,0.464779,0.535127,1
1,0,0,0.695946,0.663866,0.137168,0.308837,0.247478,0.280448,0.237668,1
1,0,0,0.47973,0.487395,0.10177,0.107137,0.061533,0.071758,0.118087,0
0,0,1,0.540541,0.512605,0.110619,0.173012,0.137189,0.171165,0.123069,1
0,0,1,0.175676,0.159664,0.048673,0.014167,0.016476,0.019092,0.010463,1
0,1,0,0.756757,0.722689,0.168142,0.486807,0.425689,0.379197,0.403089,0
1,0,0,0.75,0.731092,0.132743,0.422702,0.392401,0.337722,0.297459,1
0,0,1,0.513514,0.470588,0.119469,0.176731,0.183591,0.130349,0.104634,1
0,1,0,0.72973,0.739496,0.146018,0.423588,0.363484,0.376564,0.315894,0
0,0,1,0.391892,0.403361,0.084071,0.087834,0.071621,0.071099,0.078226,1
0,1,0,0.864865,0.890756,0.20354,0.73331,0.581372,0.538512,0.561535,0
0,1,0,0.682432,0.647059,0.110619,0.277492,0.243443,0.256748,0.192825,0
1,0,0,0.587838,0.596639,0.137168,0.453515,0.381977,0.382488,0.376682,1
0,0,1,0.439189,0.436975,0.079646,0.11422,0.100874,0.095458,0.086198,1
0,1,0,0.905405,0.890756,0.168142,0.695591,0.566577,0.57472,0.581963,0
1,0,0,0.844595,0.815126,0.181416,0.615548,0.52959,0.490454,0.483308,0
0,0,1,0.445946,0.420168,0.09292,0.127678,0.104573,0.092166,0.123069,0
0,0,1,0.581081,0.579832,0.110619,0.197804,0.150975,0.188282,0.167912,1
1,0,0,0.608108,0.571429,0.146018,0.276253,0.190989,0.184332,0.282511,0
0,0,1,0.344595,0.344538,0.075221,0.068886,0.060861,0.0553,0.053313,1
0,1,0,0.790541,0.857143,0.172566,0.622809,0.464694,0.42923,0.496761,0
1,0,0,0.736486,0.731092,0.141593,0.365858,0.295225,0.331797,0.282511,0
1,0,0,0.743243,0.773109,0.150442,0.470692,0.384331,0.394997,0.358246,1
1,0,0,0.75,0.722689,0.146018,0.435984,0.44082,0.304147,0.300947,0
1,0,0,0.695946,0.663866,0.163717,0.453692,0.317418,0.362739,0.422023,0
1,0,0,0.662162,0.647059,0.110619,0.283336,0.241089,0.239631,0.212755,1
0,1,0,0.47973,0.470588,0.106195,0.156543,0.103564,0.150099,0.138017,0
1,0,0,0.682432,0.689076,0.154867,0.365858,0.268998,0.244898,0.382162,0
0,1,0,0.777027,0.764706,0.137168,0.4204,0.324143,0.365372,0.361734,0
0,1,0,0.459459,0.478992,0.115044,0.129449,0.097512,0.115866,0.118087,0
1,0,0,0.662162,0.630252,0.115044,0.276961,0.234364,0.247531,0.210762,1
0,1,0,0.858108,0.865546,0.172566,0.700726,0.666779,0.647795,0.476831,0
1,0,0,0.371622,0.336134,0.075221,0.075261,0.066577,0.060566,0.058296,0
0,0,1,0.25,0.268908,0.070796,0.034355,0.02421,0.032916,0.043348,1
0,0,1,0.405405,0.378151,0.075221,0.111032,0.125084,0.059908,0.065272,1
0,0,1,0.317568,0.302521,0.079646,0.044271,0.031607,0.040158,0.038366,1
1,0,0,0.743243,0.756303,0.190265,0.511245,0.332885,0.377222,0.431988,0
1,0,0,0.743243,0.722689,0.150442,0.508234,0.393073,0.385122,0.471849,0
0,1,0,0.621622,0.613445,0.132743,0.260138,0.186617,0.24424,0.212755,0
0,0,1,0.297297,0.294118,0.070796,0.056844,0.04304,0.065174,0.036871,1
0,0,1,0.601351,0.579832,0.128319,0.233044,0.178884,0.138249,0.217738,0
0,1,0,0.675676,0.714286,0.150442,0.388879,0.33961,0.326531,0.307424,0
1,0,0,0.783784,0.789916,0.163717,0.445192,0.326833,0.290981,0.441953,0
1,0,0,0.385135,0.361345,0.088496,0.076147,0.058843,0.064516,0.069756,1
1,0,0,0.655405,0.672269,0.137168,0.281565,0.227976,0.249506,0.240159,0
0,0,1,0.736486,0.663866,0.119469,0.326545,0.240081,0.297564,0.293971,0
0,0,1,0.540541,0.495798,0.088496,0.160262,0.144923,0.14549,0.113104,1
0,0,1,0.689189,0.680672,0.123894,0.269701,0.218561,0.20079,0.262581,1
0,1,0,0.844595,0.87395,0.150442,0.463255,0.341964,0.412772,0.41704,0
0,1,0,0.878378,0.848739,0.163717,0.633965,0.586416,0.482554,0.431988,0
0,0,1,0.790541,0.789916,0.190265,0.63184,0.45158,0.475313,0.403587,0
0,0,1,0.527027,0.504202,0.106195,0.204888,0.170814,0.119816,0.181863,1
1,0,0,0.783784,0.764706,0.190265,0.630954,0.596839,0.538512,0.416542,0
1,0,0,0.72973,0.697479,0.146018,0.398796,0.299597,0.288348,0.337319,0
1,0,0,0.635135,0.613445,0.128319,0.274836,0.251177,0.202765,0.20279,1
0,1,0,0.756757,0.739496,0.159292,0.564548,0.414257,0.416722,0.367215,0
0,0,1,0.324324,0.302521,0.070796,0.063042,0.053127,0.058591,0.045341,1
0,1,0,0.709459,0.756303,0.168142,0.39915,0.294217,0.336406,0.35725,0
0,1,0,0.783784,0.773109,0.176991,0.528422,0.487223,0.406188,0.402093,0
1,0,0,0.371622,0.352941,0.079646,0.079157,0.066241,0.063199,0.068261,1
1,0,0,0.804054,0.789916,0.159292,0.587746,0.53766,0.479263,0.427005,0
