Clus run mushrooms
******************

Date: 11/29/17 12:05 PM
File: agaricusLepiota.out
Attributes: 23 (input: 22, output: 1)
Missing values: Yes

[General]
Verbose = 1
Compatibility = Latest
RandomSeed = 0
ResourceInfoLoaded = No

[Data]
File = agaricusLepiota2.arff
TestSet = None
PruneSet = None
XVal = 10
RemoveMissingTarget = No
NormalizeData = None

[Attributes]
Target = 23
Clustering = 23
Descriptive = 1-22
Key = None
Disable = None
Weights = Normalize
ClusteringWeights = 1.0
ReduceMemoryNominalAttrs = No

[Constraints]
Syntactic = None
MaxSize = Infinity
MaxError = 0.0
MaxDepth = 6

[Output]
ShowModels = {Default, Pruned, Others}
TrainErrors = Yes
ValidErrors = Yes
TestErrors = Yes
AllFoldModels = Yes
AllFoldErrors = No
AllFoldDatasets = No
UnknownFrequency = No
BranchFrequency = No
ShowInfo = {Count}
PrintModelAndExamples = No
WriteErrorFile = No
WritePredictions = {Test}
ModelIDFiles = No
WriteCurves = No
OutputXMLModel = No
OutputPythonModel = No
OutputDatabaseQueries = No

[Nominal]
MEstimate = 1.0

[Model]
MinimalWeight = 1.0
MinimalNumberExamples = 0
MinimalKnownWeight = 0.0
ParamTuneNumberFolds = 10
ClassWeights = 0.0
NominalSubsetTests = Yes

[Tree]
Heuristic = Gain
PruningMethod = None
BinarySplit = Yes
ConvertToRules = No
AlternativeSplits = No
Optimize = {}
MSENominal = No
SplitSampling = None
InductionOrder = DepthFirst

[Ensemble]
Iterations = 50
EnsembleMethod = RForest
VotingType = Majority
SelectRandomSubspaces = 5
PrintAllModels = Yes
PrintAllModelFiles = No
PrintPaths = Yes
Optimize = No
OOBestimate = No
FeatureRanking = No
WriteEnsemblePredictions = No
WriteBagTrainingFiles = No
EnsembleRandomDepth = No
BagSelection = -1
BagSize = 0

Run: 01
*******

Statistics
----------

FTValue (FTest): 1.0
Induction Time: 4.015 sec
Pruning Time: 0 sec
Model information
     Default: Nodes = 1 (Leaves: 1)
     Original: FOREST with 50 models (Total nodes: 1092 and leaves: 571)
	 Model 1: Nodes = 15 (Leaves: 8)
	 Model 2: Nodes = 23 (Leaves: 12)
	 Model 3: Nodes = 37 (Leaves: 19)
	 Model 4: Nodes = 29 (Leaves: 15)
	 Model 5: Nodes = 29 (Leaves: 15)
	 Model 6: Nodes = 9 (Leaves: 5)
	 Model 7: Nodes = 11 (Leaves: 6)
	 Model 8: Nodes = 19 (Leaves: 10)
	 Model 9: Nodes = 23 (Leaves: 12)
	 Model 10: Nodes = 31 (Leaves: 16)
	 Model 11: Nodes = 17 (Leaves: 9)
	 Model 12: Nodes = 17 (Leaves: 9)
	 Model 13: Nodes = 15 (Leaves: 8)
	 Model 14: Nodes = 29 (Leaves: 15)
	 Model 15: Nodes = 19 (Leaves: 10)
	 Model 16: Nodes = 15 (Leaves: 8)
	 Model 17: Nodes = 23 (Leaves: 12)
	 Model 18: Nodes = 29 (Leaves: 15)
	 Model 19: Nodes = 17 (Leaves: 9)
	 Model 20: Nodes = 31 (Leaves: 16)
	 Model 21: Nodes = 15 (Leaves: 8)
	 Model 22: Nodes = 25 (Leaves: 13)
	 Model 23: Nodes = 39 (Leaves: 20)
	 Model 24: Nodes = 23 (Leaves: 12)
	 Model 25: Nodes = 21 (Leaves: 11)
	 Model 26: Nodes = 15 (Leaves: 8)
	 Model 27: Nodes = 23 (Leaves: 12)
	 Model 28: Nodes = 15 (Leaves: 8)
	 Model 29: Nodes = 41 (Leaves: 21)
	 Model 30: Nodes = 21 (Leaves: 11)
	 Model 31: Nodes = 13 (Leaves: 7)
	 Model 32: Nodes = 25 (Leaves: 13)
	 Model 33: Nodes = 27 (Leaves: 14)
	 Model 34: Nodes = 13 (Leaves: 7)
	 Model 35: Nodes = 33 (Leaves: 17)
	 Model 36: Nodes = 31 (Leaves: 16)
	 Model 37: Nodes = 25 (Leaves: 13)
	 Model 38: Nodes = 25 (Leaves: 13)
	 Model 39: Nodes = 21 (Leaves: 11)
	 Model 40: Nodes = 17 (Leaves: 9)
	 Model 41: Nodes = 19 (Leaves: 10)
	 Model 42: Nodes = 13 (Leaves: 7)
	 Model 43: Nodes = 15 (Leaves: 8)
	 Model 44: Nodes = 13 (Leaves: 7)
	 Model 45: Nodes = 21 (Leaves: 11)
	 Model 46: Nodes = 25 (Leaves: 13)
	 Model 47: Nodes = 27 (Leaves: 14)
	 Model 48: Nodes = 17 (Leaves: 9)
	 Model 49: Nodes = 23 (Leaves: 12)
	 Model 50: Nodes = 13 (Leaves: 7)


Training error
--------------

Number of examples: 8182
Classification Error
   Default: 
   Attribute: edible
     REAL\PRED | p |    e |
     ---------------------------
             p | 0 | 3941 | 3941
             e | 0 | 4241 | 4241
     ---------------------------
               | 0 | 8182 | 8182
     Accuracy: 0.518333
     Cramer's coefficient: 0

   Original: 
   Attribute: edible
     REAL\PRED |    p |    e |
     ------------------------------
             p | 3941 |    0 | 3941
             e |    0 | 4241 | 4241
     ------------------------------
               | 3941 | 4241 | 8182
     Accuracy: 1
     Cramer's coefficient: 1

Weighted mean squared error (MSE) for Nominal Attributes (Weights [2.003])
   Default        : [1]
   Original       : [0.0021]

Default Model
*************

[e] [4241.0]: 8182

Original Model
**************

Model 1: 

odor in {a,l,n}
+--yes: spore_print_color = r
|       +--yes: [p] [70.0]: 70
|       +--no:  stalk_surface_below_ring = y
|               +--yes: gill_size = b
|               |       +--yes: [e] [244.0]: 244
|               |       +--no:  [p] [45.0]: 45
|               +--no:  gill_color = w
|                       +--yes: bruises = t
|                       |       +--yes: habitat = l
|                       |       |       +--yes: [p] [5.0]: 5
|                       |       |       +--no:  [e] [683.0]: 683
|                       |       +--no:  [e] [161.0]: 161
|                       +--no:  [e] [3176.0]: 3176
+--no:  [p] [3798.0]: 3798

Model 2: 

gill_size = b
+--yes: ring_type in {l,n}
|       +--yes: [p] [1454.0]: 1454
|       +--no:  spore_print_color in {h,r}
|               +--yes: [p] [357.0]: 357
|               +--no:  [e] [3933.0]: 3933
+--no:  spore_print_color in {k,n,w}
        +--yes: cap_surface = f
        |       +--yes: cap_color in {p,w}
        |       |       +--yes: [p] [59.0]: 71
        |       |       +--no:  stalk_surface_above_ring = k
        |       |               +--yes: [p] [14.0]: 14
        |       |               +--no:  habitat = d
        |       |                       +--yes: [p] [31.0]: 46
        |       |                       +--no:  [e] [108.0]: 108
        |       +--no:  stalk_root = b
        |               +--yes: bruises = t
        |               |       +--yes: spore_print_color = n
        |               |       |       +--yes: [e] [25.0]: 25
        |               |       |       +--no:  [p] [13.0]: 13
        |               |       +--no:  [p] [734.3103448275689]: 759.310345
        |               +--no:  [p] [1304.689655172423]: 1304.689655
        +--no:  [e] [97.0]: 97

Model 3: 

spore_print_color in {h,r,w}
+--yes: stalk_color_above_ring in {n,b,c,p,y}
|       +--yes: ring_number = t
|       |       +--yes: [e] [10.0]: 10
|       |       +--no:  [p] [2258.0]: 2258
|       +--no:  population = v
|               +--yes: stalk_surface_above_ring = k
|               |       +--yes: [p] [455.0]: 455
|               |       +--no:  gill_color in {p,u,w}
|               |               +--yes: habitat in {l,p,d}
|               |               |       +--yes: [e] [91.0]: 91
|               |               |       +--no:  [p] [112.0]: 112
|               |               +--no:  ring_type = f
|               |                       +--yes: [e] [4.0]: 4
|               |                       +--no:  [p] [583.0]: 583
|               +--no:  population = s
|                       +--yes: stalk_shape = e
|                       |       +--yes: [e] [155.0]: 155
|                       |       +--no:  [p] [128.0]: 128
|                       +--no:  habitat = l
|                               +--yes: [p] [12.0]: 12
|                               +--no:  [e] [382.0]: 382
+--no:  habitat = u
        +--yes: cap_surface = f
        |       +--yes: [e] [89.0]: 89
        |       +--no:  [p] [115.0]: 115
        +--no:  ring_type = e
                +--yes: [e] [805.0]: 805
                +--no:  stalk_root = e
                        +--yes: odor = p
                        |       +--yes: [p] [138.0]: 138
                        |       +--no:  [e] [10.397260273972613]: 10.39726
                        +--no:  stalk_color_above_ring = w
                                +--yes: gill_spacing = c
                                |       +--yes: [e] [1222.0]: 1305
                                |       +--no:  [p] [106.0]: 191
                                +--no:  [e] [1338.6027397260316]: 1338.60274

Model 4: 

gill_color in {b,h,g,r}
+--yes: stalk_root = b
|       +--yes: ring_type in {f,p}
|       |       +--yes: odor = n
|       |       |       +--yes: cap_color in {b,p}
|       |       |       |       +--yes: [p] [37.0]: 37
|       |       |       |       +--no:  bruises = t
|       |       |       |               +--yes: [p] [18.0]: 18
|       |       |       |               +--no:  [e] [79.7677053824363]: 79.767705
|       |       |       +--no:  [p] [139.0]: 139
|       |       +--no:  [p] [2242.74999999993]: 2242.75
|       +--no:  gill_color = b
|               +--yes: [p] [411.24999999999847]: 411.25
|               +--no:  [e] [353.23229461756364]: 353.232295
+--no:  spore_print_color in {h,r}
        +--yes: habitat = d
        |       +--yes: stalk_color_above_ring = w
        |       |       +--yes: [e] [39.0]: 39
        |       |       +--no:  [p] [132.0]: 132
        |       +--no:  [p] [467.0]: 467
        +--no:  stalk_color_above_ring in {c,w,y}
                +--yes: stalk_color_below_ring in {c,y}
                |       +--yes: [p] [63.0]: 63
                |       +--no:  population in {a,c,n,y}
                |               +--yes: [e] [1157.0]: 1164
                |               +--no:  habitat = u
                |                       +--yes: [p] [126.0]: 166
                |                       +--no:  [e] [1100.0]: 1376
                +--no:  [e] [1494.0]: 1494

Model 5: 

spore_print_color in {h,r,w}
+--yes: gill_spacing = c
|       +--yes: odor = n
|       |       +--yes: ring_type = p
|       |       |       +--yes: cap_shape in {x,k}
|       |       |       |       +--yes: [e] [23.0]: 23
|       |       |       |       +--no:  habitat in {p,d}
|       |       |       |               +--yes: [e] [24.0]: 24
|       |       |       |               +--no:  [p] [101.0]: 101
|       |       |       +--no:  cap_color in {n,y}
|       |       |               +--yes: stalk_surface_above_ring = k
|       |       |               |       +--yes: [p] [39.0]: 39
|       |       |               |       +--no:  [e] [51.0]: 51
|       |       |               +--no:  [e] [190.0]: 190
|       |       +--no:  [p] [3359.0]: 3359
|       +--no:  ring_number = o
|               +--yes: cap_shape in {b,c}
|               |       +--yes: [p] [6.0]: 6
|               |       +--no:  cap_color in {w,y}
|               |               +--yes: [p] [5.0]: 5
|               |               +--no:  [e] [33.0]: 33
|               +--no:  [e] [327.0]: 327
+--no:  stalk_root in {b,e}
        +--yes: ring_type = e
        |       +--yes: [e] [753.0]: 753
        |       +--no:  odor in {a,l,n}
        |               +--yes: [e] [2039.2516469038221]: 2039.251647
        |               +--no:  [p] [463.0]: 463
        +--no:  [e] [768.7483530961779]: 768.748353

Model 6: 

odor in {a,l,n}
+--yes: spore_print_color = r
|       +--yes: [p] [66.0]: 66
|       +--no:  population in {c,v}
|               +--yes: stalk_surface_above_ring in {y,k}
|               |       +--yes: [p] [31.0]: 31
|               |       +--no:  [e] [1508.0]: 1514
|               +--no:  [e] [2753.0]: 2753
+--no:  [p] [3818.0]: 3818

Model 7: 

odor in {a,l,n}
+--yes: spore_print_color = r
|       +--yes: [p] [83.0]: 83
|       +--no:  spore_print_color = w
|               +--yes: stalk_root = b
|               |       +--yes: [e] [530.1743119266077]: 565.981651
|               |       +--no:  gill_size = b
|               |               +--yes: [e] [54.82568807339428]: 54.825688
|               |               +--no:  [p] [15.192660550458715]: 15.192661
|               +--no:  [e] [3669.0]: 3669
+--no:  [p] [3794.0]: 3794

Model 8: 

odor in {a,l,n}
+--yes: ring_number = o
|       +--yes: gill_size = b
|       |       +--yes: [e] [3426.0]: 3426
|       |       +--no:  spore_print_color = w
|       |               +--yes: stalk_color_below_ring = n
|       |               |       +--yes: gill_spacing = c
|       |               |       |       +--yes: [p] [19.0]: 19
|       |               |       |       +--no:  [e] [38.0]: 38
|       |               |       +--no:  [p] [35.0]: 35
|       |               +--no:  [e] [228.0]: 228
|       +--no:  population = v
|               +--yes: cap_shape = x
|               |       +--yes: [e] [10.0]: 10
|               |       +--no:  habitat = p
|               |               +--yes: [e] [7.0]: 7
|               |               +--no:  [p] [67.0]: 67
|               +--no:  [e] [493.0]: 493
+--no:  [p] [3859.0]: 3859

Model 9: 

ring_type in {f,p}
+--yes: odor in {a,l,n}
|       +--yes: spore_print_color = r
|       |       +--yes: [p] [71.0]: 71
|       |       +--no:  cap_surface = g
|       |               +--yes: [p] [1.0]: 1
|       |               +--no:  gill_size = b
|       |                       +--yes: [e] [3042.0]: 3042
|       |                       +--no:  habitat = l
|       |                               +--yes: [p] [2.0]: 2
|       |                               +--no:  [e] [251.0]: 251
|       +--no:  [p] [717.0]: 717
+--no:  stalk_color_below_ring in {e,w}
        +--yes: population = v
        |       +--yes: [p] [897.0]: 897
        |       +--no:  [e] [1037.0]: 1037
        +--no:  stalk_surface_below_ring = f
                +--yes: [e] [24.0]: 24
                +--no:  stalk_surface_below_ring = s
                        +--yes: odor = n
                        |       +--yes: [e] [18.0]: 18
                        |       +--no:  [p] [408.0]: 408
                        +--no:  [p] [1714.0]: 1714

Model 10: 

stalk_color_above_ring in {g,o,e,w}
+--yes: stalk_root in {c,r}
|       +--yes: gill_size = b
|       |       +--yes: [e] [831.6938720899036]: 831.693872
|       |       +--no:  gill_color = b
|       |               +--yes: [p] [164.4046026224243]: 164.404603
|       |               +--no:  stalk_surface_below_ring = f
|       |                       +--yes: [e] [7.067166176077066]: 7.067166
|       |                       +--no:  [p] [5.765319775220764]: 5.76532
|       +--no:  stalk_surface_above_ring = k
|               +--yes: cap_color in {g,w}
|               |       +--yes: [e] [140.011774150388]: 140.011774
|               |       +--no:  [p] [391.54455445544704]: 391.544554
|               +--no:  population in {a,c,n,y}
|                       +--yes: population = c
|                       |       +--yes: gill_spacing = c
|                       |       |       +--yes: [e] [240.9504950495053]: 240.950495
|                       |       |       +--no:  [p] [6.0]: 6
|                       |       +--no:  [e] [1050.8442601016868]: 1050.84426
|                       +--no:  odor in {a,l,n}
|                               +--yes: cap_color in {b,p}
|                               |       +--yes: [p] [55.0]: 59
|                               |       +--no:  [e] [1348.4324324324348]: 1370.432432
|                               +--no:  [p] [1157.2855231469143]: 1157.285523
+--no:  stalk_surface_below_ring = k
        +--yes: [p] [1693.0]: 1693
        +--no:  bruises = t
                +--yes: [e] [580.0]: 580
                +--no:  stalk_color_below_ring = n
                        +--yes: [e] [21.0]: 21
                        +--no:  [p] [463.0]: 463

Model 11: 

stalk_color_below_ring in {g,o,e,w}
+--yes: odor in {a,l,n}
|       +--yes: stalk_color_above_ring = w
|       |       +--yes: spore_print_color = r
|       |       |       +--yes: [p] [69.0]: 69
|       |       |       +--no:  [e] [2491.0]: 2497
|       |       +--no:  [e] [1047.0]: 1047
|       +--no:  [p] [1568.0]: 1568
+--no:  odor = n
        +--yes: bruises = t
        |       +--yes: [e] [590.0]: 590
        |       +--no:  stalk_surface_above_ring = k
        |               +--yes: [p] [35.0]: 35
        |               +--no:  stalk_root = b
        |                       +--yes: [e] [67.0]: 67
        |                       +--no:  [p] [4.0]: 4
        +--no:  [p] [2305.0]: 2305

Model 12: 

gill_color in {b,r}
+--yes: [p] [1754.0]: 1754
+--no:  spore_print_color in {h,r}
        +--yes: odor = f
        |       +--yes: [p] [1627.0]: 1627
        |       +--no:  spore_print_color = h
        |               +--yes: [e] [69.0]: 69
        |               +--no:  [p] [42.0]: 42
        +--no:  stalk_color_below_ring in {g,o,p,e}
                +--yes: [e] [1400.0]: 1400
                +--no:  gill_size = b
                        +--yes: stalk_color_below_ring = c
                        |       +--yes: [p] [34.0]: 34
                        |       +--no:  [e] [2499.0]: 2499
                        +--no:  odor in {c,p}
                                +--yes: [p] [451.0]: 451
                                +--no:  [e] [254.0]: 306

Model 13: 

odor in {a,l,n}
+--yes: stalk_surface_below_ring = y
|       +--yes: ring_type = e
|       |       +--yes: [p] [41.0]: 41
|       |       +--no:  [e] [216.0]: 216
|       +--no:  spore_print_color = r
|               +--yes: [p] [71.0]: 71
|               +--no:  spore_print_color = w
|                       +--yes: gill_size = b
|                       |       +--yes: [e] [496.0]: 496
|                       |       +--no:  cap_color = w
|                       |               +--yes: [p] [7.0]: 7
|                       |               +--no:  [e] [46.0]: 46
|                       +--no:  [e] [3473.0]: 3473
+--no:  [p] [3832.0]: 3832

Model 14: 

stalk_surface_below_ring = k
+--yes: odor = n
|       +--yes: [e] [157.0]: 157
|       +--no:  [p] [2190.0]: 2190
+--no:  cap_surface = f
        +--yes: gill_size = b
        |       +--yes: [e] [1321.0]: 1321
        |       +--no:  habitat = d
        |               +--yes: stalk_shape = e
        |               |       +--yes: [p] [117.0]: 117
        |               |       +--no:  [e] [46.0]: 46
        |               +--no:  [e] [114.0]: 114
        +--no:  habitat in {l,p,u}
                +--yes: stalk_shape = e
                |       +--yes: cap_color = w
                |       |       +--yes: [p] [67.0]: 67
                |       |       +--no:  [e] [372.0]: 436
                |       +--no:  [p] [716.0]: 716
                +--no:  gill_size = b
                        +--yes: cap_color in {b,c}
                        |       +--yes: stalk_shape = e
                        |       |       +--yes: [e] [45.0]: 84
                        |       |       +--no:  [p] [59.0]: 59
                        |       +--no:  odor in {f,m}
                        |               +--yes: [p] [110.0]: 110
                        |               +--no:  [e] [2115.0]: 2154
                        +--no:  stalk_surface_below_ring = f
                                +--yes: [e] [56.0]: 56
                                +--no:  [p] [507.0]: 555

Model 15: 

stalk_surface_above_ring = k
+--yes: gill_spacing = c
|       +--yes: [p] [2227.0]: 2227
|       +--no:  [e] [166.0]: 166
+--no:  stalk_surface_below_ring = k
        +--yes: gill_color = b
        |       +--yes: [p] [417.0]: 417
        |       +--no:  [e] [71.0]: 71
        +--no:  population in {a,c,n,y}
                +--yes: stalk_shape = e
                |       +--yes: cap_surface = g
                |       |       +--yes: [p] [4.0]: 4
                |       |       +--no:  [e] [800.0]: 815
                |       +--no:  [e] [1257.0]: 1257
                +--no:  stalk_color_above_ring in {g,o}
                        +--yes: [e] [396.0]: 396
                        +--no:  odor in {a,l,n}
                                +--yes: [e] [1631.0]: 1694
                                +--no:  [p] [1135.0]: 1135

Model 16: 

stalk_surface_below_ring = k
+--yes: ring_type = p
|       +--yes: [e] [145.0]: 145
|       +--no:  [p] [2133.0]: 2133
+--no:  stalk_color_above_ring in {n,g,o,e}
        +--yes: [e] [862.0]: 862
        +--no:  odor in {a,l,n}
                +--yes: population in {c,v}
                |       +--yes: gill_color in {g,r,w,y}
                |       |       +--yes: cap_shape in {b,c}
                |       |       |       +--yes: [p] [63.0]: 63
                |       |       |       +--no:  [e] [306.0]: 380
                |       |       +--no:  [e] [627.0]: 627
                |       +--no:  [e] [2298.0]: 2298
                +--no:  [p] [1674.0]: 1674

Model 17: 

stalk_surface_above_ring = k
+--yes: ring_type = p
|       +--yes: [e] [156.0]: 156
|       +--no:  [p] [2304.0]: 2304
+--no:  gill_size = b
        +--yes: odor = f
        |       +--yes: [p] [284.0]: 284
        |       +--no:  spore_print_color = r
        |               +--yes: [p] [73.0]: 73
        |               +--no:  [e] [3790.0]: 3790
        +--no:  cap_color in {n,g,p,e,w}
                +--yes: spore_print_color = w
                |       +--yes: stalk_color_below_ring = n
                |       |       +--yes: [e] [22.0]: 22
                |       |       +--no:  [p] [839.0]: 839
                |       +--no:  odor in {a,l,n}
                |               +--yes: [e] [148.0]: 148
                |               +--no:  [p] [450.0]: 450
                +--no:  spore_print_color = w
                        +--yes: cap_color = c
                        |       +--yes: [e] [26.0]: 26
                        |       +--no:  [p] [9.0]: 9
                        +--no:  [e] [81.0]: 81

Model 18: 

spore_print_color in {h,r,w}
+--yes: population in {v,y}
|       +--yes: stalk_surface_above_ring = k
|       |       +--yes: [p] [2204.0]: 2204
|       |       +--no:  odor = n
|       |               +--yes: spore_print_color = r
|       |               |       +--yes: [p] [84.0]: 84
|       |               |       +--no:  [e] [127.0]: 127
|       |               +--no:  [p] [1018.0]: 1018
|       +--no:  gill_color in {h,y}
|               +--yes: [p] [61.0]: 61
|               +--no:  stalk_shape = e
|                       +--yes: habitat in {l,d}
|                       |       +--yes: [p] [26.0]: 26
|                       |       +--no:  [e] [468.0]: 468
|                       +--no:  [p] [93.0]: 93
+--no:  cap_color in {p,w}
        +--yes: gill_size = b
        |       +--yes: [e] [548.0]: 548
        |       +--no:  gill_spacing = c
        |               +--yes: [p] [194.0]: 194
        |               +--no:  bruises = t
        |                       +--yes: [e] [51.0]: 51
        |                       +--no:  [p] [70.0]: 70
        +--no:  gill_size = b
                +--yes: [e] [2899.0]: 2899
                +--no:  odor in {a,l,n}
                        +--yes: [e] [141.0]: 141
                        +--no:  [p] [198.0]: 198

Model 19: 

odor in {a,l,n}
+--yes: gill_color = r
|       +--yes: [p] [23.0]: 23
|       +--no:  stalk_color_below_ring in {n,y}
|               +--yes: stalk_surface_above_ring = k
|               |       +--yes: [p] [29.0]: 29
|               |       +--no:  stalk_root = b
|               |               +--yes: [e] [55.0]: 55
|               |               +--no:  [p] [7.0]: 7
|               +--no:  ring_number = o
|                       +--yes: spore_print_color = w
|                       |       +--yes: [p] [10.0]: 10
|                       |       +--no:  [e] [3612.0]: 3612
|                       +--no:  spore_print_color = r
|                               +--yes: [p] [39.0]: 39
|                               +--no:  [e] [526.0]: 526
+--no:  [p] [3881.0]: 3881

Model 20: 

ring_type in {f,p}
+--yes: habitat in {g,u}
|       +--yes: stalk_shape = e
|       |       +--yes: gill_size = b
|       |       |       +--yes: cap_shape in {b,f}
|       |       |       |       +--yes: population = v
|       |       |       |       |       +--yes: [p] [47.0]: 47
|       |       |       |       |       +--no:  [e] [241.0]: 241
|       |       |       |       +--no:  [e] [420.0]: 420
|       |       |       +--no:  odor = n
|       |       |               +--yes: [e] [88.0]: 88
|       |       |               +--no:  [p] [241.0]: 241
|       |       +--no:  [p] [288.0]: 288
|       +--no:  stalk_color_above_ring = w
|               +--yes: stalk_shape = e
|               |       +--yes: habitat in {l,d}
|               |       |       +--yes: ring_type = f
|               |       |       |       +--yes: [e] [54.0]: 54
|               |       |       |       +--no:  [p] [192.0]: 192
|               |       |       +--no:  odor = n
|               |       |               +--yes: [p] [35.0]: 70
|               |       |               +--no:  [e] [360.0]: 360
|               |       +--no:  [e] [660.0]: 660
|               +--no:  [e] [1403.0]: 1403
+--no:  stalk_color_above_ring in {e,w}
        +--yes: gill_spacing = c
        |       +--yes: population = c
        |       |       +--yes: [e] [216.0]: 216
        |       |       +--no:  [p] [916.0]: 916
        |       +--no:  [e] [800.0]: 800
        +--no:  [p] [2186.0]: 2186

Model 21: 

stalk_surface_below_ring = k
+--yes: gill_spacing = c
|       +--yes: [p] [2137.0]: 2137
|       +--no:  [e] [146.0]: 146
+--no:  odor in {a,l,n}
        +--yes: stalk_shape = e
        |       +--yes: spore_print_color = r
        |       |       +--yes: [p] [73.0]: 73
        |       |       +--no:  stalk_surface_above_ring in {f,s}
        |       |               +--yes: [e] [1399.0]: 1410
        |       |               +--no:  ring_number = o
        |       |                       +--yes: [p] [30.0]: 30
        |       |                       +--no:  [e] [101.0]: 101
        |       +--no:  [e] [2585.0]: 2585
        +--no:  [p] [1700.0]: 1700

Model 22: 

bruises = t
+--yes: stalk_root = e
|       +--yes: gill_size = b
|       |       +--yes: [e] [18.33563796354497]: 18.335638
|       |       +--no:  [p] [286.0]: 286
|       +--no:  spore_print_color in {h,r}
|               +--yes: [p] [340.0]: 340
|               +--no:  habitat = l
|                       +--yes: [p] [9.0]: 9
|                       +--no:  [e] [2732.664362036463]: 2732.664362
+--no:  gill_color in {b,g,u}
        +--yes: odor = n
        |       +--yes: [e] [106.0]: 106
        |       +--no:  [p] [2323.0]: 2323
        +--no:  ring_type in {l,n}
                +--yes: [p] [913.0]: 913
                +--no:  stalk_root = e
                        +--yes: stalk_surface_below_ring = y
                        |       +--yes: [p] [21.410891089108915]: 21.410891
                        |       +--no:  [e] [1223.8465346534633]: 1223.846535
                        +--no:  stalk_color_below_ring in {w,y}
                                +--yes: population in {n,y}
                                |       +--yes: [e] [16.222772277227712]: 16.222772
                                |       +--no:  [p] [84.00990099009906]: 97.792079
                                +--no:  [e] [93.14851485148553]: 94.727723

Model 23: 

gill_color in {b,h,g,r}
+--yes: gill_spacing = c
|       +--yes: cap_color in {r,u,w,y}
|       |       +--yes: population in {n,s}
|       |       |       +--yes: stalk_surface_below_ring = f
|       |       |       |       +--yes: [p] [12.0]: 12
|       |       |       |       +--no:  stalk_shape = e
|       |       |       |               +--yes: [e] [129.0]: 132
|       |       |       |               +--no:  [p] [6.0]: 6
|       |       |       +--no:  ring_type = f
|       |       |               +--yes: [e] [10.0]: 10
|       |       |               +--no:  [p] [454.0]: 454
|       |       +--no:  spore_print_color in {k,n}
|       |               +--yes: odor = c
|       |               |       +--yes: [p] [21.0]: 21
|       |               |       +--no:  [e] [22.0]: 22
|       |               +--no:  [p] [2329.0]: 2329
|       +--no:  habitat = g
|               +--yes: [e] [274.0]: 274
|               +--no:  [p] [27.0]: 27
+--no:  stalk_color_above_ring in {n,b,c,y}
        +--yes: stalk_surface_below_ring = y
        |       +--yes: stalk_color_above_ring = n
        |       |       +--yes: [e] [19.0]: 19
        |       |       +--no:  [p] [44.0]: 44
        |       +--no:  [p] [271.0]: 271
        +--no:  gill_size = b
                +--yes: spore_print_color in {h,r}
                |       +--yes: [p] [360.0]: 360
                |       +--no:  [e] [3485.0]: 3485
                +--no:  ring_type = f
                        +--yes: [e] [44.0]: 44
                        +--no:  cap_surface = f
                                +--yes: odor = c
                                |       +--yes: [p] [68.0]: 68
                                |       +--no:  [e] [151.0]: 169
                                +--no:  stalk_shape = e
                                        +--yes: [p] [366.0]: 391
                                        +--no:  [e] [44.0]: 44

Model 24: 

stalk_surface_above_ring = k
+--yes: gill_spacing = c
|       +--yes: [p] [2230.0]: 2230
|       +--no:  [e] [150.0]: 150
+--no:  habitat in {l,p,u}
        +--yes: gill_color in {b,h}
        |       +--yes: [p] [625.0]: 625
        |       +--no:  spore_print_color = h
        |               +--yes: [p] [102.0]: 102
        |               +--no:  stalk_color_below_ring in {n,o}
        |                       +--yes: [e] [288.0]: 288
        |                       +--no:  population = y
        |                               +--yes: [e] [96.0]: 96
        |                               +--no:  [p] [147.0]: 254
        +--no:  odor in {a,l,n}
                +--yes: ring_number = o
                |       +--yes: [e] [3270.0]: 3270
                |       +--no:  cap_shape in {x,k}
                |               +--yes: [e] [230.0]: 230
                |               +--no:  habitat in {g,m}
                |                       +--yes: [p] [79.0]: 130
                |                       +--no:  [e] [69.0]: 69
                +--no:  [p] [738.0]: 738

Model 25: 

odor in {a,l,n}
+--yes: ring_number = o
|       +--yes: gill_size = b
|       |       +--yes: [e] [3476.0]: 3476
|       |       +--no:  stalk_root = c
|       |               +--yes: stalk_surface_above_ring = s
|       |               |       +--yes: [e] [2.1474103585657365]: 2.14741
|       |               |       +--no:  [p] [11.964143426294822]: 11.964143
|       |               +--no:  spore_print_color = w
|       |                       +--yes: cap_color in {n,c}
|       |                       |       +--yes: [e] [43.0]: 54.474104
|       |                       |       +--no:  [p] [13.561752988047807]: 13.561753
|       |                       +--no:  [e] [239.85258964143455]: 239.85259
|       +--no:  cap_surface = f
|               +--yes: [e] [133.0]: 133
|               +--no:  cap_color in {n,c,g,e}
|                       +--yes: [e] [184.0]: 184
|                       +--no:  spore_print_color = r
|                               +--yes: [p] [84.0]: 84
|                               +--no:  [e] [172.0]: 172
+--no:  [p] [3811.0]: 3811

Model 26: 

gill_color in {b,r}
+--yes: [p] [1835.0]: 1835
+--no:  stalk_surface_below_ring = k
        +--yes: spore_print_color = h
        |       +--yes: [p] [1262.0]: 1262
        |       +--no:  [e] [136.0]: 136
        +--no:  spore_print_color in {h,r}
                +--yes: gill_size = b
                |       +--yes: [p] [347.0]: 347
                |       +--no:  [e] [41.0]: 41
                +--no:  population in {a,n,y}
                        +--yes: [e] [1722.0]: 1722
                        +--no:  odor in {a,l,n}
                                +--yes: [e] [2288.0]: 2336
                                +--no:  [p] [503.0]: 503

Model 27: 

stalk_surface_below_ring = k
+--yes: ring_number = o
|       +--yes: [p] [2235.0]: 2235
|       +--no:  [e] [154.0]: 154
+--no:  gill_size = b
        +--yes: habitat = u
        |       +--yes: [p] [159.0]: 159
        |       +--no:  spore_print_color in {h,r}
        |               +--yes: [p] [226.0]: 226
        |               +--no:  stalk_root = c
        |                       +--yes: odor = m
        |                       |       +--yes: [p] [36.0]: 36
        |                       |       +--no:  [e] [593.3491233466704]: 593.349123
        |                       +--no:  [e] [3173.6508766533666]: 3173.650877
        +--no:  gill_color in {b,y}
                +--yes: [p] [817.0]: 817
                +--no:  stalk_surface_below_ring = f
                        +--yes: [e] [73.0]: 73
                        +--no:  cap_color in {n,c,g,y}
                                +--yes: cap_surface = f
                                |       +--yes: [e] [147.0]: 189
                                |       +--no:  [p] [184.0]: 225
                                +--no:  [p] [260.0]: 301

Model 28: 

stalk_surface_above_ring = k
+--yes: ring_number = t
|       +--yes: [e] [126.0]: 126
|       +--no:  [p] [2189.0]: 2189
+--no:  odor in {a,l,n}
        +--yes: spore_print_color = r
        |       +--yes: [p] [68.0]: 68
        |       +--no:  gill_size = b
        |               +--yes: [e] [3806.0]: 3806
        |               +--no:  cap_shape in {b,c}
        |                       +--yes: [p] [8.0]: 8
        |                       +--no:  stalk_surface_above_ring = y
        |                               +--yes: [p] [4.0]: 4
        |                               +--no:  [e] [305.0]: 309
        +--no:  [p] [1672.0]: 1672

Model 29: 

spore_print_color in {h,r,w}
+--yes: population in {v,y}
|       +--yes: gill_color in {u,w}
|       |       +--yes: stalk_color_below_ring = n
|       |       |       +--yes: habitat = d
|       |       |       |       +--yes: cap_surface = s
|       |       |       |       |       +--yes: [e] [4.0]: 4
|       |       |       |       |       +--no:  [p] [18.0]: 20
|       |       |       |       +--no:  [e] [52.0]: 52
|       |       |       +--no:  stalk_shape = e
|       |       |               +--yes: stalk_surface_above_ring = k
|       |       |               |       +--yes: [p] [18.0]: 18
|       |       |               |       +--no:  [e] [61.0]: 76
|       |       |               +--no:  [p] [65.0]: 65
|       |       +--no:  stalk_shape = e
|       |               +--yes: stalk_surface_below_ring = f
|       |               |       +--yes: [e] [19.0]: 19
|       |               |       +--no:  [p] [1316.0]: 1316
|       |               +--no:  [p] [1838.0]: 1838
|       +--no:  stalk_shape = e
|               +--yes: cap_surface in {y,g}
|               |       +--yes: habitat = w
|               |       |       +--yes: [e] [76.0]: 76
|               |       |       +--no:  [p] [58.0]: 58
|               |       +--no:  [e] [412.0]: 412
|               +--no:  [p] [151.0]: 151
+--no:  population in {a,c,n,y}
        +--yes: [e] [1772.0]: 1772
        +--no:  cap_surface = s
                +--yes: odor in {c,p}
                |       +--yes: [p] [230.0]: 230
                |       +--no:  [e] [455.0]: 455
                +--no:  gill_size = b
                        +--yes: [e] [1296.0]: 1296
                        +--no:  bruises = t
                                +--yes: cap_surface = f
                                |       +--yes: [e] [48.0]: 48
                                |       +--no:  [p] [125.0]: 125
                                +--no:  stalk_root = b
                                        +--yes: [p] [94.0]: 94
                                        +--no:  [e] [57.0]: 57

Model 30: 

gill_size = b
+--yes: odor in {f,m}
|       +--yes: [p] [1650.0]: 1650
|       +--no:  stalk_shape = e
|               +--yes: spore_print_color = r
|               |       +--yes: [p] [62.0]: 62
|               |       +--no:  [e] [1489.0]: 1489
|               +--no:  [e] [2461.0]: 2461
+--no:  gill_color in {b,y}
        +--yes: [p] [1730.0]: 1730
        +--no:  stalk_surface_below_ring = f
                +--yes: [e] [88.0]: 88
                +--no:  habitat = g
                        +--yes: [p] [128.0]: 128
                        +--no:  cap_shape in {b,c,x,k}
                                +--yes: odor in {c,p}
                                |       +--yes: [p] [251.0]: 251
                                |       +--no:  [e] [98.0]: 125
                                +--no:  population in {c,s}
                                        +--yes: [p] [24.0]: 24
                                        +--no:  [e] [141.0]: 174

Model 31: 

odor in {a,l,n}
+--yes: population in {c,v}
|       +--yes: habitat in {g,m}
|       |       +--yes: [p] [71.0]: 71
|       |       +--no:  veil_color = y
|       |               +--yes: [p] [13.0]: 13
|       |               +--no:  stalk_color_below_ring in {n,y}
|       |                       +--yes: gill_spacing = c
|       |                       |       +--yes: [p] [35.0]: 35
|       |                       |       +--no:  [e] [42.0]: 42
|       |                       +--no:  [e] [1479.0]: 1486
|       +--no:  [e] [2757.0]: 2757
+--no:  [p] [3778.0]: 3778

Model 32: 

gill_color in {b,h,g,r}
+--yes: odor in {a,l,n}
|       +--yes: stalk_root = b
|       |       +--yes: cap_color in {g,r,u}
|       |       |       +--yes: [e] [7.105943152454778]: 7.105943
|       |       |       +--no:  spore_print_color = r
|       |       |               +--yes: [p] [50.0]: 50
|       |       |               +--no:  [e] [6.589147286821703]: 6.589147
|       |       +--no:  [e] [429.3049095607223]: 429.30491
|       +--no:  [p] [2800.0]: 2800
+--no:  gill_size = b
        +--yes: odor in {f,m}
        |       +--yes: [p] [690.0]: 690
        |       +--no:  spore_print_color = r
        |               +--yes: [p] [32.0]: 32
        |               +--no:  [e] [3454.0]: 3454
        +--no:  population in {c,s}
                +--yes: [p] [230.0]: 230
                +--no:  odor in {c,p}
                        +--yes: [p] [206.0]: 206
                        +--no:  spore_print_color = w
                                +--yes: gill_spacing = c
                                |       +--yes: [p] [23.0]: 23
                                |       +--no:  [e] [43.0]: 43
                                +--no:  [e] [211.0]: 211

Model 33: 

odor in {a,l,n}
+--yes: stalk_color_below_ring in {n,y}
|       +--yes: habitat = d
|       |       +--yes: gill_size = b
|       |       |       +--yes: [e] [5.0]: 5
|       |       |       +--no:  [p] [46.0]: 46
|       |       +--no:  gill_spacing = c
|       |               +--yes: [e] [13.0]: 13
|       |               +--no:  stalk_surface_below_ring = y
|       |                       +--yes: [p] [8.0]: 8
|       |                       +--no:  [e] [34.0]: 34
|       +--no:  ring_number = o
|               +--yes: habitat = l
|               |       +--yes: population = c
|               |       |       +--yes: gill_spacing = c
|               |       |       |       +--yes: [e] [103.0]: 103
|               |       |       |       +--no:  [p] [6.0]: 6
|               |       |       +--no:  [e] [98.0]: 98
|               |       +--no:  [e] [3436.0]: 3436
|               +--no:  habitat = m
|                       +--yes: [p] [47.0]: 47
|                       +--no:  population = v
|                               +--yes: habitat = g
|                               |       +--yes: [p] [26.0]: 26
|                               |       +--no:  [e] [16.0]: 16
|                               +--no:  [e] [529.0]: 529
+--no:  [p] [3815.0]: 3815

Model 34: 

odor in {a,l,n}
+--yes: gill_color = r
|       +--yes: [p] [19.0]: 19
|       +--no:  population in {c,v}
|               +--yes: stalk_surface_below_ring = y
|               |       +--yes: [p] [27.0]: 27
|               |       +--no:  cap_color in {b,p,w}
|               |               +--yes: spore_print_color = r
|               |               |       +--yes: [p] [54.0]: 54
|               |               |       +--no:  [e] [155.0]: 158
|               |               +--no:  [e] [1365.0]: 1365
|               +--no:  [e] [2739.0]: 2739
+--no:  [p] [3820.0]: 3820

Model 35: 

gill_color in {b,h,g,r}
+--yes: stalk_root = b
|       +--yes: odor = n
|       |       +--yes: cap_color in {b,p}
|       |       |       +--yes: [p] [34.0]: 34
|       |       |       +--no:  cap_shape in {x,k}
|       |       |               +--yes: [e] [50.390121689334265]: 50.390122
|       |       |               +--no:  bruises = t
|       |       |                       +--yes: [p] [18.0]: 18
|       |       |                       +--no:  [e] [27.908375089477445]: 27.908375
|       |       +--no:  [p] [2411.68933428782]: 2411.689334
|       +--no:  gill_size = b
|               +--yes: [e] [309.55476020042954]: 309.55476
|               +--no:  gill_color = b
|                       +--yes: [p] [400.3106657122415]: 400.310666
|                       +--no:  [e] [27.146743020758773]: 27.146743
+--no:  stalk_surface_above_ring = k
        +--yes: ring_type = p
        |       +--yes: [e] [97.0]: 97
        |       +--no:  [p] [533.0]: 533
        +--no:  odor in {a,l,n}
                +--yes: cap_shape in {b,c}
                |       +--yes: stalk_color_above_ring = y
                |       |       +--yes: [p] [4.0]: 4
                |       |       +--no:  stalk_root = b
                |       |               +--yes: [p] [18.0]: 31.429864
                |       |               +--no:  [e] [270.5701357466061]: 270.570136
                |       +--no:  ring_number = o
                |               +--yes: veil_color = y
                |               |       +--yes: [p] [2.0]: 2
                |               |       +--no:  [e] [3122.0]: 3123
                |               +--no:  [e] [285.0]: 294
                +--no:  [p] [548.0]: 548

Model 36: 

spore_print_color in {h,r,w}
+--yes: ring_number = t
|       +--yes: spore_print_color = r
|       |       +--yes: [p] [74.0]: 74
|       |       +--no:  [e] [550.0]: 550
|       +--no:  cap_color in {c,r,u}
|               +--yes: stalk_root = b
|               |       +--yes: [e] [45.375]: 45.375
|               |       +--no:  cap_color = c
|               |               +--yes: [p] [10.0]: 10
|               |               +--no:  [e] [10.625]: 10.625
|               +--no:  gill_color in {u,w}
|                       +--yes: gill_spacing = c
|                       |       +--yes: population = y
|                       |       |       +--yes: [e] [3.0]: 3
|                       |       |       +--no:  [p] [143.0]: 145
|                       |       +--no:  stalk_color_below_ring = n
|                       |               +--yes: [e] [30.0]: 30
|                       |               +--no:  [p] [8.0]: 8
|                       +--no:  ring_type = f
|                               +--yes: [e] [9.0]: 9
|                               +--no:  [p] [3282.0]: 3282
+--no:  population in {a,c,n,y}
        +--yes: [e] [1758.0]: 1758
        +--no:  stalk_shape = e
                +--yes: gill_size = b
                |       +--yes: [e] [428.0]: 428
                |       +--no:  cap_shape = s
                |               +--yes: [e] [13.0]: 13
                |               +--no:  [p] [449.0]: 471
                +--no:  [e] [1345.0]: 1345

Model 37: 

spore_print_color in {h,r,w}
+--yes: population in {v,y}
|       +--yes: stalk_surface_below_ring in {f,y}
|       |       +--yes: habitat in {g,u}
|       |       |       +--yes: [p] [71.0]: 71
|       |       |       +--no:  spore_print_color = h
|       |       |               +--yes: [e] [45.0]: 45
|       |       |               +--no:  habitat = d
|       |       |                       +--yes: [p] [19.0]: 25
|       |       |                       +--no:  [e] [36.0]: 36
|       |       +--no:  stalk_surface_above_ring = k
|       |               +--yes: [p] [2252.0]: 2252
|       |               +--no:  stalk_color_below_ring = n
|       |                       +--yes: [e] [21.0]: 21
|       |                       +--no:  [p] [1006.0]: 1043
|       +--no:  stalk_surface_below_ring in {f,y}
|               +--yes: [p] [108.0]: 108
|               +--no:  stalk_shape = e
|                       +--yes: cap_surface = g
|                       |       +--yes: [p] [3.0]: 3
|                       |       +--no:  [e] [505.0]: 508
|                       +--no:  [p] [67.0]: 67
+--no:  odor in {c,p}
        +--yes: [p] [392.0]: 392
        +--no:  [e] [3611.0]: 3611

Model 38: 

spore_print_color in {h,r,w}
+--yes: stalk_color_above_ring in {n,b,c,p,y}
|       +--yes: odor = n
|       |       +--yes: population = c
|       |       |       +--yes: [p] [8.0]: 8
|       |       |       +--no:  [e] [15.0]: 15
|       |       +--no:  [p] [2191.0]: 2191
|       +--no:  stalk_shape = e
|               +--yes: population = v
|               |       +--yes: habitat in {l,p}
|               |       |       +--yes: [e] [55.0]: 55
|               |       |       +--no:  [p] [102.0]: 128
|               |       +--no:  gill_size = b
|               |               +--yes: [e] [528.0]: 528
|               |               +--no:  bruises = t
|               |                       +--yes: [p] [9.0]: 9
|               |                       +--no:  [e] [38.0]: 38
|               +--no:  [p] [1159.0]: 1159
+--no:  stalk_surface_below_ring = s
        +--yes: stalk_shape = e
        |       +--yes: odor in {c,p}
        |       |       +--yes: [p] [458.0]: 458
        |       |       +--no:  [e] [811.0]: 811
        |       +--no:  [e] [2234.0]: 2234
        +--no:  [e] [548.0]: 548

Model 39: 

spore_print_color in {h,r,w}
+--yes: gill_spacing = c
|       +--yes: bruises = t
|       |       +--yes: spore_print_color = w
|       |       |       +--yes: [e] [211.0]: 211
|       |       |       +--no:  [p] [355.0]: 355
|       |       +--no:  stalk_surface_below_ring in {f,y}
|       |               +--yes: spore_print_color = h
|       |               |       +--yes: [e] [39.0]: 39
|       |               |       +--no:  stalk_surface_above_ring = y
|       |               |               +--yes: [e] [20.0]: 20
|       |               |               +--no:  [p] [65.0]: 65
|       |               +--no:  [p] [3046.0]: 3046
|       +--no:  gill_size = b
|               +--yes: [e] [313.0]: 313
|               +--no:  stalk_color_below_ring = n
|                       +--yes: [e] [48.0]: 48
|                       +--no:  [p] [12.0]: 12
+--no:  odor in {c,p}
        +--yes: [p] [464.0]: 464
        +--no:  [e] [3609.0]: 3609

Model 40: 

stalk_surface_above_ring = k
+--yes: ring_number = t
|       +--yes: [e] [146.0]: 146
|       +--no:  [p] [2223.0]: 2223
+--no:  gill_color in {b,r}
        +--yes: [p] [926.0]: 926
        +--no:  population in {a,c,n,y}
                +--yes: gill_size = b
                |       +--yes: [e] [2017.0]: 2017
                |       +--no:  gill_spacing = c
                |               +--yes: [e] [62.0]: 62
                |               +--no:  [p] [14.0]: 14
                +--no:  stalk_color_below_ring = w
                        +--yes: odor in {a,l,n}
                        |       +--yes: [e] [1232.0]: 1267
                        |       +--no:  [p] [754.0]: 754
                        +--no:  [e] [773.0]: 773

Model 41: 

spore_print_color in {h,r,w}
+--yes: stalk_shape = e
|       +--yes: odor = n
|       |       +--yes: stalk_color_below_ring = y
|       |       |       +--yes: [p] [24.0]: 24
|       |       |       +--no:  [e] [682.0]: 777
|       |       +--no:  [p] [1368.0]: 1368
|       +--no:  [p] [2031.0]: 2031
+--no:  gill_size = b
        +--yes: [e] [3337.0]: 3337
        +--no:  stalk_root = b
                +--yes: stalk_shape = e
                |       +--yes: [p] [229.0]: 229
                |       +--no:  [e] [81.0]: 81
                +--no:  cap_shape = s
                        +--yes: [e] [33.0]: 33
                        +--no:  cap_surface = f
                                +--yes: [e] [76.0]: 76
                                +--no:  [p] [226.0]: 226

Model 42: 

odor in {a,l,n}
+--yes: spore_print_color = r
|       +--yes: [p] [70.0]: 70
|       +--no:  stalk_color_below_ring = y
|               +--yes: [p] [34.0]: 34
|               +--no:  cap_shape = c
|                       +--yes: [p] [3.0]: 3
|                       +--no:  stalk_color_below_ring = n
|                               +--yes: habitat = d
|                               |       +--yes: [p] [11.0]: 18
|                               |       +--no:  [e] [55.0]: 55
|                               +--no:  [e] [4125.0]: 4133
+--no:  [p] [3869.0]: 3869

Model 43: 

odor in {a,l,n}
+--yes: gill_color = r
|       +--yes: [p] [29.0]: 29
|       +--no:  population in {c,v}
|               +--yes: spore_print_color in {r,w}
|               |       +--yes: population = c
|               |       |       +--yes: ring_number = o
|               |       |       |       +--yes: [p] [14.0]: 14
|               |       |       |       +--no:  [e] [188.0]: 188
|               |       |       +--no:  habitat in {l,p}
|               |       |               +--yes: [e] [69.0]: 69
|               |       |               +--no:  [p] [75.0]: 75
|               |       +--no:  [e] [1156.0]: 1156
|               +--no:  [e] [2760.0]: 2760
+--no:  [p] [3891.0]: 3891

Model 44: 

odor in {a,l,n}
+--yes: stalk_color_above_ring = y
|       +--yes: [p] [16.0]: 16
|       +--no:  spore_print_color = r
|               +--yes: [p] [63.0]: 63
|               +--no:  stalk_surface_above_ring = k
|                       +--yes: stalk_color_below_ring = w
|                       |       +--yes: [e] [145.0]: 145
|                       |       +--no:  [p] [26.0]: 26
|                       +--no:  cap_surface = g
|                               +--yes: [p] [1.0]: 1
|                               +--no:  [e] [4087.0]: 4087
+--no:  [p] [3844.0]: 3844

Model 45: 

stalk_color_above_ring in {g,o,e,w}
+--yes: odor in {a,l,n}
|       +--yes: gill_color = r
|       |       +--yes: [p] [20.0]: 20
|       |       +--no:  spore_print_color = r
|       |               +--yes: [p] [43.0]: 43
|       |               +--no:  stalk_color_below_ring in {n,y}
|       |                       +--yes: habitat = l
|       |                       |       +--yes: [e] [48.0]: 48
|       |                       |       +--no:  [p] [24.0]: 24
|       |                       +--no:  cap_surface = g
|       |                               +--yes: [p] [3.0]: 3
|       |                               +--no:  [e] [3602.0]: 3606
|       +--no:  [p] [1619.0]: 1619
+--no:  stalk_surface_above_ring = k
        +--yes: [p] [1838.0]: 1838
        +--no:  gill_color in {b,y}
                +--yes: [p] [408.0]: 408
                +--no:  cap_color = y
                        +--yes: [p] [2.0]: 2
                        +--no:  [e] [571.0]: 571

Model 46: 

spore_print_color in {h,r,w}
+--yes: odor = n
|       +--yes: spore_print_color = r
|       |       +--yes: [p] [89.0]: 89
|       |       +--no:  stalk_root = b
|       |               +--yes: stalk_color_below_ring = y
|       |               |       +--yes: [p] [15.795275590551181]: 15.795276
|       |               |       +--no:  [e] [635.7480314960642]: 657.826772
|       |               +--no:  stalk_color_above_ring = y
|       |                       +--yes: [p] [9.0]: 9
|       |                       +--no:  stalk_color_below_ring in {n,y}
|       |                               +--yes: [p] [2.1259842519685033]: 2.125984
|       |                               +--no:  [e] [40.2519685039371]: 40.251969
|       +--no:  [p] [3358.0]: 3358
+--no:  gill_size = b
        +--yes: [e] [3352.0]: 3352
        +--no:  stalk_shape = e
                +--yes: bruises = t
                |       +--yes: [p] [274.0]: 274
                |       +--no:  gill_spacing = c
                |               +--yes: odor = c
                |               |       +--yes: [p] [83.0]: 83
                |               |       +--no:  [e] [96.0]: 96
                |               +--no:  [p] [97.0]: 97
                +--no:  [e] [108.0]: 108

Model 47: 

spore_print_color in {h,r,w}
+--yes: stalk_color_above_ring in {n,b,c,p,y}
|       +--yes: stalk_surface_above_ring = y
|       |       +--yes: gill_size = b
|       |       |       +--yes: [e] [12.0]: 12
|       |       |       +--no:  [p] [10.0]: 10
|       |       +--no:  [p] [2183.0]: 2183
|       +--no:  stalk_shape = e
|               +--yes: gill_spacing = c
|               |       +--yes: population = v
|               |       |       +--yes: [p] [111.0]: 159
|               |       |       +--no:  [e] [234.0]: 234
|               |       +--no:  population = c
|               |               +--yes: [p] [6.0]: 6
|               |               +--no:  [e] [367.0]: 367
|               +--no:  [p] [1102.0]: 1102
+--no:  gill_size = b
        +--yes: [e] [3491.0]: 3491
        +--no:  population = s
                +--yes: [p] [208.0]: 208
                +--no:  stalk_shape = e
                        +--yes: gill_spacing = c
                        |       +--yes: cap_surface = f
                        |       |       +--yes: [e] [83.0]: 103
                        |       |       +--no:  [p] [158.0]: 158
                        |       +--no:  [p] [56.0]: 56
                        +--no:  [e] [93.0]: 93

Model 48: 

stalk_surface_below_ring = k
+--yes: population in {n,s}
|       +--yes: [e] [155.0]: 155
|       +--no:  [p] [2204.0]: 2204
+--no:  gill_color in {b,r}
        +--yes: [p] [918.0]: 918
        +--no:  stalk_color_below_ring in {n,c,w,y}
                +--yes: population in {c,s,v}
                |       +--yes: spore_print_color in {h,r}
                |       |       +--yes: gill_color = u
                |       |       |       +--yes: [e] [4.0]: 4
                |       |       |       +--no:  [p] [312.0]: 327
                |       |       +--no:  gill_size = b
                |       |               +--yes: [e] [1199.0]: 1233
                |       |               +--no:  [p] [451.0]: 655
                |       +--no:  [e] [1222.0]: 1222
                +--no:  [e] [1464.0]: 1464

Model 49: 

spore_print_color in {h,r,w}
+--yes: gill_spacing = c
|       +--yes: habitat = w
|       |       +--yes: [e] [196.0]: 196
|       |       +--no:  odor = n
|       |               +--yes: cap_color in {n,b,p,w,y}
|       |               |       +--yes: habitat in {p,d}
|       |               |       |       +--yes: [e] [35.0]: 56
|       |               |       |       +--no:  [p] [72.0]: 72
|       |               |       +--no:  [e] [34.0]: 34
|       |               +--no:  [p] [3311.0]: 3311
|       +--no:  cap_surface in {y,g}
|               +--yes: cap_color in {w,y}
|               |       +--yes: [p] [10.0]: 10
|               |       +--no:  [e] [18.0]: 18
|               +--no:  [e] [346.0]: 346
+--no:  stalk_color_above_ring = w
        +--yes: cap_color = p
        |       +--yes: [p] [71.0]: 71
        |       +--no:  odor in {c,p}
        |               +--yes: [p] [401.0]: 401
        |               +--no:  [e] [2254.0]: 2254
        +--no:  [e] [1413.0]: 1413

Model 50: 

gill_color in {b,r}
+--yes: [p] [1769.0]: 1769
+--no:  odor in {c,f,m,p}
        +--yes: [p] [2090.0]: 2090
        +--no:  spore_print_color in {r,w}
                +--yes: spore_print_color = r
                |       +--yes: [p] [31.0]: 31
                |       +--no:  gill_size = b
                |               +--yes: [e] [522.0]: 522
                |               +--no:  cap_color in {w,y}
                |                       +--yes: [p] [35.0]: 35
                |                       +--no:  [e] [55.0]: 76
                +--no:  [e] [3659.0]: 3659


