@relation balance-weka.filters.unsupervised.ATTRIBUTE.NominalToBinary-Rfirst-last

@ATTRIBUTE leftW=1 numeric
@ATTRIBUTE leftW=2 numeric
@ATTRIBUTE leftW=3 numeric
@ATTRIBUTE leftW=4 numeric
@ATTRIBUTE leftW=5 numeric
@ATTRIBUTE leftD=1 numeric
@ATTRIBUTE leftD=2 numeric
@ATTRIBUTE leftD=3 numeric
@ATTRIBUTE leftD=4 numeric
@ATTRIBUTE leftD=5 numeric
@ATTRIBUTE rightW=1 numeric
@ATTRIBUTE rightW=2 numeric
@ATTRIBUTE rightW=3 numeric
@ATTRIBUTE rightW=4 numeric
@ATTRIBUTE rightW=5 numeric
@ATTRIBUTE rightD=1 numeric
@ATTRIBUTE rightD=2 numeric
@ATTRIBUTE rightD=3 numeric
@ATTRIBUTE rightD=4 numeric
@ATTRIBUTE rightD=5 numeric
@ATTRIBUTE Class {L,B,R}

@data
0,0,1,0,0,0,0,0,1,0,0,0,0,1,0,0,0,0,1,0,R
0,0,0,1,0,0,0,0,1,0,0,0,0,0,1,1,0,0,0,0,L
0,0,0,1,0,0,0,0,1,0,0,0,0,1,0,1,0,0,0,0,L
0,1,0,0,0,1,0,0,0,0,0,1,0,0,0,0,0,0,1,0,R
0,0,0,1,0,1,0,0,0,0,0,1,0,0,0,0,0,0,1,0,R
0,1,0,0,0,0,0,1,0,0,0,0,0,0,1,0,0,0,1,0,R
0,1,0,0,0,0,0,0,0,1,0,0,0,0,1,0,1,0,0,0,B
0,0,0,1,0,1,0,0,0,0,0,0,0,0,1,0,0,1,0,0,R
0,0,1,0,0,0,0,1,0,0,1,0,0,0,0,0,0,0,1,0,L
0,1,0,0,0,0,0,1,0,0,1,0,0,0,0,0,0,0,0,1,L
0,0,1,0,0,0,0,0,1,0,0,0,0,0,1,0,0,1,0,0,R
0,1,0,0,0,1,0,0,0,0,0,1,0,0,0,0,0,1,0,0,R
0,0,1,0,0,0,0,0,0,1,0,0,1,0,0,0,1,0,0,0,L
1,0,0,0,0,0,0,0,0,1,1,0,0,0,0,0,0,1,0,0,L
0,0,0,1,0,0,0,0,0,1,0,0,1,0,0,0,1,0,0,0,L
1,0,0,0,0,0,0,0,1,0,0,0,0,0,1,0,0,1,0,0,R
0,0,0,1,0,0,0,0,1,0,0,1,0,0,0,1,0,0,0,0,L
0,1,0,0,0,0,0,0,0,1,0,0,0,1,0,0,0,0,0,1,R
0,1,0,0,0,0,0,0,1,0,0,0,0,1,0,0,1,0,0,0,B
0,0,0,1,0,0,0,0,1,0,1,0,0,0,0,0,0,0,1,0,L
0,0,0,0,1,0,1,0,0,0,0,1,0,0,0,0,1,0,0,0,L
0,0,1,0,0,1,0,0,0,0,1,0,0,0,0,0,1,0,0,0,L
0,0,1,0,0,0,0,0,1,0,0,1,0,0,0,0,1,0,0,0,L
0,0,0,0,1,0,0,1,0,0,0,0,1,0,0,0,0,0,0,1,B
0,0,0,1,0,0,1,0,0,0,0,0,0,0,1,0,0,1,0,0,R
0,0,0,1,0,0,0,0,0,1,0,0,0,1,0,1,0,0,0,0,L
0,0,0,1,0,1,0,0,0,0,0,0,0,1,0,0,0,0,1,0,R
0,0,0,1,0,0,0,0,1,0,0,0,0,1,0,0,0,0,1,0,B
1,0,0,0,0,0,0,0,1,0,0,0,0,1,0,1,0,0,0,0,B
0,0,0,0,1,0,0,0,0,1,0,0,0,1,0,0,0,1,0,0,L
1,0,0,0,0,0,0,0,0,1,0,1,0,0,0,0,0,0,1,0,R
0,0,0,1,0,0,0,1,0,0,1,0,0,0,0,1,0,0,0,0,L
0,1,0,0,0,0,0,1,0,0,0,0,0,1,0,0,0,0,1,0,R
0,0,1,0,0,0,0,0,1,0,0,0,1,0,0,0,1,0,0,0,L
0,0,1,0,0,0,0,0,1,0,0,1,0,0,0,0,0,1,0,0,L
0,0,0,1,0,0,0,0,0,1,0,0,1,0,0,1,0,0,0,0,L
1,0,0,0,0,0,1,0,0,0,0,0,0,0,1,0,0,0,0,1,R
0,0,0,0,1,0,1,0,0,0,0,0,0,1,0,0,1,0,0,0,L
1,0,0,0,0,1,0,0,0,0,0,1,0,0,0,0,0,1,0,0,R
1,0,0,0,0,0,0,0,0,1,0,0,0,0,1,0,0,1,0,0,R
0,0,0,0,1,0,0,1,0,0,0,0,0,0,1,0,0,1,0,0,B
0,0,1,0,0,1,0,0,0,0,1,0,0,0,0,0,0,0,0,1,R
1,0,0,0,0,0,0,0,0,1,1,0,0,0,0,1,0,0,0,0,L
0,1,0,0,0,0,0,1,0,0,0,0,0,1,0,1,0,0,0,0,L
0,0,1,0,0,1,0,0,0,0,0,0,1,0,0,0,0,1,0,0,R
0,1,0,0,0,0,0,0,1,0,1,0,0,0,0,1,0,0,0,0,L
0,0,0,1,0,0,0,1,0,0,0,0,0,1,0,0,0,0,1,0,R
0,0,0,1,0,0,0,0,0,1,0,0,0,1,0,0,1,0,0,0,L
1,0,0,0,0,0,1,0,0,0,1,0,0,0,0,0,0,1,0,0,R
1,0,0,0,0,0,0,1,0,0,0,1,0,0,0,0,0,0,1,0,R
0,1,0,0,0,0,0,1,0,0,0,0,0,0,1,0,0,0,0,1,R
1,0,0,0,0,0,0,0,1,0,0,0,0,0,1,0,1,0,0,0,R
1,0,0,0,0,0,1,0,0,0,1,0,0,0,0,0,0,0,1,0,R
0,0,0,1,0,0,0,1,0,0,0,1,0,0,0,0,1,0,0,0,L
0,0,1,0,0,0,1,0,0,0,0,0,0,1,0,0,0,1,0,0,R
0,0,1,0,0,0,0,0,1,0,0,0,1,0,0,0,0,0,0,1,R
1,0,0,0,0,0,0,0,0,1,0,0,0,1,0,1,0,0,0,0,L
0,0,0,0,1,1,0,0,0,0,0,0,0,1,0,0,0,1,0,0,R
0,0,1,0,0,0,0,0,1,0,1,0,0,0,0,0,0,1,0,0,L
0,0,0,0,1,0,0,0,1,0,1,0,0,0,0,0,0,0,0,1,L
1,0,0,0,0,0,0,1,0,0,0,1,0,0,0,0,0,1,0,0,R
0,1,0,0,0,1,0,0,0,0,0,0,0,0,1,0,0,1,0,0,R
0,0,0,0,1,0,0,0,0,1,0,0,1,0,0,0,0,0,0,1,L
0,0,0,1,0,0,0,0,0,1,0,0,1,0,0,0,0,1,0,0,L
0,1,0,0,0,0,0,0,1,0,0,1,0,0,0,0,0,0,1,0,B
1,0,0,0,0,1,0,0,0,0,0,0,0,0,1,1,0,0,0,0,R
0,0,0,1,0,1,0,0,0,0,1,0,0,0,0,0,0,1,0,0,L
0,0,0,1,0,0,0,1,0,0,0,0,1,0,0,0,0,0,0,1,R
0,1,0,0,0,0,0,1,0,0,0,1,0,0,0,0,0,0,1,0,R
0,0,0,1,0,0,0,1,0,0,0,0,0,0,1,0,0,1,0,0,R
1,0,0,0,0,0,0,0,1,0,1,0,0,0,0,1,0,0,0,0,L
0,0,0,0,1,0,0,0,1,0,0,0,0,1,0,0,0,0,1,0,L
1,0,0,0,0,0,1,0,0,0,0,0,1,0,0,0,0,0,0,1,R
1,0,0,0,0,0,1,0,0,0,0,0,0,0,1,0,0,0,1,0,R
0,1,0,0,0,1,0,0,0,0,0,0,0,1,0,0,0,1,0,0,R
0,0,0,0,1,0,0,1,0,0,0,1,0,0,0,0,0,0,0,1,L
0,0,0,0,1,0,0,0,0,1,0,1,0,0,0,0,0,1,0,0,L
1,0,0,0,0,1,0,0,0,0,0,0,1,0,0,0,0,0,0,1,R
1,0,0,0,0,0,1,0,0,0,0,0,0,1,0,0,0,0,0,1,R
0,0,0,1,0,1,0,0,0,0,0,0,1,0,0,0,0,0,1,0,R
0,0,0,0,1,0,1,0,0,0,0,0,1,0,0,0,0,0,0,1,R
0,0,1,0,0,0,0,0,1,0,1,0,0,0,0,0,1,0,0,0,L
0,0,0,0,1,0,0,0,1,0,0,0,1,0,0,0,0,1,0,0,L
0,0,0,0,1,0,0,1,0,0,0,1,0,0,0,0,1,0,0,0,L
0,1,0,0,0,0,0,0,0,1,0,0,1,0,0,0,0,0,0,1,R
0,1,0,0,0,0,0,1,0,0,1,0,0,0,0,0,0,1,0,0,L
0,0,1,0,0,0,0,1,0,0,0,0,0,1,0,0,0,1,0,0,R
1,0,0,0,0,1,0,0,0,0,0,0,0,0,1,0,1,0,0,0,R
0,0,1,0,0,0,0,1,0,0,0,0,1,0,0,0,1,0,0,0,L
1,0,0,0,0,1,0,0,0,0,1,0,0,0,0,0,0,1,0,0,R
0,0,0,0,1,0,0,1,0,0,0,0,0,1,0,1,0,0,0,0,L
0,1,0,0,0,0,1,0,0,0,0,0,0,1,0,0,0,0,1,0,R
0,1,0,0,0,0,0,1,0,0,0,1,0,0,0,0,1,0,0,0,L
1,0,0,0,0,0,0,1,0,0,0,0,1,0,0,0,0,0,1,0,R
0,0,1,0,0,0,0,0,1,0,0,0,0,1,0,0,0,1,0,0,B
1,0,0,0,0,0,0,0,1,0,0,1,0,0,0,0,0,1,0,0,R
1,0,0,0,0,1,0,0,0,0,0,0,0,1,0,0,0,0,0,1,R
0,0,0,0,1,1,0,0,0,0,0,0,0,0,1,0,1,0,0,0,R
0,0,1,0,0,0,0,1,0,0,0,1,0,0,0,0,0,0,1,0,L
1,0,0,0,0,0,0,1,0,0,0,1,0,0,0,1,0,0,0,0,L
0,0,0,0,1,0,1,0,0,0,0,0,0,0,1,0,0,1,0,0,R
0,1,0,0,0,0,0,1,0,0,1,0,0,0,0,0,1,0,0,0,L
0,1,0,0,0,0,1,0,0,0,0,0,1,0,0,0,0,1,0,0,R
0,0,0,1,0,0,1,0,0,0,0,0,1,0,0,0,0,1,0,0,R
0,0,0,0,1,0,0,0,1,0,1,0,0,0,0,0,0,1,0,0,L
0,0,0,0,1,1,0,0,0,0,0,1,0,0,0,0,0,1,0,0,R
1,0,0,0,0,0,0,1,0,0,1,0,0,0,0,1,0,0,0,0,L
0,0,1,0,0,0,0,0,1,0,0,0,0,1,0,0,0,0,0,1,R
0,0,0,0,1,0,0,1,0,0,0,0,0,1,0,0,1,0,0,0,L
0,1,0,0,0,0,0,0,0,1,0,1,0,0,0,0,0,0,0,1,B
0,0,0,1,0,0,0,1,0,0,0,1,0,0,0,0,0,0,0,1,L
0,0,0,1,0,0,0,0,0,1,1,0,0,0,0,1,0,0,0,0,L
0,0,1,0,0,1,0,0,0,0,0,0,0,1,0,0,1,0,0,0,R
0,0,0,1,0,0,1,0,0,0,0,1,0,0,0,1,0,0,0,0,L
0,1,0,0,0,0,0,1,0,0,0,0,1,0,0,0,0,0,0,1,R
0,0,0,1,0,0,0,0,1,0,0,1,0,0,0,0,0,0,0,1,L
0,0,1,0,0,0,0,0,0,1,0,0,0,0,1,0,0,0,1,0,R
0,0,1,0,0,0,0,0,1,0,0,0,1,0,0,1,0,0,0,0,L
0,0,0,0,1,0,0,0,1,0,0,1,0,0,0,0,0,0,0,1,L
0,0,0,1,0,0,0,1,0,0,0,0,1,0,0,0,1,0,0,0,L
0,0,1,0,0,0,0,1,0,0,0,0,0,0,1,0,0,1,0,0,R
0,0,1,0,0,0,0,1,0,0,0,0,1,0,0,0,0,0,1,0,R
0,0,0,0,1,0,0,0,0,1,0,0,0,1,0,0,0,0,1,0,L
1,0,0,0,0,0,0,0,0,1,0,1,0,0,0,0,1,0,0,0,L
0,0,0,0,1,0,0,0,0,1,1,0,0,0,0,0,0,0,1,0,L
