@relation horses-weka.filters.unsupervised.ATTRIBUTE.ReplaceMissingValues

@ATTRIBUTE surgery=2 numeric
@ATTRIBUTE age=2 numeric
@ATTRIBUTE rectal_temperature numeric
@ATTRIBUTE pulse numeric
@ATTRIBUTE respiratory_rate numeric
@ATTRIBUTE temperature_of_extremities=1 numeric
@ATTRIBUTE temperature_of_extremities=2 numeric
@ATTRIBUTE temperature_of_extremities=3 numeric
@ATTRIBUTE temperature_of_extremities=4 numeric
@ATTRIBUTE peripheral_pulse=1 numeric
@ATTRIBUTE peripheral_pulse=2 numeric
@ATTRIBUTE peripheral_pulse=3 numeric
@ATTRIBUTE peripheral_pulse=4 numeric
@ATTRIBUTE mucous_membranes=1 numeric
@ATTRIBUTE mucous_membranes=2 numeric
@ATTRIBUTE mucous_membranes=3 numeric
@ATTRIBUTE mucous_membranes=4 numeric
@ATTRIBUTE mucous_membranes=5 numeric
@ATTRIBUTE mucous_membranes=6 numeric
@ATTRIBUTE capillary_refill_time=2 numeric
@ATTRIBUTE pain=1 numeric
@ATTRIBUTE pain=2 numeric
@ATTRIBUTE pain=3 numeric
@ATTRIBUTE pain=4 numeric
@ATTRIBUTE pain=5 numeric
@ATTRIBUTE peristalsis=1 numeric
@ATTRIBUTE peristalsis=2 numeric
@ATTRIBUTE peristalsis=3 numeric
@ATTRIBUTE peristalsis=4 numeric
@ATTRIBUTE abdominal_distension=1 numeric
@ATTRIBUTE abdominal_distension=2 numeric
@ATTRIBUTE abdominal_distension=3 numeric
@ATTRIBUTE abdominal_distension=4 numeric
@ATTRIBUTE nasogastric_tube=1 numeric
@ATTRIBUTE nasogastric_tube=2 numeric
@ATTRIBUTE nasogastric_tube=3 numeric
@ATTRIBUTE nasogastric_reflux=1 numeric
@ATTRIBUTE nasogastric_reflux=2 numeric
@ATTRIBUTE nasogastric_reflux=3 numeric
@ATTRIBUTE nasogastric_reflux_PH numeric
@ATTRIBUTE rectal_examination_feces numeric
@ATTRIBUTE abdomen=1 numeric
@ATTRIBUTE abdomen=2 numeric
@ATTRIBUTE abdomen=3 numeric
@ATTRIBUTE abdomen=4 numeric
@ATTRIBUTE abdomen=5 numeric
@ATTRIBUTE packed_cell_volume numeric
@ATTRIBUTE total_protein numeric
@ATTRIBUTE abdominocentesis_appearance=1 numeric
@ATTRIBUTE abdominocentesis_appearance=2 numeric
@ATTRIBUTE abdominocentesis_appearance=3 numeric
@ATTRIBUTE abdomcentesis_total_protein numeric
@ATTRIBUTE outcome=1 numeric
@ATTRIBUTE outcome=2 numeric
@ATTRIBUTE outcome=3 numeric
@ATTRIBUTE surgical_lesion=2 numeric
@ATTRIBUTE class {1,2}

@data
0,0,0.259259,0.194805,0.227273,0.322314,0.119835,0.446281,0.11157,0.502183,0.021834,0.441048,0.034934,0.314741,0.119522,0.223108,0.163347,0.099602,0.079681,0.293233,0.156379,0.242798,0.271605,0.160494,0.168724,0.149606,0.062992,0.5,0.287402,0.31405,0.264463,0.264463,0.157025,0.365979,0.520619,0.113402,0.625,0.171875,0.203125,0.570392,0.581633,0.150838,0.106145,0.072626,0.234637,0.435754,0.448838,0.24684,0.298507,0.358209,0.343284,0.99,0,1,0,0,1
1,0,0.574074,0.233766,0.227273,0,0,1,0,0,0,1,0,0.314741,0.119522,0.223108,0.163347,0.099602,0.079681,1,0,0,0,0,1,0,0,0,1,0,0,0,1,0.365979,0.520619,0.113402,0.625,0.171875,0.203125,0.570392,0.666667,0,0,0,0,1,0.423077,0.05951,0.298507,0.358209,0.343284,0.29396,0,1,0,1,2
1,0,0.513461,0.532468,0.181818,0,0,1,0,0,0,1,0,0,0,0,1,0,0,1,0,0,0,0,1,0,0,0,1,0,1,0,0,0.365979,0.520619,0.113402,0.625,0.171875,0.203125,0.570392,1,0.150838,0.106145,0.072626,0.234637,0.435754,0.326923,0.023337,0,0,1,0.25,1,0,0,1,1
0,0,0.574074,0.642857,0.454545,0,0,1,0,0,0,1,0,0,0,1,0,0,0,0,0,1,0,0,0,0,0,0,1,0,0,1,0,1,0,0,0,0,1,0.153846,0.581633,0.150838,0.106145,0.072626,0.234637,0.435754,0.653846,0.731622,0,0,1,0.19,1,0,0,0,2
0,0,0.37037,0.350649,0.136364,0.322314,0.119835,0.446281,0.11157,0.502183,0.021834,0.441048,0.034934,0,0,1,0,0,0,0,0,1,0,0,0,0,0,1,0,0,0,1,0,0.365979,0.520619,0.113402,0.625,0.171875,0.203125,0.570392,0.581633,0.150838,0.106145,0.072626,0.234637,0.435754,0.153846,0.673279,0.298507,0.358209,0.343284,0.09,0,0,1,1,2
0,0,0.513461,0.25974,0.090909,0,0,1,0,0,0,0,1,0,0,0,0,1,0,1,0,1,0,0,0,0,0,1,0,0,1,0,0,0,1,0,1,0,0,0.570392,1,0,0,0,0,1,0.711538,0.049008,0.298507,0.358209,0.343284,0.29396,0,1,0,0,2
1,0,0.333333,0.272727,0.181818,0,0,1,0,0,1,0,0,0,0,0,1,0,0,1,0,0,0,1,0,0,0,1,0,0,0,1,0,0,0,1,1,0,0,0.570392,1,0,0,0,1,0,0.403846,0.24684,0,0,1,0.32,0,0,1,0,1
0,0,0.481481,0.273343,0.181818,0,0,1,0,0,0,1,0,0,0,0,0,0,1,1,0,0,0,0,1,0.149606,0.062992,0.5,0.287402,0,0,0,1,1,0,0,1,0,0,0.570392,0.581633,0.150838,0.106145,0.072626,0.234637,0.435754,0.865385,0.052509,0.298507,0.358209,0.343284,0.29396,0,1,0,0,2
1,1,0.666667,0.779221,0.727273,0.322314,0.119835,0.446281,0.11157,0.502183,0.021834,0.441048,0.034934,0.314741,0.119522,0.223108,0.163347,0.099602,0.079681,0.293233,0.156379,0.242798,0.271605,0.160494,0.168724,0.149606,0.062992,0.5,0.287402,0.31405,0.264463,0.264463,0.157025,0.365979,0.520619,0.113402,0.625,0.171875,0.203125,0.570392,0.581633,0.150838,0.106145,0.072626,0.234637,0.435754,0.461538,0.060677,0.298507,0.358209,0.343284,0,1,0,0,0,1
0,0,0.444444,0.142857,0.181818,1,0,0,0,0,0,1,0,0,0,1,0,0,0,0,0,0,0,1,0,0,0,0,1,1,0,0,0,0,1,0,0,0,1,0.723077,0.333333,0,0,0,0,1,0.480769,0.038506,1,0,0,0.36,0,1,0,0,2
1,0,0.518519,0.246753,0.272727,0,1,0,0,0,1,0,0,0,1,0,0,0,0,0,1,0,0,0,0,1,0,0,0,1,0,0,0,0,0,1,1,0,0,0.570392,0,1,0,0,0,0,0.384615,0.719953,0.298507,0.358209,0.343284,0.29396,1,0,0,1,2
0,0,0.481481,0.38961,0.25,0,0,0,1,0,0,1,0,0,0,0,1,0,0,1,0,0,0,0,1,0,0,0,1,0,0,0,1,0.365979,0.520619,0.113402,0.625,0.171875,0.203125,0.570392,1,0,0,0,0,1,0.615385,0.032672,0.298507,0.358209,0.343284,0.29396,0,1,0,0,2
0,0,0.351852,0.38961,0.363636,0,0,1,0,0.502183,0.021834,0.441048,0.034934,0,0,0,0,0,1,1,0,0,0,0,1,0,0,0,1,0,0,1,0,0,1,0,0,1,0,0.570392,0,0,0,0,0,1,0.807692,0.544924,0,0,1,0.19,0,0,1,0,2
0,0,0.513461,0.480519,0.255256,0,0,1,0,0,0,1,0,0,0,0,0,1,0,1,0,1,0,0,0,0,0,0,1,0,0,1,0,0.365979,0.520619,0.113402,0,0,1,0.570392,1,0,0,0,1,0,0.884615,0.061844,0,1,0,0.33,0,1,0,0,1
1,0,0.777778,0.506494,0.488636,0,0,1,0,0,0,1,0,0,0,0,0,0,1,1,0,1,0,0,0,0,0,0,1,0,0,1,0,1,0,0,0,1,0,0.570392,0.666667,0,0,0,0,1,0.692308,0.054842,0,1,0,0.25,1,0,0,1,1
1,0,0.388889,0.090909,0.022727,0,0,1,0,1,0,0,0,1,0,0,0,0,0,0,0,0,1,0,0,1,0,0,0,0,1,0,0,0,1,0,0.625,0.171875,0.203125,0.570392,0.666667,0,0,1,0,0,0.384615,0.556593,1,0,0,0.09,1,0,0,1,2
0,0,0.513461,0.064935,0.255256,0,1,0,0,1,0,0,0,1,0,0,0,0,0,0,1,0,0,0,0,0,0,1,0,1,0,0,0,1,0,0,1,0,0,0.570392,0.581633,0,0,0,0,1,0.307692,0.614936,0.298507,0.358209,0.343284,0.29396,1,0,0,0,2
0,0,0.574074,0.194805,0.255256,1,0,0,0,1,0,0,0,0.314741,0.119522,0.223108,0.163347,0.099602,0.079681,0,0.156379,0.242798,0.271605,0.160494,0.168724,1,0,0,0,1,0,0,0,0.365979,0.520619,0.113402,0.625,0.171875,0.203125,0.570392,0.581633,0.150838,0.106145,0.072626,0.234637,0.435754,0.192308,0.57993,1,0,0,0.29396,1,0,0,0,2
1,0,0.388889,0.116883,0.25,0,0,0,1,1,0,0,0,0,0,1,0,0,0,0,0.156379,0.242798,0.271605,0.160494,0.168724,0,1,0,0,1,0,0,0,1,0,0,1,0,0,0.570392,0,1,0,0,0,0,0.480769,0.061844,0.298507,0.358209,0.343284,0.29396,1,0,0,1,2
1,0,0.555556,0.155844,0.181818,1,0,0,0,1,0,0,0,1,0,0,0,0,0,0,1,0,0,0,0,0,0,1,0,1,0,0,0,0,1,0,1,0,0,0.570392,0.666667,0,1,0,0,0,0.5,0.045508,1,0,0,0.79,1,0,0,1,1
1,0,0.351852,0.480519,0.306818,0.322314,0.119835,0.446281,0.11157,0.502183,0.021834,0.441048,0.034934,0,0,0,0,0,1,1,0.156379,0.242798,0.271605,0.160494,0.168724,0.149606,0.062992,0.5,0.287402,0.31405,0.264463,0.264463,0.157025,0.365979,0.520619,0.113402,0.625,0.171875,0.203125,0.570392,0.581633,0.150838,0.106145,0.072626,0.234637,0.435754,0.980769,0.047841,0.298507,0.358209,0.343284,0.29396,0,1,0,1,2
1,0,0.444444,0.168831,0.090909,1,0,0,0,1,0,0,0,0,1,0,0,0,0,0,0,1,0,0,0,1,0,0,0,1,0,0,0,0,1,0,1,0,0,0.570392,0,0.150838,0.106145,0.072626,0.234637,0.435754,0.403846,0.754959,1,0,0,0.09,1,0,0,1,2
0,0,0.648148,0.324675,0.409091,0,0,1,0,0,0,1,0,0,0,1,0,0,0,1,0,1,0,0,0,0,0,1,0,0,0,1,0,0,1,0,0,1,0,0.923077,0.666667,1,0,0,0,0,0.596154,0.03734,0,0,1,0.29396,0,1,0,0,2
1,1,0.592593,0.376623,0.227273,0.322314,0.119835,0.446281,0.11157,0.502183,0.021834,0.441048,0.034934,0.314741,0.119522,0.223108,0.163347,0.099602,0.079681,0.293233,0.156379,0.242798,0.271605,0.160494,0.168724,0.149606,0.062992,0.5,0.287402,0.31405,0.264463,0.264463,0.157025,0.365979,0.520619,0.113402,0.625,0.171875,0.203125,0.570392,0.581633,0.150838,0.106145,0.072626,0.234637,0.435754,0.230769,0.030338,0.298507,0.358209,0.343284,0.29396,1,0,0,1,2
0,0,0.388889,0.272727,0.25,0,0,0,1,0,0,1,0,0,0,0,1,0,0,0,0,0,0,1,0,0,0,0,1,0,0,1,0,0,1,0,1,0,0,0.570392,0.666667,0,0,0,0,1,0.711538,0.04084,0.298507,0.358209,0.343284,0.29396,0,1,0,0,2
1,0,0.592593,0.064935,0.136364,0.322314,0.119835,0.446281,0.11157,0.502183,0.021834,0.441048,0.034934,0.314741,0.119522,0.223108,0.163347,0.099602,0.079681,0,0.156379,0.242798,0.271605,0.160494,0.168724,0.149606,0.062992,0.5,0.287402,0.31405,0.264463,0.264463,0.157025,0.365979,0.520619,0.113402,0.625,0.171875,0.203125,0.570392,0.581633,0.150838,0.106145,0.072626,0.234637,0.435754,0.346154,0.036173,0.298507,0.358209,0.343284,0.29396,1,0,0,1,1
0,0,0.37037,0.12987,0.272727,0,0,1,0,0,0,1,0,0.314741,0.119522,0.223108,0.163347,0.099602,0.079681,0,0,0,0,1,0,0,0,0,1,1,0,0,0,0,1,0,1,0,0,0.570392,0,0.150838,0.106145,0.072626,0.234637,0.435754,0.423077,0.053676,0,1,0,0.09,1,0,0,0,1
0,0,0.574074,0.233766,0.181818,1,0,0,0,1,0,0,0,1,0,0,0,0,0,0,0,0,1,0,0,0,0,1,0,1,0,0,0,0,1,0,1,0,0,0.570392,1,0,0,0,0,1,0.326923,0.039673,1,0,0,0.29396,1,0,0,0,1
1,1,0.513461,0.454545,0.409091,0,1,0,0,1,0,0,0,1,0,0,0,0,0,0,0,0,0,1,0,1,0,0,0,1,0,0,0,0.365979,0.520619,0.113402,0.625,0.171875,0.203125,0.570392,0,0.150838,0.106145,0.072626,0.234637,0.435754,0.269231,0.016336,0.298507,0.358209,0.343284,0.29396,1,0,0,1,2
0,0,0.722222,0.273343,0.255256,0,0,0,1,0,0,1,0,0,0,0,0,0,1,1,0,0,0,1,0,0,0,0,1,0,1,0,0,1,0,0,0,0,1,0.461538,1,0,0,0,1,0,1,0.24684,0,0,1,0.42,0,1,0,0,1
0,1,0.592593,0.844156,0.136364,0,0,1,0,0.502183,0.021834,0.441048,0.034934,0,0,0,0,1,0,0,0,0,1,0,0,0,0,1,0,0,0,0,1,0,0,1,0.625,0.171875,0.203125,0.570392,1,0.150838,0.106145,0.072626,0.234637,0.435754,0.288462,0.24684,0,1,0,0.29396,0,1,0,0,1
1,0,0.592593,0.116883,0.136364,0,0,1,0,1,0,0,0,1,0,0,0,0,0,0,1,0,0,0,0,0,0,1,0,0,1,0,0,0,1,0,1,0,0,0.570392,0.666667,0,1,0,0,0,0.519231,0.046674,1,0,0,0.29396,1,0,0,1,1
1,0,0.574074,0.194805,0.363636,0,0,1,0,1,0,0,0,0,1,0,0,0,0,0,0,1,0,0,0,1,0,0,0,0,1,0,0,0.365979,0.520619,0.113402,0.625,0.171875,0.203125,0.570392,0.666667,0,1,0,0,0,0.5,0.649942,0.298507,0.358209,0.343284,0.29396,1,0,0,1,2
0,0,0.425926,0.168831,0.255256,0.322314,0.119835,0.446281,0.11157,0.502183,0.021834,0.441048,0.034934,0.314741,0.119522,0.223108,0.163347,0.099602,0.079681,0.293233,0.156379,0.242798,0.271605,0.160494,0.168724,0.149606,0.062992,0.5,0.287402,0.31405,0.264463,0.264463,0.157025,0.365979,0.520619,0.113402,0.625,0.171875,0.203125,0.570392,0.581633,0.150838,0.106145,0.072626,0.234637,0.435754,0.448838,0.24684,0.298507,0.358209,0.343284,0.29396,0,1,0,0,2
0,0,0.555556,0.350649,0.25,0,0,1,0,1,0,0,0,0,0,0,0,1,0,1,0,0,0,1,0,0,0,1,0,0,0,1,0,0,1,0,0,0,1,0.846154,1,0,0,0,1,0,0.461538,0.049008,0,0,1,0.29396,0,1,0,0,2
0,0,0.518519,0.220779,0.181818,1,0,0,0,1,0,0,0,0,0,1,0,0,0,0,0,0,0,1,0,0,0,0,1,0,0,1,0,0,1,0,1,0,0,0.570392,1,0,0,0,1,0,0.423077,0.049008,1,0,0,0.19,0,1,0,0,1
0,0,0.481481,0.038961,0.090909,0,0,1,0,1,0,0,0,1,0,0,0,0,0,0,0,0,0,1,0,0,1,0,0,0,1,0,0,0,0,1,0,0,1,0.153846,0.666667,0.150838,0.106145,0.072626,0.234637,0.435754,0.269231,0.836639,0,1,0,0.09,0,0,1,1,2
0,1,0.685185,0.87013,0.863636,0,0,0,1,1,0,0,0,0,0,0,0,0,1,1,0,1,0,0,0,0,0,0,1,0,0,0,1,1,0,0,0,1,0,0.615385,0.666667,0.150838,0.106145,0.072626,0.234637,0.435754,0.480769,0.045508,0,0,1,0.52,0,1,0,0,1
0,0,0.833333,0.272727,0.590909,1,0,0,0,1,0,0,0,0,0,0,0,1,0,1,0,0,0,0,1,0,0,0,1,0,0,0,1,0,0,1,1,0,0,0.570392,1,0,0,0,1,0,0.442308,0.032672,0,1,0,0.29396,1,0,0,0,2
1,0,0.481481,0.090909,0.045455,0,0,1,0,1,0,0,0,1,0,0,0,0,0,0.293233,0.156379,0.242798,0.271605,0.160494,0.168724,1,0,0,0,0,1,0,0,0.365979,0.520619,0.113402,0.625,0.171875,0.203125,0.570392,0,0.150838,0.106145,0.072626,0.234637,0.435754,0.365385,0.708285,0.298507,0.358209,0.343284,0.29396,1,0,0,1,2
1,0,0.574074,0.194805,0.255256,0,1,0,0,0,1,0,0,1,0,0,0,0,0,0,1,0,0,0,0,0,1,0,0,0,1,0,0,0,1,0,1,0,0,0.570392,0,1,0,0,0,0,0.403846,0.051342,0.298507,0.358209,0.343284,0.29396,1,0,0,1,2
0,0,0.513461,0.194805,0.255256,0,0,1,0,0.502183,0.021834,0.441048,0.034934,0.314741,0.119522,0.223108,0.163347,0.099602,0.079681,0,0.156379,0.242798,0.271605,0.160494,0.168724,0,0,0,1,0,1,0,0,0,1,0,1,0,0,0.570392,0.666667,0,0,0,1,0,0.403846,0.058343,0.298507,0.358209,0.343284,0.29396,0,1,0,0,2
0,0,0.513461,0.454545,0.25,0,0,1,0,0,0,1,0,0,0,0,1,0,0,1,0,0,0,0,1,0,0,0,1,0,0,0,1,0,0,1,0,0,1,0.570392,1,0,0,0,1,0,0.557692,0.038506,0.298507,0.358209,0.343284,0.29396,1,0,0,0,2
1,0,0.611111,0.064935,0.227273,0,1,0,0,1,0,0,0,1,0,0,0,0,0,0,0,0,1,0,0,1,0,0,0,1,0,0,0,0.365979,0.520619,0.113402,0.625,0.171875,0.203125,0.570392,0,0.150838,0.106145,0.072626,0.234637,0.435754,0.307692,0.684947,1,0,0,0.09,1,0,0,1,2
1,0,0.592593,0.097403,0.090909,0,1,0,0,1,0,0,0,0,1,0,0,0,0,0,1,0,0,0,0,1,0,0,0,0.31405,0.264463,0.264463,0.157025,0.365979,0.520619,0.113402,0.625,0.171875,0.203125,0.570392,0,1,0,0,0,0,0.384615,0.638273,0.298507,0.358209,0.343284,0.29396,1,0,0,1,2
1,0,0.513461,0.324675,0.318182,0,0,1,0,0,0,0,1,0,0,1,0,0,0,0,0,0,0,1,0,0,0,0,1,0,0,0,1,0,1,0,1,0,0,0.570392,0.666667,0,0,0,0,1,0.288462,0.033839,0.298507,0.358209,0.343284,0.29396,0,0,1,0,2
1,1,0.759259,0.350649,0.25,0.322314,0.119835,0.446281,0.11157,0.502183,0.021834,0.441048,0.034934,0.314741,0.119522,0.223108,0.163347,0.099602,0.079681,0,0.156379,0.242798,0.271605,0.160494,0.168724,0.149606,0.062992,0.5,0.287402,0.31405,0.264463,0.264463,0.157025,0.365979,0.520619,0.113402,0.625,0.171875,0.203125,0.570392,0.581633,0.150838,0.106145,0.072626,0.234637,0.435754,0.096154,0.019837,0.298507,0.358209,0.343284,0.29396,1,0,0,1,2
0,0,0.722222,0.220779,0.931818,0,1,0,0,0,0,1,0,1,0,0,0,0,0,0,0.156379,0.242798,0.271605,0.160494,0.168724,0,0,1,0,1,0,0,0,1,0,0,0,1,0,0.846154,0,0,0,0,0,1,0.307692,0.039673,0.298507,0.358209,0.343284,0.29396,1,0,0,0,2
0,0,0.444444,0.116883,0.227273,1,0,0,0,1,0,0,0,1,0,0,0,0,0,1,1,0,0,0,0,0,1,0,0,1,0,0,0,0,1,0,0.625,0.171875,0.203125,0.570392,0,1,0,0,0,0,0.442308,0.030338,0,1,0,0.69,1,0,0,1,1
1,0,0.592593,0.168831,0.272727,0,1,0,0,1,0,0,0,1,0,0,0,0,0,0,1,0,0,0,0,1,0,0,0,1,0,0,0,0,1,0,0.625,0.171875,0.203125,0.570392,0.333333,0.150838,0.106145,0.072626,0.234637,0.435754,0.326923,0.043174,0,1,0,0.2,1,0,0,1,1
1,0,0.462963,0.376623,0.181818,1,0,0,0,1,0,0,0,0,1,0,0,0,0,0,0,1,0,0,0,0,1,0,0,1,0,0,0,0.365979,0.520619,0.113402,0.625,0.171875,0.203125,0.570392,1,1,0,0,0,0,0.269231,0.614936,0.298507,0.358209,0.343284,0.29396,1,0,0,1,2
1,0,0.5,0.168831,0.136364,0,1,0,0,1,0,0,0,0,1,0,0,0,0,0,1,0,0,0,0,0,0,1,0,1,0,0,0,1,0,0,1,0,0,0.570392,0.581633,0.150838,0.106145,0.072626,0.234637,0.435754,0.442308,0.778296,0.298507,0.358209,0.343284,0.29396,1,0,0,1,2
1,1,0.537037,0.38961,0.255256,1,0,0,0,0.502183,0.021834,0.441048,0.034934,1,0,0,0,0,0,0,0,0,0,0,1,0,0,1,0,1,0,0,0,0,1,0,1,0,0,0.570392,0.666667,0.150838,0.106145,0.072626,0.234637,0.435754,0.326923,0.033839,1,0,0,0.21,1,0,0,1,1
1,0,0.277778,0.12987,0.363636,0,1,0,0,0,0,1,0,0,0,1,0,0,0,0,1,0,0,0,0,0,0,1,0,0,1,0,0,0,0,1,1,0,0,0.923077,0.581633,0.150838,0.106145,0.072626,0.234637,0.435754,0.278846,0.03734,0.298507,0.358209,0.343284,0.29396,1,0,0,1,2
1,0,0.388889,0.116883,0.090909,1,0,0,0,1,0,0,0,1,0,0,0,0,0,0,1,0,0,0,0,1,0,0,0,1,0,0,0,1,0,0,1,0,0,0.570392,0,0.150838,0.106145,0.072626,0.234637,0.435754,0.269231,0.03734,0.298507,0.358209,0.343284,0.29396,1,0,0,1,2
0,0,0.481481,0.077922,0.681818,0,0,0,1,1,0,0,0,1,0,0,0,0,0,0,0,0,1,0,0,0,0,1,0,0,1,0,0,0,1,0,0,1,0,0.570392,1,0,0,0,1,0,0.346154,0.050175,0.298507,0.358209,0.343284,0.29396,1,0,0,0,2
0,0,0.703704,0.273343,0.170455,0,0,1,0,1,0,0,0,0,0,1,0,0,0,0,0,0,0,1,0,0,0,0,1,0,1,0,0,0,1,0,0.625,0.171875,0.203125,0.570392,0.581633,0.150838,0.106145,0.072626,0.234637,0.435754,0.25,0.038506,1,0,0,0.29,1,0,0,0,1
1,0,0.513461,0.480519,0.181818,0,0,0,1,0,0,1,0,0,0,1,0,0,0,1,0,0,0,1,0,0,0,0,1,0,0,1,0,0.365979,0.520619,0.113402,0,0,1,0.570392,0.581633,0,1,0,0,0,0.961538,0.05951,0.298507,0.358209,0.343284,0.29396,0,0,1,0,2
1,0,0.574074,0.428571,0.318182,0,0,1,0,0,0,1,0,0.314741,0.119522,0.223108,0.163347,0.099602,0.079681,1,0,1,0,0,0,0,0,0,1,0,1,0,0,1,0,0,0,1,0,0.570392,1,0,0,0,0,1,0.903846,0.060677,0.298507,0.358209,0.343284,0.29396,0,1,0,0,1
