Clus v2.12 - Software for Predictive Clustering

Copyright (C) 2007, 2008, 2009, 2010
   Katholieke Universiteit Leuven, Leuven, Belgium
   Jozef Stefan Institute, Ljubljana, Slovenia

This program is free software and comes with ABSOLUTELY NO
WARRANTY. You are welcome to redistribute it under certain
conditions. Type 'clus -copying' for distribution details.

Loading 'labeled'

Reading ARFF Header

Reading CSV Data
Found 180 rows
Space required by nominal attributes: 4 bytes/tuple regular, 0 bytes/tuple bitwise
Clustering: Weights C=[1], N=[5.846]

Has missing values: false
Run: 01
Ensemble Classifier

Memory And Time Optimization = false
Out-Of-Bag Estimate of the error = false
	Perform Feature Ranking = false
Ensemble Method: Random Forest
Loading 'test.arff'
Bag: 1
Clustering: Weights C=[1], N=[1]
Test: duration > 0.067527 -> 0.10494770855498292
Test: contact=unknown > 0.0 -> 0.08869173756449467
Test: education=primary > 0.0 -> 0.07436663604010607
Test: job=blue-collar > 0.0 -> 0.09288850873457377
Test: month=jul > 0.0 -> 0.07600985366278301
Test: duration > 0.108573 -> 0.07410059283616899
Test: balance > 0.088965 -> 0.26762999210462135
Test: marital=divorced > 0.0 -> 0.0760098536627829
Test: job=entrepreneur > 0.0 -> 0.7219280948873623
Test: age > 0.308824 -> 0.23656171177248608
Test: job=admin. > 0.0 -> 0.19811742113040343
Test: job=services > 0.0 -> 0.10917033867559878
Test: job=management > 0.0 -> 0.9709505944546688
Test: balance > 0.062925 -> 0.18613819904679063
Test: job=services > 0.0 -> 0.06991005367674274
Test: poutcome=success > 0.0 -> 0.46691718668869947
Test: balance > 0.067234 -> 0.6500224216483541
Bag: 2
Clustering: Weights C=[1], N=[1]
Test: campaign > 0.061224 -> 0.033477578023771826
Test: balance > 0.058697 -> 0.029085379017041557
Test: duration > 0.081099 -> 0.052670799327638185
Test: job=management > 0.0 -> 0.22525165114594037
Test: campaign > 0.0 -> 0.14310852874469293
Test: balance > 0.094187 -> 0.3599841823548944
Test: balance > 0.099489 -> 0.5216406363433185
Test: age > 0.073529 -> 0.8112781244591328
Test: balance > 0.058831 -> 0.20863394899502524
Test: day > 0.866667 -> 0.16738263738601952
Test: poutcome=unknown > 0.0 -> 0.9182958340544894
Test: education=primary > 0.0 -> 0.023492890215935314
Test: job=technician > 0.0 -> 0.7219280948873623
Test: duration > 0.130089 -> 0.17216529629524252
Test: education=tertiary > 0.0 -> 0.5567796494470396
Test: previous > 0.0 -> 0.5916727785823274
Bag: 3
Clustering: Weights C=[1], N=[1]
Test: month=apr > 0.0 -> 0.01010987846130973
Test: balance > 0.045744 -> 0.09636105587936414
Test: age > 0.617647 -> 0.07799042932165245
Test: month=jun > 0.0 -> 0.018346759170393523
Test: month=oct > 0.0 -> 0.05661788296155612
Test: duration > 0.017213 -> 0.9910760598382222
Test: job=management > 0.0 -> 0.05008753710750197
Test: contact=cellular > 0.0 -> 0.1113964330044036
Test: balance > 0.062925 -> 0.06900045483451467
Test: housing=yes > 0.0 -> 0.17095059445466876
Test: age > 0.279412 -> 1.0
Test: campaign > 0.040816 -> 0.12255624891826578
Test: age > 0.308824 -> 0.2516291673878228
Test: day > 0.333333 -> 0.31127812445913294
Test: contact=cellular > 0.0 -> 0.07088892320269993
Test: campaign > 0.040816 -> 0.04585376878952341
Test: job=self-employed > 0.0 -> 0.016977551901060983
Test: month=sep > 0.0 -> 0.09192657126378856
Test: pdays > 0.122706 -> 0.10638795576295468
Test: education=primary > 0.0 -> 0.17685429802353736
Test: job=housemaid > 0.0 -> 0.11774369689072062
Test: duration > 0.08805 -> 0.954434002924965
Bag: 4
Clustering: Weights C=[1], N=[1]
Test: balance > 0.045328 -> 0.04368944284897747
Test: month=jun > 0.0 -> 0.023716153534540263
Test: pdays > 0.517202 -> 0.07403919130207459
Test: balance > 0.090522 -> 0.05028862931427769
Test: loan=yes > 0.0 -> 0.0974574951672198
Test: contact=cellular > 0.0 -> 0.15648682513458767
Test: duration > 0.079775 -> 0.9910760598382222
Test: month=oct > 0.0 -> 0.06371443076169503
Test: balance > 0.050912 -> 0.9182958340544894
Test: day > 0.933333 -> 0.058208898543688214
Test: balance > 0.045744 -> 0.9709505944546688
Test: marital=single > 0.0 -> 0.007393082513642513
Test: month=apr > 0.0 -> 0.04687719796252704
Test: day > 0.133333 -> 0.46899559358928117
Test: balance > 0.045342 -> 0.11911602665564837
Bag: 5
Clustering: Weights C=[1], N=[1]
Test: month=oct > 0.0 -> 0.04502730907605457
Test: previous > 0.0 -> 0.9852281360342515
Test: age > 0.073529 -> 0.03665654553666192
Test: duration > 0.068189 -> 0.075604656053394
Test: month=sep > 0.0 -> 0.04464816693678131
Test: poutcome=success > 0.0 -> 0.0810843416773267
Test: education=tertiary > 0.0 -> 0.9910760598382222
Test: contact=cellular > 0.0 -> 0.04181252470614877
Test: pdays > 0.0 -> 0.07492028391537392
Test: balance > 0.045744 -> 0.21224218407586043
Test: age > 0.279412 -> 0.07948754102053751
Test: balance > 0.088965 -> 0.19811742113040332
Test: education=secondary > 0.0 -> 0.9182958340544894
Test: duration > 0.086395 -> 0.9709505944546688
Test: month=may > 0.0 -> 1.0
Bag: 6
Clustering: Weights C=[1], N=[1]
Test: loan=yes > 0.0 -> 0.026286397512521598
Test: day > 0.566667 -> 0.08647179277139622
Test: previous > 0.0 -> 0.17090887896267748
Test: contact=unknown > 0.0 -> 0.18934034563805457
Test: duration > 0.043694 -> 0.9940302114769566
Test: month=aug > 0.0 -> 0.058376156771107024
Test: marital=single > 0.0 -> 0.08588055385086923
Test: duration > 0.062231 -> 0.22990685088540386
Test: balance > 0.090589 -> 0.36551997337481623
Test: marital=married > 0.0 -> 0.3204020720026781
Test: housing=yes > 0.0 -> 0.22478750958935978
Test: day > 0.666667 -> 0.9709505944546688
Test: balance > 0.044832 -> 0.059077005746344655
Test: job=entrepreneur > 0.0 -> 0.5435644431995964
Bag: 7
Clustering: Weights C=[1], N=[1]
Test: marital=divorced > 0.0 -> 0.02224488322649193
Test: age > 0.161765 -> 0.043327070725317385
Test: month=jun > 0.0 -> 0.020230459020496305
Test: age > 0.617647 -> 0.03059572811723027
Test: contact=cellular > 0.0 -> 0.012968385987588593
Test: month=oct > 0.0 -> 0.06968356069664927
Test: education=tertiary > 0.0 -> 0.9709505944546688
Test: education=secondary > 0.0 -> 0.008869696078542322
Test: job=technician > 0.0 -> 0.028086004956692723
Test: housing=yes > 0.0 -> 0.0454410291882929
Test: job=blue-collar > 0.0 -> 0.10218717094933338
Test: age > 0.205882 -> 0.3219280948873623
Test: duration > 0.0715 -> 1.0
Test: duration > 0.079775 -> 0.25548931981609013
Test: poutcome=unknown > 0.0 -> 0.31976006206417584
Test: age > 0.264706 -> 0.46956521111470706
Test: marital=married > 0.0 -> 0.2516291673878228
Test: age > 0.279412 -> 1.0
Test: duration > 0.15955 -> 0.21084230031853216
Test: duration > 0.08805 -> 0.44910454912944675
Test: month=may > 0.0 -> 0.3219280948873623
Test: balance > 0.044469 -> 1.0
Test: job=admin. > 0.0 -> 0.1292594014927401
Bag: 8
Clustering: Weights C=[1], N=[1]
Test: month=sep > 0.0 -> 0.02854693167825706
Test: job=entrepreneur > 0.0 -> 0.9182958340544894
Test: duration > 0.068189 -> 0.11158103806376188
Test: balance > 0.045328 -> 0.05111667357980898
Test: job=technician > 0.0 -> 0.11622490215233261
Test: balance > 0.045865 -> 0.15631879394467296
Test: balance > 0.060482 -> 0.12638772060600045
Test: education=tertiary > 0.0 -> 0.3814444125401065
Test: job=blue-collar > 0.0 -> 0.1920058354921066
Test: previous > 0.0 -> 0.34758988139079705
Test: education=secondary > 0.0 -> 0.9709505944546688
Test: balance > 0.048966 -> 0.16970016821052342
Test: month=oct > 0.0 -> 0.9182958340544894
Bag: 9
Clustering: Weights C=[1], N=[1]
Test: month=jun > 0.0 -> 0.02382042230590886
Test: age > 0.147059 -> 0.01914046495073285
Test: campaign > 0.061224 -> 0.031976043045424896
Test: duration > 0.068189 -> 0.21306144515612346
Test: job=blue-collar > 0.0 -> 0.2084573084341984
Test: previous > 0.04 -> 0.050473436078727674
Test: day > 0.566667 -> 0.4335941172605444
Test: age > 0.544118 -> 0.5032583347756457
Test: job=services > 0.0 -> 0.084960383993957
Test: duration > 0.186362 -> 0.21784587810274303
Test: month=aug > 0.0 -> 0.14886990701819391
Test: contact=telephone > 0.0 -> 0.16041636652019164
Test: balance > 0.050912 -> 0.287996002265013
Test: job=entrepreneur > 0.0 -> 0.03451070288373814
Test: marital=married > 0.0 -> 0.6500224216483541
Test: age > 0.25 -> 0.31127812445913283
Test: poutcome=unknown > 0.0 -> 1.0
Test: previous > 0.0 -> 0.45051076384871513
Test: job=services > 0.0 -> 0.9182958340544894
Bag: 10
Clustering: Weights C=[1], N=[1]
Test: poutcome=success > 0.0 -> 0.05420788958705719
Test: marital=married > 0.0 -> 0.3771240690105859
Test: education=secondary > 0.0 -> 0.10917033867559889
Test: age > 0.514706 -> 0.8112781244591328
Test: day > 0.133333 -> 0.5916727785823274
Test: month=may > 0.0 -> 0.006833153300370098
Test: job=blue-collar > 0.0 -> 0.05279644956656915
Test: pdays > 0.348624 -> 0.08267729474087016
Test: duration > 0.008606 -> 0.9182958340544894
Test: marital=divorced > 0.0 -> 0.049369490730994225
Test: duration > 0.129758 -> 0.5787946246321198
Test: pdays > 0.517202 -> 0.08923664645992632
Test: month=oct > 0.0 -> 0.021368429563079355
Test: job=management > 0.0 -> 0.12255624891826578
Test: balance > 0.048966 -> 0.9182958340544894
Test: marital=single > 0.0 -> 0.008398452652322613
Test: day > 0.033333 -> 0.04908821726073373
Test: education=tertiary > 0.0 -> 0.010095697623889122
Test: job=entrepreneur > 0.0 -> 0.11103651745115607
Test: education=primary > 0.0 -> 1.0
Test: day > 0.0 -> 1.0
Bag: 11
Clustering: Weights C=[1], N=[1]
Test: day > 0.333333 -> 0.04774822650721183
Test: contact=unknown > 0.0 -> 0.0287933709125604
Test: job=retired > 0.0 -> 0.04360800759254352
Test: month=jul > 0.0 -> 1.0
Test: pdays > 0.425459 -> 0.04832193754483638
Test: job=student > 0.0 -> 0.022685837882323923
Test: poutcome=success > 0.0 -> 0.9182958340544894
Test: age > 0.205882 -> 0.07155402751093376
Test: month=aug > 0.0 -> 0.04279917103448061
Test: day > 0.7 -> 0.38031392318872387
Test: duration > 0.038067 -> 0.9709505944546688
Test: age > 0.588235 -> 0.14671799495815896
Test: campaign > 0.020408 -> 0.07464271332703676
Test: duration > 0.11089 -> 0.465122763206272
Test: job=management > 0.0 -> 0.2516291673878228
Test: campaign > 0.0 -> 0.5487949406953986
Test: contact=unknown > 0.0 -> 0.7219280948873623
Bag: 12
Clustering: Weights C=[1], N=[1]
Test: pdays > 0.00344 -> 0.05672905254549976
Test: age > 0.044118 -> 0.19208379986213997
Test: month=aug > 0.0 -> 0.1744546479149136
Test: previous > 0.04 -> 0.04670193021289604
Test: age > 0.558824 -> 0.3312512184811077
Test: duration > 0.070175 -> 0.9182958340544894
Test: job=technician > 0.0 -> 0.2516291673878228
Test: duration > 0.108573 -> 0.07648514553238159
Test: balance > 0.045865 -> 0.19346019566284234
Test: month=nov > 0.0 -> 0.0269786331958628
Test: education=tertiary > 0.0 -> 0.04283394724611622
Test: month=jun > 0.0 -> 0.04306839587828004
Test: loan=yes > 0.0 -> 0.19811742113040332
Test: age > 0.073529 -> 0.9182958340544894
Test: job=admin. > 0.0 -> 0.2364527976600279
Test: day > 0.266667 -> 0.5487949406953987
Test: education=unknown > 0.0 -> 0.8112781244591328
Test: education=tertiary > 0.0 -> 0.0026482199527547157
Test: month=sep > 0.0 -> 0.08283655281361224
Bag: 13
Clustering: Weights C=[1], N=[1]
Test: month=oct > 0.0 -> 0.08530342212758413
Test: education=primary > 0.0 -> 0.9182958340544894
Test: poutcome=success > 0.0 -> 0.028942206774345114
Test: balance > 0.044469 -> 1.0
Test: balance > 0.058187 -> 0.017053777459553998
Test: balance > 0.058831 -> 0.1312958666556781
Test: housing=yes > 0.0 -> 0.027779937251572462
Test: age > 0.073529 -> 0.09978874394258336
Test: previous > 0.08 -> 0.05214436016265789
Test: balance > 0.067234 -> 0.9182958340544894
Test: job=management > 0.0 -> 0.0418396703241416
Test: contact=unknown > 0.0 -> 0.09123321517616911
Test: campaign > 0.040816 -> 0.6500224216483541
Test: balance > 0.045744 -> 0.024986386917654688
Test: balance > 0.045328 -> 0.1783663316941576
Test: marital=married > 0.0 -> 1.0
Bag: 14
Clustering: Weights C=[1], N=[1]
Test: marital=divorced > 0.0 -> 0.018723614866241134
Test: poutcome=success > 0.0 -> 0.029120044952922253
Test: job=management > 0.0 -> 0.3219280948873625
Test: marital=married > 0.0 -> 0.31127812445913283
Test: job=admin. > 0.0 -> 0.31127812445913294
Test: previous > 0.16 -> 0.9182958340544894
Test: pdays > 0.425459 -> 0.024061466857828895
Test: balance > 0.045328 -> 0.049057876462866634
Test: balance > 0.045865 -> 0.11101859928570096
Test: month=oct > 0.0 -> 0.029205790549145294
Test: duration > 0.024826 -> 0.4591479170272447
Test: balance > 0.050912 -> 0.9182958340544894
Test: age > 0.279412 -> 0.05282063254168362
Test: contact=telephone > 0.0 -> 0.07174862927211817
Test: duration > 0.15955 -> 0.3477582119016924
Test: month=apr > 0.0 -> 0.7219280948873623
Test: marital=married > 0.0 -> 0.061743357932800946
Test: age > 0.602941 -> 0.7219280948873623
Bag: 15
Clustering: Weights C=[1], N=[1]
Test: poutcome=success > 0.0 -> 0.01096558578197021
Test: housing=yes > 0.0 -> 0.2516291673878228
Test: month=aug > 0.0 -> 0.31127812445913294
Test: day > 0.133333 -> 0.9182958340544894
Test: contact=unknown > 0.0 -> 0.024856291703525935
Test: job=admin. > 0.0 -> 0.04875516570996666
Test: poutcome=unknown > 0.0 -> 0.5032583347756457
Test: month=oct > 0.0 -> 0.06658321900334391
Test: education=secondary > 0.0 -> 0.4591479170272447
Test: previous > 0.0 -> 0.9182958340544894
Test: balance > 0.044778 -> 0.027630379420198248
Test: pdays > 0.0 -> 0.041021812159805326
Test: month=may > 0.0 -> 0.04704236781202131
Test: education=tertiary > 0.0 -> 0.9182958340544894
Test: age > 0.176471 -> 0.047345147381788466
Test: balance > 0.044832 -> 0.1093559746345324
Test: duration > 0.108573 -> 0.2369856702855676
Test: job=admin. > 0.0 -> 0.46932240831937155
Test: education=secondary > 0.0 -> 0.6840384356390417
Bag: 16
Clustering: Weights C=[1], N=[1]
Test: balance > 0.045328 -> 0.04259771594218115
Test: pdays > 0.517202 -> 0.06935551438422566
Test: age > 0.588235 -> 0.0319273794984587
Test: poutcome=success > 0.0 -> 0.5503407095463881
Test: duration > 0.072493 -> 0.5435644431995964
Test: loan=yes > 0.0 -> 0.021727129045498117
Test: month=jun > 0.0 -> 0.020806318128941736
Test: balance > 0.045865 -> 0.07445377939577397
Test: month=oct > 0.0 -> 0.053099699616292795
Test: day > 0.666667 -> 0.9182958340544894
Test: month=jul > 0.0 -> 0.05072928990028125
Test: contact=telephone > 0.0 -> 0.8812908992306927
Test: age > 0.147059 -> 0.06910623592589557
Test: month=may > 0.0 -> 0.01476467491537689
Test: marital=divorced > 0.0 -> 0.06961827098842019
Test: day > 0.033333 -> 0.5916727785823274
Test: pdays > 0.0 -> 0.31668908831502085
Test: contact=unknown > 0.0 -> 0.7219280948873623
Bag: 17
Clustering: Weights C=[1], N=[1]
Test: balance > 0.045328 -> 0.027539241163320127
Test: education=primary > 0.0 -> 0.011896956133879089
Test: balance > 0.045342 -> 0.5305789096505421
Test: housing=yes > 0.0 -> 0.2051099000738689
Test: marital=married > 0.0 -> 1.0
Test: pdays > 0.401376 -> 0.03001492670635514
Test: month=jan > 0.0 -> 0.06405108212260441
Test: day > 0.933333 -> 0.03449767107913859
Test: education=tertiary > 0.0 -> 1.0
Test: month=oct > 0.0 -> 0.029011538584436725
Test: duration > 0.072493 -> 0.31668908831502085
Test: duration > 0.129758 -> 0.18347982873409768
Test: duration > 0.241311 -> 0.29989639116789113
Test: housing=yes > 0.0 -> 0.20443400292496505
Test: day > 0.333333 -> 1.0
Test: duration > 0.139689 -> 0.07469346932603824
Test: loan=yes > 0.0 -> 0.8112781244591328
Bag: 18
Clustering: Weights C=[1], N=[1]
Test: duration > 0.063886 -> 0.07096204292664698
Test: age > 0.073529 -> 0.0979065701049423
Test: contact=unknown > 0.0 -> 0.07686904176688891
Test: job=services > 0.0 -> 0.028056099671099677
Test: age > 0.691176 -> 0.033229012035378536
Test: job=retired > 0.0 -> 0.036751702191436864
Test: day > 0.9 -> 0.9182958340544894
Test: job=blue-collar > 0.0 -> 0.0913893471664523
Test: poutcome=unknown > 0.0 -> 0.059203671973064975
Test: day > 0.766667 -> 0.22806670354641456
Test: age > 0.235294 -> 0.1823089846088971
Test: balance > 0.047664 -> 0.3339229296083941
Test: age > 0.426471 -> 0.7219280948873623
Test: education=tertiary > 0.0 -> 0.19811742113040332
Test: month=aug > 0.0 -> 0.2516291673878228
Test: month=may > 0.0 -> 1.0
Test: month=may > 0.0 -> 0.05421400772308038
Test: month=oct > 0.0 -> 0.2576788051033315
Test: day > 0.566667 -> 0.46899559358928117
Test: poutcome=other > 0.0 -> 0.09796404814353707
Test: marital=single > 0.0 -> 1.0
Bag: 19
Clustering: Weights C=[1], N=[1]
Test: contact=telephone > 0.0 -> 0.013770573534959807
Test: education=primary > 0.0 -> 0.2998428398862387
Test: job=entrepreneur > 0.0 -> 0.2373974097831018
Test: day > 0.7 -> 0.18424289179001144
Test: education=tertiary > 0.0 -> 0.9182958340544894
Test: age > 0.073529 -> 0.04304747644000245
Test: contact=unknown > 0.0 -> 0.054499798384609055
Test: duration > 0.067527 -> 0.14609022565506863
Test: campaign > 0.0 -> 0.21762098988464185
Test: pdays > 0.0 -> 0.03106154461231153
Test: day > 0.033333 -> 0.1758558968939351
Test: month=nov > 0.0 -> 0.10430778600809093
Test: job=self-employed > 0.0 -> 0.07290559532005603
Test: job=entrepreneur > 0.0 -> 0.31127812445913283
Test: day > 0.533333 -> 1.0
Test: balance > 0.050912 -> 0.18149632952867545
Test: day > 0.533333 -> 0.8112781244591328
Test: month=nov > 0.0 -> 0.4204484631347319
Test: balance > 0.047167 -> 0.14448434380562802
Bag: 20
Clustering: Weights C=[1], N=[1]
Test: job=blue-collar > 0.0 -> 0.022965917466715835
Test: age > 0.617647 -> 0.023310884115991526
Test: marital=single > 0.0 -> 0.018649461861865557
Test: month=apr > 0.0 -> 0.07290559532005603
Test: pdays > 0.336009 -> 0.3671026561027331
Test: job=technician > 0.0 -> 0.03529943923384771
Test: education=tertiary > 0.0 -> 0.30595849286804166
Test: age > 0.25 -> 0.31127812445913294
Test: month=sep > 0.0 -> 0.2516291673878228
Test: poutcome=unknown > 0.0 -> 1.0
Test: duration > 0.090367 -> 0.16386030430146906
Test: education=secondary > 0.0 -> 0.02878253914005624
Test: day > 0.7 -> 0.17932914038591208
Test: poutcome=success > 0.0 -> 0.2471501836369669
Test: balance > 0.062925 -> 0.43949698692151334
Bag: 21
Clustering: Weights C=[1], N=[1]
Test: job=blue-collar > 0.0 -> 0.023700103031949915
Test: marital=married > 0.0 -> 0.015324361315374624
Test: duration > 0.067196 -> 0.21841018042415034
Test: month=oct > 0.0 -> 0.13238496461482518
Test: age > 0.588235 -> 0.2386076101691723
Test: poutcome=success > 0.0 -> 0.17205901020548287
Test: poutcome=unknown > 0.0 -> 0.08269532399266677
Test: day > 0.666667 -> 0.29272427884960517
Test: month=may > 0.0 -> 0.8112781244591328
Test: day > 0.333333 -> 0.16970016821052342
Test: age > 0.073529 -> 0.9182958340544894
Test: month=aug > 0.0 -> 0.02494920172504117
Test: job=technician > 0.0 -> 0.12255624891826578
Test: age > 0.147059 -> 0.9182958340544894
Test: age > 0.147059 -> 0.1166521443245203
Test: job=student > 0.0 -> 0.3059584928680419
Test: balance > 0.054899 -> 0.6500224216483541
Bag: 22
Clustering: Weights C=[1], N=[1]
Test: age > 0.588235 -> 0.03384669686834352
Test: campaign > 0.020408 -> 0.8112781244591328
Test: month=oct > 0.0 -> 0.09415898790372901
Test: month=sep > 0.0 -> 0.04574139446787995
Test: education=primary > 0.0 -> 0.8112781244591328
Test: job=blue-collar > 0.0 -> 0.023792441239464057
Test: month=jun > 0.0 -> 0.01384803006812263
Test: campaign > 0.061224 -> 0.028882014645873144
Test: age > 0.426471 -> 0.06134472170054939
Test: pdays > 0.40367 -> 0.07478499802664695
Test: day > 0.033333 -> 0.08404367188929918
Test: poutcome=unknown > 0.0 -> 0.04891416684141553
Test: campaign > 0.040816 -> 0.08412341064073381
Test: age > 0.161765 -> 0.41997309402197514
Test: job=self-employed > 0.0 -> 0.2516291673878228
Test: age > 0.176471 -> 1.0
Test: day > 0.333333 -> 0.06257289085531853
Test: campaign > 0.0 -> 0.08575406498306454
Test: balance > 0.045744 -> 0.1546249654505778
Test: month=may > 0.0 -> 0.3958156020033583
Test: job=management > 0.0 -> 0.41997309402197514
Test: duration > 0.102946 -> 0.9182958340544894
Bag: 23
Clustering: Weights C=[1], N=[1]
Test: duration > 0.067527 -> 0.09695986679122698
Test: job=management > 0.0 -> 0.05514296733530033
Test: pdays > 0.172018 -> 0.6974749995352737
Test: education=tertiary > 0.0 -> 0.026927428889288563
Test: month=nov > 0.0 -> 0.08880563947945674
Test: day > 0.566667 -> 0.6500224216483541
Test: contact=telephone > 0.0 -> 0.05635546723355639
Test: housing=yes > 0.0 -> 0.31127812445913294
Test: job=retired > 0.0 -> 0.9182958340544894
Test: previous > 0.08 -> 0.11141757720774237
Test: campaign > 0.0 -> 0.954434002924965
Test: education=secondary > 0.0 -> 0.03824767870715612
Test: marital=married > 0.0 -> 0.025913265488258064
Test: education=tertiary > 0.0 -> 0.013137356385803212
Test: contact=unknown > 0.0 -> 0.054824648581652036
Test: education=unknown > 0.0 -> 0.03451070288373814
Test: loan=yes > 0.0 -> 0.10917033867559889
Test: age > 0.205882 -> 0.8112781244591328
Bag: 24
Clustering: Weights C=[1], N=[1]
Test: age > 0.044118 -> 0.0433391005361039
Test: pdays > 0.517202 -> 0.09666359035805086
Test: balance > 0.045489 -> 0.014637476862446042
Test: balance > 0.045744 -> 0.03222890704490966
Test: job=blue-collar > 0.0 -> 0.009967131149456132
Test: day > 0.033333 -> 0.03788194005435419
Test: previous > 0.04 -> 0.008977836390070965
Test: poutcome=other > 0.0 -> 0.04469673115154302
Test: education=tertiary > 0.0 -> 0.0628808345996022
Test: day > 0.633333 -> 0.06500151709372431
Test: campaign > 0.040816 -> 0.23656171177248608
Test: marital=single > 0.0 -> 0.5216406363433185
Test: day > 0.133333 -> 0.1382409511794473
Test: job=admin. > 0.0 -> 0.9182958340544894
Bag: 25
Clustering: Weights C=[1], N=[1]
Test: education=secondary > 0.0 -> 0.01982089315948793
Test: marital=divorced > 0.0 -> 0.028712457460543822
Test: month=jul > 0.0 -> 0.17095059445466865
Test: job=admin. > 0.0 -> 0.2516291673878228
Test: month=apr > 0.0 -> 1.0
Test: job=admin. > 0.0 -> 0.04161090453616928
Test: duration > 0.008606 -> 0.46899559358928117
Test: poutcome=success > 0.0 -> 0.16244408513625724
Test: age > 0.25 -> 0.04194712231338715
Test: balance > 0.090361 -> 0.046399896827956144
Test: job=entrepreneur > 0.0 -> 0.2516291673878228
Test: contact=cellular > 0.0 -> 1.0
Test: poutcome=failure > 0.0 -> 0.025332838077588127
Test: campaign > 0.040816 -> 0.07101044897418063
Test: duration > 0.130089 -> 0.3830689830039223
Test: campaign > 0.020408 -> 0.0994806063983183
Test: contact=telephone > 0.0 -> 0.7219280948873623
Bag: 26
Clustering: Weights C=[1], N=[1]
Test: job=unknown > 0.0 -> 0.0028224693615048757
Test: month=oct > 0.0 -> 0.04142132956927275
Test: job=management > 0.0 -> 0.018148422103162476
Test: poutcome=success > 0.0 -> 0.34527009689500665
Test: duration > 0.086395 -> 0.2463646307476473
Test: poutcome=failure > 0.0 -> 0.013942230671790179
Test: duration > 0.108573 -> 0.08600013635629464
Test: marital=single > 0.0 -> 0.14360656756205392
Test: balance > 0.094187 -> 0.15499327297286436
Test: job=entrepreneur > 0.0 -> 0.8112781244591328
Test: age > 0.426471 -> 0.3948950998563653
Test: job=services > 0.0 -> 0.03637309922189946
Test: age > 0.205882 -> 0.28103611255342353
Test: balance > 0.045744 -> 1.0
Test: balance > 0.058697 -> 0.018976398205040143
Test: poutcome=unknown > 0.0 -> 0.15085625925711654
Test: job=admin. > 0.0 -> 1.0
Bag: 27
Clustering: Weights C=[1], N=[1]
Test: age > 0.161765 -> 0.04892845523562461
Test: duration > 0.068189 -> 0.04617692215949043
Test: age > 0.264706 -> 0.07547367244585229
Test: poutcome=success > 0.0 -> 0.18273234377462083
Test: job=admin. > 0.0 -> 0.1167251694056165
Test: previous > 0.08 -> 0.14417563365186548
Test: marital=single > 0.0 -> 0.10449650149138426
Test: month=jun > 0.0 -> 0.12255624891826578
Test: duration > 0.07812 -> 0.9182958340544894
Test: job=technician > 0.0 -> 0.09420787101268147
Test: duration > 0.047335 -> 0.3012402371932783
Test: education=tertiary > 0.0 -> 0.37887883713522896
Test: balance > 0.044469 -> 0.9709505944546688
Test: age > 0.147059 -> 0.13943857679540916
Test: campaign > 0.0 -> 0.8112781244591328
Bag: 28
Clustering: Weights C=[1], N=[1]
Test: duration > 0.068189 -> 0.035565279856911214
Test: job=management > 0.0 -> 0.027359212340324568
Test: age > 0.352941 -> 0.29684962309392304
Test: loan=yes > 0.0 -> 0.10803154614559995
Test: month=aug > 0.0 -> 0.5577277787393196
Test: age > 0.25 -> 0.6500224216483541
Test: education=primary > 0.0 -> 0.021922647089903602
Test: month=may > 0.0 -> 0.02695868154803871
Test: duration > 0.139689 -> 0.12414133222412962
Test: job=services > 0.0 -> 0.8112781244591328
Test: balance > 0.088965 -> 0.10562760981372188
Test: balance > 0.099489 -> 0.9182958340544894
Test: marital=single > 0.0 -> 0.08750861608428073
Test: duration > 0.070175 -> 0.3713839743143796
Test: age > 0.205882 -> 0.3712323266408757
Test: poutcome=unknown > 0.0 -> 0.07542191313201677
Test: pdays > 0.345183 -> 0.469738393990769
Test: marital=single > 0.0 -> 0.8112781244591328
Bag: 29
Clustering: Weights C=[1], N=[1]
Test: duration > 0.068189 -> 0.17414406362795976
Test: pdays > 0.0 -> 0.055999767295799696
Test: balance > 0.096871 -> 0.14078143361499573
Test: month=aug > 0.0 -> 0.41997309402197514
Test: month=oct > 0.0 -> 0.1971597234241491
Test: education=secondary > 0.0 -> 0.20443400292496483
Test: campaign > 0.0 -> 0.41997309402197514
Test: duration > 0.155578 -> 0.9182958340544894
Test: contact=unknown > 0.0 -> 0.11564514912850221
Test: campaign > 0.0 -> 0.042114225028137
Test: housing=yes > 0.0 -> 0.03637309922189946
Test: job=technician > 0.0 -> 0.28103611255342353
Test: balance > 0.045342 -> 1.0
Test: education=unknown > 0.0 -> 0.04253951262928746
Test: loan=yes > 0.0 -> 0.07636983086887417
Test: day > 0.933333 -> 0.21929514273233897
Test: campaign > 0.0 -> 0.2660296464313425
Test: month=aug > 0.0 -> 0.07539593734971195
Test: contact=cellular > 0.0 -> 0.1546249654505777
Test: age > 0.397059 -> 0.40400975732486
Test: education=secondary > 0.0 -> 0.31127812445913283
Test: age > 0.279412 -> 1.0
Bag: 30
Clustering: Weights C=[1], N=[1]
Test: age > 0.147059 -> 0.04572473727970461
Test: duration > 0.068189 -> 0.11118568998672979
Test: job=entrepreneur > 0.0 -> 0.0661772015592138
Test: duration > 0.08143 -> 0.9182958340544894
Test: month=oct > 0.0 -> 0.04460421824124272
Test: poutcome=success > 0.0 -> 0.15849583907348835
Test: marital=married > 0.0 -> 0.7219280948873623
Test: balance > 0.060858 -> 0.043990753314261555
Test: day > 0.766667 -> 0.15862090869310103
Test: marital=single > 0.0 -> 0.4591479170272448
Test: contact=cellular > 0.0 -> 0.31127812445913283
Test: job=admin. > 0.0 -> 1.0
Test: contact=unknown > 0.0 -> 0.04544100544885199
Test: education=tertiary > 0.0 -> 0.01094461229224658
Test: job=technician > 0.0 -> 0.2576788051033315
Test: duration > 0.072493 -> 1.0
Test: duration > 0.126448 -> 0.5184229837866563
Test: pdays > 0.0 -> 0.6840384356390417
Bag: 31
Clustering: Weights C=[1], N=[1]
Test: day > 0.033333 -> 0.03871942922330357
Test: poutcome=unknown > 0.0 -> 0.01263093154266659
Test: month=aug > 0.0 -> 0.01266592071448891
Test: age > 0.073529 -> 0.10858720109083864
Test: campaign > 0.061224 -> 0.015485435521398638
Test: marital=single > 0.0 -> 0.019384162488514656
Test: month=sep > 0.0 -> 0.05645690277167387
Test: job=unknown > 0.0 -> 0.005149991526531117
Test: duration > 0.090367 -> 0.08213681056017119
Test: day > 0.733333 -> 0.2327984375572419
Test: education=secondary > 0.0 -> 0.09016842781106293
Test: campaign > 0.040816 -> 0.2471501836369669
Test: balance > 0.045342 -> 0.18905266854301622
Test: education=primary > 0.0 -> 0.9182958340544894
Test: job=technician > 0.0 -> 0.08372295672752972
Test: month=oct > 0.0 -> 0.23050920049000534
Test: day > 0.466667 -> 0.19919117293110955
Test: contact=cellular > 0.0 -> 0.31668908831502085
Test: education=secondary > 0.0 -> 0.3219280948873623
Test: job=management > 0.0 -> 0.31127812445913294
Test: balance > 0.044952 -> 0.9182958340544894
Bag: 32
Clustering: Weights C=[1], N=[1]
Test: balance > 0.045328 -> 0.028053479946867077
Test: duration > 0.129758 -> 0.12550137282690377
Test: education=unknown > 0.0 -> 0.11411079398326551
Test: housing=yes > 0.0 -> 0.27303048856612366
Test: campaign > 0.0 -> 0.04069560596190047
Test: balance > 0.045865 -> 0.6052891061068588
Test: age > 0.073529 -> 0.46899559358928117
Test: poutcome=unknown > 0.0 -> 0.024436208419656352
Test: month=apr > 0.0 -> 0.036585323376435004
Test: day > 0.7 -> 0.5032583347756457
Test: job=admin. > 0.0 -> 0.035697470053394964
Test: day > 0.466667 -> 0.8112781244591328
Test: poutcome=success > 0.0 -> 0.22002600168808797
Test: marital=married > 0.0 -> 1.0
Bag: 33
Clustering: Weights C=[1], N=[1]
Test: month=oct > 0.0 -> 0.031382038753336394
Test: marital=single > 0.0 -> 0.9182958340544894
Test: age > 0.617647 -> 0.08524638056092584
Test: marital=married > 0.0 -> 0.7219280948873623
Test: education=primary > 0.0 -> 0.0061163466536340305
Test: pdays > 0.40367 -> 0.03387497289490396
Test: duration > 0.090367 -> 0.052500501093380614
Test: campaign > 0.0 -> 0.054824648581652036
Test: day > 0.033333 -> 0.22837518378373284
Test: job=blue-collar > 0.0 -> 0.05674236781411934
Test: day > 0.7 -> 0.21229006661701394
Test: duration > 0.197948 -> 0.22002600168808797
Bag: 34
Clustering: Weights C=[1], N=[1]
Test: day > 0.333333 -> 0.029509352362744157
Test: day > 0.566667 -> 0.0460184950718025
Test: campaign > 0.0 -> 0.16286885208461427
Test: job=retired > 0.0 -> 0.07662381107936322
Test: job=management > 0.0 -> 0.08183291282323013
Test: day > 0.7 -> 0.9182958340544894
Test: pdays > 0.175459 -> 0.26324014871075446
Test: job=blue-collar > 0.0 -> 0.07492028391537392
Test: age > 0.25 -> 0.3166890883150208
Test: duration > 0.043694 -> 1.0
Test: campaign > 0.0 -> 0.1252684349407196
Test: duration > 0.086395 -> 0.5052347069926499
Test: marital=single > 0.0 -> 0.09235938389499498
Test: day > 0.166667 -> 0.7219280948873623
Test: month=sep > 0.0 -> 0.24715018363696714
Test: contact=telephone > 0.0 -> 1.0
Test: pdays > 0.16055 -> 0.2511998321744055
Test: job=admin. > 0.0 -> 0.9182958340544894
Bag: 35
Clustering: Weights C=[1], N=[1]
Test: month=oct > 0.0 -> 0.04971518101162009
Test: campaign > 0.0 -> 0.46956521111470706
Test: day > 0.033333 -> 0.02692315570738879
Test: job=management > 0.0 -> 0.01449384219677008
Test: marital=divorced > 0.0 -> 0.04936840230058037
Test: marital=married > 0.0 -> 0.06727225498354494
Test: contact=unknown > 0.0 -> 0.02774016755962133
Test: month=may > 0.0 -> 0.04306839587828004
Test: contact=cellular > 0.0 -> 0.22837518378373284
Test: month=nov > 0.0 -> 0.14161952533413782
Test: day > 0.533333 -> 0.3219280948873625
Test: duration > 0.079775 -> 0.8112781244591328
Test: month=aug > 0.0 -> 0.007188846765617957
Test: campaign > 0.040816 -> 0.014235635633041532
Test: previous > 0.0 -> 0.01721120866885517
Test: month=sep > 0.0 -> 0.0634753938086014
Test: job=blue-collar > 0.0 -> 0.02736390403732633
Test: marital=married > 0.0 -> 0.04284870099246496
Test: age > 0.073529 -> 0.12140081168700706
Test: age > 0.573529 -> 0.03037268900774831
Test: job=technician > 0.0 -> 0.7219280948873623
Test: education=tertiary > 0.0 -> 0.019459177305868935
Test: contact=cellular > 0.0 -> 0.16070475288778252
Test: balance > 0.044711 -> 0.9182958340544894
Test: marital=divorced > 0.0 -> 1.0
Bag: 36
Clustering: Weights C=[1], N=[1]
Test: month=jun > 0.0 -> 0.02553269412066006
Test: pdays > 0.00344 -> 0.02980647823531768
Test: marital=divorced > 0.0 -> 0.08378913593276127
Test: age > 0.147059 -> 0.2188181753075853
Test: month=may > 0.0 -> 0.13919093649036585
Test: age > 0.308824 -> 0.2916919971380597
Test: balance > 0.044469 -> 0.31127812445913294
Test: education=secondary > 0.0 -> 0.5577277787393193
Test: day > 0.466667 -> 0.8112781244591328
Test: age > 0.132353 -> 0.2364527976600279
Test: age > 0.044118 -> 0.9709505944546688
Test: job=self-employed > 0.0 -> 0.009046601751693306
Test: age > 0.073529 -> 0.08509150873236326
Test: day > 0.266667 -> 0.03108922318911156
Test: marital=single > 0.0 -> 0.020620529183589337
Test: age > 0.205882 -> 0.07510019475190718
Test: contact=telephone > 0.0 -> 0.3142748277322647
Test: duration > 0.08805 -> 0.1863969571159562
Test: month=apr > 0.0 -> 1.0
Test: duration > 0.11089 -> 0.43359411726054453
Test: month=may > 0.0 -> 0.4591479170272447
Test: day > 0.033333 -> 0.9182958340544894
Test: job=management > 0.0 -> 0.9182958340544894
Bag: 37
Clustering: Weights C=[1], N=[1]
Test: balance > 0.045328 -> 0.037266745965446546
Test: balance > 0.045865 -> 0.0670400120497946
Test: job=retired > 0.0 -> 0.031046152560511242
Test: education=tertiary > 0.0 -> 0.9852281360342515
Test: contact=telephone > 0.0 -> 0.024172615727371227
Test: duration > 0.081099 -> 0.8453509366224364
Test: contact=cellular > 0.0 -> 0.035899796962848673
Test: month=feb > 0.0 -> 0.018677332983793926
Test: day > 0.6 -> 0.03134856554594556
Test: education=primary > 0.0 -> 0.08198172064120202
Test: pdays > 0.330275 -> 0.13701850183231934
Test: duration > 0.050314 -> 0.2042043984452142
Test: housing=yes > 0.0 -> 0.34758988139079705
Test: education=secondary > 0.0 -> 0.41997309402197514
Test: education=unknown > 0.0 -> 0.2516291673878228
Test: job=services > 0.0 -> 1.0
Test: marital=married > 0.0 -> 0.03342207941195485
Test: day > 0.333333 -> 0.0418396703241416
Test: duration > 0.0715 -> 0.3912435636292556
Test: job=technician > 0.0 -> 0.19555334819207637
Test: campaign > 0.0 -> 0.31668908831502085
Test: housing=yes > 0.0 -> 0.3219280948873623
Test: job=management > 0.0 -> 1.0
Test: loan=yes > 0.0 -> 0.7219280948873623
Bag: 38
Clustering: Weights C=[1], N=[1]
Test: poutcome=unknown > 0.0 -> 0.04076478310615339
Test: day > 0.033333 -> 0.06979037401635342
Test: education=tertiary > 0.0 -> 0.013111569700123012
Test: age > 0.161765 -> 0.06511819524476296
Test: job=technician > 0.0 -> 0.12808527889139432
Test: age > 0.058824 -> 0.31127812445913283
Test: education=tertiary > 0.0 -> 0.9182958340544894
Test: job=technician > 0.0 -> 0.08537439059492047
Test: contact=unknown > 0.0 -> 0.15021912204281052
Test: month=apr > 0.0 -> 0.05220246825904207
Test: month=oct > 0.0 -> 0.3412830693548738
Test: poutcome=success > 0.0 -> 0.3225312200363035
Test: age > 0.529412 -> 0.9182958340544894
Bag: 39
Clustering: Weights C=[1], N=[1]
Test: poutcome=unknown > 0.0 -> 0.05009405390722982
Test: marital=divorced > 0.0 -> 0.009900635211453013
Test: balance > 0.045865 -> 0.030974873841567663
Test: age > 0.073529 -> 0.06640778557221627
Test: job=technician > 0.0 -> 0.03640843596988619
Test: education=secondary > 0.0 -> 0.10803154614560001
Test: month=aug > 0.0 -> 0.17095059445466865
Test: loan=yes > 0.0 -> 0.2516291673878228
Test: contact=cellular > 0.0 -> 1.0
Test: age > 0.220588 -> 0.13476412127388998
Test: balance > 0.044684 -> 0.2645615081468067
Test: day > 0.3 -> 0.44477166784364586
Test: education=secondary > 0.0 -> 0.8631205685666311
Test: job=technician > 0.0 -> 0.12214022022737625
Test: duration > 0.081099 -> 0.4614782024270695
Test: poutcome=failure > 0.0 -> 0.3671026561027333
Test: month=sep > 0.0 -> 0.9709505944546688
Bag: 40
Clustering: Weights C=[1], N=[1]
Test: previous > 0.0 -> 0.02940690832486187
Test: poutcome=success > 0.0 -> 0.17705619357537739
Test: month=sep > 0.0 -> 0.1971597234241491
Test: age > 0.220588 -> 0.8112781244591328
Test: pdays > 0.40367 -> 0.2369856702855676
Test: duration > 0.008606 -> 0.9709505944546688
Test: campaign > 0.061224 -> 0.022124625957430588
Test: age > 0.588235 -> 0.04122998491961144
Test: age > 0.602941 -> 0.9852281360342515
Test: age > 0.5 -> 0.01650670146977068
Test: contact=unknown > 0.0 -> 0.04907793717207526
Test: job=technician > 0.0 -> 0.026684294042485623
Test: month=jan > 0.0 -> 0.0220693681864762
Test: job=admin. > 0.0 -> 0.060854371604305735
Test: duration > 0.129758 -> 0.46956521111470706
Test: age > 0.205882 -> 0.3219280948873623
Test: marital=married > 0.0 -> 1.0
Test: month=aug > 0.0 -> 0.04129476271709476
Test: day > 0.266667 -> 0.06488132041760808
Test: job=blue-collar > 0.0 -> 0.05878020304107967
Test: duration > 0.115856 -> 0.2810361125534235
Test: month=nov > 0.0 -> 0.07328801869775525
Test: contact=telephone > 0.0 -> 0.6840384356390417
Bag: 41
Clustering: Weights C=[1], N=[1]
Test: contact=unknown > 0.0 -> 0.030696922163545026
Test: marital=divorced > 0.0 -> 0.006940692106173138
Test: duration > 0.15955 -> 0.15649106290570153
Test: month=nov > 0.0 -> 0.03860046567824915
Test: education=unknown > 0.0 -> 0.01266314562361015
Test: poutcome=success > 0.0 -> 0.07221884847164362
Test: education=tertiary > 0.0 -> 0.46691718668869947
Test: month=sep > 0.0 -> 0.6500224216483541
Test: month=oct > 0.0 -> 0.07454837871154124
Test: pdays > 0.0 -> 0.5216406363433185
Test: job=blue-collar > 0.0 -> 0.31127812445913283
Test: job=unemployed > 0.0 -> 1.0
Test: education=tertiary > 0.0 -> 0.06376390296995427
Test: loan=yes > 0.0 -> 0.03821997745823846
Test: previous > 0.0 -> 0.07259121209529096
Test: day > 0.933333 -> 0.23334583396553676
Test: duration > 0.129758 -> 0.20459021082971313
Test: balance > 0.052563 -> 0.9709505944546688
Test: day > 0.3 -> 0.07731106574667329
Test: balance > 0.044832 -> 0.30595849286804166
Test: job=housemaid > 0.0 -> 1.0
Bag: 42
Clustering: Weights C=[1], N=[1]
Test: contact=telephone > 0.0 -> 0.025271657455961605
Test: month=nov > 0.0 -> 0.16113666504619284
Test: job=entrepreneur > 0.0 -> 0.9798687566511527
Test: campaign > 0.0 -> 0.03126240728623053
Test: job=management > 0.0 -> 0.017893227642730603
Test: contact=unknown > 0.0 -> 0.05974840870806791
Test: marital=single > 0.0 -> 0.0517968594991004
Test: day > 0.166667 -> 0.9182958340544894
Test: month=may > 0.0 -> 0.022987188979232853
Test: education=secondary > 0.0 -> 0.034144039029604056
Test: balance > 0.062925 -> 0.2935644431995964
Test: age > 0.279412 -> 1.0
Test: month=may > 0.0 -> 0.02066487847020415
Test: education=primary > 0.0 -> 0.08518820759269824
Test: job=technician > 0.0 -> 0.1908745046211094
Test: poutcome=success > 0.0 -> 0.17531500199887717
Test: education=tertiary > 0.0 -> 0.6500224216483541
Test: job=student > 0.0 -> 0.03009286039226927
Test: age > 0.044118 -> 1.0
Test: day > 0.566667 -> 0.08922144127756776
Test: job=admin. > 0.0 -> 0.10941594165434654
Test: previous > 0.0 -> 0.46691718668869947
Test: age > 0.205882 -> 0.6500224216483541
Test: month=oct > 0.0 -> 0.2051099000738689
Test: balance > 0.050912 -> 1.0
Bag: 43
Clustering: Weights C=[1], N=[1]
Test: campaign > 0.061224 -> 0.023834633118118342
Test: age > 0.617647 -> 0.06951620823426619
Test: contact=unknown > 0.0 -> 0.03005096518115241
Test: job=admin. > 0.0 -> 0.04835297104265612
Test: poutcome=unknown > 0.0 -> 0.5032583347756457
Test: month=oct > 0.0 -> 0.04557976963295507
Test: day > 0.933333 -> 0.019876016278439435
Test: education=secondary > 0.0 -> 0.8631205685666311
Test: month=aug > 0.0 -> 0.018103142954911167
Test: duration > 0.073155 -> 0.09747776910199252
Test: age > 0.073529 -> 0.16288319128814832
Test: contact=cellular > 0.0 -> 0.21608505688043683
Test: age > 0.264706 -> 0.1025883968364304
Test: education=tertiary > 0.0 -> 0.43359411726054453
Test: month=may > 0.0 -> 0.9182958340544894
Bag: 44
Clustering: Weights C=[1], N=[1]
Test: duration > 0.067527 -> 0.14578267034323417
Test: balance > 0.044711 -> 0.06847875564444317
Test: marital=divorced > 0.0 -> 0.10816568670050608
Test: housing=yes > 0.0 -> 0.08921475947968893
Test: balance > 0.045865 -> 0.2672132003758686
Test: balance > 0.060858 -> 0.05410754101730195
Test: education=tertiary > 0.0 -> 0.19350684337293433
Test: poutcome=failure > 0.0 -> 0.2516291673878228
Test: marital=single > 0.0 -> 1.0
Test: balance > 0.045328 -> 0.5216406363433185
Test: job=entrepreneur > 0.0 -> 0.8112781244591328
Test: day > 0.266667 -> 0.2512271878785266
Test: campaign > 0.0 -> 0.3210238286880514
Test: education=unknown > 0.0 -> 0.19087450462110933
Test: age > 0.279412 -> 0.9709505944546688
Test: day > 0.1 -> 0.6500224216483541
Bag: 45
Clustering: Weights C=[1], N=[1]
Test: poutcome=success > 0.0 -> 0.015768551563339006
Test: day > 0.133333 -> 0.7642045065086203
Test: duration > 0.127772 -> 0.053218987214764674
Test: balance > 0.045154 -> 0.12255624891826578
Test: contact=unknown > 0.0 -> 0.31668908831502085
Test: job=management > 0.0 -> 0.4464393446710155
Test: month=oct > 0.0 -> 0.2516291673878228
Test: job=entrepreneur > 0.0 -> 0.015696633841750213
Test: loan=yes > 0.0 -> 0.19920350542916287
Test: education=primary > 0.0 -> 0.9182958340544894
Test: housing=yes > 0.0 -> 0.007751600077892676
Test: campaign > 0.0 -> 0.023336335876448858
Test: month=jun > 0.0 -> 0.027566928433453763
Test: duration > 0.056604 -> 0.16970016821052342
Test: balance > 0.050912 -> 0.9182958340544894
Bag: 46
Clustering: Weights C=[1], N=[1]
Test: month=jun > 0.0 -> 0.02191713341995649
Test: job=blue-collar > 0.0 -> 0.022418645986821417
Test: poutcome=success > 0.0 -> 0.035512526187886306
Test: marital=single > 0.0 -> 0.22943684069673975
Test: job=management > 0.0 -> 0.7219280948873623
Test: education=secondary > 0.0 -> 0.8112781244591328
Test: day > 0.033333 -> 0.02762303328711635
Test: job=admin. > 0.0 -> 0.019039192844270414
Test: marital=single > 0.0 -> 0.11815077186405165
Test: contact=cellular > 0.0 -> 0.9852281360342515
Test: day > 0.666667 -> 0.4138168503036338
Test: marital=married > 0.0 -> 0.03039838987656196
Test: education=tertiary > 0.0 -> 0.029385745580283285
Test: month=apr > 0.0 -> 0.009947081674627073
Test: balance > 0.060858 -> 0.03604730791751842
Test: job=management > 0.0 -> 0.04770911142796053
Test: month=aug > 0.0 -> 0.10218717094933338
Test: poutcome=failure > 0.0 -> 0.02965793780983772
Test: month=oct > 0.0 -> 0.9182958340544894
Test: age > 0.073529 -> 0.1952667279783058
Test: job=technician > 0.0 -> 0.08594088924059815
Test: age > 0.220588 -> 0.245939658350045
Test: month=apr > 0.0 -> 0.41997309402197514
Test: poutcome=other > 0.0 -> 0.9182958340544894
Bag: 47
Clustering: Weights C=[1], N=[1]
Test: pdays > 0.00344 -> 0.09663239138177449
Test: marital=divorced > 0.0 -> 0.116451545601861
Test: month=oct > 0.0 -> 0.21254550496521873
Test: contact=cellular > 0.0 -> 0.21430657503656125
Test: balance > 0.049113 -> 0.21558415733376668
Test: balance > 0.070617 -> 0.38617524533006
Test: loan=yes > 0.0 -> 0.3204020720026781
Test: month=aug > 0.0 -> 0.31976006206417584
Test: job=retired > 0.0 -> 1.0
Test: marital=divorced > 0.0 -> 0.005890735050333662
Test: month=apr > 0.0 -> 0.5916727785823274
Test: job=management > 0.0 -> 0.01563264465779901
Test: age > 0.279412 -> 0.1322536173231199
Test: month=nov > 0.0 -> 0.17932914038591208
Test: loan=yes > 0.0 -> 0.048415675908885514
Test: day > 0.166667 -> 0.2689955935892811
Test: contact=telephone > 0.0 -> 0.5032583347756457
Test: duration > 0.14664 -> 0.0356065943662907
Test: loan=yes > 0.0 -> 0.2516291673878228
Test: job=technician > 0.0 -> 1.0
Test: month=oct > 0.0 -> 0.04571472074217027
Test: balance > 0.050912 -> 0.6500224216483541
Bag: 48
Clustering: Weights C=[1], N=[1]
Test: day > 0.766667 -> 0.06353531761410258
Test: balance > 0.045248 -> 0.31797716547989474
Test: previous > 0.12 -> 0.1831497988820474
Test: balance > 0.045744 -> 0.22582953145948104
Test: month=jul > 0.0 -> 0.5959980436453797
Test: campaign > 0.0 -> 0.18905266854301622
Test: age > 0.058824 -> 0.9182958340544894
Test: pdays > 0.204128 -> 0.06715328416733257
Test: marital=divorced > 0.0 -> 0.15121711631337098
Test: job=technician > 0.0 -> 0.20443400292496505
Test: job=blue-collar > 0.0 -> 0.31127812445913294
Test: month=apr > 0.0 -> 0.1971597234241491
Test: poutcome=other > 0.0 -> 0.12255624891826578
Test: duration > 0.0715 -> 0.9182958340544894
Test: age > 0.235294 -> 0.01787659763486621
Test: month=apr > 0.0 -> 0.05603090598736418
Test: education=secondary > 0.0 -> 0.31127812445913283
Test: balance > 0.07561 -> 1.0
Test: contact=unknown > 0.0 -> 0.013389538969075174
Test: balance > 0.050912 -> 0.030709059933156924
Test: campaign > 0.0 -> 0.09333728066856745
Test: education=secondary > 0.0 -> 0.3166890883150208
Bag: 49
Clustering: Weights C=[1], N=[1]
Test: pdays > 0.40367 -> 0.04299087044152616
Test: age > 0.352941 -> 0.8112781244591328
Test: contact=unknown > 0.0 -> 0.01857892032243419
Test: age > 0.588235 -> 0.0947428932187087
Test: age > 0.602941 -> 1.0
Test: job=entrepreneur > 0.0 -> 0.05575509837118797
Test: duration > 0.068189 -> 1.0
Test: duration > 0.127772 -> 0.19072118456153608
Test: housing=yes > 0.0 -> 0.7112236652165479
Test: job=blue-collar > 0.0 -> 0.04770911142796053
Test: balance > 0.088965 -> 0.5032583347756457
Bag: 50
Clustering: Weights C=[1], N=[1]
Test: campaign > 0.061224 -> 0.028163931837159262
Test: month=oct > 0.0 -> 0.05056632758425861
Test: pdays > 0.0 -> 0.5216406363433185
Test: campaign > 0.0 -> 0.8112781244591328
Test: duration > 0.14664 -> 0.052216268800566235
Test: job=management > 0.0 -> 0.5577277787393196
Test: duration > 0.336975 -> 0.6500224216483541
Test: job=technician > 0.0 -> 0.019293285855786768
Test: poutcome=unknown > 0.0 -> 0.0258254817674079
Test: campaign > 0.040816 -> 0.039019233797526115
Test: education=secondary > 0.0 -> 1.0
Test: month=apr > 0.0 -> 0.03956523178172361
Test: age > 0.205882 -> 0.9182958340544894
Test: contact=telephone > 0.0 -> 0.06108622254715834
Test: campaign > 0.0 -> 0.8112781244591328
Test: age > 0.558824 -> 0.39955636537390327
Test: education=tertiary > 0.0 -> 0.03557560929482953
Test: contact=cellular > 0.0 -> 0.3912435636292556
Induction Time: 1.009 sec
Pruning Time: 0.0 sec

Computing training error
Computing testing error
PredictionWriter is writing the ARFF header
Output written to: labeled.out
