@relation car-weka.filters.unsupervised.ATTRIBUTE.NominalToBinary-Rfirst-last

@ATTRIBUTE buying=vhigh numeric
@ATTRIBUTE buying=high numeric
@ATTRIBUTE buying=med numeric
@ATTRIBUTE buying=low numeric
@ATTRIBUTE maint=vhigh numeric
@ATTRIBUTE maint=high numeric
@ATTRIBUTE maint=med numeric
@ATTRIBUTE maint=low numeric
@ATTRIBUTE doors=2 numeric
@ATTRIBUTE doors=3 numeric
@ATTRIBUTE doors=4 numeric
@ATTRIBUTE doors=5more numeric
@ATTRIBUTE persons=2 numeric
@ATTRIBUTE persons=4 numeric
@ATTRIBUTE persons=more numeric
@ATTRIBUTE lug_boot=small numeric
@ATTRIBUTE lug_boot=med numeric
@ATTRIBUTE lug_boot=big numeric
@ATTRIBUTE safety=low numeric
@ATTRIBUTE safety=med numeric
@ATTRIBUTE safety=high numeric
@ATTRIBUTE Class {unacc,acc,good,vgood}

@data
0,0,0,1,0,1,0,0,0,0,1,0,0,0,1,0,0,1,1,0,0,?
0,0,1,0,0,0,0,1,0,0,1,0,0,0,1,0,0,1,1,0,0,?
1,0,0,0,1,0,0,0,1,0,0,0,0,1,0,0,0,1,1,0,0,?
0,0,0,1,1,0,0,0,0,0,1,0,1,0,0,0,1,0,0,1,0,?
1,0,0,0,0,1,0,0,1,0,0,0,0,1,0,0,0,1,0,1,0,?
0,0,0,1,0,1,0,0,0,1,0,0,0,0,1,1,0,0,1,0,0,?
0,1,0,0,0,0,0,1,0,1,0,0,1,0,0,0,1,0,0,1,0,?
1,0,0,0,0,0,0,1,0,0,1,0,1,0,0,1,0,0,0,1,0,?
0,0,0,1,0,0,0,1,1,0,0,0,1,0,0,0,1,0,1,0,0,?
0,0,1,0,0,0,0,1,0,1,0,0,1,0,0,0,1,0,0,1,0,?
0,0,1,0,0,0,1,0,0,0,1,0,0,1,0,0,1,0,0,1,0,?
0,0,0,1,0,1,0,0,0,0,1,0,0,1,0,0,0,1,0,1,0,?
0,0,0,1,0,0,0,1,0,0,0,1,0,0,1,1,0,0,0,0,1,?
0,0,0,1,0,1,0,0,0,0,0,1,0,0,1,1,0,0,0,0,1,?
1,0,0,0,0,0,1,0,0,1,0,0,1,0,0,0,0,1,0,1,0,?
1,0,0,0,0,0,0,1,1,0,0,0,0,0,1,0,0,1,0,0,1,?
0,1,0,0,0,0,0,1,1,0,0,0,0,1,0,1,0,0,0,0,1,?
0,0,0,1,0,1,0,0,0,1,0,0,0,1,0,0,0,1,1,0,0,?
0,0,1,0,0,0,0,1,1,0,0,0,0,1,0,0,1,0,1,0,0,?
1,0,0,0,0,0,1,0,0,0,0,1,0,1,0,1,0,0,0,1,0,?
0,0,0,1,0,1,0,0,0,1,0,0,0,0,1,1,0,0,0,0,1,?
0,0,1,0,0,0,0,1,0,0,0,1,0,0,1,1,0,0,1,0,0,?
1,0,0,0,0,1,0,0,0,0,0,1,0,0,1,0,1,0,0,0,1,?
0,0,1,0,0,0,1,0,0,1,0,0,0,1,0,1,0,0,1,0,0,?
0,1,0,0,0,0,0,1,0,1,0,0,0,0,1,0,0,1,0,0,1,?
1,0,0,0,0,1,0,0,1,0,0,0,0,1,0,0,0,1,1,0,0,?
0,0,0,1,0,0,0,1,1,0,0,0,0,1,0,0,1,0,1,0,0,?
0,0,1,0,0,0,1,0,0,0,1,0,1,0,0,0,0,1,1,0,0,?
0,0,0,1,0,1,0,0,0,0,0,1,0,0,1,1,0,0,1,0,0,?
0,0,1,0,0,1,0,0,0,1,0,0,0,0,1,0,0,1,0,0,1,?
1,0,0,0,0,0,0,1,0,0,1,0,0,1,0,0,0,1,0,1,0,?
1,0,0,0,0,0,0,1,1,0,0,0,1,0,0,0,0,1,1,0,0,?
0,0,1,0,1,0,0,0,0,0,0,1,0,1,0,0,1,0,0,1,0,?
1,0,0,0,0,1,0,0,0,0,1,0,0,1,0,1,0,0,0,0,1,?
0,0,0,1,0,0,0,1,0,0,1,0,0,0,1,1,0,0,0,1,0,?
0,0,1,0,0,1,0,0,0,1,0,0,1,0,0,0,0,1,1,0,0,?
1,0,0,0,0,1,0,0,0,0,0,1,1,0,0,1,0,0,0,1,0,?
1,0,0,0,0,1,0,0,1,0,0,0,0,0,1,1,0,0,0,1,0,?
0,0,1,0,0,0,0,1,1,0,0,0,1,0,0,0,1,0,1,0,0,?
0,0,0,1,0,0,0,1,0,0,1,0,0,0,1,0,1,0,0,1,0,?
0,1,0,0,0,1,0,0,0,0,0,1,0,0,1,0,0,1,0,0,1,?
0,0,1,0,0,0,1,0,1,0,0,0,1,0,0,1,0,0,1,0,0,?
0,1,0,0,1,0,0,0,0,0,1,0,1,0,0,0,0,1,1,0,0,?
0,0,1,0,0,1,0,0,0,0,0,1,0,0,1,0,1,0,1,0,0,?
1,0,0,0,0,0,1,0,0,0,0,1,0,0,1,1,0,0,0,0,1,?
0,1,0,0,0,1,0,0,1,0,0,0,1,0,0,1,0,0,1,0,0,?
0,0,1,0,0,0,1,0,0,1,0,0,1,0,0,0,0,1,1,0,0,?
0,0,1,0,1,0,0,0,1,0,0,0,0,1,0,0,1,0,1,0,0,?
0,0,0,1,0,0,0,1,1,0,0,0,1,0,0,0,0,1,1,0,0,?
0,1,0,0,0,0,0,1,0,0,1,0,0,0,1,0,1,0,1,0,0,?
0,0,1,0,0,0,1,0,0,0,1,0,0,1,0,1,0,0,0,1,0,?
1,0,0,0,1,0,0,0,0,1,0,0,0,1,0,0,0,1,0,1,0,?
0,0,1,0,0,1,0,0,1,0,0,0,0,0,1,0,1,0,1,0,0,?
0,0,1,0,0,0,1,0,0,0,0,1,0,0,1,0,1,0,0,1,0,?
0,0,1,0,0,0,1,0,0,1,0,0,1,0,0,0,1,0,1,0,0,?
0,1,0,0,0,0,0,1,0,0,1,0,1,0,0,0,1,0,0,1,0,?
1,0,0,0,0,1,0,0,0,0,0,1,0,0,1,1,0,0,0,0,1,?
0,0,0,1,0,1,0,0,0,0,0,1,0,1,0,0,0,1,1,0,0,?
1,0,0,0,0,1,0,0,1,0,0,0,1,0,0,0,0,1,1,0,0,?
0,0,1,0,0,0,0,1,0,1,0,0,0,0,1,1,0,0,1,0,0,?
0,0,0,1,0,0,1,0,1,0,0,0,0,0,1,1,0,0,0,0,1,?
0,0,1,0,0,1,0,0,0,0,1,0,0,0,1,1,0,0,0,0,1,?
0,1,0,0,0,0,0,1,0,1,0,0,1,0,0,1,0,0,0,1,0,?
0,1,0,0,0,0,1,0,0,0,0,1,0,1,0,0,1,0,0,0,1,?
0,0,0,1,0,0,1,0,1,0,0,0,0,0,1,0,1,0,0,1,0,?
0,0,1,0,0,0,0,1,1,0,0,0,1,0,0,0,0,1,0,0,1,?
0,1,0,0,0,0,1,0,0,0,0,1,0,0,1,0,1,0,0,1,0,?
0,1,0,0,0,0,1,0,0,0,1,0,0,0,1,0,1,0,1,0,0,?
0,0,1,0,0,0,0,1,0,0,1,0,0,0,1,1,0,0,0,0,1,?
0,0,0,1,0,0,1,0,1,0,0,0,0,1,0,0,0,1,1,0,0,?
0,1,0,0,1,0,0,0,0,0,1,0,0,0,1,0,0,1,0,1,0,?
0,1,0,0,1,0,0,0,1,0,0,0,0,0,1,0,0,1,0,0,1,?
1,0,0,0,0,0,1,0,0,1,0,0,0,0,1,0,1,0,0,1,0,?
0,0,0,1,0,0,1,0,0,1,0,0,0,0,1,1,0,0,0,1,0,?
0,1,0,0,1,0,0,0,0,1,0,0,1,0,0,1,0,0,0,0,1,?
1,0,0,0,0,0,0,1,0,1,0,0,1,0,0,0,0,1,0,0,1,?
0,0,1,0,0,1,0,0,0,0,1,0,1,0,0,0,1,0,0,1,0,?
0,0,0,1,1,0,0,0,0,1,0,0,0,0,1,0,1,0,0,1,0,?
0,0,1,0,0,0,0,1,1,0,0,0,0,1,0,1,0,0,0,1,0,?
0,1,0,0,0,1,0,0,0,0,0,1,1,0,0,0,1,0,0,1,0,?
0,0,0,1,1,0,0,0,1,0,0,0,0,1,0,0,1,0,0,0,1,?
1,0,0,0,0,0,1,0,0,0,1,0,0,1,0,0,1,0,1,0,0,?
0,0,0,1,1,0,0,0,0,0,1,0,0,0,1,0,1,0,0,0,1,?
0,0,1,0,0,0,1,0,0,0,0,1,1,0,0,0,1,0,0,1,0,?
0,1,0,0,1,0,0,0,0,0,0,1,1,0,0,0,0,1,1,0,0,?
0,0,0,1,0,0,0,1,0,1,0,0,0,1,0,0,0,1,0,0,1,?
0,1,0,0,1,0,0,0,0,0,1,0,0,0,1,1,0,0,1,0,0,?
1,0,0,0,0,0,1,0,0,1,0,0,1,0,0,1,0,0,0,1,0,?
0,1,0,0,0,0,0,1,0,0,1,0,0,1,0,0,1,0,0,0,1,?
1,0,0,0,0,0,1,0,0,0,0,1,0,0,1,1,0,0,1,0,0,?
0,1,0,0,0,0,0,1,0,0,0,1,0,0,1,0,0,1,0,0,1,?
0,0,0,1,0,0,0,1,0,0,0,1,1,0,0,1,0,0,1,0,0,?
1,0,0,0,0,0,0,1,0,0,1,0,1,0,0,0,1,0,1,0,0,?
0,1,0,0,0,1,0,0,0,0,1,0,0,0,1,0,0,1,0,0,1,?
1,0,0,0,0,0,1,0,0,1,0,0,0,1,0,0,0,1,1,0,0,?
0,0,1,0,0,0,0,1,0,0,1,0,0,1,0,0,0,1,1,0,0,?
1,0,0,0,0,0,1,0,0,1,0,0,0,0,1,1,0,0,1,0,0,?
0,0,0,1,0,1,0,0,1,0,0,0,0,0,1,1,0,0,0,1,0,?
0,0,0,1,0,1,0,0,0,0,1,0,1,0,0,0,1,0,0,0,1,?
0,1,0,0,0,1,0,0,0,0,1,0,1,0,0,0,0,1,0,0,1,?
0,0,0,1,0,0,1,0,0,1,0,0,0,1,0,1,0,0,0,1,0,?
0,0,0,1,0,0,0,1,0,1,0,0,0,1,0,0,1,0,0,1,0,?
0,0,1,0,0,0,0,1,0,1,0,0,1,0,0,1,0,0,1,0,0,?
0,0,1,0,1,0,0,0,0,0,1,0,1,0,0,1,0,0,0,0,1,?
0,1,0,0,1,0,0,0,1,0,0,0,1,0,0,0,0,1,1,0,0,?
0,1,0,0,0,0,1,0,0,0,0,1,0,1,0,1,0,0,1,0,0,?
0,0,0,1,0,0,0,1,0,1,0,0,1,0,0,0,1,0,0,0,1,?
0,1,0,0,0,0,0,1,0,0,1,0,0,1,0,0,0,1,0,1,0,?
0,1,0,0,0,0,1,0,1,0,0,0,0,1,0,0,0,1,0,1,0,?
1,0,0,0,0,0,0,1,0,1,0,0,0,0,1,0,0,1,0,0,1,?
0,0,1,0,0,0,1,0,0,1,0,0,0,1,0,1,0,0,0,1,0,?
0,0,0,1,0,0,1,0,0,0,1,0,0,1,0,0,0,1,0,1,0,?
0,0,0,1,0,1,0,0,0,0,0,1,0,1,0,1,0,0,0,0,1,?
0,1,0,0,1,0,0,0,1,0,0,0,0,1,0,1,0,0,0,0,1,?
1,0,0,0,0,0,0,1,0,1,0,0,0,1,0,1,0,0,0,1,0,?
1,0,0,0,0,0,1,0,0,1,0,0,0,1,0,0,0,1,0,1,0,?
0,0,0,1,1,0,0,0,0,0,1,0,1,0,0,1,0,0,1,0,0,?
1,0,0,0,1,0,0,0,0,0,0,1,0,1,0,0,0,1,0,1,0,?
1,0,0,0,0,0,0,1,0,1,0,0,0,0,1,1,0,0,0,0,1,?
0,0,1,0,1,0,0,0,0,1,0,0,0,0,1,0,0,1,0,0,1,?
1,0,0,0,0,0,0,1,0,0,1,0,1,0,0,0,0,1,0,1,0,?
0,0,0,1,0,0,1,0,0,0,0,1,1,0,0,0,1,0,1,0,0,?
0,0,0,1,0,0,0,1,0,0,0,1,0,0,1,0,0,1,1,0,0,?
0,0,1,0,0,0,1,0,0,1,0,0,1,0,0,1,0,0,0,0,1,?
0,0,0,1,1,0,0,0,0,0,0,1,0,0,1,0,0,1,0,0,1,?
0,0,1,0,1,0,0,0,0,1,0,0,0,0,1,1,0,0,1,0,0,?
0,0,1,0,1,0,0,0,1,0,0,0,0,0,1,1,0,0,0,1,0,?
0,0,1,0,0,1,0,0,0,0,0,1,0,0,1,1,0,0,0,1,0,?
0,1,0,0,0,0,0,1,1,0,0,0,0,0,1,0,1,0,0,0,1,?
0,0,1,0,0,0,1,0,0,1,0,0,1,0,0,0,0,1,0,0,1,?
1,0,0,0,1,0,0,0,0,0,0,1,0,0,1,0,0,1,1,0,0,?
0,0,0,1,0,1,0,0,0,0,0,1,0,0,1,1,0,0,0,1,0,?
0,1,0,0,0,1,0,0,0,0,1,0,0,0,1,1,0,0,1,0,0,?
1,0,0,0,0,0,0,1,0,0,1,0,1,0,0,1,0,0,1,0,0,?
0,0,1,0,0,0,0,1,0,0,0,1,1,0,0,0,0,1,1,0,0,?
0,0,1,0,1,0,0,0,0,1,0,0,0,1,0,0,1,0,0,0,1,?
0,1,0,0,0,0,1,0,0,1,0,0,1,0,0,0,1,0,0,0,1,?
0,1,0,0,0,0,0,1,0,0,0,1,0,1,0,0,0,1,0,0,1,?
0,0,0,1,1,0,0,0,1,0,0,0,0,1,0,1,0,0,0,1,0,?
0,0,0,1,0,0,1,0,1,0,0,0,0,1,0,0,0,1,0,0,1,?
0,1,0,0,0,1,0,0,0,1,0,0,0,0,1,0,1,0,1,0,0,?
0,0,1,0,0,1,0,0,1,0,0,0,1,0,0,0,1,0,0,1,0,?
0,0,0,1,0,0,1,0,0,0,0,1,0,0,1,1,0,0,0,0,1,?
0,1,0,0,0,0,0,1,0,1,0,0,0,0,1,0,0,1,1,0,0,?
0,1,0,0,0,0,1,0,0,1,0,0,1,0,0,1,0,0,0,0,1,?
0,1,0,0,1,0,0,0,0,1,0,0,0,0,1,0,0,1,0,0,1,?
0,0,0,1,0,0,1,0,0,0,0,1,0,1,0,0,1,0,0,0,1,?
0,0,1,0,0,0,1,0,0,0,0,1,0,0,1,1,0,0,0,1,0,?
0,0,0,1,1,0,0,0,1,0,0,0,0,0,1,0,0,1,0,1,0,?
0,0,1,0,0,0,0,1,0,0,0,1,0,0,1,0,1,0,0,1,0,?
0,0,1,0,0,1,0,0,1,0,0,0,0,1,0,0,0,1,0,0,1,?
1,0,0,0,0,1,0,0,0,1,0,0,1,0,0,0,1,0,0,1,0,?
0,0,1,0,0,0,1,0,0,0,1,0,0,0,1,0,1,0,0,0,1,?
0,0,0,1,0,0,0,1,0,0,1,0,0,0,1,0,1,0,0,0,1,?
0,1,0,0,0,1,0,0,0,0,0,1,1,0,0,0,0,1,1,0,0,?
0,1,0,0,0,1,0,0,1,0,0,0,0,0,1,0,0,1,1,0,0,?
1,0,0,0,1,0,0,0,0,0,1,0,0,0,1,0,0,1,0,0,1,?
1,0,0,0,0,1,0,0,0,1,0,0,1,0,0,1,0,0,1,0,0,?
1,0,0,0,0,1,0,0,1,0,0,0,0,1,0,0,1,0,1,0,0,?
0,0,0,1,1,0,0,0,0,0,0,1,1,0,0,0,1,0,0,0,1,?
1,0,0,0,0,1,0,0,0,1,0,0,1,0,0,0,0,1,0,1,0,?
0,0,0,1,0,1,0,0,1,0,0,0,1,0,0,1,0,0,0,1,0,?
0,1,0,0,0,0,1,0,1,0,0,0,1,0,0,0,0,1,0,0,1,?
0,1,0,0,0,1,0,0,0,0,0,1,0,0,1,0,1,0,0,0,1,?
1,0,0,0,1,0,0,0,0,0,0,1,0,0,1,1,0,0,0,1,0,?
1,0,0,0,1,0,0,0,0,0,0,1,0,0,1,1,0,0,0,0,1,?
1,0,0,0,0,1,0,0,0,0,1,0,0,1,0,1,0,0,1,0,0,?
0,0,0,1,0,0,1,0,0,1,0,0,0,0,1,0,0,1,0,0,1,?
0,0,1,0,1,0,0,0,1,0,0,0,0,1,0,0,0,1,1,0,0,?
1,0,0,0,0,0,1,0,1,0,0,0,1,0,0,0,1,0,1,0,0,?
0,0,1,0,0,0,1,0,0,0,0,1,1,0,0,0,1,0,1,0,0,?
0,1,0,0,0,0,0,1,0,1,0,0,0,0,1,0,1,0,1,0,0,?
0,1,0,0,0,1,0,0,1,0,0,0,0,1,0,1,0,0,0,1,0,?
0,1,0,0,0,0,1,0,0,1,0,0,1,0,0,0,1,0,0,1,0,?
0,0,0,1,0,0,0,1,0,0,0,1,1,0,0,1,0,0,0,0,1,?
0,1,0,0,1,0,0,0,0,0,1,0,0,1,0,1,0,0,1,0,0,?
0,0,1,0,0,0,0,1,0,1,0,0,0,1,0,1,0,0,0,0,1,?
0,0,0,1,0,0,1,0,0,0,0,1,1,0,0,0,0,1,1,0,0,?
0,1,0,0,0,1,0,0,0,0,1,0,0,1,0,1,0,0,0,1,0,?
1,0,0,0,1,0,0,0,0,0,0,1,1,0,0,0,1,0,0,0,1,?
0,1,0,0,0,0,1,0,0,0,0,1,1,0,0,0,0,1,0,0,1,?
0,1,0,0,0,0,0,1,0,1,0,0,0,1,0,0,1,0,0,0,1,?
0,1,0,0,0,0,0,1,0,0,0,1,0,0,1,0,0,1,1,0,0,?
0,1,0,0,0,0,1,0,0,0,0,1,0,0,1,0,0,1,0,1,0,?
0,0,0,1,1,0,0,0,0,0,0,1,0,1,0,0,0,1,1,0,0,?
1,0,0,0,1,0,0,0,0,0,1,0,0,1,0,0,1,0,0,1,0,?
0,0,1,0,0,1,0,0,0,0,1,0,0,1,0,1,0,0,0,0,1,?
1,0,0,0,1,0,0,0,0,0,0,1,0,1,0,0,1,0,0,0,1,?
0,1,0,0,1,0,0,0,0,0,0,1,0,0,1,0,0,1,0,1,0,?
0,0,0,1,0,0,1,0,0,0,1,0,0,0,1,0,1,0,0,1,0,?
1,0,0,0,1,0,0,0,0,0,1,0,1,0,0,1,0,0,1,0,0,?
0,0,1,0,0,1,0,0,0,0,0,1,0,1,0,0,1,0,0,1,0,?
0,1,0,0,0,0,0,1,0,0,1,0,1,0,0,0,0,1,0,1,0,?
0,1,0,0,0,0,1,0,0,0,1,0,1,0,0,1,0,0,1,0,0,?
0,0,1,0,0,0,1,0,1,0,0,0,0,1,0,0,0,1,0,0,1,?
0,0,1,0,0,0,0,1,0,1,0,0,0,1,0,0,0,1,0,0,1,?
1,0,0,0,0,1,0,0,0,0,1,0,0,0,1,1,0,0,1,0,0,?
0,1,0,0,0,0,0,1,0,0,0,1,0,1,0,1,0,0,0,0,1,?
0,0,0,1,1,0,0,0,1,0,0,0,0,0,1,1,0,0,0,1,0,?
0,0,1,0,0,1,0,0,1,0,0,0,1,0,0,0,0,1,1,0,0,?
0,1,0,0,0,1,0,0,0,0,1,0,0,1,0,0,0,1,0,0,1,?
0,0,1,0,0,1,0,0,0,0,0,1,1,0,0,1,0,0,0,1,0,?
0,1,0,0,0,0,0,1,1,0,0,0,1,0,0,1,0,0,1,0,0,?
0,0,0,1,0,0,0,1,0,1,0,0,1,0,0,1,0,0,0,1,0,?
1,0,0,0,0,0,0,1,0,0,0,1,1,0,0,0,1,0,0,1,0,?
1,0,0,0,0,0,0,1,0,1,0,0,1,0,0,0,0,1,1,0,0,?
0,1,0,0,0,0,0,1,0,1,0,0,0,1,0,0,0,1,1,0,0,?
0,0,0,1,0,0,0,1,0,0,0,1,0,1,0,1,0,0,0,0,1,?
0,0,1,0,0,1,0,0,0,0,1,0,0,1,0,0,0,1,1,0,0,?
1,0,0,0,0,1,0,0,0,0,0,1,1,0,0,0,0,1,1,0,0,?
1,0,0,0,0,0,0,1,0,1,0,0,0,1,0,0,0,1,0,0,1,?
0,0,1,0,0,0,0,1,0,1,0,0,0,1,0,0,1,0,1,0,0,?
0,0,0,1,1,0,0,0,0,1,0,0,0,1,0,1,0,0,0,0,1,?
0,0,0,1,0,1,0,0,1,0,0,0,0,0,1,1,0,0,1,0,0,?
1,0,0,0,0,1,0,0,0,1,0,0,0,0,1,1,0,0,1,0,0,?
0,0,0,1,0,0,1,0,1,0,0,0,1,0,0,1,0,0,0,0,1,?
0,0,0,1,1,0,0,0,0,1,0,0,1,0,0,0,0,1,0,0,1,?
0,0,0,1,1,0,0,0,0,0,1,0,1,0,0,0,0,1,1,0,0,?
0,1,0,0,0,0,1,0,0,1,0,0,0,1,0,1,0,0,1,0,0,?
0,0,0,1,1,0,0,0,1,0,0,0,0,1,0,0,0,1,0,1,0,?
0,0,0,1,0,0,1,0,0,0,1,0,1,0,0,1,0,0,1,0,0,?
1,0,0,0,0,0,0,1,0,0,1,0,0,0,1,0,1,0,1,0,0,?
0,0,0,1,1,0,0,0,1,0,0,0,0,1,0,0,0,1,0,0,1,?
0,0,1,0,0,0,0,1,1,0,0,0,1,0,0,1,0,0,1,0,0,?
1,0,0,0,0,0,1,0,0,1,0,0,0,1,0,1,0,0,0,0,1,?
0,1,0,0,1,0,0,0,0,0,0,1,1,0,0,0,0,1,0,0,1,?
1,0,0,0,0,0,1,0,0,0,0,1,0,0,1,0,1,0,0,1,0,?
1,0,0,0,0,1,0,0,0,0,0,1,0,1,0,0,0,1,0,1,0,?
0,0,0,1,0,0,1,0,1,0,0,0,0,0,1,0,1,0,0,0,1,?
0,0,1,0,1,0,0,0,0,0,0,1,0,1,0,0,0,1,0,0,1,?
0,0,0,1,0,0,0,1,1,0,0,0,0,1,0,0,0,1,0,0,1,?
0,0,0,1,0,1,0,0,0,0,0,1,1,0,0,0,0,1,0,0,1,?
1,0,0,0,0,1,0,0,0,1,0,0,0,1,0,0,1,0,1,0,0,?
0,0,0,1,1,0,0,0,0,1,0,0,1,0,0,1,0,0,0,1,0,?
0,1,0,0,0,0,0,1,0,0,0,1,0,1,0,0,1,0,1,0,0,?
0,0,1,0,0,0,0,1,1,0,0,0,0,0,1,0,0,1,0,1,0,?
0,0,0,1,0,0,0,1,0,0,1,0,0,1,0,0,1,0,0,1,0,?
1,0,0,0,1,0,0,0,0,0,0,1,1,0,0,1,0,0,1,0,0,?
0,0,0,1,1,0,0,0,0,1,0,0,0,0,1,0,0,1,1,0,0,?
0,0,1,0,0,0,1,0,0,0,1,0,0,1,0,0,0,1,0,1,0,?
1,0,0,0,0,0,0,1,0,0,0,1,0,0,1,1,0,0,0,0,1,?
1,0,0,0,0,0,0,1,0,0,1,0,0,0,1,0,1,0,0,1,0,?
0,0,0,1,1,0,0,0,0,1,0,0,0,0,1,1,0,0,0,0,1,?
1,0,0,0,0,1,0,0,0,0,1,0,1,0,0,1,0,0,0,0,1,?
0,0,0,1,0,1,0,0,0,0,1,0,1,0,0,1,0,0,0,0,1,?
1,0,0,0,0,1,0,0,0,0,0,1,0,0,1,0,1,0,0,1,0,?
1,0,0,0,0,0,1,0,0,0,0,1,1,0,0,0,1,0,1,0,0,?
0,1,0,0,0,0,1,0,0,0,0,1,1,0,0,1,0,0,0,0,1,?
0,0,1,0,1,0,0,0,1,0,0,0,1,0,0,0,1,0,0,1,0,?
0,0,1,0,1,0,0,0,0,1,0,0,1,0,0,0,1,0,0,1,0,?
0,0,0,1,1,0,0,0,1,0,0,0,1,0,0,0,0,1,0,0,1,?
0,0,0,1,0,0,1,0,0,0,0,1,0,0,1,0,1,0,0,1,0,?
0,1,0,0,0,0,0,1,0,0,0,1,0,1,0,1,0,0,0,1,0,?
0,0,1,0,0,0,1,0,0,1,0,0,1,0,0,0,0,1,0,1,0,?
0,0,0,1,0,1,0,0,1,0,0,0,0,0,1,0,0,1,0,1,0,?
1,0,0,0,0,1,0,0,0,0,0,1,0,1,0,0,1,0,1,0,0,?
0,0,0,1,0,0,1,0,1,0,0,0,0,1,0,1,0,0,0,0,1,?
0,0,1,0,1,0,0,0,0,1,0,0,0,1,0,0,1,0,1,0,0,?
1,0,0,0,0,0,1,0,0,0,0,1,0,0,1,0,1,0,0,0,1,?
1,0,0,0,1,0,0,0,0,1,0,0,0,0,1,1,0,0,1,0,0,?
1,0,0,0,0,1,0,0,1,0,0,0,1,0,0,0,0,1,0,0,1,?
1,0,0,0,0,0,1,0,0,0,0,1,0,1,0,0,0,1,1,0,0,?
1,0,0,0,0,1,0,0,0,0,1,0,0,0,1,0,0,1,0,0,1,?
0,1,0,0,0,1,0,0,0,0,1,0,1,0,0,1,0,0,0,1,0,?
1,0,0,0,0,0,1,0,0,0,0,1,0,0,1,1,0,0,0,1,0,?
0,1,0,0,0,1,0,0,1,0,0,0,1,0,0,1,0,0,0,1,0,?
1,0,0,0,0,1,0,0,0,0,1,0,0,1,0,0,0,1,1,0,0,?
0,0,0,1,1,0,0,0,0,0,1,0,0,0,1,1,0,0,0,1,0,?
1,0,0,0,0,0,0,1,0,1,0,0,1,0,0,0,1,0,0,0,1,?
1,0,0,0,0,0,0,1,0,0,0,1,0,0,1,1,0,0,1,0,0,?
1,0,0,0,0,0,1,0,0,1,0,0,0,0,1,0,0,1,1,0,0,?
0,0,1,0,1,0,0,0,0,0,1,0,0,1,0,1,0,0,1,0,0,?
0,1,0,0,1,0,0,0,1,0,0,0,0,0,1,0,0,1,1,0,0,?
0,0,1,0,0,0,1,0,0,0,0,1,1,0,0,1,0,0,0,1,0,?
0,0,1,0,0,1,0,0,1,0,0,0,1,0,0,1,0,0,0,0,1,?
0,0,1,0,0,1,0,0,0,0,0,1,0,1,0,1,0,0,0,0,1,?
0,0,1,0,0,0,0,1,0,0,0,1,0,1,0,0,1,0,0,1,0,?
0,0,1,0,1,0,0,0,1,0,0,0,0,0,1,0,1,0,0,0,1,?
1,0,0,0,0,0,1,0,1,0,0,0,1,0,0,0,0,1,1,0,0,?
0,1,0,0,0,0,1,0,1,0,0,0,0,1,0,0,1,0,1,0,0,?
0,0,0,1,1,0,0,0,0,1,0,0,1,0,0,0,0,1,1,0,0,?
0,0,1,0,1,0,0,0,0,1,0,0,1,0,0,0,1,0,0,0,1,?
1,0,0,0,1,0,0,0,0,0,1,0,0,1,0,0,0,1,0,1,0,?
0,1,0,0,0,0,1,0,1,0,0,0,0,0,1,1,0,0,0,0,1,?
0,0,1,0,0,0,0,1,0,0,1,0,1,0,0,0,0,1,1,0,0,?
0,0,0,1,1,0,0,0,0,0,0,1,1,0,0,1,0,0,0,1,0,?
0,1,0,0,0,0,0,1,0,0,1,0,0,0,1,0,0,1,1,0,0,?
0,0,1,0,1,0,0,0,1,0,0,0,1,0,0,0,1,0,0,0,1,?
0,0,0,1,0,0,1,0,0,0,1,0,0,1,0,1,0,0,1,0,0,?
0,0,1,0,1,0,0,0,0,0,1,0,0,1,0,1,0,0,0,0,1,?
1,0,0,0,0,0,1,0,0,0,0,1,1,0,0,1,0,0,1,0,0,?
0,1,0,0,0,1,0,0,0,1,0,0,0,0,1,0,0,1,1,0,0,?
0,1,0,0,1,0,0,0,0,1,0,0,0,0,1,0,0,1,1,0,0,?
0,0,0,1,0,0,1,0,0,0,0,1,0,1,0,1,0,0,1,0,0,?
1,0,0,0,0,0,1,0,1,0,0,0,0,0,1,1,0,0,1,0,0,?
0,0,1,0,0,1,0,0,0,0,1,0,1,0,0,1,0,0,0,1,0,?
0,1,0,0,0,1,0,0,0,0,1,0,1,0,0,0,1,0,0,0,1,?
0,0,0,1,0,1,0,0,1,0,0,0,1,0,0,0,0,1,0,1,0,?
1,0,0,0,0,0,0,1,0,0,0,1,0,0,1,0,1,0,0,1,0,?
0,0,0,1,0,0,0,1,0,0,0,1,0,1,0,1,0,0,0,1,0,?
0,0,1,0,0,0,0,1,0,0,1,0,0,1,0,0,0,1,0,1,0,?
0,0,0,1,0,0,0,1,0,1,0,0,1,0,0,0,1,0,0,1,0,?
1,0,0,0,0,1,0,0,0,1,0,0,1,0,0,0,1,0,1,0,0,?
0,0,1,0,0,0,0,1,0,0,1,0,1,0,0,0,0,1,0,0,1,?
1,0,0,0,0,0,0,1,1,0,0,0,0,0,1,0,1,0,0,1,0,?
1,0,0,0,0,0,0,1,1,0,0,0,0,1,0,1,0,0,1,0,0,?
0,1,0,0,0,0,1,0,0,0,0,1,1,0,0,0,0,1,0,1,0,?
0,0,1,0,1,0,0,0,0,1,0,0,1,0,0,1,0,0,0,0,1,?
1,0,0,0,0,0,0,1,0,0,1,0,1,0,0,0,0,1,0,0,1,?
0,1,0,0,1,0,0,0,1,0,0,0,0,1,0,1,0,0,1,0,0,?
0,0,0,1,0,0,1,0,0,1,0,0,1,0,0,1,0,0,0,1,0,?
0,0,0,1,0,1,0,0,0,0,0,1,0,0,1,0,1,0,1,0,0,?
0,0,0,1,0,1,0,0,0,1,0,0,0,0,1,0,1,0,0,0,1,?
1,0,0,0,0,1,0,0,0,0,0,1,0,1,0,0,0,1,1,0,0,?
1,0,0,0,0,0,0,1,0,0,0,1,1,0,0,0,0,1,0,1,0,?
0,0,1,0,0,0,1,0,1,0,0,0,0,0,1,0,1,0,0,0,1,?
1,0,0,0,0,0,0,1,0,1,0,0,1,0,0,0,1,0,0,1,0,?
0,0,0,1,0,0,0,1,0,1,0,0,0,0,1,0,1,0,0,1,0,?
0,0,0,1,0,0,0,1,0,0,1,0,1,0,0,1,0,0,0,1,0,?
0,0,1,0,0,1,0,0,0,1,0,0,0,1,0,0,1,0,0,0,1,?
0,0,0,1,1,0,0,0,0,0,1,0,0,1,0,0,0,1,1,0,0,?
0,1,0,0,1,0,0,0,0,1,0,0,0,1,0,0,0,1,1,0,0,?
0,0,1,0,0,0,0,1,0,1,0,0,0,1,0,1,0,0,0,1,0,?
0,0,0,1,1,0,0,0,0,1,0,0,0,1,0,0,1,0,1,0,0,?
1,0,0,0,0,1,0,0,1,0,0,0,0,0,1,1,0,0,0,0,1,?
0,1,0,0,0,1,0,0,0,1,0,0,0,0,1,0,0,1,0,1,0,?
0,0,1,0,0,0,1,0,0,0,0,1,1,0,0,0,0,1,0,1,0,?
0,1,0,0,1,0,0,0,0,1,0,0,0,1,0,1,0,0,0,0,1,?
0,0,0,1,0,1,0,0,0,1,0,0,1,0,0,0,0,1,0,1,0,?
0,0,1,0,1,0,0,0,1,0,0,0,1,0,0,0,0,1,0,0,1,?
0,1,0,0,0,0,0,1,0,0,0,1,0,1,0,0,1,0,0,0,1,?
0,0,0,1,0,0,1,0,0,0,1,0,0,1,0,0,1,0,0,0,1,?
1,0,0,0,0,0,0,1,1,0,0,0,0,1,0,0,0,1,0,0,1,?
0,0,1,0,0,0,0,1,0,1,0,0,1,0,0,0,1,0,0,0,1,?
0,0,1,0,0,0,0,1,0,1,0,0,0,1,0,0,0,1,0,1,0,?
0,0,0,1,0,1,0,0,0,1,0,0,0,1,0,1,0,0,0,0,1,?
0,0,1,0,1,0,0,0,0,0,0,1,0,1,0,1,0,0,0,0,1,?
0,0,0,1,0,1,0,0,1,0,0,0,0,0,1,0,0,1,1,0,0,?
0,0,1,0,0,0,0,1,0,0,0,1,1,0,0,0,1,0,1,0,0,?
0,1,0,0,0,0,1,0,0,1,0,0,0,1,0,0,0,1,0,0,1,?
0,0,0,1,1,0,0,0,0,0,1,0,1,0,0,1,0,0,0,1,0,?
0,0,0,1,1,0,0,0,0,0,0,1,0,0,1,1,0,0,0,1,0,?
0,1,0,0,0,0,0,1,0,0,0,1,0,0,1,1,0,0,0,1,0,?
0,1,0,0,1,0,0,0,1,0,0,0,0,1,0,1,0,0,0,1,0,?
0,1,0,0,0,1,0,0,0,1,0,0,0,1,0,0,1,0,1,0,0,?
0,0,1,0,0,1,0,0,0,0,1,0,0,0,1,0,0,1,1,0,0,?
1,0,0,0,0,0,1,0,0,1,0,0,0,0,1,0,0,1,0,0,1,?
0,0,1,0,0,0,0,1,1,0,0,0,0,0,1,0,1,0,1,0,0,?
0,0,0,1,0,1,0,0,0,1,0,0,0,0,1,0,0,1,1,0,0,?
0,0,1,0,0,1,0,0,0,0,1,0,0,1,0,0,1,0,0,0,1,?
1,0,0,0,0,1,0,0,0,0,0,1,0,0,1,1,0,0,1,0,0,?
0,0,0,1,0,0,0,1,0,0,0,1,1,0,0,0,1,0,0,1,0,?
0,1,0,0,0,0,1,0,1,0,0,0,0,1,0,1,0,0,0,0,1,?
0,1,0,0,0,0,0,1,0,1,0,0,0,1,0,1,0,0,0,1,0,?
0,1,0,0,1,0,0,0,0,0,0,1,0,1,0,0,0,1,0,0,1,?
0,0,1,0,1,0,0,0,0,0,0,1,0,0,1,1,0,0,1,0,0,?
1,0,0,0,0,0,0,1,0,0,0,1,0,1,0,0,1,0,1,0,0,?
0,0,0,1,1,0,0,0,0,1,0,0,0,1,0,1,0,0,1,0,0,?
0,0,1,0,0,1,0,0,0,1,0,0,0,1,0,0,0,1,0,0,1,?
0,0,0,1,1,0,0,0,0,0,0,1,0,0,1,1,0,0,1,0,0,?
0,0,0,1,1,0,0,0,0,0,0,1,0,1,0,1,0,0,0,1,0,?
1,0,0,0,0,1,0,0,1,0,0,0,1,0,0,1,0,0,0,1,0,?
0,1,0,0,0,0,0,1,0,0,1,0,0,1,0,0,0,1,1,0,0,?
0,1,0,0,0,0,1,0,0,1,0,0,0,1,0,1,0,0,0,0,1,?
0,0,1,0,0,0,1,0,0,0,1,0,0,0,1,1,0,0,1,0,0,?
1,0,0,0,1,0,0,0,0,0,0,1,1,0,0,0,0,1,0,0,1,?
0,1,0,0,0,0,1,0,1,0,0,0,0,0,1,1,0,0,1,0,0,?
0,0,1,0,0,0,0,1,0,0,1,0,1,0,0,0,1,0,0,0,1,?
1,0,0,0,0,1,0,0,0,0,1,0,0,0,1,0,0,1,0,1,0,?
1,0,0,0,0,0,0,1,0,0,0,1,0,1,0,0,1,0,0,0,1,?
0,0,1,0,1,0,0,0,0,0,1,0,0,0,1,0,1,0,0,1,0,?
0,0,0,1,0,1,0,0,0,0,0,1,0,1,0,0,1,0,0,1,0,?
1,0,0,0,0,0,1,0,1,0,0,0,1,0,0,0,1,0,0,0,1,?
0,1,0,0,1,0,0,0,0,0,1,0,0,1,0,1,0,0,0,1,0,?
1,0,0,0,0,0,1,0,0,0,0,1,0,0,1,0,1,0,1,0,0,?
0,0,0,1,0,0,0,1,0,1,0,0,1,0,0,1,0,0,1,0,0,?
0,0,0,1,1,0,0,0,0,0,1,0,1,0,0,0,1,0,1,0,0,?
0,0,1,0,0,0,0,1,0,0,0,1,1,0,0,0,1,0,0,0,1,?
0,0,1,0,0,1,0,0,0,0,1,0,0,0,1,1,0,0,0,1,0,?
0,1,0,0,0,0,1,0,1,0,0,0,0,0,1,1,0,0,0,1,0,?
0,1,0,0,0,0,0,1,1,0,0,0,1,0,0,0,0,1,1,0,0,?
0,0,0,1,0,0,0,1,1,0,0,0,0,1,0,1,0,0,0,0,1,?
0,1,0,0,0,1,0,0,0,0,1,0,0,0,1,1,0,0,0,1,0,?
0,0,1,0,0,0,0,1,0,0,0,1,0,1,0,0,0,1,1,0,0,?
1,0,0,0,0,1,0,0,0,1,0,0,0,0,1,0,1,0,0,1,0,?
0,0,1,0,1,0,0,0,0,1,0,0,0,1,0,0,0,1,1,0,0,?
1,0,0,0,1,0,0,0,0,0,1,0,0,0,1,1,0,0,0,1,0,?
0,0,0,1,0,1,0,0,0,0,1,0,0,0,1,0,0,1,0,0,1,?
0,1,0,0,0,1,0,0,0,1,0,0,1,0,0,1,0,0,0,1,0,?
1,0,0,0,0,1,0,0,0,0,0,1,1,0,0,0,1,0,0,1,0,?
0,0,0,1,0,0,1,0,0,0,0,1,1,0,0,1,0,0,0,0,1,?
0,1,0,0,1,0,0,0,0,0,0,1,0,1,0,0,0,1,1,0,0,?
0,0,0,1,0,0,0,1,1,0,0,0,1,0,0,1,0,0,0,0,1,?
0,1,0,0,0,0,1,0,0,0,1,0,0,1,0,0,1,0,1,0,0,?
0,0,0,1,0,1,0,0,0,0,1,0,1,0,0,1,0,0,1,0,0,?
0,0,0,1,0,0,0,1,0,0,1,0,0,1,0,0,0,1,0,1,0,?
0,0,0,1,1,0,0,0,0,1,0,0,0,0,1,0,0,1,0,1,0,?
1,0,0,0,0,0,0,1,1,0,0,0,1,0,0,0,1,0,1,0,0,?
1,0,0,0,0,0,1,0,0,1,0,0,0,1,0,1,0,0,1,0,0,?
0,1,0,0,1,0,0,0,0,0,0,1,0,1,0,1,0,0,0,1,0,?
0,0,1,0,0,0,0,1,1,0,0,0,0,0,1,0,0,1,0,0,1,?
0,0,1,0,0,0,1,0,0,1,0,0,0,0,1,0,0,1,1,0,0,?
0,0,0,1,0,0,1,0,1,0,0,0,0,1,0,1,0,0,1,0,0,?
0,1,0,0,0,0,1,0,1,0,0,0,0,1,0,0,1,0,0,0,1,?
0,1,0,0,0,1,0,0,0,1,0,0,1,0,0,1,0,0,0,0,1,?
0,1,0,0,0,0,0,1,0,0,0,1,0,1,0,1,0,0,1,0,0,?
0,0,1,0,0,1,0,0,0,0,1,0,0,0,1,0,0,1,0,0,1,?
0,1,0,0,1,0,0,0,0,0,1,0,0,0,1,0,0,1,0,0,1,?
1,0,0,0,1,0,0,0,0,0,1,0,0,1,0,0,0,1,0,0,1,?
0,0,1,0,1,0,0,0,0,0,1,0,0,0,1,0,0,1,1,0,0,?
0,0,1,0,0,1,0,0,0,0,0,1,0,0,1,1,0,0,1,0,0,?
0,1,0,0,1,0,0,0,0,1,0,0,0,1,0,0,1,0,1,0,0,?
0,0,1,0,0,1,0,0,1,0,0,0,1,0,0,0,1,0,0,0,1,?
0,1,0,0,0,0,0,1,1,0,0,0,0,1,0,0,1,0,1,0,0,?
0,1,0,0,1,0,0,0,1,0,0,0,1,0,0,0,0,1,0,1,0,?
0,0,1,0,0,0,0,1,1,0,0,0,1,0,0,1,0,0,0,0,1,?
1,0,0,0,0,1,0,0,1,0,0,0,0,1,0,1,0,0,0,1,0,?
0,0,1,0,0,0,1,0,0,1,0,0,0,1,0,0,0,1,1,0,0,?
1,0,0,0,1,0,0,0,0,1,0,0,1,0,0,0,1,0,1,0,0,?
0,0,1,0,0,0,0,1,1,0,0,0,0,1,0,0,1,0,0,0,1,?
0,0,0,1,1,0,0,0,1,0,0,0,1,0,0,1,0,0,1,0,0,?
0,1,0,0,0,1,0,0,0,1,0,0,0,1,0,1,0,0,0,1,0,?
0,1,0,0,0,0,1,0,0,0,0,1,0,1,0,0,1,0,1,0,0,?
0,0,0,1,0,0,0,1,1,0,0,0,0,0,1,0,0,1,1,0,0,?
1,0,0,0,0,1,0,0,0,0,1,0,0,1,0,1,0,0,0,1,0,?
0,0,1,0,0,0,0,1,1,0,0,0,1,0,0,0,0,1,1,0,0,?
1,0,0,0,1,0,0,0,0,0,1,0,1,0,0,1,0,0,0,1,0,?
0,0,0,1,0,0,0,1,0,0,1,0,0,1,0,1,0,0,0,1,0,?
1,0,0,0,1,0,0,0,1,0,0,0,0,1,0,0,1,0,0,1,0,?
0,0,0,1,1,0,0,0,0,1,0,0,1,0,0,1,0,0,0,0,1,?
1,0,0,0,1,0,0,0,0,0,1,0,1,0,0,0,0,1,0,0,1,?
1,0,0,0,0,0,1,0,1,0,0,0,0,1,0,1,0,0,0,1,0,?
0,0,1,0,0,1,0,0,0,0,0,1,0,0,1,0,1,0,0,0,1,?
0,0,1,0,0,0,1,0,1,0,0,0,1,0,0,0,1,0,1,0,0,?
0,0,1,0,1,0,0,0,0,0,0,1,1,0,0,0,0,1,1,0,0,?
0,1,0,0,0,0,0,1,0,0,0,1,1,0,0,0,0,1,1,0,0,?
0,0,0,1,0,0,1,0,0,1,0,0,1,0,0,1,0,0,0,0,1,?
1,0,0,0,0,0,1,0,0,0,1,0,0,1,0,0,1,0,0,0,1,?
0,1,0,0,0,0,1,0,0,0,0,1,0,0,1,0,0,1,0,0,1,?
0,1,0,0,0,0,0,1,0,0,0,1,0,1,0,0,0,1,0,1,0,?
0,0,1,0,1,0,0,0,0,1,0,0,1,0,0,1,0,0,1,0,0,?
0,0,1,0,0,0,0,1,1,0,0,0,1,0,0,1,0,0,0,1,0,?
0,0,1,0,0,0,1,0,0,1,0,0,0,1,0,0,1,0,0,0,1,?
1,0,0,0,0,1,0,0,0,0,1,0,1,0,0,0,0,1,0,0,1,?
0,0,1,0,1,0,0,0,0,0,1,0,1,0,0,0,0,1,1,0,0,?
0,0,1,0,0,0,1,0,0,1,0,0,0,1,0,0,0,1,0,0,1,?
0,0,1,0,0,0,0,1,0,1,0,0,1,0,0,0,0,1,0,0,1,?
0,0,0,1,1,0,0,0,0,0,1,0,0,1,0,0,0,1,0,0,1,?
0,0,0,1,0,0,1,0,0,1,0,0,0,1,0,0,1,0,0,0,1,?
1,0,0,0,1,0,0,0,0,0,1,0,0,0,1,1,0,0,1,0,0,?
1,0,0,0,0,1,0,0,0,1,0,0,0,1,0,0,0,1,1,0,0,?
0,0,0,1,1,0,0,0,0,0,1,0,1,0,0,0,1,0,0,0,1,?
1,0,0,0,0,1,0,0,0,0,0,1,1,0,0,0,1,0,0,0,1,?
1,0,0,0,0,0,1,0,0,0,0,1,0,1,0,0,1,0,0,1,0,?
0,1,0,0,0,1,0,0,0,1,0,0,0,0,1,0,0,1,0,0,1,?
0,1,0,0,0,0,1,0,1,0,0,0,0,1,0,0,1,0,0,1,0,?
0,1,0,0,0,1,0,0,0,1,0,0,0,0,1,1,0,0,0,0,1,?
0,1,0,0,1,0,0,0,0,0,0,1,1,0,0,1,0,0,1,0,0,?
0,0,1,0,0,0,0,1,0,0,1,0,0,1,0,0,1,0,0,0,1,?
0,0,1,0,0,0,0,1,0,0,0,1,0,1,0,0,0,1,0,0,1,?
0,0,1,0,1,0,0,0,0,1,0,0,0,1,0,1,0,0,0,0,1,?
0,1,0,0,0,1,0,0,0,0,0,1,1,0,0,1,0,0,0,0,1,?
0,1,0,0,0,1,0,0,0,0,1,0,0,1,0,0,0,1,0,1,0,?
0,0,1,0,0,0,0,1,0,0,0,1,0,0,1,0,1,0,0,0,1,?
0,0,1,0,1,0,0,0,1,0,0,0,0,0,1,0,0,1,0,0,1,?
1,0,0,0,0,0,1,0,1,0,0,0,0,1,0,0,0,1,0,1,0,?
0,0,1,0,0,0,0,1,1,0,0,0,1,0,0,0,0,1,0,1,0,?
0,0,0,1,0,1,0,0,0,0,1,0,1,0,0,0,0,1,0,0,1,?
0,0,0,1,0,0,0,1,1,0,0,0,1,0,0,0,0,1,0,0,1,?
0,1,0,0,0,0,1,0,0,1,0,0,0,1,0,0,1,0,0,1,0,?
0,1,0,0,1,0,0,0,0,0,0,1,0,0,1,0,1,0,0,1,0,?
0,0,1,0,0,0,1,0,0,0,0,1,0,1,0,0,0,1,1,0,0,?
1,0,0,0,1,0,0,0,0,1,0,0,1,0,0,0,0,1,0,0,1,?
1,0,0,0,0,0,0,1,0,0,1,0,0,1,0,0,1,0,1,0,0,?
0,0,1,0,0,1,0,0,0,0,0,1,1,0,0,0,1,0,0,0,1,?
0,1,0,0,0,1,0,0,0,1,0,0,1,0,0,0,1,0,1,0,0,?
0,0,1,0,1,0,0,0,0,0,1,0,0,1,0,0,0,1,0,0,1,?
0,1,0,0,0,0,0,1,1,0,0,0,0,0,1,0,0,1,0,1,0,?
0,0,1,0,1,0,0,0,0,0,0,1,1,0,0,1,0,0,0,0,1,?
0,1,0,0,0,0,0,1,0,0,0,1,0,0,1,1,0,0,0,0,1,?
0,1,0,0,0,0,0,1,0,0,1,0,0,0,1,0,0,1,0,0,1,?
1,0,0,0,0,0,0,1,0,0,1,0,0,0,1,0,0,1,1,0,0,?
0,0,0,1,0,0,1,0,1,0,0,0,0,1,0,0,1,0,0,0,1,?
1,0,0,0,0,0,0,1,0,0,0,1,0,1,0,0,0,1,0,1,0,?
0,0,0,1,0,0,0,1,0,0,1,0,1,0,0,0,1,0,0,0,1,?
1,0,0,0,0,0,1,0,0,0,0,1,0,0,1,0,0,1,1,0,0,?
0,0,1,0,0,1,0,0,0,0,1,0,1,0,0,0,1,0,0,0,1,?
0,0,1,0,0,0,1,0,1,0,0,0,0,1,0,1,0,0,1,0,0,?
0,1,0,0,1,0,0,0,0,0,1,0,0,0,1,1,0,0,0,0,1,?
0,1,0,0,0,1,0,0,0,0,0,1,1,0,0,0,0,1,0,1,0,?
0,0,1,0,0,1,0,0,0,0,1,0,0,0,1,1,0,0,1,0,0,?
1,0,0,0,0,1,0,0,0,0,1,0,1,0,0,0,0,1,1,0,0,?
0,0,1,0,0,0,0,1,0,0,0,1,0,1,0,0,1,0,1,0,0,?
0,1,0,0,0,1,0,0,1,0,0,0,0,1,0,0,1,0,0,0,1,?
0,1,0,0,0,0,0,1,0,0,0,1,1,0,0,0,1,0,0,0,1,?
0,1,0,0,1,0,0,0,0,0,0,1,0,1,0,0,0,1,0,1,0,?
0,1,0,0,0,0,0,1,0,0,1,0,0,1,0,1,0,0,0,1,0,?
1,0,0,0,0,0,1,0,1,0,0,0,1,0,0,1,0,0,0,1,0,?
0,0,1,0,1,0,0,0,0,0,0,1,0,0,1,0,1,0,1,0,0,?
0,0,0,1,0,0,0,1,0,0,1,0,0,1,0,0,0,1,1,0,0,?
1,0,0,0,0,1,0,0,0,1,0,0,0,0,1,0,0,1,0,1,0,?
1,0,0,0,0,1,0,0,0,0,1,0,0,1,0,0,1,0,0,1,0,?
0,1,0,0,1,0,0,0,0,0,1,0,0,0,1,0,1,0,0,1,0,?
0,0,0,1,0,0,1,0,1,0,0,0,0,1,0,0,1,0,0,1,0,?
1,0,0,0,1,0,0,0,0,1,0,0,0,0,1,0,0,1,0,1,0,?
0,0,0,1,1,0,0,0,1,0,0,0,0,0,1,0,0,1,0,0,1,?
0,0,1,0,1,0,0,0,0,1,0,0,0,0,1,0,1,0,0,0,1,?
1,0,0,0,0,1,0,0,0,1,0,0,1,0,0,1,0,0,0,1,0,?
1,0,0,0,0,0,1,0,1,0,0,0,0,0,1,0,0,1,0,0,1,?
1,0,0,0,1,0,0,0,0,0,1,0,1,0,0,0,1,0,1,0,0,?
0,0,0,1,1,0,0,0,1,0,0,0,0,0,1,1,0,0,1,0,0,?
1,0,0,0,0,0,0,1,0,1,0,0,0,0,1,0,0,1,0,1,0,?
1,0,0,0,0,1,0,0,0,1,0,0,0,1,0,1,0,0,0,1,0,?
1,0,0,0,0,0,0,1,0,0,1,0,0,1,0,0,1,0,0,1,0,?
0,1,0,0,1,0,0,0,0,0,1,0,0,0,1,0,1,0,1,0,0,?
1,0,0,0,0,0,0,1,0,0,0,1,1,0,0,0,0,1,0,0,1,?
0,1,0,0,1,0,0,0,0,0,1,0,1,0,0,1,0,0,1,0,0,?
0,0,0,1,0,1,0,0,0,0,1,0,1,0,0,0,0,1,0,1,0,?
1,0,0,0,0,1,0,0,0,0,0,1,0,0,1,0,1,0,1,0,0,?
0,1,0,0,0,0,1,0,0,0,1,0,0,0,1,0,0,1,0,0,1,?
0,0,1,0,0,1,0,0,0,1,0,0,0,0,1,1,0,0,0,1,0,?
1,0,0,0,0,1,0,0,0,1,0,0,0,0,1,1,0,0,0,1,0,?
0,0,1,0,0,0,1,0,0,0,0,1,0,1,0,1,0,0,0,0,1,?
0,1,0,0,1,0,0,0,0,1,0,0,0,0,1,0,0,1,0,1,0,?
0,0,1,0,1,0,0,0,0,0,0,1,0,1,0,0,1,0,0,0,1,?
0,0,1,0,0,0,0,1,0,1,0,0,0,1,0,1,0,0,1,0,0,?
0,0,1,0,0,1,0,0,0,1,0,0,0,0,1,0,0,1,1,0,0,?
0,0,1,0,0,1,0,0,0,0,1,0,0,1,0,1,0,0,1,0,0,?
0,0,0,1,0,0,0,1,1,0,0,0,1,0,0,0,1,0,0,1,0,?
0,0,1,0,0,0,1,0,0,0,0,1,0,1,0,0,1,0,0,0,1,?
1,0,0,0,0,0,0,1,0,0,0,1,0,1,0,0,0,1,0,0,1,?
0,1,0,0,0,0,0,1,0,0,1,0,1,0,0,1,0,0,1,0,0,?
0,0,1,0,0,0,0,1,0,1,0,0,0,0,1,0,1,0,0,1,0,?
0,0,1,0,0,0,0,1,0,0,1,0,0,1,0,1,0,0,1,0,0,?
0,0,0,1,0,0,0,1,0,0,1,0,0,1,0,0,0,1,0,0,1,?
1,0,0,0,0,1,0,0,1,0,0,0,1,0,0,1,0,0,1,0,0,?
1,0,0,0,0,0,0,1,0,0,0,1,0,0,1,0,0,1,0,0,1,?
0,0,0,1,0,1,0,0,1,0,0,0,0,1,0,1,0,0,0,1,0,?
0,1,0,0,1,0,0,0,0,1,0,0,1,0,0,0,0,1,0,1,0,?
0,1,0,0,0,0,1,0,0,1,0,0,0,0,1,0,0,1,0,0,1,?
0,0,0,1,0,0,1,0,0,0,1,0,0,0,1,0,0,1,1,0,0,?
0,1,0,0,1,0,0,0,0,0,1,0,0,1,0,0,1,0,0,1,0,?
1,0,0,0,1,0,0,0,0,0,0,1,1,0,0,1,0,0,0,0,1,?
0,0,1,0,0,0,1,0,0,0,1,0,0,1,0,1,0,0,0,0,1,?
0,0,1,0,0,0,0,1,0,1,0,0,0,1,0,0,0,1,1,0,0,?
0,1,0,0,0,1,0,0,1,0,0,0,1,0,0,0,0,1,0,0,1,?
0,0,1,0,0,1,0,0,1,0,0,0,0,0,1,1,0,0,0,1,0,?
0,0,0,1,0,1,0,0,1,0,0,0,0,0,1,0,1,0,0,0,1,?
0,0,1,0,0,0,0,1,0,0,0,1,0,0,1,1,0,0,0,0,1,?
0,1,0,0,0,1,0,0,0,1,0,0,0,1,0,0,0,1,0,1,0,?
1,0,0,0,1,0,0,0,1,0,0,0,0,1,0,1,0,0,1,0,0,?
0,0,1,0,0,1,0,0,0,0,0,1,0,1,0,0,1,0,0,0,1,?
0,1,0,0,0,1,0,0,0,1,0,0,0,1,0,0,1,0,0,0,1,?
0,0,0,1,1,0,0,0,0,1,0,0,0,1,0,0,0,1,0,0,1,?
0,0,0,1,1,0,0,0,0,0,1,0,0,1,0,1,0,0,0,1,0,?
0,0,1,0,0,0,0,1,0,0,0,1,0,1,0,1,0,0,0,0,1,?
0,0,1,0,0,0,1,0,0,0,0,1,0,1,0,1,0,0,1,0,0,?
1,0,0,0,0,0,0,1,0,1,0,0,0,1,0,0,1,0,0,0,1,?
0,0,0,1,1,0,0,0,0,0,1,0,0,0,1,0,0,1,0,1,0,?
0,0,0,1,0,0,0,1,1,0,0,0,0,0,1,0,0,1,0,1,0,?
1,0,0,0,0,0,1,0,0,0,1,0,0,0,1,1,0,0,0,1,0,?
0,1,0,0,0,0,1,0,0,0,1,0,0,0,1,1,0,0,1,0,0,?
1,0,0,0,0,0,1,0,0,0,1,0,0,1,0,0,0,1,0,1,0,?
0,0,0,1,0,0,0,1,0,0,1,0,0,0,1,0,0,1,0,0,1,?
0,1,0,0,0,0,0,1,0,0,1,0,1,0,0,1,0,0,0,1,0,?
0,1,0,0,0,0,0,1,0,0,0,1,0,0,1,0,0,1,0,1,0,?
1,0,0,0,0,1,0,0,0,0,1,0,0,0,1,0,1,0,1,0,0,?
0,0,0,1,0,0,0,1,1,0,0,0,1,0,0,0,0,1,0,1,0,?
1,0,0,0,0,0,0,1,1,0,0,0,1,0,0,0,0,1,0,1,0,?
0,0,1,0,1,0,0,0,0,0,1,0,0,1,0,0,0,1,0,1,0,?
0,0,1,0,1,0,0,0,0,0,0,1,0,0,1,0,0,1,0,0,1,?
0,0,1,0,1,0,0,0,0,0,1,0,1,0,0,1,0,0,1,0,0,?
0,0,1,0,0,0,1,0,0,0,0,1,0,1,0,0,1,0,1,0,0,?
0,0,0,1,0,0,1,0,0,0,0,1,1,0,0,1,0,0,0,1,0,?
1,0,0,0,0,1,0,0,0,1,0,0,0,0,1,0,1,0,1,0,0,?
0,0,0,1,0,0,1,0,0,1,0,0,0,0,1,0,1,0,1,0,0,?
0,0,1,0,0,0,0,1,0,1,0,0,0,0,1,1,0,0,0,0,1,?
0,0,0,1,0,0,1,0,1,0,0,0,1,0,0,0,0,1,0,1,0,?
0,0,1,0,0,0,0,1,1,0,0,0,0,1,0,1,0,0,0,0,1,?
0,0,1,0,0,0,0,1,0,1,0,0,0,1,0,0,1,0,0,0,1,?
1,0,0,0,0,0,1,0,0,0,0,1,0,1,0,1,0,0,1,0,0,?
0,0,1,0,0,1,0,0,0,1,0,0,0,1,0,1,0,0,0,1,0,?
0,0,0,1,0,0,1,0,0,0,0,1,1,0,0,1,0,0,1,0,0,?
0,0,0,1,0,0,1,0,0,1,0,0,0,1,0,0,1,0,1,0,0,?
1,0,0,0,0,0,1,0,0,0,1,0,0,1,0,0,0,1,0,0,1,?
1,0,0,0,0,1,0,0,0,1,0,0,0,0,1,0,0,1,0,0,1,?
0,0,1,0,0,0,0,1,1,0,0,0,0,0,1,0,0,1,1,0,0,?
0,1,0,0,0,1,0,0,0,1,0,0,1,0,0,0,1,0,0,0,1,?
0,0,1,0,1,0,0,0,0,0,0,1,0,0,1,0,0,1,0,1,0,?
0,0,0,1,0,0,1,0,0,1,0,0,1,0,0,0,1,0,1,0,0,?
1,0,0,0,0,1,0,0,0,1,0,0,0,1,0,0,1,0,0,1,0,?
0,0,1,0,0,0,0,1,0,0,1,0,1,0,0,1,0,0,0,1,0,?
0,0,0,1,0,1,0,0,0,0,1,0,1,0,0,0,1,0,0,1,0,?
0,1,0,0,0,0,1,0,0,0,1,0,1,0,0,0,1,0,1,0,0,?
1,0,0,0,0,1,0,0,0,0,0,1,1,0,0,1,0,0,1,0,0,?
1,0,0,0,1,0,0,0,0,1,0,0,0,0,1,0,1,0,0,0,1,?
1,0,0,0,0,0,0,1,1,0,0,0,0,1,0,0,1,0,0,0,1,?
0,0,0,1,0,1,0,0,0,0,1,0,0,1,0,1,0,0,1,0,0,?
0,0,0,1,0,0,0,1,0,1,0,0,0,1,0,1,0,0,0,1,0,?
0,1,0,0,0,0,1,0,0,0,1,0,1,0,0,0,0,1,1,0,0,?
0,1,0,0,0,0,0,1,0,1,0,0,0,1,0,0,0,1,0,1,0,?
1,0,0,0,1,0,0,0,0,1,0,0,0,1,0,1,0,0,0,1,0,?
0,1,0,0,1,0,0,0,1,0,0,0,0,0,1,1,0,0,1,0,0,?
0,1,0,0,0,0,1,0,0,0,1,0,0,1,0,1,0,0,1,0,0,?
1,0,0,0,0,0,1,0,1,0,0,0,0,0,1,0,0,1,0,1,0,?
1,0,0,0,0,0,0,1,1,0,0,0,0,1,0,0,1,0,1,0,0,?
1,0,0,0,0,0,1,0,0,0,1,0,0,0,1,0,0,1,1,0,0,?
0,0,0,1,0,0,0,1,0,1,0,0,0,0,1,0,1,0,1,0,0,?
0,0,0,1,0,0,1,0,0,0,0,1,0,0,1,0,0,1,1,0,0,?
0,0,0,1,1,0,0,0,0,0,0,1,0,0,1,0,1,0,0,0,1,?
1,0,0,0,0,0,1,0,0,1,0,0,1,0,0,0,0,1,0,0,1,?
0,0,0,1,0,0,1,0,0,0,0,1,0,0,1,0,0,1,0,0,1,?
0,0,0,1,0,0,1,0,1,0,0,0,0,1,0,1,0,0,0,1,0,?
1,0,0,0,0,1,0,0,1,0,0,0,0,0,1,0,0,1,1,0,0,?
0,0,1,0,1,0,0,0,0,1,0,0,0,1,0,0,0,1,0,0,1,?
0,1,0,0,1,0,0,0,0,0,1,0,0,1,0,0,1,0,0,0,1,?
0,0,1,0,0,1,0,0,0,1,0,0,0,1,0,0,0,1,0,1,0,?
0,1,0,0,1,0,0,0,0,1,0,0,0,0,1,0,1,0,0,0,1,?
0,0,1,0,0,0,1,0,1,0,0,0,1,0,0,0,1,0,0,1,0,?
0,0,0,1,1,0,0,0,1,0,0,0,1,0,0,0,1,0,0,0,1,?
0,1,0,0,0,0,1,0,0,0,0,1,1,0,0,0,1,0,0,1,0,?
1,0,0,0,1,0,0,0,0,0,1,0,0,1,0,0,1,0,1,0,0,?
1,0,0,0,0,0,0,1,0,1,0,0,0,0,1,1,0,0,1,0,0,?
0,0,1,0,0,0,1,0,1,0,0,0,0,0,1,0,0,1,0,1,0,?
0,0,0,1,0,0,0,1,0,0,0,1,0,1,0,0,1,0,1,0,0,?
0,1,0,0,0,1,0,0,0,0,0,1,0,0,1,0,1,0,1,0,0,?
0,0,1,0,0,1,0,0,0,1,0,0,1,0,0,0,0,1,0,1,0,?
0,1,0,0,1,0,0,0,0,0,1,0,0,1,0,1,0,0,0,0,1,?
1,0,0,0,1,0,0,0,0,0,1,0,1,0,0,1,0,0,0,0,1,?
0,0,1,0,0,0,0,1,0,0,0,1,0,1,0,0,1,0,0,0,1,?
0,0,1,0,1,0,0,0,1,0,0,0,0,0,1,0,0,1,0,1,0,?
0,1,0,0,0,0,0,1,0,1,0,0,0,1,0,0,1,0,0,1,0,?
1,0,0,0,0,1,0,0,0,1,0,0,1,0,0,0,0,1,1,0,0,?
1,0,0,0,1,0,0,0,1,0,0,0,1,0,0,0,1,0,0,1,0,?
1,0,0,0,0,0,1,0,1,0,0,0,0,1,0,0,0,1,0,0,1,?
0,0,0,1,0,0,1,0,0,0,1,0,1,0,0,0,1,0,0,0,1,?
1,0,0,0,1,0,0,0,0,0,1,0,1,0,0,0,1,0,0,0,1,?
0,1,0,0,1,0,0,0,0,0,1,0,1,0,0,0,1,0,0,0,1,?
0,0,1,0,0,0,0,1,0,0,1,0,1,0,0,0,1,0,0,1,0,?
1,0,0,0,0,0,0,1,0,0,0,1,0,0,1,0,0,1,1,0,0,?
1,0,0,0,0,0,1,0,1,0,0,0,0,0,1,0,0,1,1,0,0,?
1,0,0,0,0,0,0,1,0,0,1,0,0,1,0,0,0,1,1,0,0,?
0,1,0,0,0,1,0,0,0,0,0,1,0,0,1,1,0,0,0,1,0,?
0,0,0,1,0,0,0,1,0,0,1,0,1,0,0,0,1,0,1,0,0,?
0,0,0,1,1,0,0,0,0,0,1,0,1,0,0,0,0,1,0,0,1,?
0,1,0,0,0,0,1,0,1,0,0,0,0,0,1,0,1,0,0,1,0,?
0,0,1,0,0,0,0,1,1,0,0,0,1,0,0,0,1,0,0,1,0,?
1,0,0,0,0,0,1,0,0,0,0,1,0,1,0,0,0,1,0,1,0,?
0,1,0,0,0,0,1,0,0,0,0,1,0,1,0,1,0,0,0,1,0,?
0,0,0,1,0,0,0,1,0,1,0,0,1,0,0,1,0,0,0,0,1,?
1,0,0,0,0,1,0,0,0,0,1,0,1,0,0,1,0,0,0,1,0,?
0,0,1,0,0,0,1,0,1,0,0,0,0,1,0,0,0,1,0,1,0,?
1,0,0,0,0,0,1,0,0,1,0,0,0,0,1,0,1,0,0,0,1,?
0,1,0,0,1,0,0,0,1,0,0,0,1,0,0,1,0,0,1,0,0,?
0,0,1,0,0,0,1,0,0,1,0,0,0,0,1,0,0,1,0,1,0,?
0,0,0,1,0,0,0,1,0,1,0,0,0,0,1,1,0,0,0,1,0,?
0,1,0,0,1,0,0,0,0,1,0,0,0,1,0,0,1,0,0,0,1,?
0,0,0,1,0,1,0,0,0,1,0,0,1,0,0,1,0,0,0,0,1,?
0,0,0,1,0,0,1,0,1,0,0,0,1,0,0,0,0,1,1,0,0,?
0,0,0,1,0,0,1,0,1,0,0,0,0,1,0,0,1,0,1,0,0,?
1,0,0,0,1,0,0,0,1,0,0,0,0,0,1,0,1,0,0,1,0,?
0,0,0,1,0,1,0,0,1,0,0,0,1,0,0,0,1,0,1,0,0,?
0,0,0,1,1,0,0,0,0,0,0,1,0,0,1,0,0,1,0,1,0,?
0,1,0,0,0,0,0,1,0,0,1,0,0,0,1,0,1,0,0,0,1,?
0,1,0,0,0,0,1,0,0,0,0,1,1,0,0,1,0,0,0,1,0,?
1,0,0,0,0,1,0,0,0,1,0,0,1,0,0,0,1,0,0,0,1,?
0,0,0,1,0,0,0,1,1,0,0,0,0,0,1,0,0,1,0,0,1,?
1,0,0,0,1,0,0,0,0,1,0,0,0,0,1,0,1,0,1,0,0,?
0,0,0,1,0,0,1,0,0,0,1,0,1,0,0,0,0,1,1,0,0,?
0,1,0,0,0,0,1,0,1,0,0,0,0,1,0,0,0,1,0,0,1,?
0,0,1,0,0,0,0,1,1,0,0,0,0,1,0,0,0,1,1,0,0,?
0,0,1,0,0,1,0,0,0,0,1,0,1,0,0,0,0,1,0,1,0,?
0,1,0,0,1,0,0,0,1,0,0,0,0,1,0,0,1,0,1,0,0,?
1,0,0,0,1,0,0,0,0,0,1,0,0,0,1,0,1,0,1,0,0,?
1,0,0,0,0,1,0,0,0,0,1,0,1,0,0,1,0,0,1,0,0,?
1,0,0,0,0,0,1,0,0,0,0,1,0,0,1,0,0,1,0,1,0,?
1,0,0,0,0,0,1,0,0,0,0,1,1,0,0,0,0,1,0,1,0,?
1,0,0,0,0,1,0,0,0,1,0,0,0,1,0,0,0,1,0,1,0,?
1,0,0,0,0,0,1,0,0,1,0,0,0,0,1,1,0,0,0,0,1,?
0,0,0,1,0,0,0,1,1,0,0,0,0,0,1,1,0,0,0,1,0,?
0,0,1,0,0,1,0,0,0,0,1,0,0,1,0,0,0,1,0,1,0,?
0,0,1,0,0,1,0,0,0,1,0,0,0,1,0,1,0,0,0,0,1,?
1,0,0,0,1,0,0,0,0,0,1,0,0,0,1,0,1,0,0,1,0,?
1,0,0,0,0,0,0,1,0,0,0,1,0,0,1,0,0,1,0,1,0,?
0,1,0,0,1,0,0,0,0,1,0,0,0,1,0,0,0,1,0,0,1,?
0,0,1,0,0,0,0,1,0,0,0,1,1,0,0,1,0,0,0,1,0,?
0,1,0,0,1,0,0,0,0,0,0,1,0,0,1,1,0,0,0,0,1,?
0,0,0,1,0,0,0,1,0,0,0,1,0,0,1,0,1,0,1,0,0,?
0,0,0,1,0,1,0,0,1,0,0,0,0,1,0,0,0,1,0,1,0,?
0,0,0,1,1,0,0,0,0,1,0,0,1,0,0,0,0,1,0,1,0,?
0,0,1,0,0,1,0,0,0,0,0,1,0,1,0,0,1,0,1,0,0,?
0,0,0,1,0,0,0,1,0,0,0,1,1,0,0,0,0,1,0,1,0,?
0,1,0,0,0,0,0,1,0,1,0,0,0,0,1,1,0,0,0,0,1,?
0,1,0,0,0,1,0,0,0,1,0,0,1,0,0,0,0,1,0,1,0,?
0,0,1,0,0,0,0,1,0,0,0,1,0,1,0,0,0,1,0,1,0,?
0,0,0,1,1,0,0,0,0,0,1,0,0,1,0,1,0,0,0,0,1,?
0,0,1,0,0,1,0,0,1,0,0,0,1,0,0,0,0,1,0,1,0,?
1,0,0,0,1,0,0,0,1,0,0,0,1,0,0,1,0,0,1,0,0,?
0,1,0,0,0,0,0,1,0,1,0,0,1,0,0,0,0,1,1,0,0,?
0,0,1,0,1,0,0,0,0,0,1,0,0,0,1,1,0,0,0,0,1,?
0,0,0,1,0,0,1,0,1,0,0,0,1,0,0,0,1,0,0,1,0,?
0,0,0,1,1,0,0,0,0,0,1,0,0,0,1,0,1,0,1,0,0,?
0,1,0,0,0,1,0,0,0,1,0,0,0,0,1,0,1,0,0,0,1,?
0,0,0,1,0,0,0,1,0,0,0,1,0,0,1,0,0,1,0,0,1,?
0,0,1,0,1,0,0,0,0,0,0,1,0,1,0,0,1,0,1,0,0,?
0,1,0,0,1,0,0,0,1,0,0,0,0,1,0,0,0,1,0,1,0,?
1,0,0,0,0,0,0,1,0,0,1,0,0,1,0,1,0,0,0,1,0,?
0,1,0,0,0,1,0,0,0,0,0,1,0,1,0,0,0,1,0,0,1,?
0,0,0,1,1,0,0,0,0,0,0,1,0,1,0,1,0,0,1,0,0,?
0,0,0,1,0,0,1,0,1,0,0,0,1,0,0,0,1,0,0,0,1,?
0,1,0,0,0,0,0,1,0,0,0,1,1,0,0,0,0,1,0,0,1,?
0,0,1,0,1,0,0,0,0,0,0,1,1,0,0,0,1,0,1,0,0,?
0,0,1,0,0,0,0,1,0,0,1,0,1,0,0,1,0,0,0,0,1,?
0,0,0,1,0,0,0,1,0,0,0,1,1,0,0,0,0,1,0,0,1,?
0,1,0,0,0,1,0,0,0,0,0,1,0,0,1,0,0,1,1,0,0,?
0,1,0,0,0,0,1,0,0,0,1,0,0,0,1,0,0,1,1,0,0,?
0,1,0,0,1,0,0,0,1,0,0,0,0,0,1,0,0,1,0,1,0,?
0,1,0,0,1,0,0,0,1,0,0,0,0,0,1,0,1,0,1,0,0,?
0,1,0,0,0,0,1,0,0,0,1,0,0,0,1,0,1,0,0,0,1,?
0,0,0,1,0,0,1,0,0,0,1,0,0,0,1,0,1,0,1,0,0,?
0,1,0,0,1,0,0,0,0,0,0,1,0,0,1,1,0,0,1,0,0,?
0,1,0,0,0,0,1,0,0,0,1,0,0,0,1,1,0,0,0,0,1,?
0,1,0,0,0,1,0,0,1,0,0,0,0,0,1,0,1,0,0,0,1,?
0,0,0,1,0,1,0,0,0,0,0,1,0,1,0,1,0,0,0,1,0,?
0,0,1,0,1,0,0,0,1,0,0,0,1,0,0,1,0,0,1,0,0,?
0,1,0,0,0,0,0,1,0,1,0,0,0,0,1,0,0,1,0,1,0,?
0,1,0,0,0,0,1,0,0,0,0,1,1,0,0,0,0,1,1,0,0,?
0,0,1,0,0,1,0,0,0,0,1,0,1,0,0,0,0,1,1,0,0,?
0,0,0,1,0,0,1,0,0,0,1,0,1,0,0,1,0,0,0,0,1,?
0,1,0,0,1,0,0,0,0,0,0,1,0,0,1,0,1,0,1,0,0,?
0,1,0,0,1,0,0,0,0,0,1,0,0,0,1,1,0,0,0,1,0,?
1,0,0,0,0,0,0,1,0,0,1,0,0,0,1,1,0,0,0,1,0,?
0,1,0,0,1,0,0,0,1,0,0,0,1,0,0,1,0,0,0,0,1,?
1,0,0,0,1,0,0,0,0,1,0,0,0,1,0,0,1,0,0,1,0,?
0,0,1,0,0,0,0,1,0,1,0,0,1,0,0,0,0,1,0,1,0,?
0,1,0,0,0,0,0,1,0,1,0,0,1,0,0,0,0,1,0,0,1,?
0,0,0,1,1,0,0,0,0,1,0,0,1,0,0,0,1,0,0,1,0,?
0,1,0,0,0,0,0,1,0,1,0,0,0,0,1,0,1,0,0,0,1,?
0,0,0,1,0,0,0,1,1,0,0,0,1,0,0,1,0,0,0,1,0,?
0,0,1,0,0,0,0,1,0,0,0,1,0,0,1,0,0,1,0,1,0,?
0,0,1,0,0,1,0,0,0,0,0,1,0,1,0,0,0,1,0,1,0,?
0,1,0,0,0,0,1,0,1,0,0,0,0,0,1,0,0,1,0,0,1,?
0,1,0,0,1,0,0,0,0,0,1,0,1,0,0,0,1,0,0,1,0,?
0,1,0,0,0,0,0,1,1,0,0,0,0,1,0,0,1,0,0,1,0,?
1,0,0,0,0,0,0,1,0,0,1,0,0,0,1,0,1,0,0,0,1,?
1,0,0,0,0,0,1,0,0,0,1,0,1,0,0,1,0,0,0,0,1,?
1,0,0,0,1,0,0,0,1,0,0,0,0,0,1,0,0,1,0,0,1,?
1,0,0,0,0,1,0,0,0,0,0,1,0,0,1,0,0,1,1,0,0,?
0,0,0,1,1,0,0,0,0,0,1,0,0,1,0,0,1,0,1,0,0,?
1,0,0,0,0,0,0,1,0,0,0,1,1,0,0,0,1,0,0,0,1,?
1,0,0,0,1,0,0,0,1,0,0,0,1,0,0,0,0,1,0,1,0,?
0,1,0,0,0,0,0,1,1,0,0,0,0,1,0,0,0,1,1,0,0,?
1,0,0,0,0,0,1,0,0,0,1,0,0,1,0,1,0,0,0,1,0,?
0,0,1,0,0,1,0,0,0,1,0,0,0,0,1,0,1,0,1,0,0,?
0,0,1,0,1,0,0,0,0,0,0,1,0,1,0,0,0,1,1,0,0,?
0,0,1,0,0,0,0,1,0,1,0,0,0,0,1,0,0,1,0,1,0,?
0,0,0,1,0,0,1,0,1,0,0,0,0,0,1,0,0,1,1,0,0,?
1,0,0,0,0,1,0,0,0,1,0,0,0,0,1,0,0,1,1,0,0,?
0,0,1,0,1,0,0,0,1,0,0,0,1,0,0,1,0,0,0,1,0,?
0,0,0,1,1,0,0,0,0,0,0,1,0,1,0,0,1,0,1,0,0,?
1,0,0,0,1,0,0,0,0,0,0,1,0,0,1,0,1,0,1,0,0,?
1,0,0,0,0,0,1,0,1,0,0,0,0,0,1,0,1,0,0,0,1,?
0,1,0,0,0,0,0,1,0,0,1,0,0,0,1,0,1,0,0,1,0,?
1,0,0,0,0,0,1,0,0,1,0,0,1,0,0,0,0,1,1,0,0,?
0,0,1,0,0,1,0,0,0,0,1,0,0,0,1,0,1,0,0,1,0,?
0,0,0,1,0,0,1,0,0,0,1,0,0,1,0,0,0,1,0,0,1,?
0,0,1,0,1,0,0,0,0,0,0,1,1,0,0,0,0,1,0,0,1,?
0,0,1,0,0,0,1,0,1,0,0,0,0,0,1,1,0,0,0,0,1,?
0,1,0,0,0,0,1,0,0,1,0,0,0,1,0,0,0,1,0,1,0,?
0,0,1,0,1,0,0,0,1,0,0,0,0,1,0,0,1,0,0,0,1,?
0,1,0,0,0,0,0,1,0,0,1,0,0,1,0,0,1,0,1,0,0,?
1,0,0,0,1,0,0,0,0,1,0,0,1,0,0,1,0,0,0,1,0,?
0,1,0,0,1,0,0,0,0,1,0,0,1,0,0,0,1,0,1,0,0,?
0,1,0,0,0,0,1,0,0,1,0,0,0,0,1,0,1,0,1,0,0,?
0,1,0,0,0,0,0,1,1,0,0,0,0,0,1,1,0,0,0,0,1,?
1,0,0,0,1,0,0,0,1,0,0,0,0,0,1,0,1,0,1,0,0,?
0,1,0,0,0,1,0,0,1,0,0,0,1,0,0,0,1,0,0,0,1,?
0,0,1,0,1,0,0,0,0,0,0,1,1,0,0,0,0,1,0,1,0,?
0,1,0,0,1,0,0,0,0,0,0,1,0,1,0,1,0,0,1,0,0,?
1,0,0,0,0,0,0,1,0,1,0,0,1,0,0,0,0,1,0,1,0,?
0,0,1,0,0,1,0,0,0,0,1,0,0,1,0,0,0,1,0,0,1,?
1,0,0,0,0,1,0,0,1,0,0,0,1,0,0,0,1,0,0,1,0,?
0,0,1,0,0,1,0,0,0,0,1,0,1,0,0,0,0,1,0,0,1,?
0,0,0,1,0,0,1,0,1,0,0,0,1,0,0,1,0,0,0,1,0,?
0,0,0,1,0,1,0,0,0,0,1,0,0,1,0,0,0,1,1,0,0,?
0,1,0,0,1,0,0,0,1,0,0,0,1,0,0,0,1,0,0,0,1,?
0,1,0,0,0,0,1,0,1,0,0,0,1,0,0,1,0,0,0,0,1,?
0,0,0,1,0,1,0,0,0,0,1,0,0,1,0,0,1,0,0,1,0,?
0,0,1,0,0,0,0,1,0,0,1,0,1,0,0,0,1,0,1,0,0,?
0,0,1,0,1,0,0,0,0,0,1,0,0,0,1,1,0,0,0,1,0,?
0,0,1,0,0,0,1,0,0,0,1,0,1,0,0,0,0,1,0,1,0,?
0,0,0,1,0,0,1,0,0,0,0,1,0,0,1,1,0,0,1,0,0,?
0,0,0,1,0,0,0,1,0,1,0,0,0,0,1,1,0,0,1,0,0,?
1,0,0,0,0,0,0,1,0,0,1,0,1,0,0,0,1,0,0,1,0,?
1,0,0,0,0,0,0,1,1,0,0,0,0,1,0,1,0,0,0,0,1,?
0,0,1,0,0,0,0,1,0,1,0,0,0,0,1,0,1,0,1,0,0,?
0,0,1,0,0,0,1,0,0,0,1,0,0,1,0,0,0,1,1,0,0,?
1,0,0,0,1,0,0,0,1,0,0,0,0,0,1,0,0,1,1,0,0,?
0,0,1,0,0,0,0,1,0,0,0,1,1,0,0,1,0,0,1,0,0,?
0,1,0,0,0,0,1,0,1,0,0,0,0,1,0,0,0,1,1,0,0,?
0,0,0,1,0,1,0,0,0,1,0,0,0,0,1,1,0,0,0,1,0,?
0,0,0,1,0,0,1,0,0,0,1,0,0,0,1,0,0,1,0,1,0,?
0,1,0,0,0,1,0,0,1,0,0,0,1,0,0,0,1,0,1,0,0,?
0,1,0,0,0,0,1,0,0,1,0,0,0,1,0,1,0,0,0,1,0,?
0,1,0,0,0,1,0,0,1,0,0,0,0,1,0,0,0,1,0,1,0,?
0,0,1,0,0,0,1,0,0,1,0,0,0,0,1,0,1,0,0,0,1,?
1,0,0,0,0,0,1,0,0,0,1,0,0,0,1,1,0,0,0,0,1,?
0,0,0,1,0,0,1,0,0,0,0,1,1,0,0,0,0,1,0,1,0,?
0,0,0,1,0,0,1,0,0,1,0,0,0,0,1,0,1,0,0,0,1,?
0,0,0,1,1,0,0,0,0,0,0,1,0,0,1,0,1,0,0,1,0,?
0,1,0,0,1,0,0,0,0,0,0,1,0,0,1,0,1,0,0,0,1,?
0,0,0,1,0,0,0,1,0,0,0,1,0,1,0,0,0,1,0,1,0,?
1,0,0,0,0,1,0,0,0,0,0,1,0,0,1,0,0,1,0,1,0,?
0,0,1,0,0,1,0,0,0,0,1,0,1,0,0,0,1,0,1,0,0,?
0,1,0,0,0,0,0,1,0,0,0,1,0,1,0,0,1,0,0,1,0,?
0,0,0,1,0,0,1,0,0,0,1,0,1,0,0,0,1,0,0,1,0,?
0,0,1,0,0,0,0,1,1,0,0,0,0,1,0,1,0,0,1,0,0,?
0,1,0,0,0,0,0,1,0,0,0,1,0,1,0,0,0,1,1,0,0,?
0,1,0,0,0,1,0,0,0,0,0,1,0,0,1,1,0,0,0,0,1,?
0,0,0,1,1,0,0,0,0,0,1,0,0,0,1,1,0,0,0,0,1,?
1,0,0,0,0,1,0,0,0,1,0,0,0,0,1,1,0,0,0,0,1,?
0,0,0,1,0,1,0,0,1,0,0,0,0,0,1,0,1,0,0,1,0,?
0,1,0,0,1,0,0,0,0,0,1,0,1,0,0,1,0,0,0,0,1,?
1,0,0,0,1,0,0,0,0,1,0,0,0,0,1,0,0,1,1,0,0,?
1,0,0,0,0,1,0,0,0,0,0,1,0,1,0,1,0,0,0,1,0,?
0,1,0,0,0,0,1,0,1,0,0,0,1,0,0,0,1,0,0,0,1,?
0,1,0,0,0,1,0,0,0,0,1,0,0,1,0,0,1,0,0,1,0,?
0,0,1,0,1,0,0,0,0,1,0,0,1,0,0,0,0,1,0,1,0,?
1,0,0,0,1,0,0,0,0,1,0,0,1,0,0,0,0,1,1,0,0,?
1,0,0,0,0,1,0,0,0,0,0,1,1,0,0,0,1,0,1,0,0,?
0,0,1,0,1,0,0,0,1,0,0,0,0,1,0,0,1,0,0,1,0,?
0,1,0,0,1,0,0,0,1,0,0,0,1,0,0,0,1,0,1,0,0,?
0,0,1,0,0,1,0,0,1,0,0,0,0,0,1,0,0,1,0,1,0,?
0,0,1,0,0,0,1,0,0,0,1,0,0,0,1,0,0,1,0,0,1,?
1,0,0,0,0,0,1,0,0,0,1,0,0,0,1,0,1,0,0,1,0,?
0,0,1,0,0,0,1,0,0,1,0,0,0,0,1,1,0,0,1,0,0,?
0,0,0,1,0,0,1,0,0,0,0,1,0,0,1,0,1,0,0,0,1,?
0,0,0,1,0,0,0,1,0,0,1,0,0,0,1,1,0,0,1,0,0,?
0,1,0,0,0,0,1,0,0,1,0,0,0,1,0,0,1,0,0,0,1,?
0,1,0,0,1,0,0,0,0,1,0,0,0,1,0,0,1,0,0,1,0,?
1,0,0,0,1,0,0,0,1,0,0,0,0,0,1,1,0,0,0,1,0,?
0,0,0,1,0,1,0,0,0,1,0,0,1,0,0,0,0,1,0,0,1,?
1,0,0,0,1,0,0,0,1,0,0,0,0,0,1,1,0,0,0,0,1,?
0,1,0,0,0,0,1,0,0,0,0,1,0,1,0,0,0,1,0,0,1,?
0,0,0,1,0,0,0,1,0,1,0,0,0,1,0,0,0,1,0,1,0,?
0,0,1,0,0,1,0,0,0,1,0,0,0,0,1,0,1,0,0,0,1,?
0,0,1,0,0,0,0,1,0,0,1,0,0,0,1,0,1,0,0,1,0,?
1,0,0,0,0,0,1,0,0,1,0,0,1,0,0,0,1,0,0,1,0,?
0,0,1,0,0,0,0,1,0,0,1,0,0,1,0,0,1,0,1,0,0,?
0,0,1,0,0,1,0,0,0,0,0,1,0,1,0,1,0,0,0,1,0,?
0,0,1,0,0,1,0,0,1,0,0,0,0,0,1,0,1,0,0,1,0,?
1,0,0,0,1,0,0,0,1,0,0,0,1,0,0,0,1,0,0,0,1,?
0,0,0,1,0,0,0,1,0,1,0,0,1,0,0,0,0,1,1,0,0,?
0,0,0,1,1,0,0,0,0,1,0,0,0,1,0,0,0,1,1,0,0,?
0,1,0,0,1,0,0,0,0,1,0,0,0,0,1,1,0,0,0,1,0,?
0,1,0,0,1,0,0,0,0,0,0,1,1,0,0,0,0,1,0,1,0,?
0,0,0,1,0,1,0,0,0,1,0,0,0,0,1,0,1,0,0,1,0,?
0,1,0,0,1,0,0,0,0,0,0,1,1,0,0,0,1,0,1,0,0,?
0,0,1,0,0,0,0,1,0,1,0,0,0,1,0,0,1,0,0,1,0,?
0,0,1,0,0,0,0,1,0,0,1,0,0,1,0,0,0,1,0,0,1,?
0,1,0,0,0,0,1,0,0,0,1,0,1,0,0,1,0,0,0,0,1,?
0,0,1,0,0,1,0,0,1,0,0,0,0,1,0,1,0,0,0,0,1,?
0,0,0,1,0,0,0,1,0,1,0,0,0,1,0,1,0,0,0,0,1,?
0,1,0,0,0,1,0,0,0,1,0,0,0,1,0,0,1,0,0,1,0,?
0,0,1,0,0,0,1,0,0,0,0,1,1,0,0,1,0,0,1,0,0,?
0,0,1,0,1,0,0,0,0,0,0,1,0,0,1,0,1,0,0,1,0,?
0,0,0,1,0,0,0,1,1,0,0,0,0,0,1,0,1,0,0,1,0,?
0,0,0,1,0,1,0,0,0,0,1,0,0,0,1,1,0,0,1,0,0,?
1,0,0,0,1,0,0,0,0,0,1,0,0,1,0,1,0,0,1,0,0,?
0,0,1,0,0,0,0,1,0,0,1,0,1,0,0,0,0,1,0,1,0,?
1,0,0,0,0,0,1,0,1,0,0,0,1,0,0,0,1,0,0,1,0,?
0,0,0,1,0,0,1,0,0,0,0,1,1,0,0,0,0,1,0,0,1,?
0,0,0,1,1,0,0,0,0,0,0,1,0,1,0,0,1,0,0,1,0,?
0,0,0,1,0,1,0,0,0,0,1,0,1,0,0,0,1,0,1,0,0,?
1,0,0,0,0,1,0,0,1,0,0,0,0,0,1,0,1,0,1,0,0,?
0,0,1,0,1,0,0,0,0,0,0,1,0,1,0,1,0,0,0,1,0,?
0,0,1,0,1,0,0,0,0,0,1,0,0,1,0,0,1,0,1,0,0,?
1,0,0,0,0,1,0,0,0,0,0,1,1,0,0,0,0,1,0,0,1,?
1,0,0,0,1,0,0,0,1,0,0,0,0,0,1,1,0,0,1,0,0,?
1,0,0,0,1,0,0,0,0,0,0,1,0,1,0,0,1,0,0,1,0,?
1,0,0,0,0,0,1,0,1,0,0,0,0,1,0,0,1,0,0,1,0,?
1,0,0,0,0,0,1,0,0,1,0,0,0,1,0,0,1,0,0,0,1,?
0,1,0,0,0,0,1,0,0,0,0,1,0,0,1,1,0,0,0,1,0,?
1,0,0,0,0,0,0,1,1,0,0,0,0,1,0,0,0,1,0,1,0,?
0,1,0,0,0,1,0,0,0,0,1,0,0,0,1,0,0,1,1,0,0,?
0,0,1,0,0,0,1,0,0,0,0,1,1,0,0,0,1,0,0,0,1,?
0,0,0,1,0,0,1,0,0,0,1,0,0,0,1,0,1,0,0,0,1,?
0,0,0,1,0,0,1,0,0,1,0,0,0,0,1,0,0,1,0,1,0,?
0,1,0,0,0,0,0,1,1,0,0,0,0,0,1,0,1,0,0,1,0,?
0,0,0,1,0,1,0,0,0,0,1,0,0,1,0,1,0,0,0,1,0,?
0,0,1,0,0,0,1,0,0,0,1,0,0,0,1,1,0,0,0,1,0,?
1,0,0,0,0,1,0,0,0,1,0,0,1,0,0,0,0,1,0,0,1,?
1,0,0,0,0,0,0,1,1,0,0,0,0,0,1,0,0,1,1,0,0,?
1,0,0,0,1,0,0,0,0,1,0,0,1,0,0,0,0,1,0,1,0,?
0,0,0,1,0,1,0,0,0,0,0,1,0,0,1,0,1,0,0,0,1,?
0,1,0,0,0,0,1,0,0,0,0,1,0,1,0,0,0,1,0,1,0,?
0,1,0,0,0,1,0,0,0,0,0,1,0,0,1,0,1,0,0,1,0,?
0,0,1,0,0,0,1,0,1,0,0,0,0,1,0,0,0,1,1,0,0,?
1,0,0,0,1,0,0,0,0,0,0,1,0,0,1,0,1,0,0,0,1,?
1,0,0,0,0,0,0,1,0,0,1,0,0,1,0,0,1,0,0,0,1,?
1,0,0,0,0,1,0,0,1,0,0,0,1,0,0,0,1,0,0,0,1,?
0,0,0,1,0,1,0,0,0,1,0,0,1,0,0,1,0,0,1,0,0,?
0,0,1,0,1,0,0,0,1,0,0,0,0,1,0,1,0,0,0,0,1,?
1,0,0,0,1,0,0,0,1,0,0,0,1,0,0,1,0,0,0,1,0,?
0,0,0,1,1,0,0,0,0,1,0,0,0,0,1,0,1,0,1,0,0,?
0,0,0,1,0,1,0,0,0,1,0,0,1,0,0,0,1,0,1,0,0,?
0,0,0,1,0,0,1,0,0,0,1,0,0,1,0,0,0,1,1,0,0,?
0,0,0,1,1,0,0,0,0,0,1,0,1,0,0,0,0,1,0,1,0,?
0,0,1,0,0,1,0,0,1,0,0,0,0,1,0,1,0,0,0,1,0,?
1,0,0,0,1,0,0,0,0,0,1,0,0,0,1,0,1,0,0,0,1,?
0,1,0,0,0,1,0,0,1,0,0,0,0,0,1,1,0,0,0,1,0,?
0,0,1,0,0,1,0,0,0,0,0,1,0,0,1,0,1,0,0,1,0,?
0,1,0,0,0,0,1,0,0,0,0,1,1,0,0,1,0,0,1,0,0,?
0,0,1,0,0,0,1,0,1,0,0,0,0,0,1,1,0,0,1,0,0,?
0,1,0,0,0,0,1,0,0,0,1,0,0,1,0,1,0,0,0,0,1,?
0,0,0,1,0,0,1,0,0,0,0,1,0,0,1,0,1,0,1,0,0,?
0,0,1,0,1,0,0,0,0,0,1,0,0,1,0,1,0,0,0,1,0,?
1,0,0,0,0,1,0,0,0,0,0,1,0,0,1,0,0,1,0,0,1,?
0,1,0,0,0,0,1,0,0,0,1,0,1,0,0,0,1,0,0,0,1,?
0,0,0,1,0,0,0,1,0,0,1,0,0,1,0,1,0,0,1,0,0,?
0,1,0,0,0,0,1,0,0,0,1,0,0,1,0,0,0,1,0,0,1,?
1,0,0,0,0,0,0,1,1,0,0,0,0,1,0,1,0,0,0,1,0,?
0,1,0,0,0,0,1,0,0,1,0,0,0,1,0,0,1,0,1,0,0,?
1,0,0,0,0,0,0,1,0,0,0,1,1,0,0,1,0,0,0,0,1,?
0,0,0,1,0,0,0,1,0,0,1,0,0,0,1,1,0,0,0,0,1,?
0,0,0,1,1,0,0,0,0,0,1,0,0,1,0,0,1,0,0,0,1,?
0,0,0,1,0,0,1,0,0,0,1,0,1,0,0,1,0,0,0,1,0,?
0,1,0,0,0,0,1,0,0,1,0,0,0,0,1,0,0,1,1,0,0,?
0,0,0,1,1,0,0,0,0,0,1,0,0,0,1,1,0,0,1,0,0,?
0,0,1,0,1,0,0,0,0,1,0,0,0,1,0,1,0,0,1,0,0,?
0,0,1,0,0,0,0,1,0,0,0,1,1,0,0,0,1,0,0,1,0,?
0,0,1,0,0,0,1,0,0,0,0,1,0,0,1,0,1,0,0,0,1,?
1,0,0,0,0,1,0,0,0,0,1,0,0,0,1,0,1,0,0,1,0,?
0,0,1,0,1,0,0,0,0,0,0,1,0,0,1,1,0,0,0,1,0,?
0,1,0,0,0,0,0,1,1,0,0,0,1,0,0,1,0,0,0,0,1,?
0,0,0,1,1,0,0,0,0,1,0,0,1,0,0,1,0,0,1,0,0,?
1,0,0,0,0,0,1,0,0,0,0,1,0,1,0,1,0,0,0,0,1,?
0,0,0,1,0,0,0,1,0,1,0,0,0,0,1,0,0,1,1,0,0,?
0,1,0,0,0,0,0,1,0,0,1,0,1,0,0,0,1,0,1,0,0,?
0,1,0,0,1,0,0,0,0,0,1,0,1,0,0,0,0,1,0,1,0,?
0,0,0,1,1,0,0,0,0,0,1,0,0,0,1,0,0,1,0,0,1,?
0,0,1,0,0,0,1,0,0,0,0,1,1,0,0,1,0,0,0,0,1,?
0,0,0,1,0,0,1,0,1,0,0,0,1,0,0,0,1,0,1,0,0,?
1,0,0,0,0,0,1,0,0,0,0,1,1,0,0,1,0,0,0,0,1,?
1,0,0,0,0,0,0,1,1,0,0,0,1,0,0,0,1,0,0,1,0,?
0,0,0,1,0,1,0,0,1,0,0,0,0,0,1,0,1,0,1,0,0,?
1,0,0,0,0,0,0,1,0,0,0,1,1,0,0,1,0,0,0,1,0,?
0,1,0,0,1,0,0,0,0,0,0,1,0,0,1,1,0,0,0,1,0,?
0,1,0,0,0,1,0,0,0,1,0,0,0,1,0,0,0,1,0,0,1,?
0,0,1,0,0,0,1,0,0,0,0,1,0,1,0,1,0,0,0,1,0,?
0,1,0,0,0,0,1,0,0,1,0,0,0,0,1,1,0,0,1,0,0,?
0,0,0,1,0,0,1,0,0,0,1,0,1,0,0,0,1,0,1,0,0,?
1,0,0,0,1,0,0,0,0,0,0,1,0,1,0,1,0,0,0,0,1,?
1,0,0,0,0,0,1,0,0,0,1,0,1,0,0,0,1,0,0,1,0,?
0,0,0,1,0,0,1,0,0,0,1,0,1,0,0,0,0,1,0,1,0,?
0,0,1,0,0,0,0,1,0,0,1,0,0,1,0,1,0,0,0,0,1,?
1,0,0,0,0,1,0,0,0,1,0,0,0,1,0,1,0,0,1,0,0,?
0,0,0,1,1,0,0,0,1,0,0,0,1,0,0,0,0,1,1,0,0,?
0,1,0,0,0,1,0,0,1,0,0,0,0,1,0,0,0,1,0,0,1,?
0,0,1,0,1,0,0,0,0,0,1,0,1,0,0,0,1,0,1,0,0,?
0,0,0,1,0,1,0,0,0,1,0,0,0,0,1,0,0,1,0,1,0,?
0,0,0,1,0,0,1,0,0,0,1,0,0,1,0,1,0,0,0,0,1,?
0,0,1,0,0,0,0,1,0,0,1,0,1,0,0,1,0,0,1,0,0,?
0,1,0,0,0,0,1,0,0,0,1,0,1,0,0,0,1,0,0,1,0,?
0,1,0,0,0,0,1,0,1,0,0,0,1,0,0,0,0,1,0,1,0,?
0,0,0,1,0,1,0,0,0,1,0,0,0,1,0,0,0,1,0,1,0,?
0,0,0,1,0,0,0,1,0,1,0,0,0,0,1,0,0,1,0,0,1,?
1,0,0,0,0,0,1,0,0,1,0,0,1,0,0,0,1,0,0,0,1,?
0,0,0,1,0,1,0,0,1,0,0,0,1,0,0,1,0,0,1,0,0,?
1,0,0,0,0,0,1,0,1,0,0,0,0,1,0,0,1,0,0,0,1,?
0,0,1,0,1,0,0,0,0,1,0,0,0,1,0,1,0,0,0,1,0,?
0,1,0,0,0,1,0,0,0,0,0,1,1,0,0,0,1,0,1,0,0,?
1,0,0,0,0,0,1,0,0,1,0,0,1,0,0,0,1,0,1,0,0,?
0,0,1,0,0,1,0,0,1,0,0,0,1,0,0,0,1,0,1,0,0,?
0,0,1,0,1,0,0,0,0,1,0,0,0,1,0,0,1,0,0,1,0,?
0,0,1,0,0,0,1,0,0,0,0,1,0,1,0,0,1,0,0,1,0,?
0,1,0,0,1,0,0,0,0,0,1,0,0,0,1,0,1,0,0,0,1,?
0,0,1,0,0,1,0,0,1,0,0,0,0,1,0,0,1,0,0,0,1,?
0,0,1,0,0,0,0,1,0,0,0,1,1,0,0,1,0,0,0,0,1,?
1,0,0,0,0,0,1,0,1,0,0,0,0,1,0,0,0,1,1,0,0,?
0,0,0,1,0,1,0,0,0,1,0,0,0,1,0,0,1,0,0,0,1,?
0,0,1,0,0,0,0,1,0,0,1,0,0,1,0,1,0,0,0,1,0,?
0,0,0,1,0,1,0,0,0,0,0,1,1,0,0,0,0,1,0,1,0,?
0,0,0,1,0,0,1,0,0,0,1,0,0,1,0,0,1,0,0,1,0,?
0,0,1,0,0,1,0,0,0,1,0,0,1,0,0,0,0,1,0,0,1,?
0,1,0,0,0,1,0,0,0,0,1,0,0,0,1,0,1,0,1,0,0,?
0,0,1,0,0,1,0,0,1,0,0,0,0,0,1,0,0,1,1,0,0,?
0,1,0,0,0,0,0,1,1,0,0,0,1,0,0,0,1,0,0,1,0,?
0,0,1,0,0,1,0,0,1,0,0,0,1,0,0,0,0,1,0,0,1,?
0,0,0,1,0,0,1,0,1,0,0,0,0,0,1,0,1,0,1,0,0,?
1,0,0,0,0,0,1,0,0,0,0,1,1,0,0,0,0,1,0,0,1,?
0,0,0,1,0,1,0,0,0,1,0,0,1,0,0,0,1,0,0,0,1,?
0,0,1,0,0,1,0,0,0,0,1,0,0,0,1,0,0,1,0,1,0,?
0,0,0,1,1,0,0,0,0,0,0,1,0,0,1,0,0,1,1,0,0,?
0,1,0,0,0,1,0,0,1,0,0,0,1,0,0,0,0,1,0,1,0,?
0,0,1,0,0,0,1,0,1,0,0,0,1,0,0,1,0,0,0,1,0,?
0,0,0,1,0,0,0,1,0,0,0,1,0,0,1,1,0,0,0,1,0,?
1,0,0,0,0,0,1,0,0,0,0,1,1,0,0,0,1,0,0,1,0,?
0,0,1,0,0,1,0,0,0,1,0,0,0,1,0,0,1,0,1,0,0,?
0,1,0,0,0,0,0,1,1,0,0,0,0,1,0,1,0,0,0,1,0,?
0,0,1,0,0,0,0,1,1,0,0,0,0,0,1,0,1,0,0,0,1,?
0,0,0,1,0,1,0,0,0,1,0,0,1,0,0,0,1,0,0,1,0,?
0,0,0,1,0,0,1,0,0,1,0,0,1,0,0,0,0,1,0,0,1,?
0,0,0,1,0,1,0,0,1,0,0,0,0,1,0,0,1,0,0,1,0,?
0,0,0,1,0,1,0,0,0,1,0,0,0,0,1,0,1,0,1,0,0,?
1,0,0,0,0,0,1,0,1,0,0,0,0,0,1,0,1,0,0,1,0,?
0,1,0,0,1,0,0,0,1,0,0,0,0,0,1,0,1,0,0,1,0,?
0,0,0,1,0,0,0,1,0,0,1,0,0,1,0,1,0,0,0,0,1,?
0,0,1,0,0,1,0,0,1,0,0,0,0,0,1,0,0,1,0,0,1,?
0,0,1,0,1,0,0,0,0,0,0,1,0,0,1,0,1,0,0,0,1,?
0,0,0,1,1,0,0,0,0,0,0,1,0,0,1,1,0,0,0,0,1,?
0,0,0,1,0,0,0,1,1,0,0,0,0,1,0,0,1,0,0,1,0,?
1,0,0,0,1,0,0,0,0,0,1,0,0,0,1,0,0,1,0,1,0,?
0,0,0,1,1,0,0,0,0,1,0,0,0,0,1,1,0,0,0,1,0,?
0,0,1,0,0,0,1,0,0,1,0,0,0,1,0,0,1,0,1,0,0,?
1,0,0,0,0,0,0,1,1,0,0,0,0,0,1,1,0,0,0,0,1,?
0,0,0,1,0,0,0,1,0,1,0,0,0,1,0,0,1,0,1,0,0,?
0,1,0,0,0,0,0,1,0,1,0,0,0,1,0,1,0,0,1,0,0,?
0,0,1,0,0,0,1,0,0,0,0,1,1,0,0,0,0,1,0,0,1,?
0,1,0,0,0,1,0,0,0,0,0,1,1,0,0,1,0,0,1,0,0,?
0,0,1,0,0,0,0,1,0,0,0,1,1,0,0,0,0,1,0,1,0,?
0,0,1,0,1,0,0,0,1,0,0,0,1,0,0,0,1,0,1,0,0,?
0,0,0,1,0,0,1,0,0,1,0,0,0,0,1,0,0,1,1,0,0,?
0,0,1,0,0,1,0,0,0,0,0,1,1,0,0,0,1,0,0,1,0,?
0,0,1,0,0,0,0,1,1,0,0,0,0,0,1,0,1,0,0,1,0,?
0,0,0,1,0,0,1,0,0,1,0,0,0,0,1,1,0,0,1,0,0,?
1,0,0,0,1,0,0,0,0,0,0,1,0,1,0,0,1,0,1,0,0,?
0,1,0,0,0,1,0,0,0,0,1,0,0,1,0,0,1,0,0,0,1,?
0,0,0,1,0,1,0,0,0,1,0,0,1,0,0,1,0,0,0,1,0,?
0,0,0,1,0,1,0,0,0,0,0,1,1,0,0,1,0,0,0,1,0,?
0,0,1,0,0,0,0,1,0,0,1,0,0,0,1,1,0,0,1,0,0,?
0,0,0,1,0,0,1,0,0,0,0,1,0,1,0,0,0,1,0,0,1,?
0,1,0,0,0,0,0,1,0,0,0,1,1,0,0,0,0,1,0,1,0,?
1,0,0,0,1,0,0,0,0,0,1,0,1,0,0,0,0,1,1,0,0,?
1,0,0,0,0,0,1,0,1,0,0,0,1,0,0,0,0,1,0,1,0,?
1,0,0,0,0,1,0,0,0,0,1,0,1,0,0,0,0,1,0,1,0,?
0,0,1,0,1,0,0,0,1,0,0,0,0,0,1,1,0,0,0,0,1,?
0,1,0,0,0,1,0,0,0,0,1,0,1,0,0,1,0,0,1,0,0,?
0,0,1,0,0,0,1,0,0,1,0,0,0,0,1,0,1,0,1,0,0,?
0,1,0,0,0,0,1,0,0,0,0,1,1,0,0,0,1,0,1,0,0,?
1,0,0,0,0,1,0,0,0,0,0,1,0,1,0,0,1,0,0,1,0,?
0,0,0,1,0,0,1,0,0,1,0,0,0,1,0,0,1,0,0,1,0,?
0,1,0,0,0,0,0,1,0,0,0,1,0,0,1,0,1,0,0,1,0,?
0,0,1,0,0,1,0,0,0,1,0,0,1,0,0,1,0,0,1,0,0,?
1,0,0,0,0,1,0,0,0,0,1,0,0,1,0,0,0,1,0,1,0,?
0,0,0,1,1,0,0,0,0,1,0,0,0,1,0,1,0,0,0,1,0,?
0,1,0,0,0,0,0,1,1,0,0,0,1,0,0,0,1,0,0,0,1,?
0,1,0,0,1,0,0,0,1,0,0,0,0,0,1,0,1,0,0,0,1,?
1,0,0,0,0,0,1,0,0,1,0,0,0,1,0,1,0,0,0,1,0,?
0,1,0,0,0,0,1,0,0,0,1,0,1,0,0,0,0,1,0,1,0,?
0,0,0,1,1,0,0,0,0,0,0,1,0,1,0,0,0,1,0,1,0,?
0,1,0,0,0,1,0,0,1,0,0,0,0,1,0,0,1,0,0,1,0,?
1,0,0,0,0,0,1,0,0,1,0,0,0,0,1,1,0,0,0,1,0,?
0,1,0,0,0,0,0,1,0,0,1,0,0,0,1,1,0,0,0,1,0,?
0,1,0,0,0,0,0,1,0,0,1,0,1,0,0,1,0,0,0,0,1,?
1,0,0,0,1,0,0,0,1,0,0,0,1,0,0,0,0,1,0,0,1,?
0,0,0,1,1,0,0,0,1,0,0,0,1,0,0,1,0,0,0,0,1,?
0,0,0,1,0,1,0,0,0,0,1,0,0,1,0,1,0,0,0,0,1,?
1,0,0,0,1,0,0,0,0,0,0,1,0,0,1,0,0,1,0,0,1,?
0,0,1,0,0,1,0,0,1,0,0,0,0,0,1,1,0,0,1,0,0,?
0,0,1,0,0,0,0,1,0,1,0,0,0,0,1,0,0,1,0,0,1,?
0,1,0,0,1,0,0,0,0,1,0,0,0,1,0,1,0,0,1,0,0,?
0,0,0,1,0,0,1,0,0,0,1,0,0,0,1,0,0,1,0,0,1,?
1,0,0,0,0,0,0,1,0,1,0,0,0,1,0,1,0,0,0,0,1,?
0,1,0,0,0,1,0,0,1,0,0,0,0,1,0,1,0,0,0,0,1,?
1,0,0,0,0,0,0,1,0,0,1,0,0,1,0,1,0,0,0,0,1,?
0,1,0,0,1,0,0,0,0,0,1,0,0,0,1,0,0,1,1,0,0,?
0,1,0,0,0,0,0,1,0,0,1,0,0,1,0,0,1,0,0,1,0,?
0,1,0,0,0,0,0,1,0,1,0,0,0,1,0,0,0,1,0,0,1,?
0,0,1,0,0,0,0,1,1,0,0,0,1,0,0,0,1,0,0,0,1,?
0,0,0,1,0,1,0,0,0,0,0,1,1,0,0,0,0,1,1,0,0,?
0,0,0,1,1,0,0,0,0,0,1,0,0,1,0,0,0,1,0,1,0,?
0,1,0,0,0,1,0,0,0,0,0,1,0,1,0,0,0,1,1,0,0,?
0,0,0,1,0,0,1,0,0,0,0,1,0,0,1,0,0,1,0,1,0,?
0,0,1,0,1,0,0,0,1,0,0,0,0,0,1,0,1,0,1,0,0,?
1,0,0,0,0,0,0,1,0,1,0,0,0,0,1,0,1,0,0,0,1,?
0,1,0,0,1,0,0,0,0,0,0,1,1,0,0,1,0,0,0,0,1,?
1,0,0,0,1,0,0,0,1,0,0,0,0,1,0,0,0,1,0,1,0,?
1,0,0,0,0,0,0,1,0,0,0,1,1,0,0,1,0,0,1,0,0,?
0,0,0,1,0,1,0,0,0,0,0,1,0,1,0,1,0,0,1,0,0,?
0,1,0,0,0,0,1,0,0,1,0,0,1,0,0,0,1,0,1,0,0,?
1,0,0,0,0,0,1,0,1,0,0,0,1,0,0,0,0,1,0,0,1,?
1,0,0,0,0,1,0,0,0,0,1,0,1,0,0,0,1,0,1,0,0,?
0,0,1,0,1,0,0,0,0,1,0,0,0,0,1,0,0,1,0,1,0,?
1,0,0,0,1,0,0,0,0,0,1,0,0,1,0,0,1,0,0,0,1,?
0,0,1,0,0,0,0,1,0,0,1,0,0,0,1,0,0,1,0,1,0,?
0,0,0,1,0,0,1,0,0,1,0,0,1,0,0,0,1,0,0,1,0,?
1,0,0,0,0,1,0,0,0,0,1,0,1,0,0,0,1,0,0,0,1,?
0,0,0,1,0,0,1,0,0,1,0,0,0,1,0,0,0,1,0,1,0,?
0,0,1,0,1,0,0,0,0,0,0,1,0,1,0,0,0,1,0,1,0,?
1,0,0,0,0,1,0,0,0,0,1,0,0,1,0,0,1,0,1,0,0,?
0,1,0,0,0,0,0,1,0,1,0,0,0,0,1,1,0,0,0,1,0,?
0,0,0,1,0,0,1,0,1,0,0,0,0,0,1,1,0,0,0,1,0,?
0,0,1,0,0,1,0,0,0,1,0,0,0,1,0,0,1,0,0,1,0,?
0,1,0,0,1,0,0,0,0,0,0,1,0,0,1,0,0,1,1,0,0,?
0,0,1,0,0,0,0,1,0,0,0,1,0,0,1,0,0,1,0,0,1,?
1,0,0,0,1,0,0,0,0,1,0,0,1,0,0,1,0,0,0,0,1,?
0,1,0,0,1,0,0,0,0,0,0,1,1,0,0,0,1,0,0,0,1,?
0,0,1,0,0,1,0,0,0,0,1,0,0,0,1,0,1,0,1,0,0,?
0,0,0,1,0,0,0,1,0,0,0,1,0,0,1,1,0,0,1,0,0,?
0,1,0,0,0,0,1,0,0,0,1,0,0,0,1,0,0,1,0,1,0,?
1,0,0,0,0,0,1,0,0,0,1,0,0,0,1,1,0,0,1,0,0,?
0,0,0,1,0,1,0,0,1,0,0,0,0,1,0,0,0,1,1,0,0,?
0,0,0,1,0,0,1,0,0,0,0,1,0,1,0,0,1,0,0,1,0,?
0,0,1,0,1,0,0,0,0,0,0,1,1,0,0,0,1,0,0,0,1,?
0,1,0,0,0,0,1,0,0,0,0,1,0,1,0,0,0,1,1,0,0,?
0,1,0,0,0,0,1,0,1,0,0,0,0,0,1,0,0,1,0,1,0,?
0,0,0,1,0,1,0,0,1,0,0,0,0,1,0,1,0,0,1,0,0,?
0,1,0,0,1,0,0,0,1,0,0,0,0,1,0,0,0,1,1,0,0,?
0,1,0,0,0,0,0,1,1,0,0,0,1,0,0,0,1,0,1,0,0,?
0,0,0,1,1,0,0,0,1,0,0,0,0,1,0,0,1,0,0,1,0,?
0,0,1,0,1,0,0,0,0,1,0,0,0,1,0,0,0,1,0,1,0,?
0,1,0,0,0,0,0,1,0,0,1,0,0,0,1,1,0,0,1,0,0,?
0,1,0,0,0,0,1,0,1,0,0,0,1,0,0,0,1,0,0,1,0,?
0,0,1,0,1,0,0,0,0,0,1,0,0,0,1,0,0,1,0,0,1,?
1,0,0,0,0,1,0,0,0,1,0,0,0,0,1,0,1,0,0,0,1,?
0,1,0,0,0,0,1,0,0,0,1,0,0,1,0,1,0,0,0,1,0,?
1,0,0,0,0,1,0,0,0,0,0,1,1,0,0,1,0,0,0,0,1,?
0,0,0,1,1,0,0,0,0,0,0,1,0,1,0,0,0,1,0,0,1,?
0,0,0,1,0,1,0,0,1,0,0,0,1,0,0,0,0,1,1,0,0,?
1,0,0,0,0,0,1,0,0,0,0,1,0,0,1,0,0,1,0,0,1,?
0,0,1,0,0,0,1,0,0,0,1,0,0,0,1,0,1,0,1,0,0,?
0,1,0,0,1,0,0,0,1,0,0,0,1,0,0,0,0,1,0,0,1,?
0,0,1,0,0,0,0,1,0,1,0,0,1,0,0,0,1,0,1,0,0,?
0,0,0,1,0,1,0,0,0,0,0,1,1,0,0,0,1,0,0,0,1,?
0,1,0,0,0,1,0,0,0,1,0,0,0,0,1,1,0,0,1,0,0,?
0,0,1,0,0,0,1,0,0,0,1,0,1,0,0,0,0,1,0,0,1,?
0,0,0,1,0,1,0,0,0,0,0,1,1,0,0,0,1,0,1,0,0,?
0,0,0,1,0,0,0,1,0,1,0,0,0,1,0,1,0,0,1,0,0,?
0,0,1,0,0,0,0,1,0,1,0,0,1,0,0,1,0,0,0,0,1,?
0,1,0,0,0,0,1,0,0,1,0,0,1,0,0,1,0,0,1,0,0,?
0,0,1,0,1,0,0,0,1,0,0,0,1,0,0,0,0,1,1,0,0,?
0,0,0,1,0,1,0,0,0,1,0,0,0,1,0,1,0,0,0,1,0,?
0,0,1,0,1,0,0,0,0,1,0,0,0,0,1,0,1,0,1,0,0,?
0,1,0,0,0,1,0,0,0,1,0,0,1,0,0,1,0,0,1,0,0,?
0,0,1,0,0,0,1,0,1,0,0,0,0,0,1,0,1,0,1,0,0,?
0,1,0,0,1,0,0,0,0,1,0,0,1,0,0,0,0,1,0,0,1,?
0,0,1,0,0,1,0,0,1,0,0,0,0,1,0,0,1,0,0,1,0,?
0,0,1,0,0,1,0,0,0,1,0,0,1,0,0,1,0,0,0,0,1,?
1,0,0,0,0,0,0,1,0,1,0,0,1,0,0,0,1,0,1,0,0,?
0,0,1,0,0,0,0,1,0,1,0,0,0,0,1,0,0,1,1,0,0,?
0,1,0,0,0,0,0,1,0,1,0,0,1,0,0,0,0,1,0,1,0,?
0,1,0,0,0,1,0,0,0,1,0,0,0,0,1,1,0,0,0,1,0,?
0,0,0,1,0,1,0,0,0,0,1,0,0,0,1,0,0,1,0,1,0,?
0,0,1,0,0,0,0,1,0,0,1,0,0,0,1,0,1,0,1,0,0,?
0,0,0,1,0,0,1,0,0,0,0,1,1,0,0,0,1,0,0,1,0,?
0,1,0,0,0,0,1,0,0,0,0,1,0,1,0,0,1,0,0,1,0,?
0,1,0,0,0,1,0,0,0,0,0,1,0,0,1,1,0,0,1,0,0,?
0,0,1,0,0,0,1,0,0,0,1,0,1,0,0,1,0,0,0,1,0,?
1,0,0,0,0,0,0,1,0,1,0,0,0,1,0,0,1,0,0,1,0,?
0,0,1,0,0,0,0,1,0,0,1,0,0,0,1,1,0,0,0,1,0,?
0,0,1,0,0,0,1,0,1,0,0,0,0,1,0,0,1,0,0,0,1,?
0,0,1,0,1,0,0,0,0,0,1,0,0,0,1,0,0,1,0,1,0,?
0,1,0,0,0,0,0,1,0,0,1,0,1,0,0,0,0,1,1,0,0,?
0,0,0,1,0,1,0,0,0,0,1,0,1,0,0,0,0,1,1,0,0,?
0,1,0,0,0,0,1,0,1,0,0,0,1,0,0,1,0,0,0,1,0,?
0,1,0,0,0,0,0,1,0,0,0,1,1,0,0,1,0,0,0,0,1,?
1,0,0,0,0,0,0,1,0,1,0,0,1,0,0,1,0,0,0,1,0,?
0,0,0,1,0,0,0,1,0,0,1,0,0,0,1,0,0,1,1,0,0,?
0,0,1,0,1,0,0,0,1,0,0,0,0,0,1,1,0,0,1,0,0,?
1,0,0,0,0,1,0,0,0,0,1,0,0,1,0,0,1,0,0,0,1,?
1,0,0,0,0,0,0,1,0,0,1,0,0,0,1,0,0,1,0,1,0,?
0,1,0,0,0,1,0,0,1,0,0,0,0,1,0,1,0,0,1,0,0,?
1,0,0,0,0,0,0,1,0,1,0,0,0,0,1,0,1,0,1,0,0,?
1,0,0,0,0,0,1,0,0,0,1,0,0,0,1,0,1,0,1,0,0,?
0,0,1,0,0,0,0,1,0,0,1,0,0,1,0,0,1,0,0,1,0,?
1,0,0,0,0,0,1,0,0,1,0,0,0,1,0,0,1,0,1,0,0,?
0,0,0,1,0,0,0,1,0,1,0,0,0,0,1,1,0,0,0,0,1,?
0,1,0,0,0,0,1,0,0,1,0,0,1,0,0,0,0,1,0,0,1,?
0,0,0,1,1,0,0,0,0,0,1,0,0,1,0,1,0,0,1,0,0,?
0,0,0,1,0,0,0,1,0,1,0,0,1,0,0,0,0,1,0,0,1,?
1,0,0,0,1,0,0,0,0,0,0,1,0,1,0,0,0,1,0,0,1,?
0,1,0,0,0,0,0,1,0,0,0,1,0,0,1,1,0,0,1,0,0,?
1,0,0,0,0,0,1,0,1,0,0,0,0,1,0,1,0,0,1,0,0,?
0,1,0,0,0,1,0,0,0,0,0,1,0,1,0,1,0,0,0,0,1,?
0,0,0,1,0,1,0,0,0,0,1,0,0,0,1,0,1,0,1,0,0,?
1,0,0,0,0,0,1,0,0,0,1,0,0,1,0,1,0,0,1,0,0,?
0,0,1,0,0,0,1,0,0,0,1,0,1,0,0,0,1,0,0,1,0,?
0,1,0,0,0,1,0,0,1,0,0,0,0,0,1,0,1,0,0,1,0,?
0,0,1,0,0,0,1,0,1,0,0,0,0,1,0,1,0,0,0,0,1,?
0,0,0,1,1,0,0,0,0,0,0,1,1,0,0,1,0,0,1,0,0,?
0,1,0,0,0,1,0,0,1,0,0,0,0,0,1,0,1,0,1,0,0,?
1,0,0,0,0,0,0,1,0,0,0,1,1,0,0,0,1,0,1,0,0,?
0,0,1,0,0,1,0,0,0,1,0,0,0,0,1,0,1,0,0,1,0,?
0,0,1,0,0,0,1,0,0,0,0,1,1,0,0,0,0,1,1,0,0,?
0,0,1,0,0,0,1,0,0,0,1,0,1,0,0,1,0,0,0,0,1,?
1,0,0,0,1,0,0,0,0,1,0,0,0,1,0,1,0,0,0,0,1,?
1,0,0,0,0,0,0,1,0,0,1,0,1,0,0,0,1,0,0,0,1,?
0,1,0,0,0,1,0,0,0,0,1,0,0,0,1,0,1,0,0,0,1,?
0,1,0,0,0,0,1,0,1,0,0,0,0,0,1,0,0,1,1,0,0,?
0,0,0,1,1,0,0,0,0,0,1,0,0,0,1,0,1,0,0,1,0,?
0,0,0,1,0,1,0,0,1,0,0,0,0,1,0,0,1,0,1,0,0,?
0,1,0,0,0,1,0,0,0,0,0,1,1,0,0,1,0,0,0,1,0,?
0,0,0,1,0,0,0,1,0,0,0,1,0,1,0,0,1,0,0,0,1,?
0,0,0,1,0,0,0,1,0,0,0,1,0,1,0,0,0,1,1,0,0,?
1,0,0,0,0,0,0,1,0,0,0,1,0,1,0,0,1,0,0,1,0,?
1,0,0,0,0,0,1,0,1,0,0,0,0,1,0,1,0,0,0,0,1,?
0,1,0,0,0,0,0,1,1,0,0,0,0,0,1,1,0,0,0,1,0,?
0,1,0,0,0,1,0,0,1,0,0,0,0,1,0,0,1,0,1,0,0,?
0,0,1,0,0,0,1,0,0,1,0,0,0,1,0,0,0,1,0,1,0,?
0,0,1,0,1,0,0,0,0,0,0,1,0,0,1,1,0,0,0,0,1,?
0,0,1,0,0,0,1,0,0,1,0,0,0,0,1,1,0,0,0,1,0,?
0,0,1,0,0,0,1,0,0,0,1,0,0,0,1,0,0,1,0,1,0,?
0,0,0,1,0,0,0,1,0,0,1,0,1,0,0,0,1,0,0,1,0,?
1,0,0,0,1,0,0,0,0,1,0,0,1,0,0,0,1,0,0,0,1,?
0,0,1,0,0,0,0,1,0,0,0,1,0,0,1,1,0,0,0,1,0,?
0,1,0,0,1,0,0,0,1,0,0,0,0,0,1,1,0,0,0,1,0,?
0,0,1,0,1,0,0,0,0,0,1,0,0,1,0,0,0,1,1,0,0,?
0,1,0,0,0,0,0,1,1,0,0,0,0,0,1,0,1,0,1,0,0,?
0,1,0,0,1,0,0,0,0,1,0,0,0,0,1,1,0,0,1,0,0,?
1,0,0,0,0,0,1,0,0,0,1,0,0,1,0,1,0,0,0,0,1,?
0,1,0,0,0,0,0,1,0,0,1,0,0,1,0,0,0,1,0,0,1,?
0,0,1,0,0,0,0,1,0,1,0,0,1,0,0,1,0,0,0,1,0,?
1,0,0,0,0,0,0,1,1,0,0,0,0,0,1,0,1,0,0,0,1,?
0,1,0,0,0,0,1,0,0,1,0,0,0,0,1,1,0,0,0,0,1,?
0,0,0,1,0,1,0,0,0,0,1,0,0,0,1,0,1,0,0,0,1,?
0,0,0,1,0,0,0,1,0,0,1,0,1,0,0,1,0,0,0,0,1,?
0,0,1,0,1,0,0,0,0,0,1,0,1,0,0,1,0,0,0,1,0,?
0,0,0,1,1,0,0,0,1,0,0,0,1,0,0,0,1,0,1,0,0,?
1,0,0,0,0,0,0,1,0,0,1,0,1,0,0,0,0,1,1,0,0,?
1,0,0,0,0,0,0,1,1,0,0,0,1,0,0,0,1,0,0,0,1,?
0,1,0,0,0,0,0,1,0,1,0,0,0,0,1,1,0,0,1,0,0,?
0,1,0,0,0,0,0,1,0,1,0,0,1,0,0,0,1,0,0,0,1,?
0,0,1,0,1,0,0,0,0,0,0,1,0,0,1,0,0,1,1,0,0,?
0,0,1,0,0,1,0,0,0,0,1,0,0,1,0,0,1,0,0,1,0,?
0,0,1,0,0,0,1,0,0,0,1,0,0,1,0,0,0,1,0,0,1,?
0,0,1,0,1,0,0,0,1,0,0,0,0,1,0,0,0,1,0,1,0,?
0,0,0,1,0,0,1,0,0,1,0,0,1,0,0,0,1,0,0,0,1,?
0,0,1,0,1,0,0,0,0,1,0,0,0,0,1,1,0,0,0,1,0,?
0,0,0,1,0,1,0,0,0,1,0,0,0,1,0,0,1,0,1,0,0,?
0,1,0,0,1,0,0,0,0,1,0,0,1,0,0,1,0,0,1,0,0,?
0,0,1,0,0,0,1,0,1,0,0,0,0,1,0,0,1,0,1,0,0,?
0,0,1,0,0,0,1,0,0,0,0,1,0,0,1,0,0,1,1,0,0,?
0,0,1,0,0,0,0,1,0,1,0,0,0,0,1,0,1,0,0,0,1,?
0,1,0,0,0,0,0,1,0,1,0,0,0,0,1,0,1,0,0,1,0,?
0,0,1,0,1,0,0,0,0,0,1,0,1,0,0,0,0,1,0,1,0,?
1,0,0,0,1,0,0,0,1,0,0,0,0,1,0,0,0,1,0,0,1,?
0,0,0,1,1,0,0,0,1,0,0,0,1,0,0,0,0,1,0,1,0,?
0,1,0,0,1,0,0,0,0,0,0,1,0,0,1,0,0,1,0,0,1,?
0,0,1,0,0,0,1,0,0,0,0,1,0,0,1,1,0,0,0,0,1,?
0,1,0,0,1,0,0,0,0,1,0,0,1,0,0,0,1,0,0,1,0,?
1,0,0,0,0,0,0,1,1,0,0,0,0,0,1,0,1,0,1,0,0,?
0,1,0,0,0,0,1,0,1,0,0,0,0,0,1,0,1,0,1,0,0,?
0,0,1,0,0,0,0,1,0,0,0,1,0,1,0,1,0,0,0,1,0,?
0,0,0,1,0,0,0,1,1,0,0,0,0,1,0,0,0,1,1,0,0,?
1,0,0,0,0,0,0,1,0,1,0,0,1,0,0,1,0,0,1,0,0,?
0,1,0,0,0,0,1,0,0,1,0,0,1,0,0,0,0,1,1,0,0,?
1,0,0,0,0,1,0,0,1,0,0,0,0,0,1,0,0,1,0,0,1,?
0,0,1,0,0,0,1,0,1,0,0,0,0,0,1,0,1,0,0,1,0,?
0,1,0,0,0,0,0,1,1,0,0,0,1,0,0,0,0,1,0,0,1,?
1,0,0,0,0,0,0,1,0,0,1,0,1,0,0,1,0,0,0,0,1,?
0,0,0,1,1,0,0,0,1,0,0,0,0,1,0,1,0,0,0,0,1,?
0,1,0,0,0,0,1,0,0,0,1,0,0,0,1,1,0,0,0,1,0,?
0,0,0,1,0,0,1,0,0,0,0,1,0,1,0,1,0,0,0,1,0,?
0,0,1,0,0,1,0,0,0,0,0,1,0,0,1,0,0,1,0,0,1,?
0,0,1,0,1,0,0,0,0,0,1,0,0,1,0,0,1,0,0,0,1,?
0,0,1,0,0,0,0,1,1,0,0,0,0,0,1,1,0,0,1,0,0,?
0,1,0,0,1,0,0,0,0,0,0,1,0,1,0,0,1,0,1,0,0,?
0,0,0,1,0,1,0,0,0,0,0,1,0,0,1,0,0,1,1,0,0,?
0,0,1,0,1,0,0,0,0,0,0,1,1,0,0,0,1,0,0,1,0,?
1,0,0,0,0,0,1,0,0,0,1,0,0,0,1,0,0,1,0,1,0,?
1,0,0,0,0,1,0,0,0,0,1,0,0,0,1,1,0,0,0,0,1,?
0,1,0,0,0,0,1,0,0,0,0,1,0,0,1,1,0,0,1,0,0,?
1,0,0,0,1,0,0,0,0,1,0,0,0,1,0,0,0,1,1,0,0,?
0,0,0,1,0,0,0,1,0,1,0,0,0,0,1,0,0,1,0,1,0,?
1,0,0,0,0,1,0,0,0,1,0,0,1,0,0,1,0,0,0,0,1,?
0,0,0,1,1,0,0,0,1,0,0,0,0,0,1,0,1,0,0,1,0,?
0,0,0,1,0,0,0,1,1,0,0,0,0,1,0,1,0,0,0,1,0,?
0,0,1,0,0,1,0,0,0,1,0,0,1,0,0,0,1,0,0,0,1,?
0,1,0,0,0,1,0,0,0,0,1,0,1,0,0,0,1,0,0,1,0,?
0,0,0,1,0,0,1,0,0,0,0,1,0,0,1,1,0,0,0,1,0,?
0,0,1,0,0,1,0,0,0,1,0,0,0,0,1,0,0,1,0,1,0,?
0,0,1,0,0,1,0,0,0,0,0,1,1,0,0,1,0,0,0,0,1,?
0,1,0,0,0,0,0,1,0,0,0,1,1,0,0,1,0,0,0,1,0,?
1,0,0,0,0,0,1,0,0,0,0,1,1,0,0,0,1,0,0,0,1,?
0,1,0,0,1,0,0,0,0,0,1,0,0,1,0,0,0,1,0,1,0,?
0,1,0,0,1,0,0,0,1,0,0,0,0,0,1,1,0,0,0,0,1,?
1,0,0,0,1,0,0,0,0,0,0,1,0,1,0,1,0,0,1,0,0,?
0,1,0,0,0,0,1,0,0,1,0,0,0,0,1,0,1,0,0,0,1,?
0,0,0,1,0,0,0,1,0,0,1,0,1,0,0,1,0,0,1,0,0,?
0,0,0,1,1,0,0,0,0,0,1,0,1,0,0,1,0,0,0,0,1,?
1,0,0,0,0,1,0,0,0,0,0,1,0,1,0,1,0,0,0,0,1,?
0,0,1,0,0,0,0,1,0,0,1,0,0,0,1,0,0,1,0,0,1,?
0,1,0,0,1,0,0,0,0,0,0,1,1,0,0,1,0,0,0,1,0,?
1,0,0,0,0,0,1,0,0,0,1,0,1,0,0,0,0,1,1,0,0,?
0,0,0,1,0,0,1,0,0,1,0,0,0,1,0,1,0,0,1,0,0,?
0,1,0,0,0,1,0,0,0,0,1,0,0,0,1,0,0,1,0,1,0,?
0,1,0,0,1,0,0,0,0,0,0,1,0,1,0,0,1,0,0,0,1,?
1,0,0,0,0,0,1,0,0,1,0,0,0,0,1,0,0,1,0,1,0,?
0,1,0,0,0,1,0,0,0,0,1,0,0,1,0,0,1,0,1,0,0,?
1,0,0,0,0,1,0,0,0,0,0,1,0,1,0,0,0,1,0,0,1,?
0,1,0,0,0,1,0,0,1,0,0,0,0,1,0,0,0,1,1,0,0,?
0,0,1,0,0,1,0,0,1,0,0,0,1,0,0,1,0,0,1,0,0,?
0,0,0,1,0,1,0,0,0,0,0,1,0,1,0,0,1,0,1,0,0,?
0,0,0,1,0,1,0,0,0,0,0,1,1,0,0,1,0,0,0,0,1,?
0,0,1,0,0,0,1,0,1,0,0,0,1,0,0,0,0,1,0,0,1,?
0,1,0,0,0,1,0,0,1,0,0,0,0,0,1,1,0,0,0,0,1,?
0,0,0,1,0,0,0,1,0,0,1,0,1,0,0,0,0,1,1,0,0,?
0,1,0,0,0,1,0,0,1,0,0,0,0,0,1,0,0,1,0,0,1,?
1,0,0,0,0,0,1,0,0,0,0,1,0,1,0,0,1,0,1,0,0,?
1,0,0,0,1,0,0,0,0,0,0,1,1,0,0,0,0,1,1,0,0,?
0,1,0,0,0,0,1,0,0,1,0,0,0,0,1,0,1,0,0,1,0,?
1,0,0,0,0,1,0,0,0,1,0,0,0,1,0,1,0,0,0,0,1,?
0,0,0,1,1,0,0,0,0,0,0,1,1,0,0,0,1,0,0,1,0,?
0,0,1,0,0,0,0,1,1,0,0,0,0,0,1,1,0,0,0,0,1,?
0,0,0,1,0,0,0,1,0,0,1,0,1,0,0,0,0,1,0,1,0,?
0,1,0,0,0,0,1,0,0,0,0,1,0,0,1,0,0,1,1,0,0,?
0,0,1,0,0,0,1,0,0,0,1,0,0,0,1,1,0,0,0,0,1,?
0,1,0,0,0,1,0,0,1,0,0,0,1,0,0,1,0,0,0,0,1,?
0,0,0,1,1,0,0,0,1,0,0,0,0,1,0,0,0,1,1,0,0,?
1,0,0,0,0,0,0,1,1,0,0,0,0,1,0,0,0,1,1,0,0,?
0,0,0,1,0,0,0,1,1,0,0,0,0,0,1,0,1,0,0,0,1,?
0,1,0,0,0,1,0,0,0,0,0,1,0,1,0,0,1,0,0,0,1,?
0,0,0,1,1,0,0,0,1,0,0,0,1,0,0,0,1,0,0,1,0,?
0,1,0,0,0,0,1,0,0,0,1,0,0,1,0,0,0,1,0,1,0,?
0,1,0,0,0,0,0,1,0,0,0,1,1,0,0,0,1,0,0,1,0,?
1,0,0,0,1,0,0,0,0,1,0,0,0,0,1,0,0,1,0,0,1,?
0,0,1,0,0,0,1,0,0,0,0,1,0,1,0,0,0,1,0,0,1,?
1,0,0,0,0,1,0,0,1,0,0,0,0,0,1,0,0,1,0,1,0,?
1,0,0,0,0,0,1,0,0,1,0,0,0,1,0,0,1,0,0,1,0,?
0,0,0,1,0,0,1,0,0,0,0,1,0,1,0,0,0,1,1,0,0,?
0,0,1,0,0,1,0,0,0,0,0,1,1,0,0,0,0,1,1,0,0,?
1,0,0,0,0,0,0,1,1,0,0,0,1,0,0,1,0,0,0,0,1,?
0,0,1,0,0,1,0,0,0,0,0,1,0,0,1,1,0,0,0,0,1,?
0,1,0,0,1,0,0,0,0,1,0,0,0,0,1,1,0,0,0,0,1,?
0,0,0,1,1,0,0,0,0,1,0,0,0,1,0,0,1,0,0,0,1,?
0,0,1,0,0,0,1,0,1,0,0,0,1,0,0,0,1,0,0,0,1,?
0,0,0,1,0,0,0,1,1,0,0,0,0,1,0,0,1,0,0,0,1,?
1,0,0,0,0,1,0,0,0,0,0,1,0,0,1,1,0,0,0,1,0,?
0,1,0,0,1,0,0,0,1,0,0,0,1,0,0,0,1,0,0,1,0,?
0,0,1,0,0,0,1,0,0,1,0,0,1,0,0,0,1,0,0,1,0,?
0,0,0,1,0,0,0,1,0,0,0,1,0,1,0,0,0,1,0,0,1,?
0,0,1,0,1,0,0,0,0,1,0,0,0,0,1,1,0,0,0,0,1,?
0,0,0,1,0,0,0,1,0,0,0,1,0,0,1,0,1,0,0,0,1,?
1,0,0,0,1,0,0,0,0,1,0,0,0,0,1,1,0,0,0,0,1,?
0,0,0,1,0,1,0,0,0,1,0,0,0,1,0,0,0,1,0,0,1,?
0,0,0,1,0,0,0,1,0,1,0,0,0,1,0,0,1,0,0,0,1,?
1,0,0,0,0,1,0,0,1,0,0,0,0,1,0,1,0,0,0,0,1,?
0,0,1,0,1,0,0,0,0,1,0,0,1,0,0,1,0,0,0,1,0,?
0,0,0,1,0,0,0,1,0,1,0,0,1,0,0,0,1,0,1,0,0,?
1,0,0,0,0,1,0,0,1,0,0,0,1,0,0,0,0,1,0,1,0,?
0,0,0,1,0,0,1,0,0,1,0,0,0,1,0,1,0,0,0,0,1,?
0,0,1,0,1,0,0,0,0,0,1,0,1,0,0,0,0,1,0,0,1,?
0,1,0,0,1,0,0,0,1,0,0,0,0,1,0,0,1,0,0,0,1,?
0,0,0,1,1,0,0,0,0,0,0,1,1,0,0,1,0,0,0,0,1,?
0,0,0,1,1,0,0,0,1,0,0,0,0,0,1,0,0,1,1,0,0,?
0,0,1,0,0,1,0,0,0,0,0,1,1,0,0,0,0,1,0,0,1,?
0,1,0,0,0,1,0,0,1,0,0,0,0,0,1,0,0,1,0,1,0,?
1,0,0,0,1,0,0,0,0,0,0,1,0,1,0,1,0,0,0,1,0,?
0,0,1,0,0,1,0,0,1,0,0,0,0,1,0,0,1,0,1,0,0,?
0,0,1,0,0,1,0,0,0,1,0,0,1,0,0,0,1,0,0,1,0,?
1,0,0,0,0,0,0,1,0,0,0,1,1,0,0,0,0,1,1,0,0,?
0,1,0,0,0,1,0,0,0,1,0,0,1,0,0,0,1,0,0,1,0,?
0,0,1,0,1,0,0,0,0,0,1,0,1,0,0,0,1,0,0,1,0,?
0,0,1,0,0,0,0,1,1,0,0,0,0,1,0,0,0,1,0,0,1,?
1,0,0,0,0,1,0,0,0,1,0,0,0,1,0,0,0,1,0,0,1,?
0,0,0,1,0,1,0,0,1,0,0,0,0,0,1,1,0,0,0,0,1,?
1,0,0,0,1,0,0,0,0,0,0,1,0,0,1,1,0,0,1,0,0,?
1,0,0,0,0,0,0,1,0,0,1,0,0,1,0,0,0,1,0,0,1,?
1,0,0,0,1,0,0,0,0,1,0,0,1,0,0,0,1,0,0,1,0,?
0,1,0,0,0,1,0,0,0,0,0,1,0,1,0,1,0,0,0,1,0,?
1,0,0,0,0,0,0,1,0,0,0,1,0,1,0,1,0,0,0,0,1,?
0,1,0,0,0,0,1,0,0,0,1,0,1,0,0,1,0,0,0,1,0,?
0,0,1,0,0,1,0,0,1,0,0,0,0,1,0,1,0,0,1,0,0,?
0,0,1,0,0,0,1,0,1,0,0,0,1,0,0,1,0,0,0,0,1,?
1,0,0,0,0,1,0,0,0,0,0,1,1,0,0,0,0,1,0,1,0,?
0,0,1,0,1,0,0,0,0,0,1,0,1,0,0,0,1,0,0,0,1,?
0,0,1,0,0,1,0,0,1,0,0,0,0,0,1,1,0,0,0,0,1,?
1,0,0,0,1,0,0,0,0,1,0,0,0,0,1,1,0,0,0,1,0,?
0,0,0,1,1,0,0,0,0,0,0,1,1,0,0,0,0,1,0,1,0,?
1,0,0,0,0,0,0,1,1,0,0,0,0,0,1,0,0,1,0,1,0,?
0,1,0,0,1,0,0,0,0,1,0,0,0,0,1,0,1,0,1,0,0,?
0,1,0,0,0,0,0,1,1,0,0,0,1,0,0,1,0,0,0,1,0,?
1,0,0,0,0,0,0,1,0,0,0,1,0,0,1,1,0,0,0,1,0,?
1,0,0,0,1,0,0,0,0,1,0,0,0,1,0,1,0,0,1,0,0,?
0,1,0,0,0,1,0,0,0,0,1,0,1,0,0,0,0,1,1,0,0,?
1,0,0,0,0,0,1,0,0,0,1,0,0,0,1,0,0,1,0,0,1,?
1,0,0,0,0,0,1,0,1,0,0,0,1,0,0,1,0,0,0,0,1,?
1,0,0,0,0,0,0,1,0,1,0,0,0,1,0,0,1,0,1,0,0,?
0,1,0,0,1,0,0,0,0,1,0,0,1,0,0,0,1,0,0,0,1,?
0,1,0,0,1,0,0,0,1,0,0,0,0,1,0,0,1,0,0,1,0,?
0,1,0,0,0,0,1,0,0,0,1,0,0,1,0,0,1,0,0,1,0,?
0,1,0,0,0,0,1,0,0,0,0,1,0,0,1,0,1,0,0,0,1,?

