@relation ionosphere-weka.filters.unsupervised.ATTRIBUTE.Normalize-S1.0-T0.0

@ATTRIBUTE a01 numeric
@ATTRIBUTE a02 numeric
@ATTRIBUTE a03 numeric
@ATTRIBUTE a04 numeric
@ATTRIBUTE a05 numeric
@ATTRIBUTE a06 numeric
@ATTRIBUTE a07 numeric
@ATTRIBUTE a08 numeric
@ATTRIBUTE a09 numeric
@ATTRIBUTE a10 numeric
@ATTRIBUTE a11 numeric
@ATTRIBUTE a12 numeric
@ATTRIBUTE a13 numeric
@ATTRIBUTE a14 numeric
@ATTRIBUTE a15 numeric
@ATTRIBUTE a16 numeric
@ATTRIBUTE a17 numeric
@ATTRIBUTE a18 numeric
@ATTRIBUTE a19 numeric
@ATTRIBUTE a20 numeric
@ATTRIBUTE a21 numeric
@ATTRIBUTE a22 numeric
@ATTRIBUTE a23 numeric
@ATTRIBUTE a24 numeric
@ATTRIBUTE a25 numeric
@ATTRIBUTE a26 numeric
@ATTRIBUTE a27 numeric
@ATTRIBUTE a28 numeric
@ATTRIBUTE a29 numeric
@ATTRIBUTE a30 numeric
@ATTRIBUTE a31 numeric
@ATTRIBUTE a32 numeric
@ATTRIBUTE a33 numeric
@ATTRIBUTE a34 numeric
@ATTRIBUTE class {+1,-1}

@data
1,0,0.5,0.5,0,0,0,1,0.5,0.5,0,1,1,1,1,0,0.5,0.5,0.5,0.5,0,0,0,1,1,0.71875,1,0,0.5,0.5,0,0,0,1,-1
1,0,0.59295,0.416665,0.5,0.5,0.5,0.5,0.5,0.5,0.5,0.5,0.55769,0.404645,0.5,0.5,0.5,0.5,0.5,0.5,0.5,0.5,0.47436,0.467145,0.539265,0.54487,0.58654,0.445515,0.5625,0.548075,0.51282,0.47596,0.584135,0.597755,-1
1,0,1,0.066495,1,0.6114,0.92746,0.30052,1,0.43955,1,0.675735,1,0.53886,1,0.426165,1,0,1,0,0.809155,0.579015,1,0.811745,1,0.41494,1,0.67962,1,0.16753,1,0.94214,1,0.40587,-1
1,0,1,0.472355,1,0,0.75,0.444445,0.680555,0.38889,1,0.37144,0.583335,0.444445,1,0.3267,1,0.305735,1,0.28569,0.5,0.375,1,0.248335,1,0.36111,1,0.21454,1,0.36111,1,0.18422,1,0.170325,-1
1,0,1,0.580975,1,0.47221,1,0.506865,1,0.43824,1,0.492445,1,0.491345,1,0.46813,1,0.464215,1,0.5295,1,0.44946,1,0.486575,1,0.38511,1,0.465885,1,0.541495,1,0.42903,1,0.462805,+1
1,0,0.51926,0.51284,0.50214,0.5,0.509985,0.490015,0.5107,0.475035,0.47575,0.49358,0.507135,0.48859,0.5,0.483595,0.47646,0.485735,0.49144,0.51783,0.5107,0.50214,0.52568,0.48859,0.52568,0.50927,0.51997,0.507845,0.509985,0.503565,0.48716,0.49073,0.492865,0.509985,-1
1,0,0.93886,0.45924,0.91712,0.536685,0.923915,0.52038,0.88587,0.48913,0.88587,0.471465,0.911685,0.44701,0.839675,0.497285,0.940215,0.39538,0.91712,0.516305,0.932065,0.47011,0.986415,0.360055,0.92527,0.40625,0.918525,0.448945,0.92935,0.483695,0.892665,0.44565,0.89538,0.497285,+1
1,0,0.97299,0.486575,0,0.630655,0.318035,0.678195,0.84629,0.182865,1,0.483235,0.3549,0.49725,0.22574,0.57726,0.959605,0.26865,1,0.24788,0.351325,0.34273,0.13068,0.686805,0.91936,0.26633,0.76104,0.20935,1,0.193035,0.45183,0.602385,0.469415,0.709565,-1
1,0,0.829225,0.718085,0.723405,0.87402,0.526595,0.92553,0.339865,0.910695,0.158735,0.76204,0.078945,0.535555,0.085945,0.356385,0.26484,0.141375,0.476205,0.06999,0.61646,0.11842,0.783315,0.23936,0.8715,0.406775,0.87379,0.618565,0.725925,0.795355,0.602745,0.88382,0.407335,0.87178,+1
1,0,0,1,0,0.57622,0.64177,1,0,1,0,0,1,1,0,0.38262,0.641505,0,1,1,0.34299,0,0,0,1,0,0,0.48211,1,0,0,0.338415,0.574695,1,-1
1,0,0.883135,0.60553,0.819675,0.69056,0.742045,0.7625,0.575,0.611365,0.568765,0.797825,0.461365,0.722725,0.5,0.74318,0.362545,0.71007,0.21932,0.68409,0.317045,0.59432,0.297335,0.53794,0.307585,0.483855,0.33029,0.43757,0.3623,0.40143,0.40019,0.37676,0.44053,0.36391,+1
1,0,0.86207,0.49458,0.89852,0.50542,0.9,0.500985,0.895075,0.50542,0.89212,0.495075,0.91675,0.516255,0.925615,0.508375,0.900495,0.49606,0.895565,0.48522,0.879805,0.51675,0.87389,0.527585,0.863055,0.49261,0.890205,0.50306,0.870445,0.474875,0.91478,0.51478,0.895075,0.50394,+1
1,0,1,0.31081,0.824325,0.64865,0.824325,0.37838,0.93243,0.594595,1,0.364865,0.756755,0.5,0.81081,0.472975,0.66216,0.39189,0.859165,0.41167,0.81081,0.527025,0.87838,0.56757,0.675675,0.35135,0.805155,0.389185,0.79239,0.384865,0.864865,0.202705,0.756755,0.37838,+1
1,0,0.633335,0.45,0.766665,0.5,0.666665,0.433335,0.683335,0.558335,0.783335,0.508335,0.858335,0.541665,0.85,0.466665,0.766665,0.6,0.708335,0.491665,0.658335,0.6,0.85,0.5,0.625,0.566665,0.73107,0.527195,0.7,0.516665,0.733335,0.516665,0.708335,0.475,+1
1,0,0.5,0.5,0.5,0.5,0.5,0.5,0,1,0.5,0.5,1,0.686665,0.44,0.44,0.5,0.5,0,0,0.5,0.5,1,0,0.5,0.5,1,0.613335,0.5,0.5,0.5,0.5,0.5,0.5,-1
1,0,0.97852,0.439525,0.81659,0.43655,0.981825,0.40879,0.98513,0.5423,0.960015,0.49438,0.917715,0.376405,1,0.343025,0.996365,0.39392,0.99339,0.39491,1,0.364175,0.96563,0.30271,1,0.403835,0.943965,0.342175,0.90714,0.38136,0.945475,0.340715,0.847655,0.292135,+1
1,0,0.952735,0.705565,0.82677,0.873805,0.649605,0.979525,0.43329,0.9891,0.23882,0.916315,0.101715,0.77543,0.016845,0.57596,0.034995,0.37223,0.140685,0.203105,0.29227,0.073975,0.48875,0.03106,0.68159,0.07316,0.83769,0.190205,0.929885,0.359385,0.94327,0.549,0.877475,0.731505,+1
1,0,0.84099,0.41343,0.91166,0.60954,0.733215,0.66431,0.628975,0.79152,1,0.42403,0.5053,0.722615,0.5053,0.694345,0.593405,0.70584,0.552835,0.681765,0.521625,0.653725,0.499585,0.62468,0.48569,0.597025,0.47843,0.572405,0.476105,0.551745,0.477075,0.53532,0.479935,0.52293,-1
1,0,0.94853,0.691175,0.95588,0.6875,0.871325,0.838235,0.72794,0.889705,0.59559,0.944855,0.48897,0.930145,0.39706,0.911765,0.3125,0.838235,0.25,0.73897,0.132355,0.691175,0.069855,0.54412,0.128675,0.4375,0.160375,0.379345,0.224265,0.286765,0.27941,0.246325,0.35662,0.21691,+1
1,0,0.843645,1,0.959865,0.119565,0.908865,0.52174,0.880435,0.55351,0.933945,0.86873,0.850335,0.591135,0.8796,0.56856,0.96739,0.37458,0.85368,0.593645,0.824415,0.62291,0.801005,0.887125,1,0.23077,0.94631,0.61108,0.85535,0.76923,1,0.46739,0.78261,0.619565,-1
