Clus v2.12 - Software for Predictive Clustering

Copyright (C) 2007, 2008, 2009, 2010
   Katholieke Universiteit Leuven, Leuven, Belgium
   Jozef Stefan Institute, Ljubljana, Slovenia

This program is free software and comes with ABSOLUTELY NO
WARRANTY. You are welcome to redistribute it under certain
conditions. Type 'clus -copying' for distribution details.

Loading 'Unlabeled'

Reading ARFF Header

Reading CSV Data
Found 269 rows
Space required by nominal attributes: 60 bytes/tuple regular, 0 bytes/tuple bitwise
Clustering: Weights C=[1], N=[2.234]

Has missing values: true
Run: 01
Ensemble Classifier

Memory And Time Optimization = false
Out-Of-Bag Estimate of the error = false
	Perform Feature Ranking = false
Ensemble Method: Random Forest
Loading 'test.arff'
Bag: 1
Clustering: Weights C=[1], N=[1]
Test: class = 1 -> 0.891492802452949
Bag: 2
Clustering: Weights C=[1], N=[1]
Test: total_protein > 11.0 -> 0.2238798174987977
Test: mucous_membranes in {5,6} -> 0.09950224319243883
Test: abdominal_distension = 4 -> 0.8553681826640038
Test: surgery = 1 -> 0.2005291007559411
Test: hospital_number > 527706.0 -> 0.1665805641756996
Test: hospital_number > 526639.0 -> 0.1310517181468142
Test: mucous_membranes in {2,5} -> 0.07670506345155848
Test: peripheral_pulse in {2,4} -> 0.21258096896036682
Test: temperature_of_extremities = 3 -> 0.049282279030474
Test: pain in {4,5} -> 0.1553821860829131
Test: hospital_number > 529642.0 -> 0.5909347970491168
Test: hospital_number > 530297.0 -> 0.22194086323283366
Test: abdomen = 1 -> 0.049286216691899754
Test: hospital_number > 528964.0 -> 0.041152101947506514
Test: nasogastric_reflux = 3 -> 0.04943887670936306
Test: peristalsis in {2,3} -> 0.2585706958096276
Test: respiratory_rate > 32.0 -> 0.02314303968628162
Test: rectal_temperature > 37.8 -> 0.005637910380803746
Test: outcome = 2 -> 0.009217077210657898
Test: hospital_number > 5292929.0 -> 0.04736731646541373
Test: abdomcentesis_total_protein > 1.6 -> 0.045678371168470316
Test: pulse > 56.0 -> 0.10277918154605778
Test: total_protein > 5.8 -> 0.008955546300050604
Test: total_protein > 7.6 -> 0.01166292024119657
Test: age = 1 -> 0.006551302780842358
Test: total_protein > 8.7 -> 0.08534606961160618
Test: total_protein > 6.4 -> 0.16207963874321685
Test: peripheral_pulse = 1 -> 0.7918605480607726
Test: hospital_number > 530297.0 -> 0.3471362503006562
Test: nasogastric_reflux_PH > 5.3 -> 0.1779835806563167
Test: class = 1 -> 0.9331983005310842
Test: nasogastric_reflux_PH > 4.0 -> 0.7722011799202562
Test: nasogastric_reflux = 3 -> 0.04897103245229106
Test: peristalsis = 3 -> 0.1678419896560136
Test: abdominal_distension = 2 -> 0.5168468170778289
Test: respiratory_rate > 23.0 -> 0.32773407648055425
Test: packed_cell_volume > 59.0 -> 0.04719965172615642
Test: abdomcentesis_total_protein > 2.0 -> 0.2624655714329247
Test: temperature_of_extremities = 2 -> 0.035158637059749975
Test: respiratory_rate > 20.0 -> 0.5750075973422171
Test: hospital_number > 528169.0 -> 0.0694461509698957
Test: peripheral_pulse = 1 -> 0.024543908904683054
Test: pain = 4 -> 0.12260829509433624
Test: hospital_number > 527698.0 -> 0.07701913839245655
Test: capillary_refill_time = 1 -> 0.16324005520369267
Test: packed_cell_volume > 48.0 -> 0.22729205343858283
Test: pulse > 50.0 -> 0.08730186474482549
Test: packed_cell_volume > 40.0 -> 0.046214907119063176
Test: pulse > 40.0 -> 0.20204936884697478
Test: surgery = 1 -> 0.0205177042094713
Test: packed_cell_volume > 37.0 -> 0.007405139716639031
Test: pain in {1,3} -> 0.17766167573635583
Test: packed_cell_volume > 38.0 -> 0.20985197886509
Test: capillary_refill_time = 1 -> 0.17584680586544477
Test: packed_cell_volume > 45.0 -> 0.11753930003995561
Test: surgery = 1 -> 0.020396836175884114
Test: pain = 5 -> 0.4726990542769174
Test: pulse > 104.0 -> 0.17889686891298373
Test: hospital_number > 529388.0 -> 0.2637825041627595
Test: outcome = 1 -> 0.08212968388530573
Test: mucous_membranes = 3 -> 0.05484902523015406
Test: pulse > 50.0 -> 0.04758459212655697
Test: respiratory_rate > 20.0 -> 0.11928304537741552
Test: rectal_examination_feces > 3.0 -> 0.23342262738637276
Test: rectal_temperature > 37.7 -> 0.19165090081847702
Test: nasogastric_reflux = 1 -> 0.14163373777214816
Test: rectal_temperature > 38.2 -> 0.08878267505479309
Test: nasogastric_tube = 2 -> 0.10027112786758652
Test: hospital_number > 529528.0 -> 0.11285397549432308
Test: surgery = 1 -> 0.18107799359123344
Test: total_protein > 6.7 -> 0.008317252353088334
Test: temperature_of_extremities in {1,2} -> 0.07350955965435108
Test: rectal_examination_feces > 2.0 -> 0.12814062031831974
Test: hospital_number > 530002.0 -> 0.1609775984884867
Test: mucous_membranes = 1 -> 0.09195847895776643
Test: pulse > 48.0 -> 0.10131129176818904
Test: abdominal_distension in {1,3} -> 0.03400694469458382
Bag: 3
Clustering: Weights C=[1], N=[1]
Test: abdominal_distension = 2 -> 0.059121948987192696
Test: class = 1 -> 0.9973738699790754
Test: hospital_number > 530526.0 -> 0.15194036721831305
Test: mucous_membranes in {2,4,5} -> 0.07330232374627993
Test: class = 1 -> 0.5752410559175501
Test: peristalsis = 3 -> 0.03263003559751723
Test: rectal_temperature > 38.3 -> 0.13526075887394362
Test: class = 1 -> 0.8767465540378367
Test: capillary_refill_time = 1 -> 0.0173197728112102
Test: rectal_temperature > 38.0 -> 0.06308692526575674
Test: respiratory_rate > 18.0 -> 0.03245217442861319
Test: class = 1 -> 0.9964855616399543
Bag: 4
Clustering: Weights C=[1], N=[1]
Test: abdomcentesis_total_protein > 2.0 -> 0.7148511958422157
Test: nasogastric_reflux_PH > 2.0 -> 0.41448920013962265
Test: hospital_number > 530002.0 -> 0.0715876231743896
Test: nasogastric_reflux_PH > 4.4 -> 0.4173315555338578
Test: rectal_examination_feces > 3.0 -> 0.18189877557299994
Test: hospital_number > 5278331.0 -> 0.17623590705623132
Test: respiratory_rate > 20.0 -> 0.0695360779558559
Test: respiratory_rate > 30.0 -> 0.23604001473847203
Test: temperature_of_extremities = 1 -> 0.325289779759994
Test: pulse > 88.0 -> 0.12802000995638663
Test: total_protein > 7.0 -> 0.3440579621850568
Test: pulse > 48.0 -> 0.07452844957052263
Test: outcome = 2 -> 0.19123258877487015
Test: pulse > 48.0 -> 0.12296241206578723
Test: hospital_number > 5279822.0 -> 0.19650746105262928
Test: packed_cell_volume > 37.0 -> 0.2607911975146002
Test: temperature_of_extremities in {2,3} -> 0.1806335753479812
Test: peristalsis = 4 -> 0.04717310988689294
Test: nasogastric_tube = 1 -> 0.17101537228497865
Test: respiratory_rate > 12.0 -> 0.5301217477617773
Test: temperature_of_extremities = 1 -> 0.36888191602349835
Test: packed_cell_volume > 40.0 -> 0.08758024300483513
Test: abdominocentesis_appearance = 3 -> 0.144790051249708
Test: pain = 5 -> 0.10838041252376884
Test: class = 1 -> 0.9345190061682976
Test: temperature_of_extremities in {2,4} -> 0.08676841152299519
Test: pulse > 44.0 -> 0.19975130194499258
Test: hospital_number > 529640.0 -> 0.18774834837067755
Test: capillary_refill_time = 1 -> 0.1816023289232862
Test: outcome = 1 -> 0.09360617116151282
Test: rectal_temperature > 37.7 -> 0.1427663028591017
Test: abdomen = 3 -> 0.0340363382553347
Test: surgery = 1 -> 0.030299335269948935
Test: pulse > 56.0 -> 0.04452519495816212
Test: total_protein > 7.7 -> 0.05045514972005827
Test: hospital_number > 529607.0 -> 0.0860124069658938
Test: pain = 1 -> 0.09528928988402774
Test: class = 1 -> 0.7587910132007456
Test: abdominal_distension in {2,3} -> 0.6698606066917345
Test: respiratory_rate > 16.0 -> 0.05434181055898479
Test: respiratory_rate > 28.0 -> 0.19326867800208103
Test: hospital_number > 530544.0 -> 0.16299034521522016
Test: class = 1 -> 0.5671358757062959
Test: rectal_temperature > 38.1 -> 0.05373676984048459
Test: outcome = 2 -> 0.03387360714459087
Test: hospital_number > 528872.0 -> 0.08205140871513183
Test: rectal_examination_feces > 3.0 -> 0.13121902866121005
Test: abdominal_distension in {2,3} -> 0.13083988474938602
Test: nasogastric_tube = 1 -> 0.08216454464827616
Test: peristalsis = 3 -> 0.06137526252566472
Test: packed_cell_volume > 44.0 -> 0.30380916532698987
Test: hospital_number > 528299.0 -> 0.040310241814209946
Test: temperature_of_extremities = 1 -> 0.17708438367717572
Test: class = 1 -> 0.7326172328903542
Bag: 5
Clustering: Weights C=[1], N=[1]
Test: hospital_number > 530561.0 -> 0.15225590541939926
Test: temperature_of_extremities in {2,4} -> 0.055159662437184565
Test: capillary_refill_time = 1 -> 0.0392575342831257
Test: surgery = 1 -> 0.056679308315182586
Test: packed_cell_volume > 54.0 -> 0.37082301290168507
Test: nasogastric_reflux_PH > 3.0 -> 0.3888128015647556
Test: class = 1 -> 0.8711875061951104
Test: class = 1 -> 0.5284891863154791
Test: hospital_number > 530438.0 -> 0.05364532163376523
Test: class = 1 -> 1.0
Bag: 6
Clustering: Weights C=[1], N=[1]
Test: class = 1 -> 0.8686732204522251
Bag: 7
Clustering: Weights C=[1], N=[1]
Test: abdominal_distension = 1 -> 0.04668813027219032
Test: abdomcentesis_total_protein > 2.0 -> 0.437428915024157
Test: hospital_number > 529663.0 -> 0.2502882936832219
Test: pulse > 88.0 -> 0.19393226189779347
Test: pain = 5 -> 0.9674163843006985
Test: packed_cell_volume > 52.0 -> 0.1988363416162967
Test: pulse > 52.0 -> 0.20456375119092185
Test: hospital_number > 529518.0 -> 0.020955923320208777
Test: respiratory_rate > 32.0 -> 0.18600191264790866
Test: surgery = 1 -> 0.059886735802336166
Test: total_protein > 7.0 -> 0.12106958572328352
Test: rectal_temperature > 37.8 -> 0.5382944815234219
Test: pulse > 54.0 -> 0.15768834950775967
Test: temperature_of_extremities = 2 -> 0.1030798042389311
Test: abdominocentesis_appearance = 3 -> 0.1731434703409206
Test: outcome = 2 -> 0.21447905328538996
Test: pulse > 100.0 -> 0.2823205150856135
Test: pulse > 52.0 -> 0.027850338767343358
Test: total_protein > 7.7 -> 0.011927035043937273
Test: packed_cell_volume > 42.0 -> 0.05330611156592027
Test: pulse > 88.0 -> 0.06901054806503137
Test: class = 1 -> 0.36128625318833274
Test: nasogastric_reflux_PH > 4.0 -> 0.2843327314408517
Test: class = 1 -> 0.9803125135844227
Test: class = 1 -> 0.8717498502156
Bag: 8
Clustering: Weights C=[1], N=[1]
Test: nasogastric_reflux_PH > 4.0 -> 0.46118958108196717
Test: class = 1 -> 0.9456840277537634
Test: class = 1 -> 0.8270827689717416
Bag: 9
Clustering: Weights C=[1], N=[1]
Test: class = 1 -> 0.8957737614081721
Bag: 10
Clustering: Weights C=[1], N=[1]
Test: abdomen in {1,5} -> 0.10657291353365805
Test: abdominocentesis_appearance = 1 -> 0.03465886572811527
Test: class = 1 -> 0.7296551470800942
Test: class = 1 -> 0.8655118402909586
Test: respiratory_rate > 22.0 -> 0.11728588861313138
Test: class = 1 -> 0.9506141358782161
Test: class = 1 -> 0.8920128674923282
Bag: 11
Clustering: Weights C=[1], N=[1]
Test: abdominocentesis_appearance = 1 -> 0.05622935076406532
Test: outcome = 3 -> 0.029801995990559438
Test: abdominal_distension = 4 -> 0.10280992586408187
Test: pulse > 44.0 -> 0.09299573587696985
Test: respiratory_rate > 28.0 -> 0.1919471529146617
Test: class = 1 -> 0.4951711115334214
Test: nasogastric_reflux_PH > 5.7 -> 0.29628744916629
Test: abdomcentesis_total_protein > 3.6 -> 0.45880864288912215
Test: hospital_number > 529893.0 -> 0.07296367249144975
Test: peristalsis = 3 -> 0.19835431428654648
Test: hospital_number > 530360.0 -> 0.19562776655436664
Test: peristalsis = 3 -> 0.25478233162195785
Test: hospital_number > 5279822.0 -> 0.7072528593258793
Test: capillary_refill_time = 1 -> 0.03855295607999387
Test: packed_cell_volume > 45.0 -> 0.038477662646252006
Test: class = 1 -> 0.9471376768907998
Test: rectal_temperature > 38.5 -> 0.0577470123930922
Test: hospital_number > 527940.0 -> 0.01665399588177434
Test: class = 1 -> 0.941962296315642
Bag: 12
Clustering: Weights C=[1], N=[1]
Test: class = 1 -> 0.9231729091361774
Bag: 13
Clustering: Weights C=[1], N=[1]
Test: total_protein > 9.1 -> 0.19750587311305234
Test: abdomen = 4 -> 0.03262065364220859
Test: abdominocentesis_appearance = 3 -> 0.19662677061825068
Test: packed_cell_volume > 54.0 -> 0.43504947360074997
Test: pulse > 78.0 -> 0.016025407830473945
Test: respiratory_rate > 32.0 -> 0.05174953766337789
Test: hospital_number > 535407.0 -> 0.05064706906730555
Test: hospital_number > 528151.0 -> 0.03565070606893301
Test: temperature_of_extremities in {1,4} -> 0.0586173426311869
Test: nasogastric_reflux_PH > 5.5 -> 0.19812734008120053
Test: mucous_membranes in {2,5} -> 0.2539521890940297
Test: total_protein > 7.0 -> 0.17605719193997682
Test: pulse > 60.0 -> 0.025427576670292662
Test: nasogastric_reflux in {2,3} -> 0.19267258678973254
Test: class = 1 -> 0.7641172851357758
Test: respiratory_rate > 30.0 -> 0.13154995028100624
Test: outcome = 2 -> 0.08803117477076494
Test: hospital_number > 532110.0 -> 0.08293909902948066
Test: class = 1 -> 0.9984881622368157
Test: class = 1 -> 0.97290787827328
Test: nasogastric_reflux_PH > 6.5 -> 0.07519934512048443
Test: class = 1 -> 0.9633633411899383
Test: nasogastric_reflux_PH > 5.4 -> 0.1994879282920532
Test: abdominal_distension = 2 -> 0.1663313108601694
Test: class = 1 -> 0.9773994783730499
Test: abdomcentesis_total_protein > 2.8 -> 0.1711164655316112
Test: pulse > 84.0 -> 0.09570334867438435
Test: abdominal_distension = 3 -> 0.01862358146093457
Test: surgery = 1 -> 0.0715630916247802
Test: mucous_membranes in {1,4} -> 0.09302057342141612
Test: packed_cell_volume > 39.0 -> 0.0010441735161181853
Test: class = 1 -> 0.6570461283038546
Test: pain = 5 -> 0.04913495549054958
Test: mucous_membranes in {4,5} -> 0.06457136040986289
Test: abdominal_distension = 4 -> 0.07006163341652316
Test: peristalsis = 4 -> 0.04470735896419323
Test: surgery = 1 -> 0.03975270469066372
Test: total_protein > 6.2 -> 0.08502244826390315
Test: abdominocentesis_appearance in {1,2} -> 0.09273513974105752
Test: rectal_temperature > 38.2 -> 0.14230033934954844
Test: respiratory_rate > 23.0 -> 0.21767245352902775
Test: age = 1 -> 0.29892252399005115
Test: class = 1 -> 0.8482348314509165
Test: total_protein > 6.7 -> 0.18113817983980413
Test: total_protein > 6.5 -> 0.07152410042388577
Test: pain = 3 -> 0.04676356115512256
Test: packed_cell_volume > 60.0 -> 0.2958826454618837
Test: abdomen = 4 -> 0.4354069632226638
Test: respiratory_rate > 42.0 -> 0.14820475398353006
Test: hospital_number > 528151.0 -> 0.025089138971315428
Test: nasogastric_reflux = 1 -> 0.34346725158788516
Test: class = 1 -> 0.9120649550907459
Test: pulse > 60.0 -> 0.1043258431857757
Test: class = 1 -> 0.6322737075742368
Bag: 14
Clustering: Weights C=[1], N=[1]
Test: class = 1 -> 0.843431424843531
Bag: 15
Clustering: Weights C=[1], N=[1]
Test: nasogastric_reflux_PH > 4.0 -> 0.2707768470304257
Test: nasogastric_reflux_PH > 6.5 -> 0.13748308061684855
Test: class = 1 -> 0.9847839866249584
Test: abdomcentesis_total_protein > 2.0 -> 0.4697026287384086
Test: abdomcentesis_total_protein > 3.7 -> 0.13021342134077307
Test: total_protein > 8.9 -> 0.11728728462254634
Test: temperature_of_extremities = 2 -> 0.01444525692471657
Test: pain in {4,5} -> 0.19440521025280422
Test: respiratory_rate > 20.0 -> 0.24563827422631157
Test: pain = 4 -> 0.16581914881415477
Test: capillary_refill_time = 1 -> 0.25936165211454076
Test: total_protein > 6.5 -> 0.017931270458501125
Test: pulse > 65.0 -> 0.044589813700456116
Test: class = 1 -> 0.8817252805825218
Test: abdomcentesis_total_protein > 3.4 -> 0.779349837292041
Test: packed_cell_volume > 44.0 -> 0.06398594686249792
Test: pain = 4 -> 0.08583669131422211
Test: total_protein > 7.5 -> 0.03370152283742778
Test: class = 1 -> 0.9967349591926533
Test: class = 1 -> 0.783208813445672
Test: abdomcentesis_total_protein > 2.0 -> 0.643776922237759
Test: class = 1 -> 0.9938928362401526
Test: class = 1 -> 0.6031136691378212
Bag: 16
Clustering: Weights C=[1], N=[1]
Test: hospital_number > 530544.0 -> 0.16054115339724384
Test: capillary_refill_time = 1 -> 0.038896416246761156
Test: hospital_number > 5278331.0 -> 0.3177084945733616
Test: abdomen = 1 -> 0.8112781244591271
Test: respiratory_rate > 72.0 -> 0.42937312856040766
Test: hospital_number > 5291719.0 -> 0.6073152646471804
Test: total_protein > 8.5 -> 0.038172013301490906
Test: pulse > 88.0 -> 0.20937121988520602
Test: respiratory_rate > 24.0 -> 0.22401510990489126
Test: class = 1 -> 0.9987472979361685
Bag: 17
Clustering: Weights C=[1], N=[1]
Test: class = 1 -> 0.8871183908924201
Bag: 18
Clustering: Weights C=[1], N=[1]
Test: abdomcentesis_total_protein > 2.0 -> 0.5017370821810119
Test: class = 1 -> 0.9982786597429981
Test: class = 1 -> 0.7094894901037636
Bag: 19
Clustering: Weights C=[1], N=[1]
Test: total_protein > 8.9 -> 0.24248491678773942
Test: nasogastric_reflux_PH > 2.0 -> 0.5744033213332117
Test: abdomcentesis_total_protein > 2.0 -> 0.8520440798325298
Test: class = 1 -> 0.9986008775961411
Test: pulse > 88.0 -> 0.03909923575732008
Test: mucous_membranes in {1,2,4,5} -> 0.061132957804209936
Test: peristalsis in {1,2,4} -> 0.04174562321090858
Test: hospital_number > 527933.0 -> 0.12249007676086675
Test: pain in {3,4} -> 0.10254606064274685
Test: rectal_examination_feces > 3.0 -> 0.1987367331755961
Test: mucous_membranes = 1 -> 0.5318567052646355
Test: peripheral_pulse = 1 -> 0.07783510742049254
Test: hospital_number > 534784.0 -> 0.03385593317023991
Test: respiratory_rate > 28.0 -> 0.03052431317399161
Test: hospital_number > 534403.0 -> 0.07412934000822696
Test: nasogastric_reflux_PH > 1.5 -> 0.09011719583710298
Test: pulse > 50.0 -> 0.10441567118427986
Test: hospital_number > 5291719.0 -> 0.04863445800854471
Test: class = 1 -> 0.9429734807530589
Test: rectal_examination_feces > 3.0 -> 0.13886366191731958
Test: pain in {2,3,5} -> 0.08981632558777919
Test: hospital_number > 535240.0 -> 0.017019521061644997
Test: abdomen = 3 -> 0.15119789984214904
Test: pain in {2,5} -> 0.17299884977599267
Test: mucous_membranes = 2 -> 0.13444509301080432
Test: outcome = 1 -> 0.0018947312221134494
Test: packed_cell_volume > 45.0 -> 0.008083701729627552
Test: hospital_number > 529424.0 -> 0.07521129822748496
Test: respiratory_rate > 12.0 -> 0.29095065162234257
Test: mucous_membranes in {1,3} -> 0.2905812035477561
Test: packed_cell_volume > 42.0 -> 0.03600576587825494
Test: mucous_membranes = 1 -> 0.8919538216278176
Test: mucous_membranes in {1,4,6} -> 0.30980982325091944
Test: nasogastric_tube = 1 -> 0.17085577256071205
Test: packed_cell_volume > 35.0 -> 0.1285657738067656
Test: rectal_temperature > 37.1 -> 0.06536207004111877
Test: packed_cell_volume > 44.0 -> 0.4726785109315224
Test: abdomen = 2 -> 0.09482714214504034
Test: class = 1 -> 0.8978554397985089
Test: respiratory_rate > 30.0 -> 0.14332292178983785
Test: packed_cell_volume > 44.0 -> 0.19954831096222836
Test: class = 1 -> 0.9998125329920448
Bag: 20
Clustering: Weights C=[1], N=[1]
Test: outcome = 2 -> 0.05944001401772192
Test: respiratory_rate > 30.0 -> 0.23372581095612066
Test: pain = 5 -> 0.21088978835974892
Test: class = 1 -> 0.9985059408110726
Test: nasogastric_reflux in {1,2} -> 0.1381945792493081
Test: hospital_number > 529642.0 -> 0.046800605065376255
Test: pulse > 84.0 -> 0.04363848957578778
Test: nasogastric_reflux_PH > 1.5 -> 0.9790981671667149
Test: nasogastric_reflux_PH > 6.5 -> 0.21567146868056597
Test: temperature_of_extremities in {1,2} -> 0.47882746929136566
Test: packed_cell_volume > 53.0 -> 0.2221797202443614
Test: temperature_of_extremities in {2,3} -> 0.20496142176143717
Test: class = 1 -> 0.8163586336037634
Test: nasogastric_reflux_PH > 4.3 -> 0.8935301743129345
Test: packed_cell_volume > 45.0 -> 0.4926437866582293
Test: class = 1 -> 0.7837371371376574
Test: hospital_number > 530544.0 -> 0.14898231006377394
Test: total_protein > 8.5 -> 0.3153592579533673
Test: capillary_refill_time = 1 -> 0.031563918066618235
Test: abdominal_distension = 3 -> 0.10187453828652959
Test: respiratory_rate > 20.0 -> 0.4764160109831702
Test: class = 1 -> 0.9927242790961406
Test: class = 1 -> 0.9973806632063373
Bag: 21
Clustering: Weights C=[1], N=[1]
Test: pain in {1,5} -> 0.038820431566289115
Test: total_protein > 11.0 -> 0.1438761440761097
Test: hospital_number > 528904.0 -> 0.009241791312903272
Test: rectal_temperature > 38.3 -> 0.01085018749975689
Test: abdominal_distension = 1 -> 0.04389127761137898
Test: nasogastric_reflux_PH > 5.5 -> 0.37552187046462127
Test: abdominocentesis_appearance = 1 -> 0.291451919576002
Test: class = 1 -> 0.999243103862463
Test: capillary_refill_time = 1 -> 0.02890302114486898
Test: pain = 1 -> 0.04707536100682885
Test: abdomcentesis_total_protein > 2.9 -> 0.27409299991249636
Test: abdomen in {1,3,5} -> 0.24586883757975186
Test: abdominal_distension = 4 -> 0.03831379196497098
Test: pulse > 76.0 -> 0.0438174194758168
Test: packed_cell_volume > 43.0 -> 0.03101114747548306
Test: respiratory_rate > 24.0 -> 0.42951345905139726
Test: abdominocentesis_appearance = 1 -> 0.19828731477344008
Test: peristalsis = 3 -> 0.28089061439626783
Test: class = 1 -> 0.9608206361398763
Test: outcome = 1 -> 0.1136750924904204
Test: rectal_temperature > 38.6 -> 0.10608986352069927
Test: abdominocentesis_appearance = 3 -> 0.47161675919657414
Test: surgery = 1 -> 0.004359661187229413
Test: nasogastric_reflux_PH > 4.0 -> 0.2626751358164223
Test: pulse > 100.0 -> 0.20747998450817162
Test: peristalsis = 1 -> 0.1705075060491783
Test: hospital_number > 529388.0 -> 0.13258938924729535
Test: hospital_number > 529840.0 -> 0.08211964515526937
Test: rectal_temperature > 37.9 -> 0.014186511833328197
Test: respiratory_rate > 30.0 -> 0.41646647001924686
Test: outcome = 1 -> 0.007690599155188216
Test: mucous_membranes in {2,6} -> 0.10809501010348299
Test: rectal_temperature > 37.8 -> 0.3410688933351943
Test: capillary_refill_time = 1 -> 0.03883187201854388
Test: pain = 1 -> 0.10298584283188872
Test: hospital_number > 530526.0 -> 0.23540835486417955
Test: class = 1 -> 0.5089580316511148
Test: class = 1 -> 0.9267574001140427
Bag: 22
Clustering: Weights C=[1], N=[1]
Test: abdomcentesis_total_protein > 2.0 -> 0.4831956605087153
Test: hospital_number > 530561.0 -> 0.13202554712676773
Test: peristalsis in {1,2} -> 0.08601080424991825
Test: packed_cell_volume > 43.0 -> 0.08703972607969629
Test: pulse > 120.0 -> 0.360560565642697
Test: abdomen = 4 -> 0.09260611940593566
Test: hospital_number > 5292929.0 -> 0.15410952622268675
Test: rectal_examination_feces > 2.0 -> 0.2272023685223457
Test: packed_cell_volume > 44.0 -> 0.030146206658969277
Test: class = 1 -> 0.7737210998098941
Test: rectal_temperature > 38.0 -> 0.1607120795516077
Test: abdominal_distension = 4 -> 0.09897509105129942
Test: surgery = 1 -> 0.22699183220786723
Test: pain in {2,4,5} -> 0.07184111339858779
Test: class = 1 -> 0.9274485092348671
Test: temperature_of_extremities in {1,4} -> 0.048791345001636954
Test: abdomen in {3,4,5} -> 0.08196172645559445
Test: pulse > 52.0 -> 0.08461574905373533
Test: total_protein > 8.0 -> 0.021947296011566086
Test: packed_cell_volume > 32.0 -> 0.1091034679594538
Test: peripheral_pulse = 1 -> 0.2761452731023967
Test: packed_cell_volume > 40.0 -> 0.0346165502829735
Test: total_protein > 5.5 -> 0.27302975666242324
Test: abdomen in {1,4,5} -> 0.15564835381705422
Test: respiratory_rate > 28.0 -> 0.1819708312567646
Test: peripheral_pulse = 1 -> 0.011852666433635965
Test: mucous_membranes in {1,4,5} -> 0.025294754474734824
Test: class = 1 -> 0.8800281873085967
Test: rectal_examination_feces > 2.0 -> 0.5648044724645713
Test: mucous_membranes in {1,4} -> 0.12787422092499157
Test: respiratory_rate > 14.0 -> 0.25956031711371336
Test: surgery = 1 -> 0.0486496586659137
Test: hospital_number > 530242.0 -> 0.026939290101593877
Test: rectal_temperature > 37.9 -> 0.1431646736095754
Test: surgery = 1 -> 0.08194693751579746
Test: respiratory_rate > 20.0 -> 0.020396797480440168
Test: outcome = 1 -> 0.01319467736305717
Test: abdomcentesis_total_protein > 1.6 -> 0.2730304885661219
Test: respiratory_rate > 21.0 -> 0.05407521604563681
Test: abdomen in {1,3,5} -> 0.08218703103319655
Test: respiratory_rate > 60.0 -> 0.13632295855143955
Test: total_protein > 9.0 -> 0.02499844125959874
Test: temperature_of_extremities = 3 -> 0.0026356248430074863
Test: mucous_membranes = 6 -> 0.016506222058197587
Test: rectal_temperature > 38.6 -> 0.05955127578737773
Test: mucous_membranes in {1,2,3,5} -> 0.008524910158473807
Test: age = 1 -> 0.06526805932799007
Test: hospital_number > 529849.0 -> 0.14736071569059594
Test: hospital_number > 528461.0 -> 0.13338914458703388
Test: abdominocentesis_appearance = 3 -> 0.03726147693571469
Test: hospital_number > 529045.0 -> 0.1551978861131449
Test: hospital_number > 535381.0 -> 0.060766274043133006
Test: abdominal_distension in {1,3} -> 0.06771370483745726
Test: pain in {1,3} -> 0.23509277998064626
Test: class = 1 -> 0.8335008746203666
Test: total_protein > 9.0 -> 0.22547994840404695
Test: packed_cell_volume > 38.0 -> 0.02264146351821443
Test: abdominal_distension in {3,4} -> 0.03712608425121307
Test: peripheral_pulse in {1,2} -> 0.022345845360255356
Test: nasogastric_tube = 1 -> 0.10290442258710053
Test: peristalsis in {1,4} -> 0.01613953600879703
Test: peristalsis = 1 -> 0.14740483067344262
Test: packed_cell_volume > 31.5 -> 0.06669243518296164
Test: abdomcentesis_total_protein > 1.0 -> 0.0760098536627829
Test: packed_cell_volume > 37.0 -> 0.1315435606318308
Test: nasogastric_tube = 3 -> 0.06917851092160454
Test: hospital_number > 528298.0 -> 0.15112238504218578
Test: class = 1 -> 0.8313795324299094
Test: mucous_membranes in {1,3,4} -> 0.12689828885793308
Test: class = 1 -> 0.8291938202641511
Test: abdominocentesis_appearance = 2 -> 0.42504076884190434
Test: rectal_temperature > 38.1 -> 0.07521637650252921
Test: total_protein > 6.0 -> 0.05470108175223387
Test: class = 1 -> 0.9473430354085642
Bag: 23
Clustering: Weights C=[1], N=[1]
Test: abdomen in {2,3,4} -> 0.05201836028830742
Test: nasogastric_reflux_PH > 3.0 -> 0.4368886622500301
Test: class = 1 -> 0.9906852748646753
Test: total_protein > 9.1 -> 0.22880440704589944
Test: respiratory_rate > 28.0 -> 0.0192529382880655
Test: temperature_of_extremities = 3 -> 0.009407945531606857
Test: abdominal_distension = 1 -> 0.0231216984549463
Test: surgery = 1 -> 0.021918929952313704
Test: peristalsis in {1,4} -> 0.08948178040038712
Test: rectal_temperature > 39.0 -> 0.1102764687056842
Test: pulse > 60.0 -> 0.11521468441401239
Test: peripheral_pulse = 3 -> 0.05407046738143162
Test: pulse > 56.0 -> 0.2690336434210303
Test: pulse > 42.0 -> 0.19115440680625562
Test: abdomcentesis_total_protein > 1.5 -> 0.12067607021629884
Test: temperature_of_extremities in {1,3} -> 0.0779389014260714
Test: rectal_temperature > 36.8 -> 0.08994284057563762
Test: class = 1 -> 0.9221810281916291
Test: class = 1 -> 0.9877811273213376
Test: hospital_number > 530002.0 -> 0.06682104869585603
Test: abdomcentesis_total_protein > 2.0 -> 0.30438060322276994
Test: peristalsis in {1,2} -> 0.15706179435060363
Test: total_protein > 6.5 -> 0.01456048777345461
Test: nasogastric_reflux = 1 -> 0.3026792327394874
Test: mucous_membranes in {2,5,6} -> 0.16468659241292127
Test: age = 1 -> 0.0036259221387604512
Test: respiratory_rate > 21.0 -> 0.8436262480285429
Test: abdominal_distension = 3 -> 0.031511775000473086
Test: surgery = 1 -> 0.35308004307518376
Test: total_protein > 56.0 -> 0.014516515512536451
Test: abdominal_distension = 4 -> 0.13584062151328613
Test: peripheral_pulse = 3 -> 0.06507610947115613
Test: hospital_number > 535407.0 -> 0.15234451704960772
Test: total_protein > 7.8 -> 0.3993394411391127
Test: age = 1 -> 0.06411054376838532
Test: pulse > 92.0 -> 0.2464147375582746
Test: mucous_membranes in {1,2,6} -> 0.13040266755896443
Test: packed_cell_volume > 39.0 -> 0.11468870330455494
Test: class = 1 -> 0.9999699746299477
Test: total_protein > 6.7 -> 0.046544404738206965
Test: temperature_of_extremities = 1 -> 0.22679970349396328
Test: rectal_temperature > 38.2 -> 0.13439328537620088
Test: pulse > 60.0 -> 0.2259000443868725
Test: class = 1 -> 0.8110283066215377
Test: packed_cell_volume > 40.0 -> 0.2924589163244897
Test: mucous_membranes = 1 -> 0.012972161460420559
Test: class = 1 -> 0.8528909059690792
Bag: 24
Clustering: Weights C=[1], N=[1]
Test: class = 1 -> 0.8638216050400095
Bag: 25
Clustering: Weights C=[1], N=[1]
Test: hospital_number > 530561.0 -> 0.15055859229302881
Test: class = 1 -> 0.4743454375622396
Test: abdomcentesis_total_protein > 1.0 -> 0.10356633539174509
Test: abdominal_distension = 2 -> 0.0746772855673411
Test: class = 1 -> 0.8654861323398146
Test: nasogastric_reflux_PH > 6.5 -> 0.182180591190078
Test: total_protein > 7.2 -> 0.11599834316835489
Test: packed_cell_volume > 48.0 -> 0.19808238080220464
Test: respiratory_rate > 20.0 -> 0.13580669649029878
Test: rectal_examination_feces > 1.0 -> 0.10934774169973119
Test: outcome = 2 -> 0.030596239273127823
Test: temperature_of_extremities = 1 -> 0.8063637566393882
Test: hospital_number > 528641.0 -> 0.2689007982659366
Test: respiratory_rate > 30.0 -> 0.21269001957504108
Test: peripheral_pulse = 1 -> 0.05251369381832799
Test: rectal_temperature > 37.9 -> 0.2211083742566171
Test: surgery = 1 -> 0.22940801033492453
Test: pulse > 80.0 -> 0.11158343450227495
Test: pulse > 48.0 -> 0.26348385206556035
Test: peristalsis = 3 -> 0.10101303460569466
Test: pulse > 40.0 -> 0.10611774577484878
Test: total_protein > 6.6 -> 0.4929880226847018
Test: mucous_membranes in {1,6} -> 0.30308171711313203
Test: rectal_temperature > 37.9 -> 0.13410219537643142
Test: abdomen in {1,3,5} -> 0.2650438741948714
Test: abdominocentesis_appearance = 3 -> 0.1777899859194624
Test: class = 1 -> 0.9985307634203066
Test: abdominal_distension = 3 -> 0.15795520881035585
Test: pain in {2,3} -> 0.025044010472341005
Test: total_protein > 6.5 -> 0.04405352211694463
Test: total_protein > 6.1 -> 0.1929594018177112
Test: respiratory_rate > 24.0 -> 0.3195067729223334
Test: total_protein > 6.4 -> 0.29630115466084384
Test: pulse > 40.0 -> 0.11722747190096194
Test: outcome = 3 -> 0.05338565834782916
Test: temperature_of_extremities in {1,4} -> 0.1963601801487942
Test: class = 1 -> 0.7724031120015588
Test: abdominocentesis_appearance = 2 -> 0.29322520955460574
Test: nasogastric_tube in {1,3} -> 0.2736421117458556
Test: capillary_refill_time = 1 -> 0.1747788272046198
Test: mucous_membranes in {1,6} -> 0.012860864967947014
Test: abdomen in {1,3} -> 0.25888159903046215
Test: peristalsis = 2 -> 0.3183934370401066
Test: temperature_of_extremities = 3 -> 0.07145732818516715
Test: pulse > 56.0 -> 0.09262426341504282
Test: mucous_membranes = 2 -> 0.32984424906553567
Test: hospital_number > 528800.0 -> 0.2902674286221335
Test: outcome = 1 -> 0.12525334686001677
Test: temperature_of_extremities in {3,4} -> 0.10836145589672591
Test: surgery = 1 -> 0.21031259994249207
Test: mucous_membranes = 4 -> 0.179779767507677
Test: class = 1 -> 0.881560575666018
Bag: 26
Clustering: Weights C=[1], N=[1]
Test: abdominocentesis_appearance = 2 -> 0.08001147369027783
Test: peristalsis = 4 -> 0.048116908668862424
Test: hospital_number > 530002.0 -> 0.1896668124065214
Test: rectal_temperature > 38.6 -> 0.0131034833021694
Test: outcome = 1 -> 0.025284176002478176
Test: total_protein > 6.1 -> 0.05053952818995533
Test: respiratory_rate > 20.0 -> 0.061307323595386765
Test: packed_cell_volume > 45.0 -> 0.060857890060353304
Test: hospital_number > 534197.0 -> 1.1180136525235085E-5
Test: class = 1 -> 0.9991905997685301
Test: abdomen = 2 -> 0.08749823560352488
Test: class = 1 -> 0.7624791455435148
Test: nasogastric_tube = 1 -> 0.06263451156935163
Test: class = 1 -> 0.9440247457169822
Test: peristalsis = 3 -> 0.08305510448511211
Test: class = 1 -> 0.9997509824067868
Test: class = 1 -> 0.7479457913760927
Test: class = 1 -> 0.8627910003242617
Bag: 27
Clustering: Weights C=[1], N=[1]
Test: abdomcentesis_total_protein > 2.0 -> 0.5353856785280802
Test: total_protein > 8.9 -> 0.16722991971668688
Test: hospital_number > 529399.0 -> 0.08078687884443032
Test: hospital_number > 535208.0 -> 0.016242495772085037
Test: class = 1 -> 0.9970105969482368
Test: class = 1 -> 0.6876208373698448
Bag: 28
Clustering: Weights C=[1], N=[1]
Test: nasogastric_reflux_PH > 2.0 -> 0.30141659539898247
Test: packed_cell_volume > 42.0 -> 0.03378136882589777
Test: abdomen = 4 -> 0.07163283281649968
Test: respiratory_rate > 24.0 -> 0.21898562930822174
Test: abdominocentesis_appearance = 3 -> 0.37434695887608116
Test: outcome = 2 -> 0.21380086502945517
Test: pain = 2 -> 0.0432444737106179
Test: rectal_temperature > 39.2 -> 0.08092999685994917
Test: packed_cell_volume > 54.0 -> 0.1777261264726424
Test: pulse > 120.0 -> 0.4421453225523868
Test: peristalsis = 3 -> 0.012907458203885377
Test: nasogastric_reflux = 3 -> 0.1058248054138754
Test: total_protein > 8.0 -> 0.0829524246305603
Test: peristalsis = 3 -> 0.09370202438755243
Test: total_protein > 8.9 -> 0.24996010136675184
Test: mucous_membranes in {1,3} -> 0.06325453423181665
Test: rectal_examination_feces > 3.0 -> 0.09293883149657653
Test: outcome = 2 -> 0.032485937851471997
Test: hospital_number > 528630.0 -> 0.10365896403949876
Test: rectal_temperature > 37.5 -> 0.025687539908537865
Test: surgery = 1 -> 0.008115803059651934
Test: hospital_number > 528469.0 -> 0.19173552532754018
Test: respiratory_rate > 28.0 -> 0.04460245393016782
Test: temperature_of_extremities = 2 -> 0.0847341136715124
Test: peripheral_pulse in {1,2} -> 0.024296613806161993
Test: total_protein > 7.7 -> 0.035399459765326644
Test: class = 1 -> 0.9482735490580426
Test: mucous_membranes in {3,6} -> 0.2454741641484185
Test: abdominal_distension = 3 -> 0.14702147762423817
Test: capillary_refill_time = 1 -> 0.33701349411945575
Test: abdominocentesis_appearance = 2 -> 0.06982642830492669
Test: surgery = 1 -> 0.009675797699464417
Test: respiratory_rate > 16.0 -> 0.042913570253968775
Test: peripheral_pulse in {2,4} -> 0.2314973879463218
Test: packed_cell_volume > 48.0 -> 0.09235226194610702
Test: temperature_of_extremities in {1,3} -> 0.10674290487620275
Test: class = 1 -> 0.48140171261570597
Test: rectal_examination_feces > 2.0 -> 0.38811386136347364
Test: pain in {1,3,5} -> 0.5257416591955637
Test: surgery = 1 -> 0.04458841450318646
Test: surgery = 1 -> 0.29673072150739516
Test: abdomcentesis_total_protein > 2.8 -> 0.12401100951410104
Test: pulse > 48.0 -> 0.02840924156401009
Test: pulse > 65.0 -> 0.11630261958549581
Test: respiratory_rate > 21.0 -> 0.014541187702035177
Test: mucous_membranes = 2 -> 0.23403184590196924
Test: pulse > 44.0 -> 0.14423718299440558
Test: abdomcentesis_total_protein > 1.0 -> 0.43618052339417157
Test: class = 1 -> 0.9971036978797895
Test: nasogastric_tube = 2 -> 0.24996693657212343
Test: peristalsis = 3 -> 0.0994173079219855
Test: hospital_number > 533983.0 -> 0.06914000745606474
Test: abdominal_distension in {2,4} -> 0.5441590515859045
Test: hospital_number > 533887.0 -> 0.05009861991021475
Test: outcome = 1 -> 0.02684235178570407
Test: packed_cell_volume > 40.0 -> 0.08106707906042057
Test: hospital_number > 530354.0 -> 0.17831500426404018
Test: abdomcentesis_total_protein > 2.0 -> 0.6221336701814087
Test: mucous_membranes in {2,5} -> 0.054462308821643046
Test: total_protein > 8.1 -> 0.18046745851443724
Test: peristalsis = 3 -> 0.06132613736355719
Test: packed_cell_volume > 50.0 -> 0.08264476016570799
Test: packed_cell_volume > 32.0 -> 0.08184578250534236
Test: hospital_number > 530544.0 -> 0.2153379392474447
Test: peripheral_pulse = 1 -> 0.037617502889110616
Test: total_protein > 56.0 -> 0.025698840977348314
Test: pain = 2 -> 0.11618232915926546
Test: class = 1 -> 0.9844314178872979
Test: class = 1 -> 0.6453874797002245
Bag: 29
Clustering: Weights C=[1], N=[1]
Test: total_protein > 9.0 -> 0.1852956029520494
Test: class = 1 -> 0.26304206831320215
Test: mucous_membranes in {2,5} -> 0.07167285759515041
Test: temperature_of_extremities = 1 -> 0.2006500047822739
Test: class = 1 -> 0.556829482347143
Test: abdominocentesis_appearance = 3 -> 0.1094367634365549
Test: peripheral_pulse = 1 -> 0.34195281091528484
Test: outcome = 1 -> 0.11539870165649413
Test: class = 1 -> 0.8836198697862099
Test: peripheral_pulse = 3 -> 0.2525807295134982
Test: pain in {2,3,4} -> 0.3874145047217582
Test: surgery = 1 -> 0.0999122269729501
Test: pain = 3 -> 0.01768663837374894
Test: rectal_temperature > 38.1 -> 0.03192024957059339
Test: class = 1 -> 0.9747913467575334
Test: hospital_number > 5289419.0 -> 0.36610057128054696
Test: class = 1 -> 0.9852258818077197
Test: hospital_number > 529424.0 -> 0.04517626359257698
Test: peripheral_pulse = 3 -> 0.09474524397388107
Test: peristalsis in {2,3} -> 0.17023272756216568
Test: rectal_temperature > 39.4 -> 0.17092775841724128
Test: class = 1 -> 0.575573612608759
Test: pulse > 92.0 -> 0.13545019781329226
Test: abdominal_distension = 4 -> 0.512181091950969
Test: nasogastric_reflux = 1 -> 0.18385168297289017
Test: temperature_of_extremities = 1 -> 0.4546422038034015
Test: outcome = 2 -> 0.09399313236874796
Test: mucous_membranes = 4 -> 0.08448172528963571
Test: respiratory_rate > 28.0 -> 0.054010017125320636
Test: hospital_number > 529893.0 -> 0.44363415107231485
Test: surgery = 1 -> 0.027253710403232184
Test: rectal_examination_feces > 1.0 -> 0.18484184986865354
Test: rectal_examination_feces > 3.0 -> 0.02912350381470516
Test: surgery = 1 -> 8.462049952972228E-4
Test: nasogastric_reflux = 1 -> 0.034049657818242984
Test: packed_cell_volume > 39.0 -> 0.08266269291259909
Test: total_protein > 7.0 -> 0.14121713408019254
Test: hospital_number > 5277409.0 -> 0.03792880391532877
Test: class = 1 -> 0.9014574495044825
Test: total_protein > 6.1 -> 0.16847294246178657
Test: class = 1 -> 0.9667985211889003
Test: class = 1 -> 0.6325053103525916
Bag: 30
Clustering: Weights C=[1], N=[1]
Test: hospital_number > 530561.0 -> 0.18245388542776642
Test: pulse > 90.0 -> 0.12136094963777644
Test: abdomcentesis_total_protein > 2.0 -> 0.5297257989969674
Test: class = 1 -> 0.9735042569387545
Test: nasogastric_tube = 3 -> 0.5094015677733086
Test: pain = 1 -> 0.7020122678612165
Test: temperature_of_extremities = 1 -> 0.21579728069133636
Test: packed_cell_volume > 47.0 -> 0.08619553850453016
Test: abdominocentesis_appearance = 1 -> 0.08685105838847018
Test: peristalsis = 1 -> 0.2913631010720763
Test: packed_cell_volume > 47.0 -> 0.14595077923948965
Test: pulse > 100.0 -> 0.06837557088586815
Test: age = 1 -> 0.04522887281790061
Test: capillary_refill_time = 1 -> 0.02765679726479868
Test: class = 1 -> 0.2782223193520895
Test: class = 1 -> 0.8679849597651709
Test: nasogastric_reflux_PH > 4.0 -> 0.07793382440329943
Test: temperature_of_extremities = 1 -> 0.054330060199778374
Test: class = 1 -> 0.902982373362935
Test: nasogastric_reflux_PH > 6.2 -> 0.4055646103689073
Test: hospital_number > 530431.0 -> 0.10093452429271976
Test: abdomcentesis_total_protein > 1.4 -> 0.06590505924451498
Test: packed_cell_volume > 63.0 -> 0.06760307859847003
Test: respiratory_rate > 42.0 -> 0.07781952386545143
Test: mucous_membranes in {1,3} -> 0.12330842963677313
Test: pain in {1,2} -> 0.04054953442961659
Test: respiratory_rate > 32.0 -> 0.1668674057355548
Test: abdominal_distension in {2,3} -> 0.17217010317701398
Test: nasogastric_reflux = 2 -> 0.15081300228156136
Test: pain = 3 -> 0.10136427535815784
Test: class = 1 -> 0.9886047403329178
Test: respiratory_rate > 16.0 -> 0.23957778581930983
Test: surgery = 1 -> 4.420061342897408E-4
Test: pain = 5 -> 0.03713946397455872
Test: mucous_membranes in {1,2,3} -> 0.2247450337878737
Test: hospital_number > 528964.0 -> 0.01732632161758596
Test: total_protein > 6.6 -> 0.05066015821638892
Test: abdomcentesis_total_protein > 1.0 -> 0.0735360431503855
Test: pulse > 60.0 -> 0.07645423217530489
Test: class = 1 -> 0.9329807653203435
Test: peripheral_pulse in {2,3} -> 0.10596063118201537
Test: respiratory_rate > 28.0 -> 0.15438871764902806
Test: pulse > 42.0 -> 0.11750228194171919
Test: pulse > 40.0 -> 0.08271503888201248
Test: class = 1 -> 0.917232615237524
Test: abdominal_distension = 1 -> 0.20951903575430597
Test: class = 1 -> 0.9957274520849264
Bag: 31
Clustering: Weights C=[1], N=[1]
Test: packed_cell_volume > 39.0 -> 0.04392555385045849
Test: hospital_number > 530561.0 -> 0.12723760711940468
Test: pulse > 140.0 -> 0.205991011615974
Test: rectal_temperature > 39.0 -> 0.04325849374835211
Test: mucous_membranes = 2 -> 0.10670302026517943
Test: total_protein > 11.0 -> 0.8179618280055166
Test: temperature_of_extremities in {2,3} -> 0.05970623432882388
Test: pulse > 104.0 -> 0.03892289983408814
Test: class = 1 -> 0.23677545097381533
Test: class = 1 -> 0.996201277303168
Test: nasogastric_reflux_PH > 3.0 -> 0.357781610722786
Test: abdomen = 3 -> 0.12874804698318654
Test: total_protein > 6.6 -> 0.6481793175514474
Test: hospital_number > 529528.0 -> 0.07307176385031433
Test: nasogastric_reflux_PH > 6.5 -> 0.30762030542054275
Test: rectal_examination_feces > 1.0 -> 0.24272163403374064
Test: temperature_of_extremities = 1 -> 0.42078727436781627
Test: class = 1 -> 0.9999966861947125
Test: total_protein > 4.9 -> 0.13076698109763238
Test: rectal_examination_feces > 1.0 -> 0.06789701860737651
Test: abdomen = 1 -> 0.12605185943745267
Test: peristalsis = 3 -> 0.29084479882212727
Test: hospital_number > 534579.0 -> 0.04363458381223706
Test: hospital_number > 529135.0 -> 0.24791765962812506
Test: total_protein > 6.3 -> 0.19416407080454623
Test: respiratory_rate > 12.0 -> 0.2745369459072665
Test: rectal_examination_feces > 1.0 -> 0.10115849116934683
Test: hospital_number > 527706.0 -> 0.038417865799915574
Test: hospital_number > 528151.0 -> 0.03272712174562019
Test: peristalsis in {1,2} -> 0.11132900364149984
Test: temperature_of_extremities = 2 -> 0.03777199675318191
Test: total_protein > 6.7 -> 0.25962466681106966
Test: capillary_refill_time = 1 -> 0.06480434136644
Test: abdominal_distension in {2,3} -> 0.32957923916819165
Test: class = 1 -> 0.9240338361238789
Bag: 32
Clustering: Weights C=[1], N=[1]
Test: nasogastric_reflux_PH > 2.0 -> 0.22194872432429646
Test: abdomcentesis_total_protein > 2.0 -> 0.38480988633074276
Test: abdominocentesis_appearance = 1 -> 0.10418392159213652
Test: nasogastric_reflux_PH > 4.5 -> 0.11073167226052527
Test: nasogastric_reflux_PH > 5.5 -> 0.16351789257630955
Test: abdomcentesis_total_protein > 3.7 -> 0.3379067181698384
Test: class = 1 -> 0.9971108215152225
Test: abdomcentesis_total_protein > 3.6 -> 0.5965016350356191
Test: mucous_membranes = 3 -> 0.08847121158463955
Test: rectal_temperature > 38.1 -> 0.1415260259783907
Test: hospital_number > 529865.0 -> 0.14096137444345203
Test: pain in {1,2,4} -> 0.013952336944902166
Test: packed_cell_volume > 46.0 -> 0.11271455979640888
Test: nasogastric_tube = 3 -> 0.12554523129070294
Test: abdomen in {1,4} -> 0.25056094894969816
Test: total_protein > 6.0 -> 0.1507925362505821
Test: class = 1 -> 0.9389745451663974
Test: total_protein > 8.1 -> 0.287341425059506
Test: rectal_examination_feces > 3.0 -> 0.16446693386859568
Test: temperature_of_extremities = 1 -> 0.1441873755493146
Test: class = 1 -> 0.9993764039854155
Test: class = 1 -> 0.7814004554489191
Test: rectal_temperature > 38.1 -> 0.05106593379636393
Test: abdominal_distension = 1 -> 0.02484847362128606
Test: hospital_number > 529663.0 -> 0.2698200085393784
Test: rectal_temperature > 38.6 -> 0.018276433449468166
Test: packed_cell_volume > 37.0 -> 0.12301200250663707
Test: abdomen in {1,2} -> 0.14550901818130935
Test: mucous_membranes in {1,4} -> 0.12014495673522085
Test: total_protein > 63.0 -> 0.1409897740493793
Test: rectal_temperature > 39.2 -> 0.09364600888191443
Test: peristalsis = 3 -> 0.1225312347341877
Test: respiratory_rate > 28.0 -> 0.12281091578798642
Test: pain = 3 -> 0.16450496157753897
Test: class = 1 -> 0.9998325288753768
Test: abdominal_distension = 4 -> 0.06629155556151889
Test: class = 1 -> 0.9764646903317881
Test: abdominocentesis_appearance = 1 -> 0.15645852453695797
Test: respiratory_rate > 22.0 -> 0.10054294231957656
Test: abdominal_distension in {1,2,3} -> 0.028657758294505245
Test: outcome = 1 -> 0.019749148874768488
Test: abdominal_distension in {1,4} -> 0.08753796277916426
Test: abdomcentesis_total_protein > 2.0 -> 0.622251306342609
Test: class = 1 -> 0.9349418651369669
Test: total_protein > 11.0 -> 0.1439238340880622
Test: rectal_temperature > 37.4 -> 0.019924136719709787
Test: surgery = 1 -> 0.09535270591376122
Test: class = 1 -> 0.9264273960847581
Bag: 33
Clustering: Weights C=[1], N=[1]
Test: nasogastric_reflux_PH > 2.0 -> 0.336450395618744
Test: class = 1 -> 0.9393149577957136
Test: class = 1 -> 0.7915611714837002
Bag: 34
Clustering: Weights C=[1], N=[1]
Test: abdomcentesis_total_protein > 2.0 -> 0.34772286978051103
Test: class = 1 -> 0.9796113970248752
Test: hospital_number > 529045.0 -> 0.17226043833955396
Test: total_protein > 11.0 -> 0.08117629414006744
Test: mucous_membranes = 2 -> 0.12072119348394106
Test: pain in {1,2} -> 0.9977055280861367
Test: abdominal_distension = 2 -> 0.0815970248245064
Test: class = 1 -> 0.8588275608192122
Test: class = 1 -> 0.2938557910834582
Test: total_protein > 6.2 -> 0.1701820734335895
Test: abdominocentesis_appearance = 3 -> 0.2161345664106702
Test: total_protein > 7.0 -> 0.2945370016214157
Test: peristalsis = 4 -> 0.08529475287181676
Test: total_protein > 8.1 -> 0.36050853246478265
Test: temperature_of_extremities = 2 -> 0.6460699959578187
Test: rectal_temperature > 38.5 -> 0.17726494144551697
Test: temperature_of_extremities in {2,4} -> 0.26920467904790957
Test: class = 1 -> 0.9756635351273347
Test: class = 1 -> 0.6927968644866355
Bag: 35
Clustering: Weights C=[1], N=[1]
Test: abdomcentesis_total_protein > 2.0 -> 0.23814560805003004
Test: class = 1 -> 0.9993170136675157
Test: rectal_examination_feces > 3.0 -> 0.07890259732623317
Test: nasogastric_reflux_PH > 4.0 -> 0.3721049817459023
Test: nasogastric_reflux_PH > 5.0 -> 0.234290777543264
Test: abdomcentesis_total_protein > 1.6 -> 0.2832759893251763
Test: abdomen in {2,3,5} -> 0.21189944476524758
Test: capillary_refill_time = 1 -> 0.09506418533778571
Test: pulse > 60.0 -> 0.23793639889955465
Test: hospital_number > 529493.0 -> 0.19310531867843805
Test: abdominal_distension in {1,3} -> 0.0462714549424692
Test: class = 1 -> 0.9958389259112022
Test: class = 1 -> 0.9479089377906305
Test: nasogastric_reflux_PH > 2.0 -> 0.32015371555022987
Test: nasogastric_reflux_PH > 5.4 -> 0.6193790400953776
Test: abdominocentesis_appearance = 3 -> 0.08442803741136684
Test: nasogastric_tube = 1 -> 0.134296598320919
Test: pulse > 48.0 -> 0.026171320725647207
Test: hospital_number > 535163.0 -> 0.0448593994544923
Test: pain in {1,2} -> 0.011225300059671477
Test: abdomcentesis_total_protein > 1.3 -> 0.12602173724921395
Test: peripheral_pulse = 1 -> 0.11254489641364301
Test: hospital_number > 533723.0 -> 0.005677264553604622
Test: total_protein > 11.0 -> 0.2869996255555086
Test: hospital_number > 533885.0 -> 0.00943888216347464
Test: nasogastric_tube = 2 -> 0.1551161096055298
Test: surgery = 1 -> 0.17944512727103723
Test: respiratory_rate > 28.0 -> 0.2969990948048914
Test: mucous_membranes in {1,3} -> 0.02141609088580576
Test: class = 1 -> 0.8243001752835983
Test: abdominocentesis_appearance = 2 -> 0.07749590310794885
Test: total_protein > 11.0 -> 0.2920876096832916
Test: abdominal_distension = 1 -> 0.00564057035091179
Test: peripheral_pulse = 3 -> 0.06282975476469899
Test: respiratory_rate > 18.0 -> 0.5935346275876083
Test: total_protein > 11.0 -> 0.16409598597947372
Test: mucous_membranes = 6 -> 0.009187351636078658
Test: abdominal_distension in {1,2} -> 0.021080881118984984
Test: abdomen in {1,3,5} -> 0.17957600973219057
Test: packed_cell_volume > 43.0 -> 0.09365671813191656
Test: total_protein > 7.7 -> 0.23321026356610286
Test: abdominal_distension = 1 -> 0.12991048965564267
Bag: 36
Clustering: Weights C=[1], N=[1]
Test: total_protein > 11.0 -> 0.24478123056573076
Test: peripheral_pulse = 4 -> 0.055512135257903564
Test: class = 1 -> 0.11265404773638275
Test: abdomen in {2,3} -> 0.046673711328518164
Test: mucous_membranes in {1,3,6} -> 0.11001367182368926
Test: nasogastric_reflux = 3 -> 0.7370411153444345
Test: respiratory_rate > 16.0 -> 0.04775823650459998
Test: mucous_membranes = 3 -> 0.14162724446173286
Test: rectal_examination_feces > 2.0 -> 0.10612324211096597
Test: surgery = 1 -> 0.19509650156790087
Test: abdominal_distension = 1 -> 0.022411261131217997
Test: pulse > 52.0 -> 0.07074405398919625
Test: temperature_of_extremities = 2 -> 0.08555053413561242
Test: surgery = 1 -> 0.01988961194095118
Test: abdominal_distension in {3,4} -> 0.21651260673808176
Test: packed_cell_volume > 42.0 -> 0.11917932143416299
Test: total_protein > 7.2 -> 0.16114132163456324
Test: outcome = 2 -> 0.0293931325028563
Test: peripheral_pulse = 1 -> 0.029779132001159267
Test: pulse > 60.0 -> 0.028305259062935545
Test: hospital_number > 527524.0 -> 0.3820409464079064
Test: class = 1 -> 0.9830903692773186
Bag: 37
Clustering: Weights C=[1], N=[1]
Test: nasogastric_reflux_PH > 2.0 -> 0.24637809344843675
Test: total_protein > 11.0 -> 0.21879512203168117
Test: abdominal_distension in {1,3} -> 0.031817886483880384
Test: rectal_temperature > 38.3 -> 0.04874012747433076
Test: pulse > 96.0 -> 0.12782604085447524
Test: hospital_number > 533696.0 -> 0.0734290337711968
Test: respiratory_rate > 24.0 -> 0.03629079172116101
Test: surgery = 1 -> 0.06719164060304789
Test: class = 1 -> 0.9928916962824927
Test: hospital_number > 530561.0 -> 0.12002328193599299
Test: class = 1 -> 0.3764618904687504
Test: peristalsis in {1,4} -> 0.060928507793857056
Test: temperature_of_extremities in {1,3} -> 0.07717016193411486
Test: class = 1 -> 0.7245568077254739
Test: abdominocentesis_appearance = 3 -> 0.21520120289832784
Test: class = 1 -> 0.9567687877139041
Test: temperature_of_extremities in {1,3} -> 0.1371972516318264
Test: hospital_number > 527929.0 -> 0.21829224633795785
Test: class = 1 -> 0.861043177683323
Bag: 38
Clustering: Weights C=[1], N=[1]
Test: class = 1 -> 0.9267267405419933
Bag: 39
Clustering: Weights C=[1], N=[1]
Test: abdomcentesis_total_protein > 2.0 -> 0.33918660398476974
Test: nasogastric_reflux_PH > 6.5 -> 0.1808867034075088
Test: total_protein > 11.0 -> 0.30105502212993196
Test: respiratory_rate > 25.0 -> 0.014831755047753442
Test: pulse > 56.0 -> 0.025858412281345527
Test: hospital_number > 533697.0 -> 0.0322833890088145
Test: abdomen in {1,2} -> 0.08128426337260508
Test: class = 1 -> 0.9997478017693677
Test: hospital_number > 529667.0 -> 0.08596358675551097
Test: class = 1 -> 0.9996872937854219
Test: packed_cell_volume > 57.0 -> 0.024230289554241058
Test: pain = 3 -> 0.35610206100225994
Test: class = 1 -> 0.5741398701863378
Test: abdomen in {3,4} -> 0.12247003236067722
Test: total_protein > 11.0 -> 0.15051839367099018
Test: hospital_number > 529183.0 -> 0.33349984433987756
Test: pulse > 104.0 -> 0.3327170813695407
Test: total_protein > 7.8 -> 0.0531268181895963
Test: packed_cell_volume > 58.0 -> 0.26840846744078245
Test: nasogastric_reflux = 3 -> 0.08817829175155917
Test: class = 1 -> 0.3621882290772943
Test: rectal_temperature > 37.7 -> 0.08304627887831084
Test: class = 1 -> 0.9773800557519271
Test: total_protein > 7.0 -> 0.061839893873321394
Test: pain = 4 -> 0.0946915778657536
Test: outcome = 2 -> 0.07646178270345391
Test: hospital_number > 530310.0 -> 0.12999705162348674
Test: rectal_temperature > 37.3 -> 0.07294452049397765
Test: abdomcentesis_total_protein > 1.6 -> 0.3723508157674098
Test: class = 1 -> 0.5971374619884684
Test: packed_cell_volume > 46.0 -> 0.09892742223778972
Test: rectal_temperature > 38.5 -> 0.28340660874741075
Test: outcome = 1 -> 0.07405009485766068
Test: respiratory_rate > 34.0 -> 0.3398678589797147
Test: pulse > 48.0 -> 0.03178172288587766
Test: mucous_membranes = 4 -> 0.16172635852867467
Test: peripheral_pulse = 1 -> 0.31687428977271304
Test: total_protein > 8.6 -> 0.018140341366824853
Test: respiratory_rate > 40.0 -> 0.03226492261520256
Test: pulse > 108.0 -> 0.2532480125661335
Test: mucous_membranes in {2,5} -> 0.18112517570411585
Test: pulse > 68.0 -> 0.2012258568100933
Test: class = 1 -> 0.99356119218814
Test: abdominocentesis_appearance = 1 -> 0.27313650429571834
Test: total_protein > 8.1 -> 0.1327710978196538
Test: outcome = 1 -> 0.053325245213784976
Test: class = 1 -> 0.7822215687936944
Test: mucous_membranes in {1,4,5} -> 0.10787170728084261
Test: abdomen = 3 -> 0.6514308979843758
Test: abdominal_distension in {1,2} -> 0.052893242261229184
Test: pain in {1,4,5} -> 0.2617456650491905
Test: class = 1 -> 0.830670542649219
Test: hospital_number > 528682.0 -> 0.679632509396819
Test: surgery = 1 -> 0.15562522194677209
Bag: 40
Clustering: Weights C=[1], N=[1]
Test: abdomcentesis_total_protein > 2.0 -> 0.5264461624332275
Test: packed_cell_volume > 34.0 -> 0.07913063491873917
Test: class = 1 -> 0.9968559129562041
Test: hospital_number > 528169.0 -> 0.038357683536582365
Test: abdominal_distension in {1,4} -> 0.017751450470411115
Test: total_protein > 9.0 -> 0.17151466578055397
Test: hospital_number > 535392.0 -> 0.06557663335269835
Test: peripheral_pulse in {1,2} -> 0.01175057268271526
Test: capillary_refill_time = 1 -> 0.01913195642480909
Test: mucous_membranes = 6 -> 0.04506192381125542
Test: hospital_number > 528904.0 -> 0.1006417105339717
Test: nasogastric_reflux_PH > 4.0 -> 0.2366644036859914
Test: abdominocentesis_appearance = 3 -> 0.2813950501573643
Test: class = 1 -> 0.7693751525311507
Test: nasogastric_reflux_PH > 6.5 -> 0.24487464969413808
Test: nasogastric_reflux = 1 -> 0.11563509950625306
Test: pain in {3,5} -> 0.10996592266966587
Test: outcome = 1 -> 0.1221267130686573
Test: pain = 5 -> 0.15668120333466462
Test: respiratory_rate > 24.0 -> 0.0956533482418922
Test: peripheral_pulse = 1 -> 0.013059563154707785
Test: mucous_membranes in {2,5} -> 0.1251607143816097
Test: packed_cell_volume > 39.0 -> 0.07424027690176227
Test: hospital_number > 528977.0 -> 0.03776156067542902
Test: outcome = 1 -> 0.04803143966625817
Test: temperature_of_extremities in {1,3} -> 0.05333130802529229
Test: nasogastric_reflux_PH > 5.3 -> 0.9971348116204107
Test: class = 1 -> 0.88990731254168
Test: abdominal_distension = 2 -> 0.14647093854637483
Test: class = 1 -> 0.9393003022900024
Test: abdominal_distension = 1 -> 0.15155173311130593
Test: rectal_temperature > 38.1 -> 0.18107822730823442
Test: total_protein > 6.9 -> 0.041560587777360714
Test: temperature_of_extremities = 1 -> 0.34919671558006893
Test: nasogastric_tube = 1 -> 0.38559628258358675
Test: packed_cell_volume > 45.0 -> 0.14289630782889112
Test: pulse > 66.0 -> 0.061775409719392105
Test: peripheral_pulse = 3 -> 0.007432971853180703
Test: mucous_membranes in {2,3,6} -> 0.14528430130657127
Test: pulse > 50.0 -> 7.378344904920286E-4
Test: hospital_number > 529840.0 -> 0.015617680513844462
Bag: 41
Clustering: Weights C=[1], N=[1]
Test: pulse > 44.0 -> 0.03673477804381109
Test: abdominal_distension = 2 -> 0.03418449338628804
Test: rectal_temperature > 39.0 -> 0.16959533615934597
Test: pain in {2,3} -> 0.2671341095363117
Test: packed_cell_volume > 45.0 -> 0.06221848380700867
Test: temperature_of_extremities = 3 -> 0.1700908429658693
Test: rectal_temperature > 37.2 -> 0.034445338292090566
Test: hospital_number > 530401.0 -> 0.4230064817761155
Test: packed_cell_volume > 41.0 -> 0.09809616516622216
Test: outcome = 1 -> 0.03373946594271754
Test: abdomen = 5 -> 0.018969533037508854
Test: packed_cell_volume > 37.0 -> 0.00797986563798668
Test: hospital_number > 528247.0 -> 0.004946450681491139
Test: respiratory_rate > 35.0 -> 0.03787913753304098
Test: peristalsis = 1 -> 0.07114408726387261
Test: respiratory_rate > 12.0 -> 0.1648956962735083
Test: pain = 4 -> 0.2581733496402071
Test: abdomen in {2,4} -> 0.3636245636632639
Test: hospital_number > 528630.0 -> 0.09510078172181852
Test: rectal_temperature > 37.5 -> 0.23776951856272932
Test: capillary_refill_time = 1 -> 0.1710714473294015
Test: class = 1 -> 0.999513823452772
Test: nasogastric_reflux_PH > 2.0 -> 0.13003687075302295
Test: total_protein > 8.1 -> 0.20620191101979457
Test: abdominocentesis_appearance in {1,3} -> 0.11613341392856683
Test: mucous_membranes = 4 -> 0.07363844330272164
Test: surgery = 1 -> 5.204750824068377E-4
Test: hospital_number > 535196.0 -> 0.06726793391169668
Test: mucous_membranes in {3,5} -> 0.021999149329295448
Test: hospital_number > 534053.0 -> 0.07809523942101762
Test: mucous_membranes in {5,6} -> 0.20288089256334435
Test: pain in {1,2,5} -> 0.16734996195203766
Test: packed_cell_volume > 54.0 -> 0.4911781185899504
Test: temperature_of_extremities in {2,4} -> 0.06753544482111642
Test: surgery = 1 -> 0.05315596053679572
Test: pulse > 78.0 -> 0.15259906846031274
Test: nasogastric_reflux = 3 -> 0.12124874127950591
Test: nasogastric_reflux_PH > 6.5 -> 0.430664322407618
Test: abdomcentesis_total_protein > 3.7 -> 0.7429814381542561
Test: total_protein > 6.1 -> 0.4164961134068926
Test: hospital_number > 530233.0 -> 0.02301006332802019
Test: packed_cell_volume > 49.0 -> 0.05100555917445759
Test: hospital_number > 5279442.0 -> 0.08934277703306959
Test: abdominal_distension = 1 -> 0.0310448630614423
Test: hospital_number > 529777.0 -> 0.08440373806274765
Test: class = 1 -> 0.9818127281074381
Test: abdominocentesis_appearance = 3 -> 0.14008151244708356
Test: class = 1 -> 0.4988778138443464
Test: hospital_number > 535338.0 -> 0.09271404192623456
Test: total_protein > 6.2 -> 0.4637045070485643
Test: hospital_number > 5282839.0 -> 0.06422121590280011
Test: class = 1 -> 0.8455098072896828
Test: abdominocentesis_appearance = 2 -> 0.7417212808168818
Test: packed_cell_volume > 40.0 -> 0.29118824252623055
Test: mucous_membranes in {2,6} -> 0.4781516375194549
Test: pulse > 40.0 -> 0.7343369480020822
Test: total_protein > 6.5 -> 0.13231855501563608
Test: hospital_number > 528179.0 -> 0.00800935597402034
Test: temperature_of_extremities = 3 -> 0.0213912459904836
Test: peripheral_pulse = 3 -> 0.062296428996089614
Test: pulse > 40.0 -> 0.016573211226443424
Test: rectal_temperature > 38.2 -> 0.051085685571676226
Test: total_protein > 60.0 -> 0.09114715650428945
Test: rectal_temperature > 38.3 -> 0.11736569907078806
Bag: 42
Clustering: Weights C=[1], N=[1]
Test: class = 1 -> 0.9195300101403692
Bag: 43
Clustering: Weights C=[1], N=[1]
Test: abdominocentesis_appearance = 1 -> 0.07193712058820201
Test: hospital_number > 530360.0 -> 0.09439939115231066
Test: class = 1 -> 0.47951244663352544
Test: hospital_number > 527957.0 -> 0.07594178363793846
Test: respiratory_rate > 24.0 -> 0.17398740274744162
Test: pain = 5 -> 0.13567678317972087
Test: rectal_temperature > 37.7 -> 0.09972080213904955
Test: pain in {2,3} -> 0.15900236571396853
Test: rectal_temperature > 38.2 -> 0.36523881764885746
Test: pulse > 44.0 -> 0.24854861822345553
Test: class = 1 -> 0.870446744103474
Test: rectal_temperature > 36.8 -> 0.1373298545049687
Test: temperature_of_extremities = 2 -> 0.0710843600486934
Test: total_protein > 11.0 -> 0.20461500087454776
Test: pain in {3,4} -> 0.06711455658416526
Test: class = 1 -> 0.4868622234737633
Test: rectal_temperature > 36.8 -> 0.011503790198898745
Test: hospital_number > 535338.0 -> 0.017388697355859267
Test: class = 1 -> 0.9967191343194607
Bag: 44
Clustering: Weights C=[1], N=[1]
Test: nasogastric_reflux_PH > 4.0 -> 0.42840619494311005
Test: outcome = 2 -> 0.12100110863201585
Test: mucous_membranes in {1,3,6} -> 0.12640842125518226
Test: packed_cell_volume > 57.0 -> 0.22382809211923627
Test: class = 1 -> 0.714520340571928
Test: total_protein > 6.5 -> 0.3558773307166134
Test: nasogastric_tube in {1,3} -> 0.3730254575224724
Test: peristalsis = 3 -> 0.2990896885374117
Test: temperature_of_extremities = 3 -> 0.14582507301931297
Test: temperature_of_extremities = 1 -> 0.1335500092784705
Test: packed_cell_volume > 53.0 -> 0.31755431641837295
Test: abdomen = 1 -> 0.4306876416218638
Test: nasogastric_reflux = 2 -> 0.677572931184421
Test: hospital_number > 527933.0 -> 0.1415487190104372
Test: total_protein > 5.5 -> 0.06847770573170958
Test: hospital_number > 5279442.0 -> 0.016250786415140897
Test: abdomen in {1,3,4} -> 0.054475770570247106
Test: nasogastric_reflux_PH > 6.2 -> 0.1282011589130524
Test: class = 1 -> 0.8038345492239469
Test: abdomcentesis_total_protein > 2.0 -> 0.5234383855681706
Test: hospital_number > 529628.0 -> 0.25492984359689197
Test: total_protein > 6.7 -> 0.22042040866244517
Test: respiratory_rate > 24.0 -> 0.24473278247838592
Test: pulse > 60.0 -> 0.10906046113217338
Test: respiratory_rate > 28.0 -> 0.2818128907537981
Test: pulse > 49.0 -> 0.021115271963020765
Test: respiratory_rate > 14.0 -> 0.2145273344126627
Test: class = 1 -> 0.4450438049787884
Test: hospital_number > 528742.0 -> 0.8104563178114634
Test: packed_cell_volume > 40.0 -> 0.04758465598269397
Test: abdominocentesis_appearance = 3 -> 0.13238382481817135
Test: outcome = 3 -> 0.03419050609335478
Test: peristalsis in {2,4} -> 0.11755028288165967
Test: total_protein > 7.5 -> 0.06702045531951298
Test: pain in {2,4} -> 0.08782659644237467
Test: mucous_membranes = 6 -> 0.07518280419593515
Test: abdomcentesis_total_protein > 2.0 -> 0.5250077397940975
Test: temperature_of_extremities = 4 -> 0.16268771820818884
Test: pulse > 80.0 -> 0.08243113714853223
Test: pain in {1,5} -> 0.07009389819310696
Test: abdominal_distension in {1,3,4} -> 0.10104842375793915
Test: packed_cell_volume > 40.0 -> 0.025135000978585453
Test: pain in {1,3,5} -> 0.07591677270378966
Test: total_protein > 8.1 -> 0.2089521856816856
Test: packed_cell_volume > 44.0 -> 0.08868959885665917
Test: hospital_number > 529493.0 -> 0.19790775483840128
Test: rectal_examination_feces > 1.0 -> 0.27425843621044244
Test: total_protein > 6.6 -> 0.08322495103528749
Test: packed_cell_volume > 36.0 -> 0.06102109966838998
Test: hospital_number > 529493.0 -> 0.023497797845580787
Test: respiratory_rate > 20.0 -> 0.008609764313946229
Test: packed_cell_volume > 40.0 -> 0.030101112877115227
Test: mucous_membranes in {1,3} -> 0.040445649171841236
Test: pulse > 44.0 -> 0.028175817727488672
Test: abdomen = 3 -> 0.07398391831323592
Test: packed_cell_volume > 44.0 -> 0.09233295024684485
Test: abdominal_distension = 2 -> 0.0651158377298251
Test: respiratory_rate > 10.0 -> 0.09642297518980503
Test: packed_cell_volume > 37.0 -> 0.1505329642329999
Test: mucous_membranes in {1,4,6} -> 0.17162558197587996
Test: class = 1 -> 0.9852675781287157
Test: peripheral_pulse = 1 -> 0.14796032134692783
Test: total_protein > 6.5 -> 0.026743281009862382
Test: pulse > 70.0 -> 0.7225109907430702
Test: rectal_examination_feces > 3.0 -> 0.30130846646828563
Test: total_protein > 8.1 -> 0.21930799163200648
Test: hospital_number > 528151.0 -> 0.051782578672721125
Test: outcome = 2 -> 0.028656699415778194
Test: rectal_temperature > 37.7 -> 0.053169023922937875
Test: abdomcentesis_total_protein > 3.6 -> 0.15125580188196103
Test: class = 1 -> 0.9923857393093034
Test: class = 1 -> 0.93405024394268
Test: surgery = 1 -> 0.20245353488350754
Test: outcome = 2 -> 0.42183084806572047
Test: pain in {3,5} -> 0.01118281262824039
Test: mucous_membranes = 1 -> 0.11746308135737749
Test: respiratory_rate > 18.0 -> 0.0362420556744589
Test: respiratory_rate > 24.0 -> 0.07592171817107951
Test: total_protein > 7.5 -> 0.2567841891430074
Test: pain = 5 -> 0.01437664120195567
Test: total_protein > 5.9 -> 0.33286437239941025
Test: hospital_number > 528742.0 -> 0.005835445309155696
Bag: 45
Clustering: Weights C=[1], N=[1]
Test: abdomcentesis_total_protein > 2.0 -> 0.6063660211644033
Test: total_protein > 11.0 -> 0.21127403960068114
Test: rectal_temperature > 38.3 -> 0.029390950950865136
Test: peripheral_pulse = 1 -> 0.11270977301695498
Test: hospital_number > 535314.0 -> 0.04985282546952634
Test: pain = 4 -> 0.028610170261517846
Test: respiratory_rate > 51.0 -> 0.08049624223350016
Test: peripheral_pulse = 1 -> 0.2280780370836789
Test: rectal_temperature > 38.2 -> 0.07026685968480234
Test: age = 1 -> 0.004846709151318462
Test: hospital_number > 5290759.0 -> 0.00957672955810017
Test: respiratory_rate > 60.0 -> 0.5258089953179326
Test: hospital_number > 529729.0 -> 0.05791681000333537
Test: class = 1 -> 0.9929516136190939
Test: class = 1 -> 0.8439735945760111
Test: nasogastric_reflux_PH > 4.0 -> 0.3667826940172493
Test: class = 1 -> 0.7593872229150699
Test: total_protein > 11.0 -> 0.1725888446716244
Test: peripheral_pulse = 4 -> 0.027251075276112688
Test: rectal_temperature > 38.3 -> 0.019547914654025556
Test: pulse > 88.0 -> 0.040550976930707
Test: respiratory_rate > 40.0 -> 0.11354092367959151
Test: nasogastric_tube = 2 -> 0.04278350409988316
Test: temperature_of_extremities = 1 -> 0.09676665105554638
Test: outcome = 1 -> 0.1451505451578916
Test: age = 1 -> 0.20575917585795733
Test: rectal_examination_feces > 1.0 -> 0.18906741845792696
Test: total_protein > 6.7 -> 0.13438991212648177
Test: respiratory_rate > 20.0 -> 0.11589534293894832
Test: pain = 2 -> 0.2464578550493709
Test: hospital_number > 521681.0 -> 0.24655645613658206
Test: hospital_number > 528151.0 -> 0.04350718516047203
Test: total_protein > 6.5 -> 0.010536434544055798
Test: class = 1 -> 0.9629734404020818
Bag: 46
Clustering: Weights C=[1], N=[1]
Test: temperature_of_extremities = 2 -> 0.032611592478754114
Test: abdomcentesis_total_protein > 2.0 -> 0.7285533583368287
Test: abdomen in {2,3} -> 0.1870241028132284
Test: total_protein > 6.7 -> 0.03988566020789175
Test: respiratory_rate > 32.0 -> 0.2936409863257259
Test: packed_cell_volume > 42.0 -> 0.050780788311597685
Test: surgery = 1 -> 0.09945611679694433
Test: total_protein > 11.0 -> 0.29183903336929196
Test: peristalsis = 1 -> 0.2696255166016125
Test: class = 1 -> 0.47932451078675564
Test: class = 1 -> 0.9584182716630166
Bag: 47
Clustering: Weights C=[1], N=[1]
Test: abdomcentesis_total_protein > 2.0 -> 0.5583906976215363
Test: nasogastric_reflux_PH > 4.0 -> 0.39404738818917584
Test: abdomcentesis_total_protein > 3.6 -> 0.048142188074659475
Test: total_protein > 11.0 -> 0.1591627056778151
Test: hospital_number > 533697.0 -> 0.12666435116606584
Test: mucous_membranes in {1,3,4} -> 0.023878364475064737
Test: nasogastric_reflux_PH > 6.5 -> 0.17388982924572116
Test: total_protein > 7.7 -> 0.10025253473883255
Test: packed_cell_volume > 49.0 -> 0.11889566923738587
Test: outcome = 2 -> 0.06315510056845908
Test: surgery = 1 -> 0.030156215339593284
Test: class = 1 -> 0.9995644726258409
Test: nasogastric_reflux_PH > 5.4 -> 0.26669329427192057
Test: mucous_membranes = 3 -> 0.09654328603846862
Test: mucous_membranes in {1,4,6} -> 0.04661745579233634
Test: abdominal_distension in {1,4} -> 0.03601106450192548
Test: class = 1 -> 0.9994401975436074
Test: mucous_membranes in {1,3,4} -> 0.06727442481739931
Test: pulse > 44.0 -> 0.07860690148509786
Test: respiratory_rate > 36.0 -> 0.24718983021655694
Test: temperature_of_extremities in {2,4} -> 0.09960829900273505
Test: surgery = 1 -> 0.12951048011436983
Test: total_protein > 7.0 -> 0.05499741467011787
Test: packed_cell_volume > 49.0 -> 0.09693653019374104
Test: hospital_number > 528931.0 -> 0.2876267843433072
Test: temperature_of_extremities = 3 -> 0.2232982910604544
Test: abdominal_distension in {2,4} -> 0.1416598091301825
Test: temperature_of_extremities in {2,4} -> 0.08229396673327488
Test: age = 1 -> 8.189891782576786E-4
Test: hospital_number > 530002.0 -> 0.15566797778980646
Test: peristalsis in {3,4} -> 0.07380576679280759
Test: nasogastric_reflux = 1 -> 0.24770289000879875
Test: packed_cell_volume > 40.0 -> 0.05787806513878746
Test: class = 1 -> 0.7743669449938896
Test: temperature_of_extremities = 1 -> 0.06536762323354295
Test: class = 1 -> 0.9634405172794152
Test: mucous_membranes in {3,4,6} -> 0.18434640793603102
Test: total_protein > 7.3 -> 0.03403616486581443
Test: hospital_number > 530381.0 -> 0.020514181586897634
Test: total_protein > 11.0 -> 0.04432749520957799
Test: class = 1 -> 0.8929870775120361
Test: outcome = 3 -> 0.016915880945930106
Test: hospital_number > 533928.0 -> 0.2845292293517366
Test: abdomcentesis_total_protein > 3.6 -> 0.09180145438473741
Test: total_protein > 11.0 -> 0.138254864814225
Test: pulse > 44.0 -> 0.10097076320577703
Test: peristalsis in {2,3} -> 0.0336128367890457
Test: packed_cell_volume > 48.0 -> 0.121250103131465
Test: respiratory_rate > 28.0 -> 0.4933606104176005
Test: packed_cell_volume > 52.0 -> 0.26915961909136166
Test: rectal_temperature > 38.2 -> 0.13963829649758808
Test: mucous_membranes in {1,2,3,5} -> 0.11988584431138083
Test: abdominal_distension = 2 -> 0.0852492273456461
Test: rectal_temperature > 38.5 -> 0.1694752236438224
Test: mucous_membranes in {1,3,6} -> 0.24209453332719355
Test: packed_cell_volume > 43.0 -> 0.0387551679207187
Test: abdominal_distension = 2 -> 0.04499125449298913
Test: nasogastric_reflux_PH > 5.4 -> 0.1117428176007863
Test: abdomcentesis_total_protein > 1.6 -> 0.24746816835909857
Test: pulse > 44.0 -> 0.13042979323315312
Test: respiratory_rate > 28.0 -> 0.08528249053931436
Test: abdomcentesis_total_protein > 1.3 -> 0.6181532194646904
Test: abdomen in {2,3} -> 0.034931945066909664
Test: pulse > 60.0 -> 0.22835505314695598
Test: rectal_examination_feces > 1.0 -> 0.1619269072066235
Test: total_protein > 11.0 -> 0.35756121340062547
Test: class = 1 -> 0.9861168396961907
Test: respiratory_rate > 20.0 -> 0.42929167197654505
Test: total_protein > 6.9 -> 0.02696734737248152
Test: respiratory_rate > 16.0 -> 0.15630490998417101
Test: packed_cell_volume > 39.0 -> 0.08493491126261954
Test: hospital_number > 528183.0 -> 0.3085473923437898
Test: hospital_number > 529888.0 -> 0.04650352075414188
Test: temperature_of_extremities = 3 -> 0.0666760543493713
Test: class = 1 -> 0.5201536662045103
Test: packed_cell_volume > 65.0 -> 0.06182941325805033
Test: packed_cell_volume > 41.0 -> 0.00736675694894455
Test: hospital_number > 530544.0 -> 0.04842242609966546
Test: hospital_number > 529796.0 -> 0.08419952244025108
Test: class = 1 -> 0.7208081150257897
Bag: 48
Clustering: Weights C=[1], N=[1]
Test: nasogastric_reflux_PH > 2.0 -> 0.29256125304042147
Test: hospital_number > 529729.0 -> 0.13266684566426223
Test: class = 1 -> 0.772892145343929
Test: abdomcentesis_total_protein > 1.0 -> 0.10653099646099774
Test: pulse > 44.0 -> 0.22945722546228686
Test: mucous_membranes = 5 -> 0.06997235676813618
Test: outcome = 1 -> 0.033607524476271675
Test: respiratory_rate > 40.0 -> 0.07642652600664745
Test: abdominal_distension = 2 -> 0.4068931689105021
Test: surgery = 1 -> 0.4792809491544749
Test: mucous_membranes = 2 -> 0.022356910745086125
Test: nasogastric_tube = 1 -> 0.4920387884979948
Test: pain = 4 -> 0.026525456299831454
Test: abdomen = 4 -> 0.13824060492982537
Test: surgery = 1 -> 0.030702139968741216
Test: total_protein > 6.3 -> 0.041461965405591744
Test: rectal_temperature > 38.5 -> 0.06635566470458243
Test: outcome = 3 -> 0.04415885116522
Test: rectal_examination_feces > 1.0 -> 0.2926882705995718
Test: hospital_number > 529424.0 -> 0.1621271477890962
Test: abdomen = 2 -> 0.17643296303562395
Test: rectal_temperature > 38.0 -> 0.07554654205623548
Test: packed_cell_volume > 39.0 -> 0.005803145149367098
Test: class = 1 -> 0.9676661284846388
Test: mucous_membranes in {1,2} -> 0.03227103767426784
Test: class = 1 -> 0.9917202470315916
Test: nasogastric_reflux = 3 -> 0.0473634506531857
Test: hospital_number > 529729.0 -> 0.2625341170596464
Test: pulse > 88.0 -> 0.04379191801064963
Test: abdominal_distension in {1,2} -> 0.11539120295110183
Test: packed_cell_volume > 36.0 -> 0.024737398256193158
Test: class = 1 -> 0.9082190950063564
Test: hospital_number > 529663.0 -> 0.09413463962554847
Test: surgery = 1 -> 0.051138916332203466
Test: mucous_membranes = 2 -> 0.2433713779311787
Test: temperature_of_extremities = 3 -> 0.0863522680458147
Test: class = 1 -> 0.6967654676253625
Test: rectal_examination_feces > 3.0 -> 0.027890526757624823
Test: outcome = 1 -> 0.011361820855319935
Test: total_protein > 8.5 -> 0.13229282388477187
Test: total_protein > 6.2 -> 0.1470446724988994
Test: hospital_number > 530255.0 -> 0.05950659789352242
Test: rectal_temperature > 38.2 -> 0.12233689466178743
Test: hospital_number > 528904.0 -> 0.1392198557324401
Test: pain in {2,4} -> 0.2921658432766311
Test: pulse > 72.0 -> 0.13358717334374842
Test: pulse > 44.0 -> 0.29962649270742525
Test: class = 1 -> 0.9796100153570563
Bag: 49
Clustering: Weights C=[1], N=[1]
Test: abdomcentesis_total_protein > 2.0 -> 0.360679272703192
Test: total_protein > 11.0 -> 0.15810287630190178
Test: hospital_number > 529399.0 -> 0.0995018798548025
Test: rectal_temperature > 38.3 -> 0.03089325974681814
Test: respiratory_rate > 20.0 -> 0.12621068213939682
Test: abdominocentesis_appearance = 2 -> 0.0939081169332377
Test: packed_cell_volume > 39.0 -> 0.06879911676039763
Test: pulse > 42.0 -> 0.1614632317852388
Test: pain = 5 -> 0.2865505383709168
Test: abdominal_distension in {2,4} -> 0.015095427835639733
Test: surgery = 1 -> 0.09861285439501233
Test: rectal_temperature > 38.2 -> 0.033213470132602646
Test: abdominal_distension = 3 -> 0.3048293478730947
Test: hospital_number > 530478.0 -> 0.011591011991288175
Test: outcome = 1 -> 0.036764979912644435
Test: hospital_number > 528548.0 -> 0.04070678145619745
Test: abdominal_distension = 1 -> 0.11052097315306653
Test: total_protein > 8.5 -> 0.21014076261277248
Test: pain in {2,4} -> 0.1300072417302769
Test: hospital_number > 529518.0 -> 0.32356369602144863
Test: rectal_temperature > 38.5 -> 0.05059733347500095
Test: class = 1 -> 0.8830704042029348
Test: nasogastric_reflux_PH > 6.5 -> 0.13521067080889193
Test: total_protein > 6.9 -> 0.0724778828681214
Test: pulse > 50.0 -> 0.22311553619375035
Test: pain in {1,2,3} -> 0.12475646272033092
Test: mucous_membranes in {1,2,4} -> 0.20443710763174655
Test: total_protein > 7.6 -> 0.029492173414355338
Test: capillary_refill_time = 1 -> 0.008181706704965222
Test: temperature_of_extremities = 3 -> 0.2561870087017416
Test: total_protein > 6.2 -> 0.14850511643932274
Test: class = 1 -> 0.9945510016148572
Test: nasogastric_reflux_PH > 4.5 -> 0.08316758298777593
Test: temperature_of_extremities in {1,3} -> 0.05305531075844716
Test: abdomcentesis_total_protein > 1.6 -> 0.23921497298717254
Test: class = 1 -> 0.7791614464707892
Test: respiratory_rate > 21.0 -> 0.10688202996907992
Test: class = 1 -> 0.8244425318232748
Test: class = 1 -> 0.9826778429631852
Test: rectal_temperature > 38.6 -> 0.03825177424944981
Test: abdomen in {2,3,5} -> 0.03937265009833335
Test: peristalsis = 3 -> 0.1059949667706725
Test: respiratory_rate > 20.0 -> 0.13944221401935114
Test: abdomen = 3 -> 0.04246752629640671
Test: class = 1 -> 0.9714914866938509
Test: total_protein > 11.0 -> 0.19360307444695968
Test: peristalsis = 3 -> 0.048903397179539426
Test: rectal_temperature > 38.3 -> 0.10458087649213699
Test: rectal_temperature > 38.6 -> 0.692240149939336
Test: abdominocentesis_appearance = 3 -> 0.07789045240319689
Test: outcome = 1 -> 0.11298362895102926
Test: mucous_membranes in {1,5} -> 0.02432394537874813
Test: abdominal_distension = 4 -> 0.016555476884204563
Test: outcome = 2 -> 0.07489209207442987
Test: class = 1 -> 0.9277787939625166
Bag: 50
Clustering: Weights C=[1], N=[1]
Test: total_protein > 9.0 -> 0.2327421909113382
Test: class = 1 -> 0.19308516885870664
Test: rectal_temperature > 38.1 -> 0.08098140906567708
Test: packed_cell_volume > 30.0 -> 0.05191826702797797
Test: hospital_number > 529703.0 -> 0.09757286893535388
Test: pulse > 120.0 -> 0.1588386711016938
Test: packed_cell_volume > 46.0 -> 0.5873962898826748
Test: total_protein > 5.9 -> 0.2018574521403314
Test: pain in {3,5} -> 0.14049712853382512
Test: mucous_membranes in {2,5} -> 0.17041406199730003
Test: packed_cell_volume > 45.0 -> 0.14308778880184903
Test: abdominal_distension = 3 -> 0.018409106424353033
Test: hospital_number > 530384.0 -> 0.17241444028007802
Test: peristalsis = 3 -> 0.1494157066463846
Test: rectal_temperature > 38.4 -> 0.4501294871249284
Test: surgery = 1 -> 5.031993748623176E-4
Test: pain = 3 -> 0.1155639826322758
Test: outcome = 1 -> 0.032121077092415073
Test: abdominal_distension = 2 -> 0.33271789550506914
Test: temperature_of_extremities = 2 -> 0.6515854109114461
Test: surgery = 1 -> 0.20346612550834564
Test: packed_cell_volume > 40.0 -> 0.06166873866572736
Test: peripheral_pulse = 1 -> 0.09518947428112556
Test: hospital_number > 530251.0 -> 0.15728540507883199
Test: temperature_of_extremities = 2 -> 0.10553305820265912
Test: abdominal_distension = 1 -> 0.16482425598098738
Test: total_protein > 7.0 -> 0.9998865584602507
Test: abdomen = 1 -> 0.11203487107761728
Test: rectal_examination_feces > 2.0 -> 0.7788287986751394
Test: total_protein > 7.5 -> 0.09192583401077292
Test: total_protein > 7.6 -> 0.45003623155485295
Test: total_protein > 8.6 -> 0.7219280948873623
Test: pulse > 96.0 -> 0.016316091943843855
Test: pulse > 86.0 -> 0.11414569371261407
Test: pain = 5 -> 0.24628706505496145
Test: respiratory_rate > 16.0 -> 0.08961428057717394
Test: total_protein > 6.8 -> 0.1729587649752513
Test: abdominal_distension = 1 -> 0.8989700912744918
Test: abdominocentesis_appearance = 2 -> 0.14832377648370504
Test: class = 1 -> 0.9636950985125744
Test: class = 1 -> 0.8850889427723003
Induction Time: 0.697 sec
Pruning Time: 0.0 sec

Computing training error
Computing testing error
PredictionWriter is writing the ARFF header
Output written to: Unlabeled.out
