@relation transformed

@attribute att1 numeric
@attribute att2 numeric
@attribute att3 numeric
@attribute att4 numeric
@attribute att5 numeric
@attribute att6 numeric
@attribute att7 numeric
@attribute att8 numeric
@attribute att9 numeric
@attribute att10 numeric
@attribute att11 numeric
@attribute att12 numeric
@attribute att13 numeric
@attribute att14 numeric
@attribute att15 numeric
@attribute att16 numeric
@attribute att17 numeric
@attribute att18 numeric
@attribute att19 numeric
@attribute att20 numeric
@attribute att21 numeric
@attribute att22 numeric
@attribute att23 numeric
@attribute att24 numeric
@attribute att25 numeric
@attribute att26 numeric
@attribute att27 numeric
@attribute att28 numeric
@attribute att29 numeric
@attribute att30 numeric
@attribute att31 numeric
@attribute att32 numeric
@attribute att33 numeric
@attribute att34 numeric
@attribute att35 numeric
@attribute att36 numeric
@attribute att37 numeric
@attribute att38 numeric
@attribute att39 numeric
@attribute att40 numeric
@attribute att41 numeric
@attribute att42 numeric
@attribute att43 numeric
@attribute att44 numeric
@attribute att45 numeric
@attribute att46 numeric
@attribute att47 numeric
@attribute att48 numeric
@attribute att49 numeric
@attribute att50 numeric
@attribute att51 numeric
@attribute att52 numeric
@attribute att53 numeric
@attribute att54 numeric
@attribute att55 numeric
@attribute att56 numeric
@attribute att57 numeric
@attribute att58 numeric
@attribute att59 numeric
@attribute att60 numeric
@attribute att61 numeric
@attribute att62 numeric
@attribute att63 numeric
@attribute att64 numeric
@attribute att65 numeric
@attribute att66 numeric
@attribute att67 numeric
@attribute att68 numeric
@attribute att69 numeric
@attribute att70 numeric
@attribute att71 numeric
@attribute att72 numeric
@attribute att73 numeric
@attribute att74 numeric
@attribute att75 numeric
@attribute att76 numeric
@attribute att77 numeric
@attribute att78 numeric
@attribute att79 numeric
@attribute att80 numeric
@attribute att81 numeric
@attribute att82 numeric
@attribute att83 numeric
@attribute att84 numeric
@attribute att85 numeric
@attribute att86 numeric
@attribute att87 numeric
@attribute att88 numeric
@attribute att89 numeric
@attribute att90 numeric
@attribute att91 numeric
@attribute att92 numeric
@attribute att93 numeric
@attribute att94 numeric
@attribute att95 numeric
@attribute att96 numeric
@attribute att97 numeric
@attribute att98 numeric
@attribute att99 numeric
@attribute att100 numeric
@attribute att101 numeric
@attribute att102 numeric
@attribute att103 numeric
@attribute att104 numeric
@attribute att105 numeric
@attribute att106 numeric
@attribute att107 numeric
@attribute att108 numeric
@attribute att109 numeric
@attribute att110 numeric
@attribute att111 numeric
@attribute att112 numeric
@attribute att113 numeric
@attribute att114 numeric
@attribute att115 numeric
@attribute att116 numeric
@attribute att117 numeric
@attribute att118 numeric
@attribute att119 numeric
@attribute att120 numeric
@attribute att121 numeric
@attribute att122 numeric
@attribute att123 numeric
@attribute att124 numeric
@attribute att125 numeric
@attribute att126 numeric
@attribute att127 numeric
@attribute att128 numeric
@attribute att129 numeric
@attribute att130 numeric
@attribute att131 numeric
@attribute att132 numeric
@attribute att133 numeric
@attribute att134 numeric
@attribute att135 numeric
@attribute att136 numeric
@attribute att137 numeric
@attribute att138 numeric
@attribute att139 numeric
@attribute att140 numeric
@attribute att141 numeric
@attribute att142 numeric
@attribute att143 numeric
@attribute att144 numeric
@attribute att145 numeric
@attribute att146 numeric
@attribute att147 numeric
@attribute att148 numeric
@attribute att149 numeric
@attribute att150 numeric
@attribute att151 numeric
@attribute att152 numeric
@attribute att153 numeric
@attribute att154 numeric
@attribute att155 numeric
@attribute att156 numeric
@attribute att157 numeric
@attribute att158 numeric
@attribute att159 numeric
@attribute att160 numeric
@attribute att161 numeric
@attribute att162 numeric
@attribute att163 numeric
@attribute att164 numeric
@attribute att165 numeric
@attribute att166 numeric
@attribute att167 numeric
@attribute att168 numeric
@attribute att169 numeric
@attribute att170 numeric
@attribute att171 numeric
@attribute att172 numeric
@attribute att173 numeric
@attribute att174 numeric
@attribute att175 numeric
@attribute att176 numeric
@attribute att177 numeric
@attribute att178 numeric
@attribute att179 numeric
@attribute att180 numeric
@attribute att181 numeric
@attribute att182 numeric
@attribute att183 numeric
@attribute att184 numeric
@attribute att185 numeric
@attribute att186 numeric
@attribute att187 numeric
@attribute att188 numeric
@attribute att189 numeric
@attribute att190 numeric
@attribute att191 numeric
@attribute att192 numeric
@attribute att193 numeric
@attribute att194 numeric
@attribute att195 numeric
@attribute att196 numeric
@attribute att197 numeric
@attribute att198 numeric
@attribute att199 numeric
@attribute att200 numeric
@attribute att201 numeric
@attribute att202 numeric
@attribute att203 numeric
@attribute att204 numeric
@attribute att205 numeric
@attribute att206 numeric
@attribute att207 numeric
@attribute att208 numeric
@attribute att209 numeric
@attribute att210 numeric
@attribute att211 numeric
@attribute att212 numeric
@attribute att213 numeric
@attribute att214 numeric
@attribute att215 numeric
@attribute att216 numeric
@attribute att217 numeric
@attribute att218 numeric
@attribute att219 numeric
@attribute att220 numeric
@attribute att221 numeric
@attribute att222 numeric
@attribute att223 numeric
@attribute att224 numeric
@attribute att225 numeric
@attribute att226 numeric
@attribute att227 numeric
@attribute att228 numeric
@attribute att229 numeric
@attribute att230 numeric
@attribute att231 numeric
@attribute att232 numeric
@attribute att233 numeric
@attribute att234 numeric
@attribute att235 numeric
@attribute att236 numeric
@attribute att237 numeric
@attribute att238 numeric
@attribute att239 numeric
@attribute att240 numeric
@attribute att241 numeric
@attribute att242 numeric
@attribute att243 numeric
@attribute att244 numeric
@attribute att245 numeric
@attribute att246 numeric
@attribute att247 numeric
@attribute att248 numeric
@attribute att249 numeric
@attribute att250 numeric
@attribute att251 numeric
@attribute att252 numeric
@attribute att253 numeric
@attribute att254 numeric
@attribute att255 numeric
@attribute att256 numeric
@attribute att257 numeric
@attribute att258 numeric
@attribute att259 numeric
@attribute att260 numeric
@attribute att261 numeric
@attribute att262 numeric
@attribute att263 numeric
@attribute att264 numeric
@attribute att265 numeric
@attribute att266 numeric
@attribute att267 numeric
@attribute att268 numeric
@attribute att269 numeric
@attribute att270 numeric
@attribute att271 numeric
@attribute att272 numeric
@attribute att273 numeric
@attribute att274 numeric
@attribute att275 numeric
@attribute att276 numeric
@attribute att277 numeric
@attribute att278 numeric
@attribute att279 numeric
@attribute att280 numeric
@attribute att281 numeric
@attribute att282 numeric
@attribute att283 numeric
@attribute att284 numeric
@attribute att285 numeric
@attribute att286 numeric
@attribute att287 numeric
@attribute att288 numeric
@attribute att289 numeric
@attribute att290 numeric
@attribute att291 numeric
@attribute att292 numeric
@attribute att293 numeric
@attribute att294 numeric
@attribute att295 numeric
@attribute att296 numeric
@attribute att297 numeric
@attribute att298 numeric
@attribute att299 numeric
@attribute att300 numeric
@attribute att301 numeric
@attribute att302 numeric
@attribute att303 numeric
@attribute att304 numeric
@attribute att305 numeric
@attribute att306 numeric
@attribute att307 numeric
@attribute att308 numeric
@attribute att309 numeric
@attribute att310 numeric
@attribute att311 numeric
@attribute att312 numeric
@attribute att313 numeric
@attribute att314 numeric
@attribute att315 numeric
@attribute att316 numeric
@attribute att317 numeric
@attribute att318 numeric
@attribute att319 numeric
@attribute att320 numeric
@attribute att321 numeric
@attribute att322 numeric
@attribute att323 numeric
@attribute att324 numeric
@attribute att325 numeric
@attribute att326 numeric
@attribute att327 numeric
@attribute att328 numeric
@attribute att329 numeric
@attribute att330 numeric
@attribute att331 numeric
@attribute att332 numeric
@attribute att333 numeric
@attribute att334 numeric
@attribute att335 numeric
@attribute att336 numeric
@attribute att337 numeric
@attribute att338 numeric
@attribute att339 numeric
@attribute att340 numeric
@attribute att341 numeric
@attribute att342 numeric
@attribute att343 numeric
@attribute att344 numeric
@attribute att345 numeric
@attribute att346 numeric
@attribute att347 numeric
@attribute att348 numeric
@attribute att349 numeric
@attribute att350 numeric
@attribute att351 numeric
@attribute att352 numeric
@attribute att353 numeric
@attribute att354 numeric
@attribute att355 numeric
@attribute att356 numeric
@attribute att357 numeric
@attribute att358 numeric
@attribute att359 numeric
@attribute att360 numeric
@attribute att361 numeric
@attribute att362 numeric
@attribute att363 numeric
@attribute att364 numeric
@attribute att365 numeric
@attribute att366 numeric
@attribute att367 numeric
@attribute att368 numeric
@attribute att369 numeric
@attribute att370 numeric
@attribute att371 numeric
@attribute att372 numeric
@attribute att373 numeric
@attribute att374 numeric
@ATTRIBUTE class {+1,-1}

@DATA
{1 1, 7 1, 8 1, 9 1, 10 1, 15 1, 17 1, 19 1, 25 1, 26 1, 30 1, 31 1, 33 1, 35 1, 36 1, 37 1, 40 1, 48 1, 49 1, 50 1, 51 1, 53 1, 55 1, 58 1, 62 1, 63 1, 64 1, 66 1, 72 1, 78 1, 79 1, 81 1, 87 1, 88 1, 90 1, 92 1, 94 1, 95 1, 96 1, 100 1, 104 1, 105 1, 111 1, 112 1, 114 1, 115 1, 117 1, 119 1, 121 1, 125 1, 126 1, 127 1, 130 1, 132 1, 134 1, 135 1, 139 1, 140 1, 142 1, 144 1, 146 1, 148 1, 149 1, 153 1, 155 1, 156 1, 162 1, 163 1, 164 1, 165 1, 169 1, 174 1, 176 1, 180 1, 181 1, 187 1, 188 1, 189 1, 190 1, 194 1, 199 1, 201 1, 202 1, 208 1, 209 1, 213 1, 215 1, 216 1, 218 1, 220 1, 221 1, 223 1, 229 1, 230 1, 231 1, 232 1, 233 1, 239 1, 240 1, 246 1, 250 1, 251 1, 255 1, 261 1, 262 1, 263 1, 264 1, 269 1, 270 1, 271 1, 273 1, 276 1, 277 1, 278 1, 280 1, 283 1, 285 1, 286 1, 288 1, 290 1, 291 1, 295 1, 299 1, 300 1, 301 1, 309 1, 315 1, 316 1, 318 1, 324 1, 326 1, 327 1, 335 1, 336 1, 342 1, 343 1, 345 1, 347 1, 349 1, 350 1, 354 1, 355 1, 357 1, 363 1, 367 1, 368 1, 369 1, 370 1, 372 1, 375 -1}
{1 1, 7 1, 8 1, 9 1, 10 1, 15 1, 17 1, 19 1, 25 1, 26 1, 30 1, 31 1, 33 1, 35 1, 39 1, 40 1, 48 1, 49 1, 50 1, 51 1, 53 1, 55 1, 58 1, 62 1, 63 1, 64 1, 66 1, 72 1, 73 1, 74 1, 76 1, 79 1, 81 1, 82 1, 84 1, 86 1, 88 1, 90 1, 91 1, 95 1, 97 1, 99 1, 100 1, 104 1, 105 1, 106 1, 110 1, 114 1, 115 1, 117 1, 119 1, 121 1, 125 1, 126 1, 127 1, 130 1, 132 1, 134 1, 135 1, 139 1, 140 1, 142 1, 144 1, 146 1, 148 1, 149 1, 153 1, 155 1, 156 1, 162 1, 163 1, 164 1, 165 1, 169 1, 174 1, 176 1, 180 1, 181 1, 187 1, 188 1, 189 1, 190 1, 194 1, 199 1, 201 1, 202 1, 208 1, 209 1, 210 1, 212 1, 216 1, 217 1, 223 1, 229 1, 230 1, 231 1, 232 1, 233 1, 239 1, 241 1, 243 1, 245 1, 246 1, 247 1, 248 1, 255 1, 261 1, 262 1, 263 1, 265 1, 266 1, 269 1, 270 1, 271 1, 273 1, 276 1, 277 1, 281 1, 283 1, 284 1, 288 1, 290 1, 291 1, 295 1, 299 1, 300 1, 302 1, 304 1, 305 1, 309 1, 315 1, 316 1, 318 1, 324 1, 326 1, 327 1, 335 1, 336 1, 342 1, 343 1, 345 1, 347 1, 349 1, 351 1, 353 1, 354 1, 358 1, 362 1, 363 1, 367 1, 368 1, 369 1, 370 1, 371 1, 375 -1}
{1 1, 2 1, 3 1, 4 1, 8 1, 12 1, 13 1, 15 1, 17 1, 19 1, 20 1, 21 1, 26 1, 27 1, 28 1, 33 1, 35 1, 36 1, 38 1, 40 1, 41 1, 42 1, 49 1, 57 1, 58 1, 59 1, 61 1, 63 1, 67 1, 68 1, 72 1, 73 1, 77 1, 79 1, 80 1, 88 1, 89 1, 95 1, 96 1, 100 1, 101 1, 103 1, 105 1, 106 1, 110 1, 114 1, 120 1, 121 1, 122 1, 123 1, 130 1, 132 1, 134 1, 135 1, 136 1, 138 1, 144 1, 145 1, 149 1, 150 1, 152 1, 156 1, 157 1, 158 1, 160 1, 163 1, 164 1, 165 1, 166 1, 167 1, 174 1, 176 1, 180 1, 181 1, 182 1, 183 1, 188 1, 189 1, 195 1, 196 1, 199 1, 200 1, 202 1, 203 1, 207 1, 209 1, 210 1, 212 1, 216 1, 218 1, 220 1, 221 1, 223 1, 224 1, 225 1, 227 1, 230 1, 231 1, 237 1, 239 1, 240 1, 246 1, 247 1, 248 1, 255 1, 256 1, 257 1, 259 1, 262 1, 268 1, 269 1, 275 1, 276 1, 277 1, 278 1, 279 1, 283 1, 284 1, 288 1, 290 1, 291 1, 295 1, 296 1, 297 1, 300 1, 301 1, 309 1, 310 1, 311 1, 313 1, 318 1, 319 1, 320 1, 321 1, 327 1, 328 1, 329 1, 330 1, 331 1, 336 1, 337 1, 338 1, 339 1, 345 1, 346 1, 354 1, 355 1, 356 1, 363 1, 364 1, 365 1, 368 1, 374 1, 375 -1}
{1 1, 7 1, 8 1, 12 1, 13 1, 15 1, 17 1, 19 1, 20 1, 21 1, 26 1, 30 1, 31 1, 33 1, 35 1, 39 1, 40 1, 41 1, 42 1, 49 1, 57 1, 58 1, 59 1, 61 1, 63 1, 67 1, 69 1, 70 1, 72 1, 73 1, 77 1, 79 1, 81 1, 82 1, 83 1, 88 1, 89 1, 95 1, 96 1, 100 1, 101 1, 103 1, 105 1, 111 1, 113 1, 114 1, 120 1, 121 1, 122 1, 124 1, 130 1, 132 1, 134 1, 135 1, 136 1, 138 1, 144 1, 145 1, 149 1, 153 1, 155 1, 156 1, 157 1, 158 1, 160 1, 163 1, 171 1, 172 1, 174 1, 176 1, 180 1, 181 1, 182 1, 183 1, 188 1, 189 1, 190 1, 191 1, 193 1, 199 1, 200 1, 202 1, 203 1, 204 1, 206 1, 209 1, 210 1, 212 1, 216 1, 218 1, 220 1, 221 1, 223 1, 224 1, 225 1, 227 1, 230 1, 231 1, 237 1, 239 1, 241 1, 243 1, 245 1, 246 1, 247 1, 249 1, 255 1, 256 1, 257 1, 259 1, 262 1, 263 1, 265 1, 266 1, 269 1, 270 1, 274 1, 276 1, 277 1, 281 1, 283 1, 284 1, 288 1, 290 1, 291 1, 295 1, 296 1, 298 1, 300 1, 302 1, 304 1, 305 1, 309 1, 310 1, 311 1, 313 1, 318 1, 319 1, 320 1, 322 1, 327 1, 328 1, 329 1, 333 1, 336 1, 342 1, 343 1, 345 1, 347 1, 349 1, 351 1, 352 1, 354 1, 358 1, 359 1, 360 1, 363 1, 367 1, 368 1, 369 1, 373 1, 375 -1}
{1 1, 2 1, 6 1, 8 1, 12 1, 13 1, 15 1, 17 1, 19 1, 20 1, 21 1, 26 1, 27 1, 28 1, 33 1, 34 1, 40 1, 41 1, 42 1, 49 1, 50 1, 51 1, 52 1, 58 1, 59 1, 60 1, 63 1, 64 1, 66 1, 72 1, 73 1, 74 1, 76 1, 79 1, 80 1, 88 1, 89 1, 95 1, 96 1, 100 1, 101 1, 102 1, 105 1, 111 1, 112 1, 114 1, 115 1, 117 1, 118 1, 121 1, 122 1, 124 1, 130 1, 132 1, 133 1, 135 1, 136 1, 137 1, 144 1, 145 1, 149 1, 150 1, 152 1, 156 1, 157 1, 158 1, 159 1, 163 1, 164 1, 165 1, 166 1, 167 1, 174 1, 175 1, 181 1, 182 1, 183 1, 188 1, 189 1, 190 1, 191 1, 192 1, 199 1, 200 1, 202 1, 203 1, 204 1, 205 1, 209 1, 210 1, 212 1, 216 1, 218 1, 219 1, 223 1, 224 1, 225 1, 227 1, 230 1, 231 1, 232 1, 234 1, 235 1, 239 1, 240 1, 246 1, 247 1, 248 1, 255 1, 256 1, 257 1, 258 1, 262 1, 263 1, 265 1, 266 1, 269 1, 270 1, 274 1, 276 1, 277 1, 278 1, 280 1, 283 1, 284 1, 288 1, 289 1, 295 1, 296 1, 297 1, 300 1, 302 1, 303 1, 309 1, 310 1, 311 1, 312 1, 318 1, 319 1, 320 1, 321 1, 327 1, 328 1, 329 1, 330 1, 332 1, 336 1, 337 1, 341 1, 345 1, 346 1, 354 1, 358 1, 359 1, 360 1, 363 1, 364 1, 365 1, 368 1, 369 1, 370 1, 371 1, 375 +1}
{1 1, 7 1, 8 1, 9 1, 10 1, 15 1, 17 1, 19 1, 25 1, 26 1, 30 1, 31 1, 33 1, 35 1, 39 1, 40 1, 48 1, 49 1, 50 1, 51 1, 53 1, 55 1, 58 1, 62 1, 63 1, 64 1, 66 1, 72 1, 78 1, 79 1, 81 1, 82 1, 84 1, 86 1, 88 1, 90 1, 92 1, 94 1, 95 1, 97 1, 99 1, 100 1, 104 1, 105 1, 106 1, 110 1, 114 1, 115 1, 117 1, 119 1, 121 1, 125 1, 126 1, 127 1, 130 1, 132 1, 134 1, 135 1, 139 1, 140 1, 142 1, 144 1, 146 1, 148 1, 149 1, 153 1, 155 1, 156 1, 162 1, 163 1, 164 1, 165 1, 169 1, 174 1, 176 1, 180 1, 181 1, 182 1, 184 1, 186 1, 188 1, 189 1, 190 1, 194 1, 199 1, 201 1, 202 1, 203 1, 204 1, 205 1, 209 1, 213 1, 215 1, 216 1, 217 1, 223 1, 224 1, 228 1, 230 1, 231 1, 232 1, 233 1, 239 1, 241 1, 243 1, 245 1, 246 1, 250 1, 251 1, 255 1, 261 1, 262 1, 263 1, 265 1, 266 1, 269 1, 270 1, 271 1, 273 1, 276 1, 277 1, 281 1, 283 1, 285 1, 287 1, 288 1, 290 1, 291 1, 295 1, 296 1, 297 1, 300 1, 302 1, 304 1, 305 1, 309 1, 315 1, 316 1, 318 1, 324 1, 326 1, 327 1, 335 1, 336 1, 342 1, 343 1, 345 1, 347 1, 349 1, 351 1, 353 1, 354 1, 358 1, 362 1, 363 1, 367 1, 368 1, 369 1, 370 1, 372 1, 375 -1}
{1 1, 2 1, 6 1, 8 1, 12 1, 14 1, 15 1, 17 1, 19 1, 20 1, 21 1, 26 1, 27 1, 29 1, 33 1, 35 1, 36 1, 37 1, 40 1, 41 1, 43 1, 47 1, 49 1, 50 1, 51 1, 52 1, 58 1, 59 1, 60 1, 63 1, 64 1, 66 1, 72 1, 73 1, 74 1, 76 1, 79 1, 80 1, 88 1, 90 1, 91 1, 95 1, 97 1, 98 1, 100 1, 101 1, 102 1, 105 1, 111 1, 112 1, 114 1, 115 1, 116 1, 121 1, 122 1, 123 1, 130 1, 132 1, 133 1, 135 1, 136 1, 138 1, 144 1, 146 1, 147 1, 149 1, 150 1, 152 1, 156 1, 157 1, 161 1, 163 1, 164 1, 165 1, 166 1, 168 1, 174 1, 175 1, 181 1, 182 1, 184 1, 186 1, 188 1, 189 1, 190 1, 191 1, 192 1, 199 1, 200 1, 202 1, 203 1, 204 1, 205 1, 209 1, 210 1, 212 1, 216 1, 217 1, 223 1, 224 1, 225 1, 227 1, 230 1, 231 1, 232 1, 234 1, 235 1, 239 1, 241 1, 243 1, 244 1, 246 1, 247 1, 248 1, 255 1, 256 1, 257 1, 258 1, 262 1, 263 1, 265 1, 266 1, 269 1, 270 1, 274 1, 276 1, 277 1, 278 1, 280 1, 283 1, 284 1, 288 1, 289 1, 295 1, 296 1, 297 1, 300 1, 302 1, 303 1, 309 1, 310 1, 314 1, 318 1, 319 1, 323 1, 327 1, 328 1, 334 1, 336 1, 337 1, 341 1, 345 1, 346 1, 354 1, 358 1, 359 1, 360 1, 363 1, 364 1, 366 1, 368 1, 369 1, 370 1, 371 1, 375 +1}
{1 1, 7 1, 8 1, 9 1, 10 1, 15 1, 17 1, 18 1, 26 1, 30 1, 31 1, 33 1, 35 1, 39 1, 40 1, 48 1, 49 1, 57 1, 58 1, 59 1, 61 1, 63 1, 67 1, 69 1, 71 1, 72 1, 73 1, 77 1, 79 1, 81 1, 82 1, 83 1, 88 1, 90 1, 92 1, 94 1, 95 1, 97 1, 98 1, 100 1, 104 1, 105 1, 106 1, 110 1, 114 1, 120 1, 121 1, 125 1, 129 1, 130 1, 131 1, 135 1, 136 1, 138 1, 144 1, 146 1, 147 1, 149 1, 153 1, 154 1, 156 1, 162 1, 163 1, 164 1, 165 1, 169 1, 174 1, 176 1, 180 1, 181 1, 187 1, 188 1, 189 1, 190 1, 191 1, 192 1, 199 1, 201 1, 202 1, 208 1, 209 1, 213 1, 215 1, 216 1, 217 1, 223 1, 229 1, 230 1, 231 1, 237 1, 239 1, 241 1, 243 1, 245 1, 246 1, 250 1, 251 1, 255 1, 261 1, 262 1, 268 1, 269 1, 275 1, 276 1, 277 1, 281 1, 283 1, 285 1, 286 1, 288 1, 290 1, 291 1, 295 1, 299 1, 300 1, 301 1, 309 1, 310 1, 311 1, 313 1, 318 1, 324 1, 326 1, 327 1, 328 1, 329 1, 333 1, 336 1, 342 1, 343 1, 345 1, 347 1, 348 1, 354 1, 358 1, 362 1, 363 1, 364 1, 366 1, 368 1, 369 1, 373 1, 375 -1}
{1 1, 2 1, 3 1, 5 1, 8 1, 9 1, 11 1, 15 1, 17 1, 18 1, 26 1, 27 1, 29 1, 33 1, 34 1, 40 1, 48 1, 49 1, 57 1, 58 1, 62 1, 63 1, 67 1, 69 1, 70 1, 72 1, 73 1, 77 1, 79 1, 81 1, 82 1, 84 1, 85 1, 88 1, 90 1, 91 1, 95 1, 97 1, 98 1, 100 1, 104 1, 105 1, 106 1, 110 1, 114 1, 120 1, 121 1, 125 1, 126 1, 127 1, 130 1, 131 1, 135 1, 139 1, 140 1, 141 1, 144 1, 146 1, 147 1, 149 1, 153 1, 154 1, 156 1, 157 1, 161 1, 163 1, 164 1, 170 1, 174 1, 176 1, 180 1, 181 1, 182 1, 184 1, 186 1, 188 1, 198 1, 199 1, 200 1, 202 1, 203 1, 204 1, 205 1, 209 1, 213 1, 214 1, 216 1, 218 1, 220 1, 222 1, 223 1, 224 1, 225 1, 227 1, 230 1, 238 1, 239 1, 241 1, 242 1, 246 1, 250 1, 252 1, 253 1, 255 1, 256 1, 260 1, 262 1, 263 1, 265 1, 266 1, 269 1, 270 1, 274 1, 276 1, 277 1, 281 1, 283 1, 284 1, 288 1, 290 1, 292 1, 293 1, 295 1, 296 1, 297 1, 300 1, 302 1, 304 1, 306 1, 307 1, 309 1, 315 1, 316 1, 318 1, 324 1, 325 1, 327 1, 328 1, 334 1, 336 1, 337 1, 341 1, 345 1, 347 1, 349 1, 351 1, 353 1, 354 1, 355 1, 356 1, 363 1, 367 1, 368 1, 369 1, 370 1, 371 1, 375 +1}
{1 1, 7 1, 8 1, 9 1, 11 1, 15 1, 17 1, 19 1, 25 1, 26 1, 30 1, 31 1, 33 1, 34 1, 40 1, 48 1, 49 1, 50 1, 56 1, 58 1, 62 1, 63 1, 64 1, 65 1, 72 1, 78 1, 79 1, 81 1, 82 1, 84 1, 86 1, 88 1, 90 1, 92 1, 94 1, 95 1, 97 1, 99 1, 100 1, 104 1, 105 1, 111 1, 113 1, 114 1, 120 1, 121 1, 125 1, 129 1, 130 1, 132 1, 134 1, 135 1, 136 1, 138 1, 144 1, 146 1, 148 1, 149 1, 153 1, 155 1, 156 1, 162 1, 163 1, 164 1, 165 1, 169 1, 174 1, 176 1, 180 1, 181 1, 182 1, 183 1, 188 1, 189 1, 190 1, 194 1, 199 1, 201 1, 202 1, 208 1, 209 1, 210 1, 211 1, 216 1, 218 1, 220 1, 221 1, 223 1, 229 1, 230 1, 231 1, 237 1, 239 1, 240 1, 246 1, 250 1, 251 1, 255 1, 261 1, 262 1, 268 1, 269 1, 275 1, 276 1, 277 1, 278 1, 279 1, 283 1, 285 1, 286 1, 288 1, 290 1, 292 1, 294 1, 295 1, 299 1, 300 1, 302 1, 304 1, 305 1, 309 1, 315 1, 316 1, 318 1, 324 1, 326 1, 327 1, 335 1, 336 1, 342 1, 343 1, 345 1, 347 1, 349 1, 350 1, 354 1, 358 1, 362 1, 363 1, 367 1, 368 1, 369 1, 373 1, 375 -1}
{1 1, 7 1, 8 1, 12 1, 14 1, 15 1, 16 1, 26 1, 30 1, 32 1, 33 1, 34 1, 40 1, 41 1, 43 1, 47 1, 49 1, 50 1, 51 1, 52 1, 58 1, 59 1, 60 1, 63 1, 64 1, 66 1, 72 1, 73 1, 74 1, 76 1, 79 1, 81 1, 82 1, 83 1, 88 1, 90 1, 92 1, 93 1, 95 1, 97 1, 98 1, 100 1, 101 1, 102 1, 105 1, 111 1, 112 1, 114 1, 115 1, 116 1, 121 1, 125 1, 126 1, 127 1, 130 1, 131 1, 135 1, 139 1, 143 1, 144 1, 146 1, 147 1, 149 1, 153 1, 154 1, 156 1, 157 1, 161 1, 163 1, 171 1, 173 1, 174 1, 176 1, 177 1, 178 1, 181 1, 182 1, 184 1, 186 1, 188 1, 189 1, 190 1, 191 1, 192 1, 199 1, 200 1, 202 1, 203 1, 204 1, 205 1, 209 1, 213 1, 214 1, 216 1, 217 1, 223 1, 229 1, 230 1, 238 1, 239 1, 241 1, 242 1, 246 1, 250 1, 252 1, 253 1, 255 1, 256 1, 257 1, 258 1, 262 1, 263 1, 265 1, 266 1, 269 1, 270 1, 274 1, 276 1, 282 1, 283 1, 285 1, 286 1, 288 1, 290 1, 291 1, 295 1, 296 1, 297 1, 300 1, 302 1, 304 1, 306 1, 307 1, 309 1, 310 1, 314 1, 318 1, 319 1, 323 1, 327 1, 328 1, 334 1, 336 1, 342 1, 344 1, 345 1, 347 1, 348 1, 354 1, 355 1, 356 1, 363 1, 367 1, 368 1, 369 1, 370 1, 372 1, 375 +1}
{1 1, 2 1, 6 1, 8 1, 12 1, 14 1, 15 1, 17 1, 19 1, 20 1, 22 1, 23 1, 26 1, 27 1, 29 1, 33 1, 35 1, 36 1, 37 1, 40 1, 41 1, 43 1, 44 1, 45 1, 49 1, 50 1, 51 1, 52 1, 58 1, 59 1, 60 1, 63 1, 67 1, 69 1, 70 1, 72 1, 73 1, 74 1, 76 1, 79 1, 80 1, 88 1, 90 1, 91 1, 95 1, 97 1, 98 1, 100 1, 101 1, 102 1, 105 1, 106 1, 110 1, 114 1, 115 1, 116 1, 121 1, 125 1, 126 1, 127 1, 130 1, 132 1, 133 1, 135 1, 139 1, 140 1, 141 1, 144 1, 146 1, 147 1, 149 1, 150 1, 152 1, 156 1, 157 1, 161 1, 163 1, 164 1, 165 1, 166 1, 168 1, 174 1, 175 1, 181 1, 182 1, 184 1, 186 1, 188 1, 189 1, 190 1, 191 1, 192 1, 199 1, 200 1, 202 1, 203 1, 204 1, 205 1, 209 1, 210 1, 212 1, 216 1, 217 1, 223 1, 224 1, 225 1, 227 1, 230 1, 231 1, 232 1, 234 1, 235 1, 239 1, 241 1, 243 1, 244 1, 246 1, 247 1, 248 1, 255 1, 256 1, 257 1, 258 1, 262 1, 263 1, 265 1, 266 1, 269 1, 270 1, 274 1, 276 1, 277 1, 278 1, 280 1, 283 1, 284 1, 288 1, 289 1, 295 1, 296 1, 297 1, 300 1, 302 1, 303 1, 309 1, 310 1, 314 1, 318 1, 319 1, 323 1, 327 1, 328 1, 334 1, 336 1, 337 1, 341 1, 345 1, 346 1, 354 1, 358 1, 359 1, 360 1, 363 1, 364 1, 366 1, 368 1, 369 1, 370 1, 371 1, 375 +1}
{1 1, 2 1, 6 1, 8 1, 12 1, 14 1, 15 1, 17 1, 18 1, 26 1, 27 1, 29 1, 33 1, 35 1, 36 1, 37 1, 40 1, 41 1, 43 1, 47 1, 49 1, 50 1, 51 1, 52 1, 58 1, 59 1, 60 1, 63 1, 67 1, 69 1, 70 1, 72 1, 73 1, 74 1, 76 1, 79 1, 80 1, 88 1, 90 1, 91 1, 95 1, 97 1, 98 1, 100 1, 101 1, 102 1, 105 1, 111 1, 112 1, 114 1, 115 1, 116 1, 121 1, 125 1, 129 1, 130 1, 131 1, 135 1, 139 1, 143 1, 144 1, 146 1, 147 1, 149 1, 150 1, 152 1, 156 1, 157 1, 161 1, 163 1, 171 1, 173 1, 174 1, 175 1, 181 1, 182 1, 184 1, 186 1, 188 1, 189 1, 195 1, 197 1, 199 1, 200 1, 202 1, 203 1, 204 1, 205 1, 209 1, 210 1, 212 1, 216 1, 217 1, 223 1, 224 1, 225 1, 227 1, 230 1, 231 1, 232 1, 234 1, 235 1, 239 1, 241 1, 242 1, 246 1, 247 1, 248 1, 255 1, 256 1, 257 1, 258 1, 262 1, 263 1, 264 1, 269 1, 270 1, 274 1, 276 1, 277 1, 281 1, 283 1, 284 1, 288 1, 290 1, 291 1, 295 1, 296 1, 298 1, 300 1, 302 1, 303 1, 309 1, 310 1, 311 1, 313 1, 318 1, 319 1, 323 1, 327 1, 328 1, 329 1, 330 1, 331 1, 336 1, 337 1, 338 1, 339 1, 345 1, 346 1, 354 1, 358 1, 359 1, 361 1, 363 1, 364 1, 366 1, 368 1, 374 1, 375 +1}
{1 1, 2 1, 6 1, 8 1, 12 1, 14 1, 15 1, 17 1, 19 1, 20 1, 22 1, 23 1, 26 1, 27 1, 29 1, 33 1, 35 1, 36 1, 37 1, 40 1, 41 1, 43 1, 47 1, 49 1, 50 1, 51 1, 53 1, 54 1, 58 1, 62 1, 63 1, 67 1, 69 1, 70 1, 72 1, 73 1, 74 1, 76 1, 79 1, 81 1, 82 1, 84 1, 85 1, 88 1, 90 1, 91 1, 95 1, 97 1, 98 1, 100 1, 104 1, 105 1, 106 1, 107 1, 109 1, 114 1, 115 1, 117 1, 118 1, 121 1, 125 1, 126 1, 127 1, 130 1, 132 1, 134 1, 135 1, 139 1, 143 1, 144 1, 146 1, 147 1, 149 1, 153 1, 155 1, 156 1, 157 1, 161 1, 163 1, 164 1, 165 1, 169 1, 174 1, 176 1, 177 1, 178 1, 181 1, 182 1, 184 1, 186 1, 188 1, 189 1, 195 1, 197 1, 199 1, 200 1, 202 1, 203 1, 204 1, 205 1, 209 1, 210 1, 212 1, 216 1, 218 1, 219 1, 223 1, 224 1, 225 1, 227 1, 230 1, 231 1, 232 1, 234 1, 235 1, 239 1, 241 1, 243 1, 244 1, 246 1, 247 1, 248 1, 255 1, 256 1, 260 1, 262 1, 263 1, 265 1, 266 1, 269 1, 270 1, 271 1, 272 1, 276 1, 277 1, 278 1, 280 1, 283 1, 284 1, 288 1, 290 1, 291 1, 295 1, 296 1, 297 1, 300 1, 302 1, 303 1, 309 1, 310 1, 314 1, 318 1, 324 1, 325 1, 327 1, 328 1, 334 1, 336 1, 337 1, 338 1, 340 1, 345 1, 347 1, 349 1, 351 1, 353 1, 354 1, 355 1, 356 1, 363 1, 364 1, 366 1, 368 1, 374 1, 375 +1}
{1 1, 7 1, 8 1, 12 1, 14 1, 15 1, 17 1, 19 1, 25 1, 26 1, 30 1, 31 1, 33 1, 35 1, 36 1, 37 1, 40 1, 48 1, 49 1, 57 1, 58 1, 62 1, 63 1, 67 1, 68 1, 72 1, 78 1, 79 1, 81 1, 82 1, 84 1, 85 1, 88 1, 89 1, 95 1, 96 1, 100 1, 104 1, 105 1, 106 1, 110 1, 114 1, 115 1, 117 1, 119 1, 121 1, 125 1, 126 1, 128 1, 130 1, 132 1, 134 1, 135 1, 139 1, 140 1, 142 1, 144 1, 146 1, 148 1, 149 1, 153 1, 155 1, 156 1, 162 1, 163 1, 164 1, 170 1, 174 1, 176 1, 180 1, 181 1, 187 1, 188 1, 189 1, 190 1, 194 1, 199 1, 201 1, 202 1, 208 1, 209 1, 213 1, 215 1, 216 1, 218 1, 220 1, 221 1, 223 1, 224 1, 228 1, 230 1, 231 1, 232 1, 234 1, 236 1, 239 1, 240 1, 246 1, 250 1, 252 1, 254 1, 255 1, 261 1, 262 1, 263 1, 265 1, 267 1, 269 1, 270 1, 271 1, 273 1, 276 1, 282 1, 283 1, 284 1, 288 1, 290 1, 291 1, 295 1, 299 1, 300 1, 302 1, 304 1, 306 1, 308 1, 309 1, 315 1, 317 1, 318 1, 324 1, 326 1, 327 1, 335 1, 336 1, 342 1, 343 1, 345 1, 347 1, 349 1, 350 1, 354 1, 358 1, 362 1, 363 1, 367 1, 368 1, 369 1, 370 1, 372 1, 375 -1}
{1 1, 2 1, 6 1, 8 1, 12 1, 14 1, 15 1, 17 1, 19 1, 20 1, 21 1, 26 1, 27 1, 28 1, 33 1, 35 1, 36 1, 37 1, 40 1, 41 1, 42 1, 49 1, 50 1, 51 1, 52 1, 58 1, 59 1, 60 1, 63 1, 67 1, 69 1, 70 1, 72 1, 73 1, 74 1, 76 1, 79 1, 80 1, 88 1, 90 1, 91 1, 95 1, 97 1, 98 1, 100 1, 101 1, 102 1, 105 1, 111 1, 112 1, 114 1, 115 1, 117 1, 118 1, 121 1, 125 1, 126 1, 127 1, 130 1, 132 1, 133 1, 135 1, 139 1, 143 1, 144 1, 146 1, 147 1, 149 1, 150 1, 152 1, 156 1, 157 1, 161 1, 163 1, 171 1, 173 1, 174 1, 175 1, 181 1, 182 1, 183 1, 188 1, 189 1, 195 1, 197 1, 199 1, 200 1, 202 1, 203 1, 204 1, 205 1, 209 1, 210 1, 212 1, 216 1, 218 1, 220 1, 221 1, 223 1, 224 1, 225 1, 227 1, 230 1, 231 1, 232 1, 234 1, 235 1, 239 1, 241 1, 243 1, 244 1, 246 1, 247 1, 248 1, 255 1, 256 1, 257 1, 258 1, 262 1, 263 1, 265 1, 266 1, 269 1, 270 1, 274 1, 276 1, 277 1, 278 1, 280 1, 283 1, 284 1, 288 1, 289 1, 295 1, 296 1, 297 1, 300 1, 302 1, 303 1, 309 1, 310 1, 311 1, 313 1, 318 1, 319 1, 323 1, 327 1, 328 1, 334 1, 336 1, 337 1, 341 1, 345 1, 346 1, 354 1, 358 1, 359 1, 360 1, 363 1, 364 1, 366 1, 368 1, 374 1, 375 +1}
{1 1, 7 1, 8 1, 9 1, 10 1, 15 1, 17 1, 18 1, 26 1, 30 1, 31 1, 33 1, 34 1, 40 1, 41 1, 43 1, 44 1, 45 1, 49 1, 57 1, 58 1, 59 1, 60 1, 63 1, 67 1, 69 1, 70 1, 72 1, 73 1, 77 1, 79 1, 81 1, 87 1, 88 1, 90 1, 91 1, 95 1, 97 1, 98 1, 100 1, 104 1, 105 1, 106 1, 110 1, 114 1, 120 1, 121 1, 125 1, 126 1, 127 1, 130 1, 131 1, 135 1, 136 1, 138 1, 144 1, 146 1, 147 1, 149 1, 153 1, 154 1, 156 1, 157 1, 161 1, 163 1, 164 1, 170 1, 174 1, 176 1, 180 1, 181 1, 182 1, 184 1, 186 1, 188 1, 198 1, 199 1, 200 1, 202 1, 203 1, 204 1, 205 1, 209 1, 210 1, 212 1, 216 1, 217 1, 223 1, 224 1, 225 1, 227 1, 230 1, 238 1, 239 1, 241 1, 242 1, 246 1, 247 1, 248 1, 255 1, 256 1, 257 1, 258 1, 262 1, 263 1, 265 1, 266 1, 269 1, 270 1, 274 1, 276 1, 282 1, 283 1, 284 1, 288 1, 290 1, 292 1, 293 1, 295 1, 296 1, 297 1, 300 1, 302 1, 304 1, 306 1, 307 1, 309 1, 315 1, 317 1, 318 1, 324 1, 326 1, 327 1, 328 1, 334 1, 336 1, 342 1, 343 1, 345 1, 347 1, 348 1, 354 1, 355 1, 356 1, 363 1, 367 1, 368 1, 369 1, 373 1, 375 +1}
{1 1, 7 1, 8 1, 9 1, 10 1, 15 1, 17 1, 19 1, 25 1, 26 1, 30 1, 31 1, 33 1, 35 1, 39 1, 40 1, 41 1, 43 1, 44 1, 46 1, 49 1, 50 1, 51 1, 53 1, 55 1, 58 1, 62 1, 63 1, 64 1, 66 1, 72 1, 73 1, 74 1, 75 1, 79 1, 81 1, 82 1, 83 1, 88 1, 90 1, 92 1, 93 1, 95 1, 97 1, 98 1, 100 1, 104 1, 105 1, 106 1, 107 1, 108 1, 114 1, 115 1, 116 1, 121 1, 122 1, 123 1, 130 1, 132 1, 134 1, 135 1, 139 1, 140 1, 141 1, 144 1, 146 1, 147 1, 149 1, 153 1, 155 1, 156 1, 157 1, 161 1, 163 1, 164 1, 165 1, 169 1, 174 1, 176 1, 177 1, 179 1, 181 1, 182 1, 184 1, 185 1, 188 1, 189 1, 190 1, 194 1, 199 1, 200 1, 202 1, 203 1, 204 1, 205 1, 209 1, 213 1, 215 1, 216 1, 217 1, 223 1, 224 1, 225 1, 226 1, 230 1, 231 1, 232 1, 233 1, 239 1, 241 1, 243 1, 245 1, 246 1, 250 1, 251 1, 255 1, 256 1, 260 1, 262 1, 263 1, 264 1, 269 1, 270 1, 271 1, 272 1, 276 1, 277 1, 281 1, 283 1, 285 1, 287 1, 288 1, 290 1, 291 1, 295 1, 296 1, 298 1, 300 1, 301 1, 309 1, 310 1, 314 1, 318 1, 324 1, 326 1, 327 1, 328 1, 329 1, 333 1, 336 1, 342 1, 343 1, 345 1, 347 1, 348 1, 354 1, 358 1, 362 1, 363 1, 367 1, 368 1, 369 1, 370 1, 372 1, 375 -1}
{1 1, 7 1, 8 1, 12 1, 14 1, 15 1, 16 1, 26 1, 30 1, 32 1, 33 1, 34 1, 40 1, 41 1, 43 1, 47 1, 49 1, 50 1, 51 1, 52 1, 58 1, 59 1, 60 1, 63 1, 64 1, 65 1, 72 1, 73 1, 74 1, 76 1, 79 1, 81 1, 87 1, 88 1, 90 1, 92 1, 93 1, 95 1, 97 1, 98 1, 100 1, 101 1, 102 1, 105 1, 111 1, 112 1, 114 1, 115 1, 116 1, 121 1, 122 1, 123 1, 130 1, 131 1, 135 1, 139 1, 143 1, 144 1, 146 1, 147 1, 149 1, 150 1, 152 1, 156 1, 157 1, 158 1, 160 1, 163 1, 171 1, 173 1, 174 1, 176 1, 177 1, 178 1, 181 1, 182 1, 184 1, 186 1, 188 1, 198 1, 199 1, 200 1, 202 1, 203 1, 204 1, 205 1, 209 1, 213 1, 214 1, 216 1, 217 1, 223 1, 229 1, 230 1, 238 1, 239 1, 241 1, 242 1, 246 1, 250 1, 252 1, 253 1, 255 1, 256 1, 257 1, 258 1, 262 1, 263 1, 264 1, 269 1, 270 1, 274 1, 276 1, 277 1, 281 1, 283 1, 285 1, 286 1, 288 1, 290 1, 291 1, 295 1, 296 1, 297 1, 300 1, 302 1, 303 1, 309 1, 310 1, 314 1, 318 1, 319 1, 323 1, 327 1, 328 1, 334 1, 336 1, 342 1, 344 1, 345 1, 347 1, 348 1, 354 1, 355 1, 356 1, 363 1, 364 1, 366 1, 368 1, 369 1, 370 1, 372 1, 375 +1}
{1 1, 2 1, 3 1, 4 1, 8 1, 9 1, 10 1, 15 1, 17 1, 19 1, 20 1, 22 1, 24 1, 26 1, 27 1, 29 1, 33 1, 34 1, 40 1, 41 1, 42 1, 49 1, 50 1, 56 1, 58 1, 62 1, 63 1, 64 1, 66 1, 72 1, 73 1, 74 1, 75 1, 79 1, 81 1, 82 1, 83 1, 88 1, 90 1, 91 1, 95 1, 96 1, 100 1, 101 1, 103 1, 105 1, 106 1, 110 1, 114 1, 120 1, 121 1, 122 1, 123 1, 130 1, 132 1, 134 1, 135 1, 139 1, 140 1, 142 1, 144 1, 145 1, 149 1, 150 1, 151 1, 156 1, 157 1, 158 1, 160 1, 163 1, 164 1, 165 1, 166 1, 167 1, 174 1, 175 1, 181 1, 182 1, 183 1, 188 1, 189 1, 190 1, 194 1, 199 1, 200 1, 202 1, 203 1, 204 1, 206 1, 209 1, 210 1, 211 1, 216 1, 217 1, 223 1, 224 1, 225 1, 226 1, 230 1, 231 1, 232 1, 233 1, 239 1, 241 1, 243 1, 245 1, 246 1, 247 1, 248 1, 255 1, 256 1, 260 1, 262 1, 263 1, 264 1, 269 1, 270 1, 274 1, 276 1, 277 1, 281 1, 283 1, 284 1, 288 1, 290 1, 291 1, 295 1, 296 1, 297 1, 300 1, 301 1, 309 1, 310 1, 314 1, 318 1, 319 1, 320 1, 322 1, 327 1, 328 1, 334 1, 336 1, 337 1, 338 1, 339 1, 345 1, 347 1, 349 1, 350 1, 354 1, 355 1, 357 1, 363 1, 364 1, 365 1, 368 1, 369 1, 373 1, 375 -1}
