@relation ionosphere-weka.filters.unsupervised.ATTRIBUTE.Normalize-S1.0-T0.0

@ATTRIBUTE a01 numeric
@ATTRIBUTE a02 numeric
@ATTRIBUTE a03 numeric
@ATTRIBUTE a04 numeric
@ATTRIBUTE a05 numeric
@ATTRIBUTE a06 numeric
@ATTRIBUTE a07 numeric
@ATTRIBUTE a08 numeric
@ATTRIBUTE a09 numeric
@ATTRIBUTE a10 numeric
@ATTRIBUTE a11 numeric
@ATTRIBUTE a12 numeric
@ATTRIBUTE a13 numeric
@ATTRIBUTE a14 numeric
@ATTRIBUTE a15 numeric
@ATTRIBUTE a16 numeric
@ATTRIBUTE a17 numeric
@ATTRIBUTE a18 numeric
@ATTRIBUTE a19 numeric
@ATTRIBUTE a20 numeric
@ATTRIBUTE a21 numeric
@ATTRIBUTE a22 numeric
@ATTRIBUTE a23 numeric
@ATTRIBUTE a24 numeric
@ATTRIBUTE a25 numeric
@ATTRIBUTE a26 numeric
@ATTRIBUTE a27 numeric
@ATTRIBUTE a28 numeric
@ATTRIBUTE a29 numeric
@ATTRIBUTE a30 numeric
@ATTRIBUTE a31 numeric
@ATTRIBUTE a32 numeric
@ATTRIBUTE a33 numeric
@ATTRIBUTE a34 numeric
@ATTRIBUTE class {+1,-1}

@data
1,0,0.923565,0.483015,0.93206,0.457535,0.909765,0.5,0.868365,0.461785,0.859875,0.43206,0.874735,0.441615,0.887475,0.40658,0.89066,0.393845,0.80998,0.449045,0.895965,0.421445,0.94692,0.483015,0.92463,0.369425,0.870575,0.38344,0.83121,0.388535,0.863055,0.31104,0.829085,0.375795,+1
1,0,0.5,0.5,0.33164,0.92694,0.5,0.5,0.844345,0,0.98539,0.656925,0.36976,0.20394,0.348795,0.827825,0.970775,0.581955,0.5,0.5,0.5,0.5,0.409785,0,0.5,0.5,1,0,0.5,0.5,0.522235,0.809405,0.5,0.5,-1
1,0,0.97299,0.486575,0,0.630655,0.318035,0.678195,0.84629,0.182865,1,0.483235,0.3549,0.49725,0.22574,0.57726,0.959605,0.26865,1,0.24788,0.351325,0.34273,0.13068,0.686805,0.91936,0.26633,0.76104,0.20935,1,0.193035,0.45183,0.602385,0.469415,0.709565,-1
1,0,0.93524,0.690135,0.820495,0.84606,0.656735,0.933125,0.480335,0.9537,0.289135,0.89673,0.147195,0.7578,0.094755,0.613675,0.09432,0.437305,0.16263,0.30949,0.30833,0.185695,0.434935,0.14619,0.57776,0.167895,0.69272,0.24216,0.762865,0.350515,0.781195,0.47031,0.7573,0.583225,+1
1,0,1,0.54901,1,0.625505,0.99195,0.66522,0.901825,0.7651,0.874885,0.801485,0.784685,0.85971,0.776555,0.870395,0.64726,0.910965,0.605685,0.898885,0.548545,0.91081,0.49133,0.89935,0.42428,0.87798,0.385805,0.845935,0.341435,0.80474,0.298545,0.77261,0.285925,0.72267,+1
1,0,0.5,0.5,0.994595,0.386485,0.594595,0.472975,0.5,0.5,0.966215,0.536485,1,0.4,1,0.535135,1,0.443245,0.5,0.5,1,0.394595,1,0.29189,0.5,0.5,1,0.41216,0.5,0.5,1,0.37027,0.644595,0.42162,-1
0,0,0.5,0.5,0.5,0.5,1,0,0.5,0.5,0,0,0.5,0.5,0.5,0.5,1,1,0,0,0.5,0.5,0.5,0.5,1,1,1,1,0.5,0.5,1,1,0.5,0.5,-1
0,0,1,1,1,0,0.5,0.5,0.5,0.5,0,0,0.5,0.5,0.5,0.5,0,1,1,1,0,1,0,1,1,0,1,1,0,1,1,1,0.5,0.5,-1
1,0,1,0.488705,1,0.47753,1,0.46659,1,0.456005,1,0.780865,1,0.43631,1,0.42739,1,0.662035,1,0.411805,0.99742,0.405255,0.978005,0.399595,1,0.03858,0.9364,0.391035,0.9146,0.38815,0.892395,0.386175,0.86996,0.385095,+1
1,0,0.87458,0.512745,0.99497,0.54896,0.879275,0.564385,0.871565,0.45406,0.97921,0.51241,0.989605,0.497655,0.98055,0.550975,0.95741,0.51878,0.85513,0.513415,0.906105,0.45976,1,0.5,0.85882,0.493965,0.911355,0.51276,0.862175,0.494635,0.952045,0.55533,0.864185,0.51375,+1
1,0,1,0.52535,1,0.554135,1,0.59749,1,0.642265,1,0.67413,1,0.691305,0.972875,0.714405,0.94563,0.751955,0.87953,0.794005,0.90322,0.79981,0.89789,0.81379,0.833215,0.81971,0.797085,0.847175,0.74769,0.86342,0.735135,0.858445,0.666905,0.876215,+1
0,0,0,0,0.5,0.5,0.5,0.5,0.5,0.5,0.5,0.5,0.5,0.5,1,0,0.5,0.5,0,0,0.5,0.5,1,1,1,0,1,0,0.5,0.5,0.5,0.5,0.5,0.5,-1
1,0,1,0.52906,0.972625,0.53709,0.99976,0.566155,1,0.490445,0.97423,0.535165,0.978565,0.57322,0.97431,0.55612,0.95448,0.600595,0.983705,0.581325,0.998475,0.57129,0.95392,0.58205,0.958335,0.612155,0.942115,0.617855,0.94284,0.612555,0.89162,0.64788,0.91787,0.65583,+1
0,0,1,1,1,0,1,1,0,1,0.5,0.5,1,1,0.5,0.5,0.5,0.5,0,1,0,1,1,1,1,0,1,1,1,1,1,0,0,1,-1
1,0,0.950735,0.70893,0.820655,0.878625,0.6522,0.97574,0.397755,0.98267,0.222585,0.905955,0.090715,0.754745,0.01507,0.551725,0.04272,0.34294,0.149185,0.172695,0.33823,0.055005,0.529325,0.02914,0.722415,0.08923,0.870525,0.223845,0.947075,0.406375,0.939465,0.601795,0.852775,0.77426,+1
1,0,0.973155,0.58749,0.95473,0.665715,0.92548,0.7498,0.86839,0.81921,0.796075,0.86919,0.74349,0.91807,0.652295,0.953325,0.589795,0.967145,0.496495,0.965545,0.4056,0.946915,0.334885,0.91246,0.26733,0.88241,0.207185,0.831675,0.160355,0.76282,0.123395,0.71244,0.09395,0.63046,+1
1,0,0.899235,0.691325,0.90402,0.41518,1,0.461735,0.990755,0.46301,0.851085,0.603315,0.998725,0.510525,0.99107,0.512435,1,0.43463,0.978315,0.538585,1,0.500955,0.95153,0.65402,1,0.427295,1,0.49803,0.87819,0.53954,1,0.40625,1,0.4713,+1
1,0,0.5,0.5,0.5,0.5,1,1,0,0,0.5,0.5,1,0.444445,0.5,0.5,0.5,0.5,0,1,1,1,1,0,0.5,0.5,1,0,0.5,0.5,0.5,0.5,1,1,-1
0,0,0.5,0.5,0.5,0.5,0.5,0.5,0.5,0.5,0.5,0.5,0.5,0.5,0.5,0.5,0.5,0.5,0.5,0.5,0.5,0.5,0.5,0.5,0.5,0.5,1,0.5,0.5,0.5,0.5,0.5,0.5,0.5,-1
1,0,0.2291,0.574305,0.33127,0.866875,0.76006,0.43034,0.659445,0.465945,0.603715,0.42415,0.73684,0.54489,0.781735,0.4226,0.582045,0.726005,0.66873,0.51703,0.75232,0.535605,0.181115,0.19195,1,0.828175,0.70674,0.29942,0.42415,0.55573,0.511995,0.7791,0.76316,0.45511,-1
1,0,0.94853,0.691175,0.95588,0.6875,0.871325,0.838235,0.72794,0.889705,0.59559,0.944855,0.48897,0.930145,0.39706,0.911765,0.3125,0.838235,0.25,0.73897,0.132355,0.691175,0.069855,0.54412,0.128675,0.4375,0.160375,0.379345,0.224265,0.286765,0.27941,0.246325,0.35662,0.21691,+1
1,0,0.788235,0.492155,0.70196,0.5,0.692155,0.564705,0.7,0.47059,0.782355,0.57059,0.733335,0.541175,0.762745,0.47255,0.790195,0.507845,0.75098,0.5,0.72941,0.533335,0.790195,0.541175,0.74902,0.50196,0.743005,0.550195,0.731375,0.541175,0.72549,0.617645,0.715685,0.586275,+1
1,0,0.940515,0.495715,0.94909,0.487675,0.970525,0.49089,0.945875,0.436225,0.91104,0.44534,0.944265,0.505895,0.95391,0.431405,0.93569,0.469455,0.95391,0.48821,0.93998,0.427115,0.914255,0.437835,0.950695,0.402465,0.941225,0.425485,0.92176,0.43569,0.94212,0.40729,0.958735,0.415865,+1
1,0,0.87042,0.52487,0.89537,0.512715,0.892875,0.518965,0.83115,0.54974,0.839005,0.65576,0.87967,0.53674,0.873475,0.54221,0.853405,0.460735,0.818065,0.5,0.850105,0.556775,0.840915,0.560925,0.83508,0.577225,0.82079,0.56804,0.828535,0.587695,0.798795,0.573485,0.787275,0.57557,+1
1,0,1,0.757575,0.727275,0.666665,0.530305,0.68182,0.33948,0.86531,0.272725,0.742425,0.21212,0.5,0.21212,0.439395,0.333335,0.257575,0.454545,0.07576,0.742425,0.21212,0.78788,0.28788,1,0.30303,0.864805,0.561655,0.98485,0.78788,0.62121,0.68182,0.545455,0.666665,+1
1,0,0.666665,0.375,0.72222,0.61111,0.694445,0.583335,0.708335,0.569445,0.75,0.444445,0.774555,0.457785,0.791665,0.666665,0.77778,0.51389,0.625,0.40278,0.73611,0.47222,0.76389,0.48611,0.694445,0.541665,0.707715,0.42872,0.59722,0.430555,0.68462,0.425955,0.541665,0.25,+1
1,0,0.98857,0.595245,0.913415,0.731295,0.858855,0.79366,0.73984,0.92139,0.657045,0.963215,0.551445,0.969725,0.43373,0.92145,0.3399,0.95812,0.239275,0.897625,0.15863,0.74754,0.11296,0.667685,0.07312,0.589245,0.08343,0.49321,0.08817,0.403395,0.163555,0.33169,0.200285,0.2515,+1
1,0,0.926045,0.69626,0.694435,0.88216,0.54429,0.994515,0.286875,0.94372,0.118855,0.7499,0.03454,0.55384,0.0705,0.34478,0.16985,0.22369,0.4037,0.069685,0.64222,0.09752,0.823245,0.32385,0.88907,0.38338,0.85849,0.606715,0.68915,0.79155,0.598335,0.831575,0.443925,0.824665,+1
1,0,1,0.46909,1,0.51471,1,0.474345,1,0.491465,1,0.44137,0.922465,0.47399,0.96696,0.46701,0.84585,0.463105,0.828655,0.398165,0.97455,0.34221,0.90426,0.34173,0.92466,0.32581,0.862645,0.35413,0.86547,0.30712,0.77178,0.36858,0.821035,0.302565,+1
1,0,1,0.483175,1,0.502425,1,0.43969,0.944825,0.50599,0.86541,0.52673,0.927215,0.504135,0.772955,0.501495,0.918875,0.43178,0.877675,0.4573,0.854435,0.36249,0.716925,0.43969,0.78764,0.2989,0.79492,0.389275,0.7155,0.413175,0.80218,0.3791,0.780225,0.30881,+1
1,0,1,0,0.5,0.5,0.889705,0.003675,0.90441,0.775735,0.29044,0.025735,0.5,0.5,0.5,0.5,0.860295,0.11397,0.867645,0.19853,0.5,0.5,0.59191,0,0,0,0,0,1,0,1,0,0.5,0.5,-1
1,0,0.984665,0.50438,1,0.504215,0.99329,0.496185,0.98934,0.48578,0.9991,0.48245,1,0.493645,1,0.487095,1,0.494125,0.992425,0.500125,1,0.48694,1,0.47628,0.980095,0.477365,0.99594,0.482635,0.9851,0.48761,1,0.480725,0.9921,0.47944,+1
1,0,1,0.545455,0.977275,0.454545,0.886365,0.5,1,0.5,0.977275,0.5,1,0.522725,0.954545,0.477275,1,0.5,1,0.5,0.93182,0.545455,0.886365,0.545455,0.954545,0.522725,0.957705,0.514485,0.977275,0.545455,0.93182,0.454545,0.93182,0.522725,+1
1,0,0.94055,0.5,0.974085,0.48628,0.96799,0.4939,0.95122,0.509145,0.95122,0.509145,0.96951,0.504575,0.97866,0.501525,1,0.51372,0.971035,0.4939,0.95427,0.512195,0.957315,0.52744,0.998475,0.52439,0.94833,0.51113,0.95427,0.504575,1,0.52744,0.987805,0.4939,+1
1,0,0.863635,0.475,0.946205,0.51731,1,0.863635,0.83182,0.470455,0.74091,0.41591,0.909045,0.547795,0.78409,1,0.752275,0.60909,0.83409,0.55,1,0.35,0.99318,0,0.786365,0.663635,0.78491,0.573365,0.711365,0.54091,0.744635,0.573215,1,1,-1
1,0,1,0.81774,1,1,0.885615,1,0.333335,1,0,1,0.5,1,0,1,0,0.5,0,0.166665,0,0.03732,0,0.333335,0.333335,0,0.596175,0,1,0,0.5,0,1,0.166665,+1
1,0,1,0.61529,1,0.107455,1,0.447995,1,0.57707,1,0.6391,0.9906,0.465695,1,0.53305,0.97901,0.40523,0.91792,0.421835,0.987,0.51864,0.99812,0.54621,1,0.493735,0.98119,0.477015,0.955825,0.519425,1,0.43139,0.982615,0.441415,+1
1,0,0.917135,0.695605,0.7702,0.892895,0.56163,0.94701,0.333895,0.91789,0.14957,0.79782,0.06689,0.609545,0.07779,0.37918,0.20143,0.19053,0.40323,0.061065,0.562195,0.05468,0.755545,0.13773,0.895715,0.36133,0.91504,0.54359,0.83296,0.745395,0.68771,0.850055,0.480085,0.89722,+1
1,0,0.75233,0.4155,0.85721,0.507565,0.855315,0.51129,0.840325,0.50641,0.673075,0.52797,0.84525,0.521965,0.840505,0.52529,0.835115,0.52846,0.817015,0.47669,0.822515,0.53428,0.815385,0.536905,0.920165,0.590325,0.799675,0.54152,0.69114,0.5338,0.78233,0.54523,0.77316,0.54673,+1
1,0,0.941525,0.39002,1,0.681865,0.912015,0.59603,0.92543,0.529505,0.95279,0.47854,0.925965,0.625,0.889485,0.62661,0.84603,0.7897,0.85515,0.69528,0.86588,0.637875,1,0.674355,0.7838,0.760195,0.849055,0.766175,0.904505,0.79292,0.71513,0.854615,0.761805,0.770925,+1
1,0,0.829545,0.185605,0.5,0.5,0.5,0.5,0.886365,1,1,0.35985,0.5,0.5,0.5,0.5,0.810605,0.386365,0.920455,0,1,0,0.5,0.5,0.5,0.5,1,0.030305,0.435605,0.03409,0.5,0.5,0.5,0.5,-1
1,0,1,0.292715,1,0.880655,0.9353,0.592965,1,0.450375,0.96922,0.73995,0.82726,0.4196,1,0.504395,0.988065,0.24937,0.900125,0.377515,0.940325,0.404525,1,0.43844,0.967965,0.55339,0.96445,0.463755,1,0.363065,0.71985,0.599245,0.75691,0.47299,+1
1,0,0.895785,0.584255,0.5,0.5,0.782705,0.53437,0.69734,1,0.691795,0.997785,0.487805,0.766075,0.618625,0.5643,0.486695,0.97561,0.24501,0.92461,0.449,0.694015,0.28714,0.618625,0.04213,0.90355,0.32927,0.94124,0,0.847005,0,0.5643,0.5,0.5,-1
0,0,0,0,1,1,1,0,0,1,1,0,0,0,0.5,0.5,1,1,0,0,1,0,1,0,1,1,1,0,1,0,0,1,1,0,-1
0,0,1,0,1,1,1,0,1,1,1,0,1,1,1,0,1,0,1,1,1,1,1,0,1,0,1,0,1,1,1,0,1,1,-1
1,0,1,0.727275,1,0.272725,1,0.545455,1,0.454545,1,0.5,1,0.363635,1,0.40909,1,0.545455,1,0.5,1,0.31818,1,0.545455,1,0.454545,1,0.47543,1,0.727275,1,0.363635,1,0.40909,+1
1,0,0.89689,0.64746,0.82032,0.76156,0.706595,0.84079,0.570885,0.91774,0.415845,0.89386,0.285445,0.86164,0.214175,0.707355,0.12282,0.583775,0.150115,0.45072,0.211525,0.382485,0.296815,0.308565,0.412815,0.2373,0.507615,0.256465,0.59515,0.309705,0.65504,0.384005,0.67286,0.45982,+1
1,0,0.958335,0.645835,0.916665,0.416665,0.854165,0.625,0.9375,0.458335,0.958335,0.520835,0.916665,0.5625,0.854165,0.5,0.9375,0.520835,1,0.541665,0.833335,0.458335,0.875,0.583335,0.916665,0.4375,0.91898,0.527515,1,0.604165,0.854165,0.5,0.854165,0.520835,+1
1,0,1,0.580975,1,0.47221,1,0.506865,1,0.43824,1,0.492445,1,0.491345,1,0.46813,1,0.464215,1,0.5295,1,0.44946,1,0.486575,1,0.38511,1,0.465885,1,0.541495,1,0.42903,1,0.462805,+1
1,0,0.71875,0.520835,0.791665,0.447915,0.697915,0.5,0.666665,0.46875,0.739585,0.5,0.645835,0.552085,0.770835,0.510415,0.71875,0.385415,0.677085,0.385415,0.666665,0.541665,0.625,0.59375,0.697915,0.40625,0.72006,0.44968,0.708335,0.458335,0.791665,0.34375,0.666665,0.46875,+1
1,0,0.980355,0.53544,1,0.52148,1,0.546565,0.950845,0.47428,0.946315,0.5129,0.91625,0.46929,0.93767,0.549155,0.88272,0.5014,0.87603,0.473525,0.829805,0.460475,0.82079,0.470355,0.778385,0.461475,0.790255,0.488975,0.74832,0.493745,0.75655,0.499925,0.760495,0.49909,+1
1,0,0.811675,0.48255,0.795425,0.502405,0.802045,0.462695,0.815885,0.504815,0.812275,0.462695,0.83514,0.5361,0.81468,0.45788,0.837545,0.54573,0.83574,0.5,0.794825,0.55054,0.7503,0.515645,0.829725,0.570395,0.802315,0.510095,0.75692,0.52226,0.808665,0.495185,0.80686,0.45427,+1
1,0,0.965735,0.64641,0.899585,0.77878,0.79976,0.85798,0.631015,0.963255,0.52318,0.98374,0.383815,0.97565,0.22037,0.90509,0.133355,0.811925,0.045025,0.681,0.03873,0.5302,0.03191,0.40081,0.08404,0.26547,0.174175,0.15222,0.293885,0.071375,0.43205,0.030235,0.550035,0.025885,+1
1,0,1,0.727275,1,0.772725,0.90909,0.81818,1,0.454545,1,0.5,0.90909,0.272725,0.81818,0.636365,1,0.18182,1,0.363635,0.954545,0.272725,1,0.53875,1,0.454545,1,0.544335,1,0.68182,1,0.81818,0.863635,0.636365,+1
1,0,0.9704,0.559665,0.92869,0.50519,0.92562,0.50773,0.88483,0.49861,0.922295,0.55458,0.916445,0.515135,0.9134,0.51753,0.87419,0.509715,0.900095,0.512025,0.90431,0.524505,0.901295,0.52676,0.88668,0.5111,0.89529,0.531175,0.929695,0.546255,0.889315,0.53545,0.886345,0.53754,+1
1,0,0.980435,0.5431,0.9838,0.596395,0.98013,0.637255,0.99022,0.67526,0.964335,0.731405,0.931325,0.762585,0.9141,0.79397,0.86621,0.845325,0.845015,0.8657,0.772365,0.8441,0.741695,0.880985,0.703075,0.873445,0.667005,0.91898,0.62472,0.930305,0.56878,0.934175,0.54524,0.931425,+1
