@RELATION abalone

@ATTRIBUTE sex {M,F,I}
@ATTRIBUTE length numeric
@ATTRIBUTE diameter numeric
@ATTRIBUTE height numeric
@ATTRIBUTE whole_weight numeric
@ATTRIBUTE shucked_weight numeric
@ATTRIBUTE viscera_weight numeric
@ATTRIBUTE shell_weight numeric
@ATTRIBUTE Class numeric

@data
M,0.27,0.2,0.08,0.1205,0.0465,0.028,0.04,6
I,0.515,0.375,0.14,0.6505,0.2495,0.141,0.2215,10
I,0.33,0.225,0.075,0.187,0.0945,0.0395,0.0425,7
M,0.58,0.46,0.165,1.2275,0.473,0.1965,0.435,16
I,0.45,0.35,0.145,0.525,0.2085,0.1,0.1655,15
F,0.38,0.305,0.105,0.281,0.1045,0.0615,0.09,12
M,0.34,0.275,0.09,0.2065,0.0725,0.043,0.07,10
F,0.675,0.51,0.185,1.473,0.6295,0.3025,0.4245,11
I,0.335,0.26,0.085,0.192,0.097,0.03,0.054,6
I,0.475,0.365,0.105,0.4175,0.1645,0.099,0.127,7
I,0.485,0.365,0.09,0.651,0.3165,0.132,0.18,8
F,0.645,0.49,0.16,1.1665,0.4935,0.3155,0.299,9
M,0.55,0.44,0.16,0.985,0.4645,0.201,0.27,8
M,0.515,0.37,0.115,0.6145,0.3415,0.155,0.146,9
I,0.505,0.405,0.13,0.599,0.2245,0.1175,0.225,11
I,0.35,0.26,0.09,0.1765,0.072,0.0355,0.0575,7
F,0.66,0.525,0.19,1.67,0.6525,0.4875,0.49,11
I,0.435,0.375,0.11,0.4155,0.17,0.076,0.145,8
F,0.72,0.565,0.18,1.719,0.8465,0.407,0.3875,11
F,0.505,0.4,0.165,0.729,0.2675,0.155,0.25,9
F,0.55,0.47,0.15,0.9205,0.381,0.2435,0.2675,10
M,0.6,0.495,0.175,1.3005,0.6195,0.284,0.3285,11
I,0.325,0.25,0.08,0.1735,0.0765,0.0345,0.049,7
F,0.545,0.415,0.15,0.7335,0.2795,0.163,0.2185,11
I,0.54,0.42,0.14,0.6665,0.3125,0.138,0.1895,10
F,0.695,0.535,0.175,1.8385,0.8035,0.396,0.503,10
F,0.665,0.51,0.175,1.3805,0.675,0.2985,0.325,10
M,0.63,0.48,0.165,1.286,0.604,0.271,0.35,8
F,0.68,0.56,0.195,1.7775,0.861,0.322,0.415,11
I,0.555,0.43,0.15,0.783,0.345,0.1755,0.247,9
M,0.35,0.26,0.09,0.195,0.0745,0.041,0.0655,9
F,0.56,0.44,0.135,0.8025,0.35,0.1615,0.259,9
M,0.65,0.515,0.175,1.466,0.677,0.3045,0.4,10
F,0.72,0.575,0.195,2.1505,1.0745,0.382,0.585,10
M,0.67,0.52,0.19,1.6385,0.8115,0.369,0.391,9
F,0.53,0.42,0.135,0.677,0.2565,0.1415,0.21,9
I,0.44,0.32,0.095,0.3275,0.1495,0.059,0.1,8
F,0.7,0.585,0.185,1.8075,0.7055,0.3215,0.475,29
M,0.57,0.415,0.13,0.88,0.4275,0.1955,0.238,13
M,0.51,0.415,0.145,0.751,0.3295,0.1835,0.203,8
F,0.465,0.39,0.11,0.6355,0.1815,0.157,0.225,13
M,0.495,0.375,0.155,0.976,0.45,0.2285,0.2475,9
F,0.65,0.51,0.155,1.189,0.483,0.278,0.3645,13
F,0.435,0.325,0.11,0.4335,0.178,0.0985,0.155,7
M,0.5,0.39,0.125,0.5215,0.2485,0.117,0.131,6
I,0.165,0.12,0.05,0.021,0.0075,0.0045,0.014,3
I,0.415,0.325,0.1,0.313,0.139,0.0625,0.0965,7
F,0.545,0.41,0.14,0.7405,0.3565,0.1775,0.203,9
I,0.355,0.28,0.11,0.2235,0.0815,0.0525,0.08,7
M,0.73,0.595,0.23,2.8255,1.1465,0.419,0.897,17
I,0.48,0.37,0.12,0.536,0.251,0.114,0.15,8
F,0.37,0.275,0.08,0.227,0.093,0.0625,0.07,8
M,0.56,0.455,0.165,0.86,0.4015,0.1695,0.245,11
F,0.64,0.495,0.17,1.2265,0.49,0.377,0.2875,11
I,0.36,0.27,0.085,0.2185,0.1065,0.038,0.062,6
F,0.495,0.4,0.155,0.6445,0.242,0.1325,0.205,17
I,0.535,0.45,0.135,0.728,0.2845,0.1845,0.265,9
M,0.625,0.49,0.165,1.1165,0.4895,0.2615,0.3325,11
M,0.56,0.45,0.145,0.894,0.3885,0.2095,0.264,9
F,0.615,0.46,0.15,1.0265,0.4935,0.201,0.2745,10
M,0.455,0.355,0.13,0.515,0.2,0.1275,0.175,11
M,0.52,0.45,0.15,0.895,0.3615,0.186,0.235,14
I,0.535,0.41,0.13,0.6075,0.268,0.1225,0.1975,9
M,0.425,0.315,0.125,0.3525,0.1135,0.0565,0.13,18
M,0.585,0.45,0.15,0.997,0.4055,0.283,0.251,11
I,0.575,0.45,0.135,0.807,0.3615,0.176,0.254,10
I,0.37,0.29,0.095,0.249,0.1045,0.058,0.067,6
F,0.62,0.465,0.14,1.011,0.479,0.2385,0.255,8
I,0.47,0.36,0.13,0.5225,0.198,0.1065,0.165,9
M,0.75,0.555,0.215,2.201,1.0615,0.5235,0.5285,11
F,0.51,0.38,0.13,0.584,0.224,0.1355,0.185,13
F,0.66,0.525,0.16,1.277,0.4975,0.319,0.394,13
M,0.615,0.495,0.2,1.219,0.564,0.227,0.3885,10
M,0.5,0.405,0.14,0.6155,0.241,0.1355,0.205,9
M,0.425,0.34,0.12,0.388,0.149,0.087,0.125,10
M,0.585,0.46,0.165,1.1135,0.5825,0.2345,0.274,10
F,0.615,0.465,0.15,0.923,0.4615,0.1825,0.2415,9
F,0.635,0.5,0.18,1.2565,0.539,0.292,0.35,10
M,0.64,0.495,0.165,1.307,0.678,0.292,0.266,11
M,0.58,0.45,0.16,0.8675,0.3935,0.221,0.215,9
M,0.59,0.475,0.14,0.977,0.4625,0.2025,0.275,10
M,0.565,0.445,0.145,0.9255,0.4345,0.212,0.2475,9
F,0.58,0.475,0.135,0.925,0.391,0.165,0.275,14
F,0.595,0.465,0.155,1.026,0.4645,0.112,0.305,12
M,0.555,0.435,0.145,0.9205,0.404,0.2275,0.255,8
I,0.635,0.5,0.18,1.319,0.5485,0.292,0.49,16
M,0.555,0.42,0.145,0.8695,0.3075,0.2575,0.25,14
M,0.725,0.575,0.24,2.21,1.351,0.413,0.5015,13
F,0.49,0.365,0.13,0.6835,0.165,0.1315,0.205,21
F,0.545,0.44,0.135,0.9185,0.429,0.2015,0.2375,10
M,0.525,0.4,0.14,0.7205,0.3685,0.145,0.1735,8
I,0.34,0.25,0.09,0.179,0.0775,0.033,0.055,6
F,0.655,0.525,0.175,1.348,0.5855,0.2605,0.394,10
F,0.625,0.515,0.155,1.1635,0.4875,0.259,0.355,11
M,0.625,0.5,0.17,1.0985,0.4645,0.22,0.354,9
F,0.56,0.41,0.16,0.8215,0.342,0.184,0.253,9
M,0.375,0.3,0.1,0.2465,0.104,0.0475,0.083,11
I,0.42,0.305,0.1,0.3415,0.1645,0.0775,0.086,7
F,0.635,0.495,0.175,1.211,0.707,0.2725,0.323,9
I,0.32,0.24,0.075,0.1735,0.076,0.0355,0.05,7
F,0.485,0.395,0.16,0.66,0.2475,0.128,0.235,14
I,0.425,0.31,0.09,0.301,0.1385,0.065,0.08,7
I,0.53,0.395,0.115,0.475,0.2025,0.101,0.148,8
I,0.41,0.32,0.095,0.2905,0.141,0.063,0.073,5
I,0.55,0.435,0.165,0.804,0.34,0.194,0.244,8
F,0.44,0.34,0.135,0.3975,0.1505,0.0945,0.135,8
F,0.465,0.35,0.125,0.482,0.23,0.106,0.1095,6
F,0.5,0.405,0.14,0.6735,0.265,0.124,0.25,18
F,0.455,0.375,0.125,0.458,0.1985,0.111,0.12,10
F,0.64,0.505,0.175,1.3185,0.6185,0.302,0.3315,9
I,0.375,0.285,0.09,0.2545,0.119,0.0595,0.0675,6
M,0.59,0.465,0.135,0.9895,0.4235,0.199,0.28,8
I,0.185,0.135,0.04,0.027,0.0105,0.0055,0.009,5
I,0.195,0.15,0.045,0.0375,0.018,0.006,0.011,3
M,0.465,0.36,0.105,0.431,0.172,0.107,0.175,9
I,0.13,0.1,0.03,0.013,0.0045,0.003,0.004,3
I,0.565,0.435,0.145,0.8445,0.3975,0.158,0.255,9
I,0.45,0.335,0.105,0.362,0.1575,0.0795,0.1095,7
F,0.575,0.46,0.19,0.994,0.392,0.2425,0.34,13
M,0.475,0.355,0.125,0.4625,0.186,0.107,0.145,9
I,0.49,0.39,0.12,0.511,0.2205,0.103,0.1745,9
M,0.375,0.285,0.095,0.253,0.096,0.0575,0.0925,9
I,0.315,0.23,0.07,0.164,0.0625,0.04,0.045,6
M,0.56,0.44,0.13,0.8255,0.2425,0.202,0.285,10
M,0.68,0.535,0.185,1.607,0.7245,0.3215,0.498,12
M,0.65,0.525,0.175,1.4715,0.675,0.315,0.399,11
I,0.36,0.3,0.085,0.27,0.1185,0.064,0.0745,7
M,0.485,0.37,0.14,0.5725,0.204,0.1415,0.175,10
M,0.705,0.565,0.515,2.21,1.1075,0.4865,0.512,10
F,0.595,0.48,0.16,1.2095,0.5225,0.296,0.32,8
F,0.415,0.305,0.105,0.3605,0.12,0.082,0.1,10
F,0.47,0.365,0.12,0.543,0.2295,0.1495,0.15,9
M,0.575,0.4,0.155,0.9325,0.3605,0.2445,0.3,17
M,0.575,0.475,0.16,1.114,0.4955,0.2745,0.29,9
I,0.405,0.3,0.09,0.269,0.103,0.067,0.11,6
F,0.525,0.405,0.16,0.658,0.2655,0.1125,0.225,12
M,0.625,0.475,0.175,1.3405,0.656,0.283,0.337,10
I,0.565,0.43,0.135,0.8545,0.321,0.1775,0.275,11
I,0.185,0.13,0.045,0.029,0.012,0.0075,0.0095,4
M,0.455,0.355,0.135,0.4745,0.1865,0.0935,0.168,13
I,0.315,0.23,0.07,0.1145,0.046,0.0235,0.0385,5
M,0.575,0.445,0.16,0.839,0.4005,0.198,0.239,9
M,0.58,0.465,0.145,0.887,0.4405,0.1655,0.265,11
M,0.545,0.42,0.125,0.9745,0.353,0.174,0.305,13
I,0.285,0.21,0.055,0.101,0.0415,0.017,0.0335,5
I,0.295,0.21,0.08,0.1,0.038,0.026,0.031,8
I,0.53,0.42,0.14,0.6765,0.256,0.1855,0.208,9
M,0.65,0.51,0.155,1.407,0.7215,0.298,0.335,9
F,0.4,0.305,0.16,0.368,0.173,0.0705,0.105,7
M,0.545,0.42,0.12,0.7865,0.403,0.185,0.17,7
F,0.665,0.54,0.195,1.764,0.8505,0.3615,0.47,11
F,0.615,0.475,0.175,1.194,0.559,0.259,0.3165,11
F,0.66,0.535,0.205,1.4415,0.5925,0.2775,0.49,10
M,0.705,0.555,0.215,2.141,1.0465,0.383,0.528,11
M,0.485,0.39,0.085,0.6435,0.2945,0.103,0.198,8
M,0.28,0.205,0.1,0.1165,0.0545,0.0285,0.03,5
I,0.4,0.265,0.1,0.2775,0.1245,0.0605,0.08,9
M,0.62,0.51,0.175,1.2815,0.5715,0.2385,0.39,10
I,0.28,0.205,0.055,0.1135,0.045,0.0275,0.0335,7
I,0.375,0.285,0.09,0.257,0.1045,0.062,0.075,7
F,0.64,0.5,0.175,1.394,0.4935,0.291,0.4,10
I,0.475,0.355,0.105,0.468,0.201,0.1115,0.12,8
M,0.335,0.25,0.09,0.181,0.0755,0.0415,0.06,7
M,0.55,0.46,0.175,0.869,0.3155,0.1825,0.32,10
I,0.48,0.35,0.105,0.635,0.352,0.127,0.135,6
M,0.555,0.4,0.13,0.7075,0.332,0.1585,0.18,7
F,0.52,0.4,0.12,0.6515,0.261,0.2015,0.165,15
M,0.355,0.265,0.085,0.201,0.069,0.053,0.0695,8
F,0.6,0.465,0.155,1.04,0.4755,0.25,0.28,11
I,0.335,0.25,0.08,0.1695,0.0695,0.044,0.0495,6
M,0.665,0.525,0.16,1.363,0.629,0.279,0.34,8
M,0.645,0.495,0.15,1.2095,0.603,0.2225,0.339,9
I,0.345,0.285,0.1,0.2225,0.0865,0.058,0.075,8
M,0.61,0.485,0.17,1.0225,0.419,0.2405,0.36,12
I,0.39,0.31,0.105,0.2665,0.1185,0.0525,0.081,8
F,0.625,0.485,0.135,1.3025,0.61,0.2675,0.3605,14
F,0.61,0.485,0.18,1.2795,0.5735,0.2855,0.355,7
F,0.565,0.48,0.175,0.957,0.3885,0.215,0.275,18
M,0.48,0.38,0.135,0.528,0.2,0.1395,0.16,14
I,0.575,0.435,0.13,0.805,0.3155,0.2155,0.245,10
M,0.7,0.535,0.16,1.7255,0.63,0.2635,0.54,19
I,0.335,0.25,0.075,0.186,0.0945,0.038,0.0445,7
M,0.6,0.46,0.155,0.9595,0.4455,0.189,0.295,11
F,0.58,0.44,0.175,1.073,0.4005,0.2345,0.335,19
I,0.415,0.315,0.105,0.33,0.1405,0.0705,0.095,6
M,0.43,0.345,0.115,0.3045,0.0925,0.055,0.12,11
I,0.445,0.355,0.095,0.3615,0.1415,0.0785,0.12,8
M,0.28,0.2,0.08,0.0915,0.033,0.0215,0.03,5
F,0.66,0.5,0.155,1.3765,0.6485,0.288,0.335,12
I,0.47,0.355,0.115,0.4155,0.167,0.084,0.139,7
M,0.65,0.485,0.14,1.175,0.475,0.2435,0.215,8
M,0.46,0.36,0.135,0.6105,0.1955,0.107,0.235,14
I,0.33,0.24,0.075,0.163,0.0745,0.033,0.048,6
I,0.47,0.35,0.125,0.4315,0.19,0.1165,0.1175,6
M,0.655,0.52,0.18,1.492,0.7185,0.36,0.355,11
M,0.61,0.475,0.15,1.142,0.62,0.237,0.245,9
M,0.605,0.475,0.16,1.616,0.5495,0.332,0.34,18
F,0.675,0.55,0.175,1.689,0.694,0.371,0.474,13
F,0.645,0.49,0.19,1.3065,0.479,0.3565,0.345,18
M,0.595,0.455,0.155,1.041,0.416,0.2105,0.365,14
I,0.42,0.3,0.105,0.316,0.1255,0.07,0.1035,7
I,0.52,0.39,0.13,0.5545,0.2355,0.1095,0.1895,7
M,0.65,0.525,0.19,1.3685,0.5975,0.296,0.4,11
M,0.615,0.505,0.19,1.403,0.6715,0.2925,0.365,8
F,0.8,0.63,0.195,2.526,0.933,0.59,0.62,23
I,0.55,0.425,0.135,0.7305,0.3325,0.1545,0.215,9
M,0.63,0.485,0.18,1.2435,0.5175,0.308,0.37,11
M,0.52,0.4,0.12,0.823,0.298,0.1805,0.265,15
M,0.33,0.255,0.095,0.1875,0.0735,0.045,0.06,7
F,0.655,0.46,0.16,1.494,0.6895,0.331,0.1825,9
F,0.63,0.475,0.15,1.172,0.536,0.254,0.316,11
I,0.44,0.335,0.11,0.3885,0.175,0.0835,0.111,7
I,0.475,0.42,0.16,0.7095,0.35,0.1505,0.1845,8
M,0.555,0.44,0.15,0.755,0.307,0.1525,0.26,12
I,0.515,0.395,0.125,0.6635,0.32,0.14,0.17,8
M,0.65,0.495,0.18,1.793,0.8005,0.339,0.53,14
I,0.385,0.3,0.125,0.343,0.1705,0.0735,0.081,7
M,0.55,0.45,0.15,1.0145,0.407,0.2015,0.2875,10
M,0.605,0.475,0.175,1.2525,0.5575,0.3055,0.343,9
I,0.515,0.36,0.125,0.4725,0.1815,0.125,0.138,9
M,0.62,0.485,0.155,1.049,0.462,0.231,0.25,10
I,0.465,0.355,0.105,0.442,0.2085,0.0975,0.1185,7
I,0.245,0.175,0.055,0.0785,0.04,0.018,0.02,5
I,0.45,0.35,0.14,0.474,0.21,0.109,0.1275,16
M,0.485,0.385,0.125,0.4775,0.2,0.0785,0.17,12
F,0.525,0.41,0.15,0.708,0.274,0.151,0.25,12
F,0.585,0.46,0.17,1.0835,0.3745,0.326,0.325,14
F,0.36,0.27,0.09,0.1885,0.0845,0.0385,0.055,5
F,0.655,0.52,0.19,1.4545,0.6,0.3865,0.383,10
I,0.535,0.45,0.17,0.781,0.3055,0.1555,0.295,11
F,0.595,0.44,0.135,0.964,0.5005,0.1715,0.2575,10
M,0.63,0.48,0.15,1.1785,0.5185,0.248,0.3235,8
M,0.6,0.465,0.155,1.0165,0.512,0.2465,0.225,10
F,0.65,0.51,0.17,1.567,0.7245,0.349,0.391,10
M,0.66,0.53,0.175,1.583,0.7395,0.3505,0.405,10
F,0.595,0.465,0.15,1.0765,0.491,0.22,0.287,9
M,0.625,0.48,0.16,1.2415,0.6575,0.2625,0.2785,9
M,0.535,0.435,0.15,0.717,0.3475,0.1445,0.194,9
M,0.615,0.475,0.175,1.103,0.4635,0.3095,0.2725,10
F,0.73,0.555,0.18,1.6895,0.6555,0.1965,0.4935,10
F,0.515,0.42,0.135,0.6295,0.2815,0.127,0.215,9
M,0.4,0.305,0.13,0.2935,0.096,0.0675,0.105,9
F,0.575,0.48,0.15,0.897,0.4235,0.1905,0.248,8
F,0.645,0.51,0.155,1.129,0.5015,0.24,0.342,10
F,0.625,0.525,0.195,1.352,0.4505,0.2445,0.53,13
M,0.615,0.47,0.165,1.128,0.4465,0.2195,0.34,10
M,0.59,0.405,0.15,0.853,0.326,0.2615,0.245,9
F,0.67,0.55,0.155,1.566,0.858,0.339,0.354,10
F,0.62,0.5,0.175,1.107,0.4895,0.24,0.343,11
F,0.73,0.55,0.205,1.908,0.5415,0.3565,0.5965,14
I,0.255,0.18,0.055,0.083,0.031,0.0215,0.02,4
I,0.43,0.34,0.11,0.3645,0.159,0.0855,0.105,7
F,0.54,0.435,0.175,0.892,0.322,0.174,0.335,13
I,0.375,0.28,0.08,0.2025,0.0825,0.048,0.065,8
I,0.44,0.325,0.1,0.4165,0.185,0.0865,0.11,6
F,0.495,0.385,0.135,0.6625,0.3005,0.1635,0.185,11
I,0.385,0.29,0.09,0.232,0.0855,0.0495,0.08,7
F,0.585,0.45,0.16,1.077,0.4995,0.2875,0.25,10
I,0.425,0.325,0.11,0.317,0.135,0.048,0.09,8
M,0.515,0.38,0.175,0.9565,0.325,0.158,0.31,14
M,0.285,0.21,0.075,0.1185,0.055,0.0285,0.04,7
F,0.45,0.36,0.125,0.5065,0.222,0.105,0.16,10
M,0.45,0.34,0.13,0.3715,0.1605,0.0795,0.105,9
M,0.585,0.465,0.15,0.98,0.4315,0.2545,0.247,9
I,0.465,0.38,0.13,0.454,0.1895,0.08,0.155,11
I,0.42,0.305,0.11,0.28,0.094,0.0785,0.0955,9
I,0.37,0.28,0.1,0.221,0.1165,0.0265,0.0635,6
I,0.55,0.405,0.15,0.6755,0.3015,0.1465,0.21,10
I,0.545,0.405,0.135,0.5945,0.27,0.1185,0.185,8
M,0.495,0.375,0.115,0.6245,0.282,0.143,0.155,6
I,0.31,0.235,0.075,0.1515,0.056,0.0315,0.05,7
F,0.61,0.495,0.165,1.0835,0.4525,0.273,0.317,9
I,0.53,0.405,0.13,0.6615,0.2945,0.1395,0.19,9
F,0.625,0.49,0.155,1.2085,0.465,0.162,0.411,11
M,0.64,0.5,0.175,1.273,0.5065,0.2925,0.405,13
I,0.375,0.3,0.075,0.144,0.059,0.03,0.044,7
F,0.41,0.32,0.115,0.387,0.165,0.1005,0.0985,11
F,0.62,0.485,0.155,1.1945,0.5105,0.271,0.352,9
M,0.66,0.51,0.165,1.6375,0.7685,0.3545,0.3925,14
I,0.35,0.27,0.075,0.215,0.1,0.036,0.065,6
I,0.52,0.38,0.115,0.6645,0.3285,0.17,0.1425,7
F,0.575,0.47,0.155,1.116,0.509,0.238,0.34,10
I,0.43,0.325,0.1,0.3645,0.1575,0.0825,0.105,7
M,0.5,0.4,0.125,0.5975,0.27,0.1275,0.166,9
M,0.485,0.385,0.105,0.556,0.296,0.104,0.133,7
M,0.595,0.46,0.14,0.852,0.4215,0.2255,0.227,9
M,0.62,0.47,0.145,1.0865,0.511,0.2715,0.2565,10
F,0.62,0.48,0.23,1.0935,0.403,0.245,0.355,14
F,0.545,0.4,0.14,0.778,0.368,0.215,0.18,9
F,0.585,0.415,0.155,0.6985,0.3,0.146,0.195,12
F,0.675,0.53,0.175,1.4465,0.6775,0.33,0.389,10
I,0.37,0.285,0.095,0.226,0.1135,0.0515,0.0675,8
I,0.51,0.385,0.145,0.7665,0.3985,0.14,0.1805,8
I,0.41,0.325,0.1,0.394,0.208,0.0655,0.106,6
F,0.625,0.515,0.15,1.2415,0.5235,0.3065,0.36,15
I,0.355,0.28,0.085,0.2905,0.095,0.0395,0.115,7
M,0.59,0.475,0.165,1.077,0.4545,0.244,0.3095,9
F,0.525,0.415,0.17,0.8325,0.2755,0.1685,0.31,13
F,0.645,0.51,0.19,1.363,0.573,0.362,0.36,10
I,0.565,0.44,0.175,0.8735,0.414,0.21,0.21,11
M,0.525,0.405,0.135,0.7575,0.3305,0.216,0.195,10
M,0.565,0.455,0.17,0.9065,0.342,0.156,0.32,18
M,0.49,0.38,0.14,0.7605,0.245,0.167,0.185,10
I,0.44,0.35,0.11,0.3805,0.1575,0.0895,0.115,6
I,0.505,0.38,0.135,0.5385,0.2645,0.095,0.165,9
M,0.545,0.41,0.12,0.793,0.434,0.1405,0.19,9
F,0.645,0.5,0.15,1.159,0.4675,0.3355,0.31,9
I,0.45,0.34,0.105,0.4385,0.21,0.0925,0.12,8
F,0.405,0.325,0.11,0.3575,0.145,0.0725,0.11,12
M,0.55,0.385,0.13,0.7275,0.343,0.1625,0.19,8
M,0.575,0.475,0.145,0.857,0.3665,0.173,0.269,9
I,0.55,0.415,0.145,0.7815,0.373,0.16,0.2215,8
I,0.235,0.175,0.065,0.0615,0.0205,0.02,0.019,6
I,0.37,0.29,0.09,0.2445,0.089,0.0655,0.075,7
M,0.625,0.48,0.145,1.085,0.4645,0.2445,0.327,10
I,0.565,0.43,0.125,0.6545,0.2815,0.139,0.21,9
I,0.555,0.46,0.145,0.9005,0.3845,0.158,0.2765,11
M,0.58,0.45,0.12,0.8685,0.418,0.1475,0.2605,8
M,0.44,0.375,0.13,0.487,0.226,0.0965,0.155,9
M,0.685,0.535,0.175,1.432,0.637,0.247,0.46,11
M,0.67,0.52,0.175,1.4755,0.6275,0.379,0.374,10
F,0.695,0.525,0.205,1.8185,0.819,0.4025,0.4525,13
M,0.57,0.46,0.17,0.9035,0.4075,0.1935,0.214,7
I,0.55,0.45,0.14,0.753,0.3445,0.1325,0.24,8
M,0.445,0.35,0.115,0.3615,0.1565,0.0695,0.117,8
M,0.515,0.435,0.145,0.8815,0.292,0.206,0.255,10
M,0.63,0.515,0.155,1.259,0.4105,0.197,0.41,13
I,0.385,0.305,0.095,0.252,0.0915,0.055,0.09,14
I,0.545,0.43,0.14,0.687,0.2615,0.1405,0.25,9
M,0.395,0.305,0.105,0.282,0.0975,0.065,0.096,9
F,0.62,0.52,0.225,1.1835,0.378,0.27,0.395,23
F,0.67,0.515,0.17,1.4265,0.6605,0.3395,0.37,11
M,0.575,0.47,0.185,0.985,0.3745,0.2175,0.355,10
F,0.515,0.4,0.125,0.615,0.2865,0.123,0.1765,8
F,0.64,0.5,0.15,1.0705,0.371,0.2705,0.36,8
F,0.63,0.485,0.17,1.3205,0.5945,0.345,0.345,9
F,0.625,0.485,0.15,1.0945,0.531,0.261,0.296,10
F,0.51,0.4,0.12,0.7005,0.347,0.1105,0.195,10
I,0.48,0.355,0.125,0.494,0.2385,0.0835,0.15,9
F,0.45,0.345,0.115,0.496,0.1905,0.117,0.14,12
F,0.655,0.515,0.2,1.494,0.7255,0.309,0.405,12
M,0.55,0.435,0.14,0.7625,0.327,0.1685,0.259,10
I,0.325,0.25,0.055,0.166,0.076,0.051,0.045,5
F,0.49,0.385,0.16,0.656,0.2455,0.171,0.205,9
M,0.465,0.34,0.105,0.486,0.231,0.1035,0.1225,9
F,0.655,0.505,0.195,1.4405,0.688,0.3805,0.363,11
M,0.63,0.505,0.15,1.3165,0.6325,0.2465,0.37,11
F,0.555,0.445,0.175,1.1465,0.551,0.244,0.2785,8
F,0.325,0.26,0.09,0.1915,0.085,0.036,0.062,7
I,0.34,0.25,0.075,0.1785,0.0665,0.0455,0.045,5
M,0.63,0.505,0.17,1.0915,0.4615,0.266,0.3,9
F,0.495,0.37,0.12,0.594,0.28,0.11,0.1375,7
I,0.435,0.325,0.11,0.367,0.1595,0.08,0.105,6
F,0.655,0.5,0.14,1.1705,0.5405,0.3175,0.285,12
F,0.645,0.525,0.19,1.8085,0.7035,0.3885,0.395,18
M,0.495,0.385,0.135,0.6335,0.2,0.1225,0.26,14
F,0.52,0.405,0.12,0.627,0.2645,0.1415,0.181,11
F,0.595,0.48,0.15,1.11,0.498,0.228,0.33,10
M,0.51,0.4,0.14,0.6515,0.2455,0.1665,0.185,10
I,0.54,0.41,0.135,0.7025,0.31,0.177,0.2,8
M,0.545,0.42,0.13,0.879,0.374,0.1695,0.23,13
M,0.57,0.435,0.17,0.873,0.382,0.183,0.2705,10
F,0.555,0.43,0.14,0.7545,0.3525,0.1835,0.2015,9
F,0.67,0.52,0.19,1.32,0.5235,0.3095,0.4275,13
I,0.515,0.4,0.125,0.5625,0.25,0.1245,0.17,7
I,0.4,0.3,0.11,0.2985,0.1375,0.071,0.075,6
M,0.45,0.355,0.115,0.478,0.18,0.1185,0.155,10
I,0.325,0.245,0.075,0.1495,0.0605,0.033,0.045,5
I,0.59,0.465,0.195,1.0885,0.3685,0.187,0.375,17
I,0.27,0.19,0.06,0.099,0.0445,0.017,0.03,5
F,0.52,0.41,0.155,0.727,0.291,0.1835,0.235,12
I,0.355,0.265,0.085,0.2435,0.122,0.0525,0.06,6
M,0.645,0.5,0.19,1.229,0.524,0.278,0.395,17
F,0.45,0.335,0.105,0.425,0.1865,0.091,0.115,9
M,0.635,0.525,0.185,1.4065,0.684,0.3,0.3745,10
M,0.645,0.53,0.195,1.39,0.6465,0.2945,0.3735,10
I,0.475,0.355,0.115,0.5195,0.279,0.088,0.1325,7
F,0.57,0.465,0.155,0.872,0.3245,0.239,0.285,14
M,0.665,0.515,0.19,1.6385,0.831,0.3575,0.371,11
F,0.445,0.33,0.105,0.4525,0.18,0.103,0.123,9
F,0.52,0.375,0.135,0.5375,0.221,0.117,0.17,8
I,0.335,0.26,0.09,0.1835,0.078,0.024,0.065,11
F,0.655,0.455,0.17,1.275,0.583,0.303,0.333,8
M,0.69,0.53,0.21,1.583,0.7355,0.405,0.3865,12
I,0.395,0.29,0.095,0.3,0.158,0.068,0.078,7
I,0.48,0.37,0.12,0.514,0.2075,0.131,0.155,13
M,0.495,0.4,0.135,0.61,0.272,0.1435,0.144,7
M,0.57,0.455,0.175,1.02,0.4805,0.2145,0.29,9
I,0.475,0.38,0.12,0.441,0.1785,0.0885,0.1505,8
F,0.625,0.52,0.18,1.354,0.4845,0.351,0.375,11
I,0.355,0.27,0.1,0.216,0.083,0.037,0.075,10
M,0.475,0.395,0.135,0.592,0.2465,0.1645,0.2,13
I,0.58,0.46,0.14,0.8295,0.3915,0.165,0.238,10
M,0.645,0.5,0.175,1.3375,0.554,0.308,0.415,10
M,0.62,0.465,0.185,1.274,0.579,0.3065,0.32,12
I,0.25,0.185,0.065,0.0685,0.0295,0.014,0.0225,5
I,0.41,0.315,0.095,0.2805,0.114,0.0345,0.11,7
I,0.445,0.345,0.12,0.4035,0.169,0.0825,0.13,7
I,0.52,0.41,0.145,0.646,0.2965,0.1595,0.165,9
F,0.435,0.35,0.105,0.4195,0.194,0.1005,0.13,7
F,0.65,0.535,0.175,1.2895,0.6095,0.2765,0.344,10
F,0.655,0.5,0.18,1.4155,0.508,0.314,0.445,18
M,0.63,0.505,0.175,1.221,0.555,0.252,0.34,12
M,0.65,0.515,0.185,1.3745,0.75,0.1805,0.369,12
F,0.55,0.41,0.145,0.8285,0.3095,0.1905,0.25,13
F,0.565,0.45,0.195,1.0035,0.406,0.2505,0.285,15
I,0.405,0.31,0.095,0.3425,0.1785,0.064,0.0855,8
M,0.565,0.39,0.125,0.744,0.352,0.13,0.1685,11
I,0.37,0.275,0.14,0.2215,0.097,0.0455,0.0615,6
M,0.73,0.585,0.225,2.2305,1.2395,0.422,0.563,14
M,0.61,0.45,0.19,1.0805,0.517,0.2495,0.2935,10
M,0.555,0.435,0.135,0.858,0.377,0.1585,0.29,15
F,0.575,0.465,0.175,1.099,0.4735,0.202,0.35,9
F,0.61,0.495,0.185,1.153,0.536,0.2905,0.245,8
M,0.605,0.49,0.18,1.227,0.48,0.287,0.35,18
M,0.615,0.455,0.15,0.9335,0.382,0.247,0.2615,10
F,0.465,0.355,0.115,0.4705,0.1955,0.118,0.126,7
M,0.555,0.425,0.15,0.873,0.4625,0.1845,0.1965,9
M,0.62,0.45,0.2,0.858,0.4285,0.1525,0.2405,8
I,0.515,0.395,0.125,0.556,0.2695,0.096,0.17,8
F,0.625,0.525,0.215,1.5765,0.5115,0.2595,0.665,16
I,0.35,0.28,0.075,0.196,0.082,0.04,0.064,8
F,0.69,0.55,0.18,1.659,0.8715,0.2655,0.4395,9
F,0.635,0.505,0.155,1.2895,0.594,0.314,0.345,11
F,0.7,0.545,0.13,1.556,0.6725,0.374,0.195,12
I,0.375,0.275,0.085,0.22,0.109,0.05,0.0605,7
F,0.575,0.45,0.17,1.0475,0.3775,0.1705,0.385,18
M,0.56,0.415,0.145,0.852,0.43,0.1885,0.205,8
M,0.635,0.5,0.17,1.4345,0.611,0.309,0.418,12
M,0.35,0.265,0.09,0.1775,0.0575,0.042,0.068,12
F,0.595,0.465,0.145,1.107,0.402,0.2415,0.31,12
M,0.6,0.45,0.15,0.8665,0.3695,0.1955,0.255,12
I,0.37,0.275,0.1,0.22,0.094,0.045,0.065,7
F,0.645,0.5,0.16,1.2465,0.5475,0.327,0.3,10
I,0.585,0.45,0.135,0.855,0.3795,0.187,0.26,9
I,0.375,0.245,0.1,0.394,0.166,0.091,0.1125,6
I,0.61,0.465,0.125,0.9225,0.436,0.19,0.26,9
F,0.725,0.565,0.21,2.1425,1.03,0.487,0.503,14
F,0.655,0.51,0.16,1.092,0.396,0.2825,0.37,14
M,0.5,0.405,0.155,0.772,0.346,0.1535,0.245,12
M,0.5,0.375,0.15,0.636,0.2535,0.145,0.19,10
F,0.61,0.45,0.16,1.136,0.414,0.311,0.3,9
I,0.235,0.175,0.08,0.0645,0.0215,0.0175,0.0215,5
M,0.47,0.375,0.115,0.4265,0.1685,0.0755,0.15,8
M,0.595,0.46,0.155,1.03,0.4275,0.207,0.3305,10
F,0.545,0.435,0.15,0.6855,0.2905,0.145,0.225,10
F,0.685,0.535,0.175,1.5845,0.7175,0.3775,0.4215,9
I,0.375,0.28,0.1,0.2565,0.1165,0.0585,0.0725,12
I,0.52,0.39,0.14,0.7325,0.2415,0.144,0.26,19
M,0.57,0.44,0.095,0.827,0.3395,0.2215,0.235,8
F,0.505,0.41,0.15,0.6345,0.243,0.1335,0.215,17
I,0.62,0.47,0.155,0.966,0.447,0.171,0.284,11
I,0.525,0.375,0.12,0.6315,0.3045,0.114,0.19,9
I,0.53,0.4,0.145,0.555,0.1935,0.1305,0.195,9
M,0.385,0.295,0.095,0.335,0.147,0.094,0.09,7
F,0.475,0.36,0.125,0.447,0.1695,0.081,0.14,9
F,0.62,0.51,0.175,1.2705,0.5415,0.323,0.3225,9
M,0.56,0.44,0.16,0.8645,0.3305,0.2075,0.26,10
F,0.66,0.515,0.17,1.337,0.615,0.3125,0.3575,10
M,0.62,0.48,0.16,1.0765,0.412,0.253,0.3,13
M,0.66,0.515,0.155,1.4415,0.7055,0.3555,0.335,10
M,0.625,0.495,0.175,1.254,0.5815,0.286,0.3185,9
M,0.565,0.44,0.125,0.802,0.3595,0.1825,0.215,9
M,0.645,0.5,0.195,1.401,0.6165,0.3515,0.3725,10
I,0.42,0.32,0.115,0.376,0.169,0.092,0.1,5
F,0.535,0.41,0.13,0.7145,0.335,0.144,0.2075,9
M,0.58,0.465,0.175,1.035,0.401,0.1865,0.385,17
F,0.66,0.53,0.17,1.326,0.519,0.2625,0.44,13
M,0.53,0.415,0.175,0.7395,0.261,0.1395,0.2645,17
M,0.535,0.405,0.14,0.7315,0.336,0.156,0.19,7
M,0.545,0.45,0.15,0.8795,0.387,0.15,0.2625,11
F,0.63,0.475,0.175,1.423,0.4155,0.3385,0.49,14
M,0.65,0.51,0.16,1.3835,0.6385,0.2905,0.3665,9
F,0.705,0.545,0.17,1.58,0.6435,0.4565,0.265,11
F,0.665,0.57,0.185,1.522,0.6965,0.3025,0.405,13
F,0.51,0.37,0.21,1.183,0.508,0.292,0.343,9
F,0.595,0.475,0.17,1.247,0.48,0.225,0.425,20
F,0.55,0.45,0.145,0.741,0.295,0.1435,0.2665,10
F,0.415,0.325,0.115,0.3455,0.1405,0.0765,0.11,9
F,0.695,0.565,0.19,1.7635,0.7465,0.399,0.4975,11
F,0.525,0.4,0.13,0.6995,0.3115,0.131,0.223,9
M,0.58,0.49,0.13,1.1335,0.586,0.2565,0.237,9
F,0.635,0.5,0.19,1.29,0.593,0.3045,0.352,8
I,0.54,0.415,0.11,0.619,0.2755,0.15,0.1765,10
F,0.505,0.39,0.115,0.66,0.3045,0.1555,0.175,8
I,0.43,0.34,0.1,0.3405,0.1395,0.0665,0.12,8
M,0.72,0.55,0.205,2.165,1.1055,0.525,0.404,10
F,0.815,0.65,0.25,2.255,0.8905,0.42,0.7975,14
M,0.535,0.415,0.135,0.78,0.3165,0.169,0.2365,8
I,0.375,0.275,0.095,0.2465,0.11,0.0415,0.0775,6
F,0.525,0.4,0.135,0.714,0.318,0.138,0.208,10
F,0.56,0.44,0.155,0.9705,0.4315,0.263,0.255,9
M,0.49,0.38,0.11,0.554,0.2935,0.1005,0.15,8
M,0.535,0.43,0.14,0.7165,0.2855,0.1595,0.2155,8
F,0.75,0.55,0.195,1.8325,0.83,0.366,0.44,11
M,0.62,0.485,0.155,1.0295,0.425,0.2315,0.335,12
M,0.52,0.4,0.145,0.7765,0.3525,0.1845,0.185,9
I,0.45,0.35,0.125,0.4775,0.2235,0.089,0.118,6
M,0.235,0.16,0.06,0.0545,0.0265,0.0095,0.015,4
M,0.615,0.51,0.15,1.296,0.545,0.3315,0.32,9
I,0.275,0.2,0.055,0.0925,0.038,0.021,0.026,4
I,0.39,0.29,0.1,0.2225,0.095,0.0465,0.073,7
F,0.655,0.545,0.165,1.6225,0.6555,0.299,0.513,12
I,0.56,0.425,0.14,0.9175,0.4005,0.1975,0.26,10
M,0.53,0.44,0.205,0.835,0.32,0.2175,0.245,14
F,0.605,0.49,0.15,1.1345,0.5265,0.2645,0.295,9
M,0.695,0.53,0.21,1.51,0.664,0.4095,0.385,10
M,0.525,0.435,0.155,1.065,0.486,0.233,0.285,8
M,0.58,0.44,0.175,1.2255,0.5405,0.2705,0.3265,10
M,0.65,0.51,0.175,1.3165,0.6345,0.2605,0.364,12
F,0.58,0.425,0.155,0.873,0.3615,0.249,0.239,10
M,0.67,0.54,0.175,1.482,0.739,0.2925,0.365,10
F,0.63,0.51,0.185,1.235,0.5115,0.349,0.3065,11
I,0.235,0.18,0.06,0.058,0.022,0.0145,0.018,6
F,0.635,0.51,0.185,1.286,0.526,0.295,0.4105,12
I,0.395,0.295,0.095,0.2725,0.115,0.0625,0.085,8
M,0.595,0.435,0.16,1.057,0.4255,0.224,0.31,9
I,0.605,0.435,0.13,0.9025,0.432,0.174,0.26,11
F,0.5,0.395,0.14,0.7155,0.3165,0.176,0.24,10
M,0.55,0.43,0.13,0.8395,0.3155,0.1955,0.2405,10
M,0.6,0.46,0.155,0.6655,0.285,0.149,0.269,11
M,0.69,0.505,0.2,1.872,0.893,0.4015,0.48,10
I,0.5,0.395,0.14,0.6215,0.2925,0.1205,0.195,9
I,0.52,0.4,0.145,0.66,0.267,0.1055,0.22,13
F,0.565,0.45,0.175,1.0095,0.447,0.2375,0.2645,9
M,0.48,0.37,0.135,0.6315,0.3445,0.1015,0.161,7
F,0.385,0.305,0.105,0.3315,0.1365,0.0745,0.1,7
M,0.33,0.215,0.075,0.1145,0.045,0.0265,0.035,6
F,0.625,0.495,0.165,1.262,0.507,0.318,0.39,10
I,0.4,0.315,0.1,0.3225,0.143,0.0735,0.091,6
M,0.58,0.465,0.15,0.9065,0.371,0.1965,0.29,8
M,0.47,0.38,0.145,0.5865,0.2385,0.144,0.185,8
M,0.64,0.49,0.14,1.194,0.4445,0.238,0.375,15
M,0.575,0.45,0.165,0.9655,0.498,0.19,0.23,8
F,0.57,0.435,0.14,0.8585,0.3905,0.196,0.2295,8
F,0.435,0.35,0.125,0.459,0.197,0.1145,0.145,9
M,0.595,0.455,0.15,1.044,0.518,0.2205,0.27,9
F,0.55,0.425,0.125,0.964,0.5475,0.159,0.215,8
M,0.64,0.565,0.23,1.521,0.644,0.372,0.406,15
I,0.405,0.3,0.12,0.324,0.1265,0.07,0.11,7
I,0.585,0.46,0.145,0.8465,0.339,0.167,0.295,10
F,0.69,0.545,0.205,1.933,0.7855,0.429,0.498,13
M,0.4,0.31,0.11,0.314,0.138,0.057,0.1,11
I,0.575,0.45,0.15,0.858,0.449,0.166,0.215,10
F,0.6,0.475,0.18,1.162,0.511,0.2675,0.32,18
M,0.62,0.48,0.15,1.266,0.6285,0.2575,0.309,12
M,0.645,0.5,0.18,1.461,0.5985,0.2425,0.439,11
F,0.545,0.41,0.125,0.6935,0.2975,0.146,0.21,11
F,0.635,0.535,0.19,1.242,0.576,0.2475,0.39,14
I,0.475,0.365,0.115,0.459,0.2175,0.093,0.1165,7
I,0.41,0.325,0.105,0.361,0.1605,0.0665,0.103,8
I,0.415,0.31,0.095,0.311,0.1125,0.0625,0.115,8
M,0.235,0.17,0.055,0.0515,0.018,0.0105,0.0195,7
I,0.55,0.415,0.135,0.8095,0.2985,0.2015,0.28,12
F,0.545,0.385,0.15,1.1185,0.5425,0.2445,0.2845,9
F,0.655,0.545,0.185,1.759,0.6865,0.313,0.547,11
I,0.485,0.38,0.125,0.5215,0.2215,0.118,0.16,8
F,0.605,0.485,0.165,0.9515,0.4535,0.193,0.2765,11
F,0.6,0.5,0.17,1.13,0.4405,0.267,0.335,11
I,0.435,0.335,0.105,0.3535,0.156,0.05,0.1135,7
M,0.335,0.235,0.085,0.1545,0.066,0.0345,0.045,6
M,0.64,0.515,0.08,1.042,0.515,0.1755,0.175,10
I,0.31,0.225,0.07,0.1055,0.435,0.015,0.04,5
I,0.52,0.395,0.115,0.6445,0.3155,0.1245,0.186,11
F,0.52,0.41,0.125,0.6985,0.2945,0.1625,0.215,10
F,0.63,0.515,0.16,1.336,0.553,0.3205,0.35,11
M,0.635,0.48,0.19,1.467,0.5825,0.303,0.42,15
M,0.535,0.435,0.155,0.8915,0.3415,0.177,0.25,13
F,0.505,0.38,0.135,0.6855,0.361,0.1565,0.161,9
F,0.58,0.5,0.165,0.925,0.37,0.185,0.3005,10
I,0.465,0.37,0.115,0.4075,0.1515,0.0935,0.1455,9
F,0.685,0.565,0.175,1.638,0.7775,0.375,0.438,11
F,0.66,0.53,0.17,1.431,0.622,0.309,0.398,10
F,0.565,0.49,0.155,0.9245,0.405,0.2195,0.255,11
I,0.555,0.425,0.18,0.875,0.3695,0.2005,0.255,11
M,0.64,0.495,0.17,1.139,0.5395,0.282,0.285,10
I,0.305,0.22,0.07,0.141,0.062,0.031,0.037,5
I,0.35,0.27,0.09,0.2055,0.075,0.0575,0.062,6
I,0.345,0.255,0.095,0.183,0.075,0.0385,0.06,6
F,0.66,0.53,0.185,1.3485,0.493,0.245,0.49,12
F,0.6,0.46,0.155,0.9735,0.427,0.2045,0.3,8
M,0.775,0.63,0.25,2.7795,1.3485,0.76,0.578,12
F,0.635,0.49,0.175,1.2435,0.5805,0.313,0.305,10
F,0.535,0.405,0.125,0.927,0.26,0.1425,0.345,16
M,0.29,0.225,0.08,0.1295,0.0535,0.026,0.045,10
F,0.56,0.435,0.15,0.8715,0.4755,0.1835,0.1835,9
I,0.29,0.21,0.06,0.1045,0.0415,0.022,0.035,5
F,0.595,0.47,0.155,1.121,0.4515,0.178,0.155,11
F,0.47,0.355,0.13,0.5465,0.2005,0.126,0.185,14
F,0.44,0.345,0.105,0.4285,0.165,0.083,0.132,11
F,0.625,0.49,0.19,1.7015,0.7465,0.4105,0.3855,11
M,0.55,0.45,0.13,0.92,0.378,0.2385,0.29,11
M,0.475,0.375,0.13,0.5175,0.2075,0.1165,0.17,10
F,0.625,0.48,0.155,1.2035,0.5865,0.239,0.3185,12
M,0.685,0.52,0.15,1.343,0.4635,0.292,0.4,13
I,0.65,0.525,0.18,1.626,0.597,0.3445,0.53,18
M,0.57,0.455,0.15,0.952,0.3895,0.2155,0.2745,9
I,0.385,0.29,0.09,0.2615,0.111,0.0595,0.0745,9
F,0.69,0.525,0.19,1.492,0.6425,0.3905,0.42,12
M,0.585,0.46,0.185,0.922,0.3635,0.213,0.285,10
M,0.59,0.46,0.155,0.906,0.327,0.1485,0.335,15
I,0.52,0.41,0.11,0.5185,0.2165,0.0915,0.184,8
M,0.405,0.305,0.085,0.2605,0.1145,0.0595,0.085,8
M,0.67,0.55,0.17,1.247,0.472,0.2455,0.4,21
I,0.53,0.43,0.16,0.7245,0.321,0.1275,0.24,9
M,0.345,0.255,0.09,0.2005,0.094,0.0295,0.063,9
M,0.505,0.38,0.13,0.656,0.227,0.1785,0.22,13
I,0.47,0.37,0.14,0.4985,0.2095,0.1225,0.145,10
M,0.455,0.345,0.15,0.5795,0.1685,0.125,0.215,13
I,0.44,0.33,0.11,0.38,0.197,0.079,0.09,7
I,0.25,0.19,0.06,0.0765,0.036,0.0115,0.0245,6
F,0.58,0.45,0.15,0.92,0.393,0.212,0.2895,9
F,0.58,0.475,0.165,1.0385,0.414,0.26,0.305,13
I,0.355,0.285,0.095,0.2275,0.0955,0.0475,0.0715,6
F,0.675,0.57,0.225,1.587,0.739,0.2995,0.435,10
M,0.575,0.455,0.155,1.013,0.4685,0.2085,0.295,11
I,0.38,0.28,0.085,0.2735,0.115,0.061,0.085,6
F,0.4,0.31,0.115,0.3465,0.1475,0.0695,0.115,10
M,0.61,0.485,0.16,1.0145,0.5315,0.212,0.2415,8
I,0.415,0.315,0.09,0.3625,0.175,0.0835,0.093,6
M,0.53,0.41,0.14,0.681,0.3095,0.1415,0.1835,6
I,0.66,0.525,0.18,1.6935,0.6025,0.4005,0.42,15
M,0.64,0.505,0.18,1.297,0.59,0.3125,0.363,11
I,0.35,0.265,0.085,0.1735,0.0775,0.034,0.056,6
M,0.695,0.525,0.175,1.742,0.696,0.389,0.505,12
F,0.62,0.495,0.17,1.062,0.372,0.213,0.34,11
F,0.48,0.38,0.145,0.59,0.232,0.141,0.23,12
I,0.585,0.46,0.14,0.7635,0.326,0.153,0.265,9
M,0.525,0.395,0.165,0.782,0.285,0.1405,0.285,19
F,0.47,0.36,0.12,0.4775,0.2105,0.1055,0.15,10
I,0.5,0.375,0.14,0.559,0.2375,0.135,0.169,9
F,0.44,0.34,0.1,0.451,0.188,0.087,0.13,10
M,0.595,0.47,0.175,0.991,0.382,0.2395,0.5,12
F,0.39,0.29,0.125,0.3055,0.121,0.082,0.09,7
M,0.595,0.475,0.14,0.944,0.3625,0.189,0.315,9
M,0.605,0.47,0.115,1.114,0.3925,0.291,0.31,15
I,0.425,0.315,0.08,0.303,0.131,0.0585,0.095,7
F,0.58,0.45,0.235,1.071,0.3,0.206,0.395,14
M,0.52,0.465,0.15,0.9505,0.456,0.199,0.255,8
F,0.65,0.5,0.185,1.4415,0.741,0.2955,0.341,9
M,0.62,0.505,0.185,1.5275,0.69,0.368,0.35,13
I,0.36,0.265,0.075,0.1785,0.0785,0.035,0.054,6
F,0.455,0.35,0.12,0.4555,0.1945,0.1045,0.1375,7
M,0.37,0.28,0.1,0.252,0.1065,0.0595,0.074,8
F,0.615,0.49,0.19,1.1345,0.4695,0.257,0.348,11
I,0.42,0.315,0.1,0.3435,0.157,0.0795,0.09,6
M,0.56,0.42,0.195,0.8085,0.3025,0.1795,0.285,14
I,0.5,0.385,0.11,0.596,0.3015,0.104,0.151,8
I,0.535,0.41,0.155,0.6315,0.2745,0.1415,0.1815,12
M,0.415,0.3,0.1,0.3355,0.1545,0.0685,0.095,7
M,0.61,0.45,0.15,0.871,0.407,0.1835,0.25,10
F,0.345,0.255,0.1,0.197,0.071,0.051,0.06,9
F,0.41,0.315,0.11,0.321,0.1255,0.0655,0.095,10
M,0.65,0.52,0.155,1.368,0.6185,0.288,0.365,9
F,0.45,0.35,0.145,0.5425,0.1765,0.123,0.175,13
M,0.66,0.525,0.18,1.478,0.5815,0.381,0.372,10
I,0.55,0.45,0.13,0.804,0.3375,0.1405,0.23,6
F,0.54,0.42,0.14,0.8035,0.38,0.1805,0.21,9
I,0.37,0.275,0.085,0.2045,0.096,0.056,0.08,6
F,0.58,0.45,0.17,0.9705,0.4615,0.232,0.248,9
F,0.435,0.35,0.12,0.4585,0.192,0.1,0.13,11
M,0.46,0.36,0.125,0.547,0.2165,0.1105,0.19,8
F,0.49,0.375,0.135,0.6125,0.2555,0.102,0.22,11
M,0.59,0.47,0.16,1.206,0.479,0.2425,0.309,8
I,0.51,0.405,0.135,0.769,0.3655,0.1585,0.18,7
M,0.68,0.54,0.19,1.623,0.7165,0.354,0.4715,12
I,0.455,0.325,0.135,0.82,0.4005,0.1715,0.211,8
F,0.605,0.46,0.17,1.122,0.347,0.3045,0.315,13
