@relation BANK-weka.filters.unsupervised.ATTRIBUTE.Normalize-S1.0-T0.0-weka.filters.unsupervised.ATTRIBUTE.NominalToBinary-Rfirst-last

@ATTRIBUTE age numeric
@ATTRIBUTE job=admin. numeric
@ATTRIBUTE job=unknown numeric
@ATTRIBUTE job=unemployed numeric
@ATTRIBUTE job=management numeric
@ATTRIBUTE job=housemaid numeric
@ATTRIBUTE job=entrepreneur numeric
@ATTRIBUTE job=student numeric
@ATTRIBUTE job=blue-collar numeric
@ATTRIBUTE job=self-employed numeric
@ATTRIBUTE job=retired numeric
@ATTRIBUTE job=technician numeric
@ATTRIBUTE job=services numeric
@ATTRIBUTE marital=married numeric
@ATTRIBUTE marital=divorced numeric
@ATTRIBUTE marital=single numeric
@ATTRIBUTE education=unknown numeric
@ATTRIBUTE education=secondary numeric
@ATTRIBUTE education=primary numeric
@ATTRIBUTE education=tertiary numeric
@ATTRIBUTE default=yes numeric
@ATTRIBUTE balance numeric
@ATTRIBUTE housing=yes numeric
@ATTRIBUTE loan=yes numeric
@ATTRIBUTE contact=unknown numeric
@ATTRIBUTE contact=telephone numeric
@ATTRIBUTE contact=cellular numeric
@ATTRIBUTE day numeric
@ATTRIBUTE month=jan numeric
@ATTRIBUTE month=feb numeric
@ATTRIBUTE month=mar numeric
@ATTRIBUTE month=apr numeric
@ATTRIBUTE month=may numeric
@ATTRIBUTE month=jun numeric
@ATTRIBUTE month=jul numeric
@ATTRIBUTE month=aug numeric
@ATTRIBUTE month=sep numeric
@ATTRIBUTE month=oct numeric
@ATTRIBUTE month=nov numeric
@ATTRIBUTE month=dec numeric
@ATTRIBUTE duration numeric
@ATTRIBUTE campaign numeric
@ATTRIBUTE pdays numeric
@ATTRIBUTE previous numeric
@ATTRIBUTE poutcome=unknown numeric
@ATTRIBUTE poutcome=other numeric
@ATTRIBUTE poutcome=failure numeric
@ATTRIBUTE poutcome=success numeric
@ATTRIBUTE Class {no,yes}

@data
0.529412,0,0,0,0,0,0,0,1,0,0,0,0,1,0,0,0,1,0,0,0,0.04961,0,0,1,0,0,0.133333,0,0,0,0,1,0,0,0,0,0,0,0,0.093678,0,0,0,1,0,0,0,no
0.191176,0,0,0,0,0,1,0,0,0,0,0,0,1,0,0,1,0,0,0,0,0.045449,1,0,0,0,1,0.666667,0,0,0,0,0,0,0,0,0,0,1,0,0.050976,0,0.155963,0.04,0,0,1,0,no
0.279412,1,0,0,0,0,0,0,0,0,0,0,0,0,0,1,0,1,0,0,0,0.04416,0,0,0,0,1,0.633333,0,0,0,0,0,0,0,0,0,0,1,0,0.014565,0.020408,0,0,1,0,0,0,no
0.485294,1,0,0,0,0,0,0,0,0,0,0,0,1,0,0,0,1,0,0,0,0.053771,0,0,1,0,0,0.366667,0,0,0,0,0,1,0,0,0,0,0,0,0.088381,0,0,0,1,0,0,0,no
0.397059,1,0,0,0,0,0,0,0,0,0,0,0,1,0,0,0,1,0,0,0,0.111019,1,0,0,0,1,0.533333,0,0,0,0,0,0,0,0,0,0,1,0,0.019861,0.040816,0.173165,0.2,0,1,0,0,no
0.588235,0,0,0,0,1,0,0,0,0,0,0,0,1,0,0,0,0,1,0,0,0.044469,0,0,0,0,1,0.866667,0,0,0,0,0,0,0,1,0,0,0,0,0.023833,0.204082,0,0,1,0,0,0,no
0.588235,0,0,1,0,0,0,0,0,0,0,0,0,0,1,0,0,1,0,0,0,0.083677,0,0,0,1,0,0.066667,0,1,0,0,0,0,0,0,0,0,0,0,0.081761,0,0,0,1,0,0,0,no
0.470588,0,0,0,0,1,0,0,0,0,0,0,0,0,1,0,0,0,0,1,0,0.049436,1,0,0,0,1,0.6,0,0,0,0,0,0,0,1,0,0,0,0,0.034757,0.040816,0,0,1,0,0,0,no
0.132353,0,0,0,1,0,0,0,0,0,0,0,0,0,0,1,0,0,0,1,0,0.076415,0,0,0,0,1,0.433333,0,0,0,0,0,0,0,0,1,0,0,0,0.129096,0.020408,0,0,1,0,0,0,no
0.338235,0,0,0,0,0,0,0,0,0,0,0,1,1,0,0,0,1,0,0,0,0.048389,1,0,0,0,1,0.333333,0,0,0,0,1,0,0,0,0,0,0,0,0.072162,0.040816,0,0,1,0,0,0,no
0.25,0,0,1,0,0,0,0,0,0,0,0,0,1,0,0,0,1,0,0,0,0.043999,0,0,0,0,1,0.966667,1,0,0,0,0,0,0,0,0,0,0,0,0.11089,0.040816,0,0,1,0,0,0,no
0.338235,0,0,0,0,0,0,0,0,0,0,1,0,1,0,0,0,1,0,0,0,0.044496,0,0,1,0,0,0.933333,0,0,0,0,1,0,0,0,0,0,0,0,0.081099,0.020408,0,0,1,0,0,0,no
0.294118,0,0,0,0,0,0,0,0,0,0,1,0,0,0,1,0,1,0,0,0,0.045838,1,0,0,0,1,0.433333,0,0,0,0,0,0,0,1,0,0,0,0,0.088712,0.020408,0,0,1,0,0,0,no
0.264706,0,0,0,1,0,0,0,0,0,0,0,0,0,1,0,0,0,0,1,0,0.056496,0,1,0,0,1,0.433333,0,0,0,0,0,0,0,1,0,0,0,0,0.112214,0.020408,0,0,1,0,0,0,no
0.367647,0,0,0,0,0,0,0,0,0,0,0,1,0,1,0,0,1,0,0,0,0.044469,1,0,1,0,0,0.1,0,0,0,0,0,1,0,0,0,0,0,0,0.127441,0.081633,0,0,1,0,0,0,no
0.132353,0,0,0,0,0,0,0,1,0,0,0,0,0,0,1,0,1,0,0,0,0.051409,0,1,0,0,1,0.233333,0,0,0,0,0,0,1,0,0,0,0,0,0.224098,0,0,0,1,0,0,0,yes
0.220588,0,0,0,0,0,0,0,1,0,0,0,0,1,0,0,0,1,0,0,0,0.052818,1,0,1,0,0,0.666667,0,0,0,0,1,0,0,0,0,0,0,0,0.046673,0,0,0,1,0,0,0,no
0.279412,0,0,0,0,0,0,0,1,0,0,0,0,0,0,1,0,1,0,0,0,0.221057,1,0,0,0,1,0.533333,0,0,0,1,0,0,0,0,0,0,0,0,0.095002,0.061224,0.380734,0.04,0,0,1,0,no
0.397059,0,0,0,1,0,0,0,0,0,0,0,0,0,1,0,0,0,0,1,0,0.128616,1,0,0,1,0,0.566667,0,0,0,0,0,0,0,0,0,0,1,0,0.081099,0.040816,0.129587,0.08,0,0,1,0,no
0.264706,1,0,0,0,0,0,0,0,0,0,0,0,1,0,0,0,1,0,0,0,0.060482,0,0,0,0,1,0.366667,0,0,0,0,1,0,0,0,0,0,0,0,0.129758,0.020408,0,0,1,0,0,0,no
0.294118,0,0,0,0,0,0,0,0,0,0,0,1,1,0,0,0,1,0,0,0,0.044469,1,0,0,0,1,0.233333,0,0,0,0,1,0,0,0,0,0,0,0,0.165177,0,0,0,1,0,0,0,no
0.529412,0,0,0,0,0,0,0,1,0,0,0,0,1,0,0,1,0,0,0,0,0.044778,0,0,0,0,1,0.4,0,0,0,0,0,0,0,1,0,0,0,0,0.039391,0.020408,0,0,1,0,0,0,no
0.308824,0,0,0,0,0,0,0,0,1,0,0,0,0,1,0,0,1,0,0,0,0.06965,0,1,1,0,0,0.633333,0,0,0,0,0,1,0,0,0,0,0,0,0.087719,0,0,0,1,0,0,0,no
0.308824,0,0,0,0,0,0,0,0,0,0,1,0,1,0,0,0,1,0,0,0,0.047919,1,0,1,0,0,0.5,0,0,0,0,1,0,0,0,0,0,0,0,0.240649,0.061224,0,0,1,0,0,0,no
0.029412,0,0,0,0,0,0,1,0,0,0,0,0,0,0,1,0,1,0,0,0,0.136334,0,0,0,0,1,0.433333,0,0,0,0,0,0,0,1,0,0,0,0,0.040384,0.040816,0.146789,0.28,0,1,0,0,no
0.191176,0,0,1,0,0,0,0,0,0,0,0,0,0,0,1,0,1,0,0,0,0.044469,0,0,0,0,1,0.866667,0,0,0,0,1,0,0,0,0,0,0,0,0.039391,0.020408,0,0,1,0,0,0,no
0.235294,0,0,0,0,0,0,0,1,0,0,0,0,1,0,0,0,1,0,0,0,0.061744,1,0,0,0,1,0.433333,0,0,0,0,0,0,1,0,0,0,0,0,0.107911,0.020408,0,0,1,0,0,0,no
0.455882,0,0,0,0,0,0,0,1,0,0,0,0,1,0,0,0,0,1,0,0,0.044456,0,0,0,0,1,0.6,0,0,0,0,0,0,0,1,0,0,0,0,0.063224,0.020408,0,0,1,0,0,0,no
0.205882,0,0,0,0,0,0,0,1,0,0,0,0,0,0,1,0,1,0,0,0,0.044764,0,0,0,0,1,0.966667,1,0,0,0,0,0,0,0,0,0,0,0,0.023833,0.020408,0.238532,0.04,0,0,1,0,no
0.352941,0,0,0,1,0,0,0,0,0,0,0,0,1,0,0,0,0,0,1,0,0.08161,1,0,1,0,0,0.466667,0,0,0,0,1,0,0,0,0,0,0,0,0.103608,0.122449,0,0,1,0,0,0,no
0.102941,0,0,0,0,0,0,0,1,0,0,0,0,0,0,1,0,1,0,0,0,0.049785,1,0,1,0,0,0.9,0,0,0,0,1,0,0,0,0,0,0,0,0.098643,0,0,0,1,0,0,0,no
0.411765,0,0,0,0,0,0,0,0,0,0,0,1,1,0,0,0,1,0,0,0,0.044469,1,0,0,1,0,0.266667,0,0,0,0,0,0,1,0,0,0,0,0,0.08143,0,0,0,1,0,0,0,no
0.323529,0,0,0,0,1,0,0,0,0,0,0,0,0,1,0,0,0,1,0,0,0.044764,1,0,0,0,1,0.566667,0,0,0,0,0,0,0,0,0,0,1,0,0.077458,0.040816,0.145642,0.16,0,1,0,0,no
0.220588,0,0,0,1,0,0,0,0,0,0,0,0,0,0,1,0,0,0,1,0,0.045597,0,0,0,0,1,0.133333,0,1,0,0,0,0,0,0,0,0,0,0,0.075141,0,0,0,1,0,0,0,no
0.220588,0,0,0,1,0,0,0,0,0,0,0,0,0,0,1,0,0,0,1,0,0.044469,0,0,0,0,1,0.133333,0,1,0,0,0,0,0,0,0,0,0,0,0.022178,0,0,0,1,0,0,0,no
0.338235,0,0,0,0,0,0,0,0,0,0,1,0,1,0,0,0,1,0,0,0,0.071717,1,1,0,0,1,0.266667,0,0,0,0,0,0,1,0,0,0,0,0,0.063555,0,0,0,1,0,0,0,no
0.455882,0,0,0,1,0,0,0,0,0,0,0,0,1,0,0,0,0,0,1,0,0.08314,0,0,0,0,1,0.133333,0,0,0,0,0,0,0,1,0,0,0,0,0.167494,0.020408,0.00344,0.2,0,1,0,0,no
0.205882,0,0,0,0,0,0,0,0,0,0,1,0,0,0,1,0,0,0,1,0,0.048711,0,0,0,0,1,0.666667,0,0,0,0,0,0,0,1,0,0,0,0,0.040384,0.040816,0,0,1,0,0,0,no
0.426471,0,0,0,0,0,0,0,0,0,0,1,0,1,0,0,1,0,0,0,0,0.118871,0,0,1,0,0,0.5,0,0,0,0,0,1,0,0,0,0,0,0,0.046011,0.081633,0,0,1,0,0,0,no
0.573529,0,0,0,0,0,0,0,0,0,1,0,0,1,0,0,0,1,0,0,0,0.237916,0,0,0,0,1,0.566667,0,0,0,0,0,0,0,0,0,0,1,0,0.096988,0,0,0,1,0,0,0,no
0.397059,0,0,0,0,0,0,0,0,0,0,1,0,0,1,0,0,1,0,0,0,0.043261,0,1,0,1,0,0.533333,0,0,0,0,0,0,0,0,0,1,0,0,0.08805,0,0,0,1,0,0,0,yes
0.397059,0,0,0,0,0,0,0,1,0,0,0,0,1,0,0,0,0,1,0,0,0.061798,1,0,0,0,1,0.433333,0,0,0,0,1,0,0,0,0,0,0,0,0.04568,0.040816,0.298165,0.68,0,0,1,0,no
0.25,1,0,0,0,0,0,0,0,0,0,0,0,0,0,1,0,1,0,0,0,0.0451,0,1,0,0,1,0.266667,0,0,0,0,0,0,1,0,0,0,0,0,0.010593,0.102041,0,0,1,0,0,0,no
0.235294,1,0,0,0,0,0,0,0,0,0,0,0,0,1,0,0,1,0,0,0,0.093274,0,1,0,0,1,0.666667,0,0,0,0,0,0,0,0,0,0,1,0,0.266137,0.020408,0,0,1,0,0,0,yes
0.455882,0,0,0,0,0,0,0,1,0,0,0,0,1,0,0,0,0,1,0,0,0.044469,0,0,0,0,1,0.333333,0,0,0,0,0,0,0,1,0,0,0,0,0.022509,0.081633,0,0,1,0,0,0,no
0.117647,0,0,0,1,0,0,0,0,0,0,0,0,0,0,1,0,0,0,1,0,0.04565,0,0,0,0,1,0.1,0,0,0,0,1,0,0,0,0,0,0,0,0.046011,0,0,0,1,0,0,0,no
0.191176,0,0,0,0,0,0,0,0,0,0,0,1,1,0,0,0,1,0,0,0,0.045288,1,0,0,0,1,0.233333,0,0,0,0,0,0,1,0,0,0,0,0,0.173784,0.081633,0,0,1,0,0,0,no
0.25,0,0,0,1,0,0,0,0,0,0,0,0,0,0,1,0,0,0,1,0,0.096482,1,0,1,0,0,0.866667,0,0,0,0,1,0,0,0,0,0,0,0,0.005627,0.081633,0,0,1,0,0,0,no
0.147059,1,0,0,0,0,0,0,0,0,0,0,0,1,0,0,0,1,0,0,0,0.342063,1,0,0,0,1,0.566667,0,0,0,0,1,0,0,0,0,0,0,0,0.013241,0,0.408257,0.12,0,0,1,0,no
0.147059,0,0,0,0,0,0,0,0,0,0,1,0,0,0,1,0,1,0,0,0,0.054912,1,0,1,0,0,0.166667,0,0,0,0,0,1,0,0,0,0,0,0,0.658722,0.020408,0,0,1,0,0,0,no
0.132353,0,0,0,0,0,0,0,0,0,0,0,1,0,0,1,0,1,0,0,0,0.038738,1,1,1,0,0,0.666667,0,0,0,0,1,0,0,0,0,0,0,0,0.318107,0.020408,0,0,1,0,0,0,no
0.279412,0,0,0,0,0,0,0,1,0,0,0,0,0,1,0,0,1,0,0,0,0.044469,1,0,0,0,1,0.333333,0,0,0,0,1,0,0,0,0,0,0,0,0.190665,0,0.199541,0.04,0,0,1,0,no
0.117647,0,0,0,1,0,0,0,0,0,0,0,0,0,0,1,1,0,0,0,0,0.087368,0,0,0,0,1,0.266667,0,1,0,0,0,0,0,0,0,0,0,0,0.001986,0.020408,0,0,1,0,0,0,no
0.205882,0,0,0,0,0,0,0,0,0,0,0,1,1,0,0,0,1,0,0,0,0.10875,1,1,0,0,1,0.333333,0,0,0,0,1,0,0,0,0,0,0,0,0.0715,0,0.389908,0.16,0,0,1,0,no
0.411765,0,0,0,0,0,0,0,0,0,0,0,1,0,0,1,1,0,0,0,0,0.068415,0,0,0,0,1,0.6,0,0,0,0,0,0,0,0,0,1,0,0,0.126117,0.020408,0,0,1,0,0,0,yes
0.338235,0,0,0,0,0,0,0,0,0,0,1,0,1,0,0,0,1,0,0,0,0.026886,1,1,1,0,0,0.9,0,0,0,0,1,0,0,0,0,0,0,0,0.052301,0,0,0,1,0,0,0,no
0.058824,0,0,0,0,0,0,0,0,0,0,1,0,0,0,1,0,1,0,0,0,0.052496,0,0,0,0,1,0.966667,0,0,0,1,0,0,0,0,0,0,0,0,0.053625,0,0,0,1,0,0,0,no
0.102941,0,0,0,0,0,0,1,0,0,0,0,0,0,0,1,0,1,0,0,0,0.048214,0,0,0,0,1,0.2,0,0,0,0,1,0,0,0,0,0,0,0,0.077789,0.040816,0,0,1,0,0,0,no
0.279412,1,0,0,0,0,0,0,0,0,0,0,0,0,1,0,0,1,0,0,0,0.046563,1,0,1,0,0,0.533333,0,0,0,0,0,1,0,0,0,0,0,0,0.178749,0.040816,0,0,1,0,0,0,no
0.161765,0,0,0,0,0,0,0,0,1,0,0,0,1,0,0,0,1,0,0,0,0.04612,0,1,1,0,0,0.533333,0,0,0,0,0,0,1,0,0,0,0,0,0.020523,0,0.098624,0.2,0,1,0,0,no
0.426471,0,0,0,0,0,0,0,1,0,0,0,0,1,0,0,0,1,0,0,0,0.060026,1,1,0,0,1,0.466667,0,0,0,0,1,0,0,0,0,0,0,0,0.389606,0.163265,0,0,1,0,0,0,no
0.279412,0,0,0,1,0,0,0,0,0,0,0,0,0,1,0,0,0,0,1,0,0.102656,1,0,0,0,1,0.633333,0,0,0,0,0,0,0,0,0,0,1,0,0.210526,0,0,0,1,0,0,0,no
0.191176,0,0,0,0,0,0,0,1,0,0,0,0,0,0,1,0,0,1,0,0,0.056308,0,1,0,0,1,0.933333,0,0,0,0,0,0,1,0,0,0,0,0,0.025157,0.142857,0,0,1,0,0,0,no
0.117647,0,0,0,0,0,0,1,0,0,0,0,0,0,0,1,0,0,0,1,0,0.094576,1,0,0,0,1,0.7,0,0,0,0,1,0,0,0,0,0,0,0,0.064217,0,0.113532,0.24,0,0,0,1,yes
0.897059,0,0,0,0,1,0,0,0,0,0,0,0,1,0,0,0,0,1,0,0,0.044469,0,0,0,0,1,0.733333,0,1,0,0,0,0,0,0,0,0,0,0,0.210195,0,0.21789,0.04,0,0,1,0,yes
0.294118,0,0,0,1,0,0,0,0,0,0,0,0,0,0,1,0,0,0,1,1,0.039087,1,0,0,0,1,0.6,0,0,0,0,0,0,0,1,0,0,0,0,0.089374,0.061224,0,0,1,0,0,0,no
0.367647,0,0,0,0,0,0,0,1,0,0,0,0,1,0,0,0,0,1,0,0,0.048107,1,1,1,0,0,0.266667,0,0,0,0,1,0,0,0,0,0,0,0,0.029791,0,0,0,1,0,0,0,no
0.147059,0,0,0,1,0,0,0,0,0,0,0,0,1,0,0,0,0,0,1,0,0.052268,1,1,0,0,1,0.433333,0,0,0,0,0,0,1,0,0,0,0,0,0.062231,0.020408,0,0,1,0,0,0,no
0.455882,0,0,0,0,0,0,0,0,0,0,1,0,1,0,0,0,1,0,0,0,0.036845,1,1,1,0,0,0.9,0,0,0,0,1,0,0,0,0,0,0,0,0.28335,0.020408,0,0,1,0,0,0,no
0.382353,0,0,0,0,0,0,0,0,0,0,1,0,1,0,0,0,1,0,0,0,0.046013,1,0,0,0,1,0.166667,0,0,0,0,1,0,0,0,0,0,0,0,0.034426,0,0,0,1,0,0,0,no
0.485294,0,0,0,0,0,0,0,1,0,0,0,0,0,1,0,0,0,1,0,0,0.043167,1,1,1,0,0,0.266667,0,0,0,0,1,0,0,0,0,0,0,0,0.053956,0.061224,0,0,1,0,0,0,no
0.367647,0,0,0,0,0,0,0,1,0,0,0,0,1,0,0,0,1,0,0,0,0.055046,1,0,0,0,1,0.533333,0,0,0,1,0,0,0,0,0,0,0,0,0.128434,0,0,0,1,0,0,0,no
0.176471,0,0,0,1,0,0,0,0,0,0,0,0,1,0,0,0,0,0,1,0,0.060348,1,0,1,0,0,0.866667,0,0,0,0,1,0,0,0,0,0,0,0,0.222443,0.102041,0,0,1,0,0,0,no
0.514706,0,0,0,0,0,0,0,0,0,0,1,0,0,1,0,0,1,0,0,0,0.054993,1,1,1,0,0,0.466667,0,0,0,0,1,0,0,0,0,0,0,0,0.190334,0,0,0,1,0,0,0,no
0.102941,1,0,0,0,0,0,0,0,0,0,0,0,0,0,1,0,1,0,0,0,0.048778,1,0,0,0,1,0.7,0,0,0,0,0,0,1,0,0,0,0,0,0.078782,0.122449,0,0,1,0,0,0,no
0.279412,0,0,0,0,0,0,0,1,0,0,0,0,0,0,1,0,1,0,0,0,0.052227,1,0,1,0,0,0.666667,0,0,0,0,1,0,0,0,0,0,0,0,0.03575,0.020408,0,0,1,0,0,0,no
0.191176,0,0,0,0,0,0,0,0,0,0,1,0,0,0,1,0,0,0,1,0,0.107086,1,0,1,0,0,0.666667,0,0,0,0,1,0,0,0,0,0,0,0,0.28335,0.020408,0,0,1,0,0,0,yes
0.294118,0,0,0,0,0,0,0,1,0,0,0,0,1,0,0,0,0,1,0,0,0.055207,1,0,0,0,1,0.6,0,0,0,0,0,0,0,0,0,0,1,0,0.023833,0.102041,0,0,1,0,0,0,no
0.25,0,0,0,0,0,0,0,1,0,0,0,0,0,0,1,0,0,1,0,0,0.062093,1,0,1,0,0,0.633333,0,0,0,0,0,1,0,0,0,0,0,0,0.001324,0.183673,0,0,1,0,0,0,no
0.25,0,0,0,0,0,0,0,1,0,0,0,0,1,0,0,0,1,0,0,0,0.041704,1,0,1,0,0,0.233333,0,0,0,0,1,0,0,0,0,0,0,0,0.057266,0.020408,0,0,1,0,0,0,no
0.191176,0,0,0,0,0,0,0,0,1,0,0,0,1,0,0,0,0,1,0,0,0.048308,1,0,0,0,1,0.166667,0,0,0,0,0,0,0,1,0,0,0,0,0.056604,0,0,0,1,0,0,0,no
0.25,0,0,0,0,0,0,0,0,0,0,0,1,0,0,1,0,1,0,0,0,0.046805,1,0,1,0,0,0.2,0,0,0,0,1,0,0,0,0,0,0,0,0.072493,0.020408,0,0,1,0,0,0,no
0.205882,0,0,0,0,0,0,0,0,0,0,1,0,0,1,0,0,1,0,0,1,0.040375,0,1,1,0,0,0.266667,0,0,0,0,1,0,0,0,0,0,0,0,0.034757,0,0,0,1,0,0,0,no
0.647059,0,0,0,0,0,0,0,0,0,1,0,0,1,0,0,0,0,0,1,0,0.046254,1,0,0,0,1,0.4,0,1,0,0,0,0,0,0,0,0,0,0,0.033102,0.020408,0,0,1,0,0,0,no
0.294118,0,0,0,0,0,0,0,1,0,0,0,0,1,0,0,0,0,1,0,0,0.0942,1,0,1,0,0,0.5,0,0,0,0,0,1,0,0,0,0,0,0,0.024164,0,0,0,1,0,0,0,no
0.485294,0,0,0,1,0,0,0,0,0,0,0,0,0,0,1,0,0,0,1,0,0.045583,0,0,0,0,1,0.833333,0,0,0,0,0,0,0,1,0,0,0,0,0.403509,0.102041,0,0,1,0,0,0,yes
0.191176,0,0,0,0,0,0,0,1,0,0,0,0,1,0,0,0,1,0,0,0,0.044657,1,0,1,0,0,0.033333,0,0,0,0,0,1,0,0,0,0,0,0,0.05528,0,0,0,1,0,0,0,no
0.544118,1,0,0,0,0,0,0,0,0,0,0,0,1,0,0,1,0,0,0,0,0.071825,0,0,0,0,1,0.233333,0,1,0,0,0,0,0,0,0,0,0,0,0.132738,0,0.350917,0.04,0,0,0,1,no
0.220588,0,0,0,0,0,0,0,0,0,0,1,0,1,0,0,0,1,0,0,0,0.066496,1,0,0,0,1,0.533333,0,0,0,1,0,0,0,0,0,0,0,0,0.124462,0,0,0,1,0,0,0,no
0.294118,0,0,0,0,0,0,0,0,1,0,0,0,1,0,0,0,1,0,0,0,0.107851,1,0,1,0,0,0.533333,0,0,0,0,0,1,0,0,0,0,0,0,0.158557,0,0,0,1,0,0,0,no
0.235294,0,0,0,0,0,0,0,1,0,0,0,0,1,0,0,0,0,1,0,0,0.044617,1,0,1,0,0,0.4,0,0,0,0,1,0,0,0,0,0,0,0,0.106587,0.061224,0,0,1,0,0,0,no
0.382353,0,0,0,0,0,0,0,1,0,0,0,0,1,0,0,0,1,0,0,0,0.054993,1,1,1,0,0,0.066667,0,0,0,0,0,1,0,0,0,0,0,0,0.00993,0,0,0,1,0,0,0,no
0.191176,0,0,0,1,0,0,0,0,0,0,0,0,0,0,1,0,0,0,1,0,0.213688,0,0,0,0,1,0.433333,0,0,0,0,0,0,0,1,0,0,0,0,0.065872,0.081633,0.097477,0.04,0,0,1,0,no
0.220588,0,0,0,0,0,0,0,0,0,0,1,0,1,0,0,0,1,0,0,0,0.044469,1,0,0,0,1,0.466667,0,0,0,0,0,0,1,0,0,0,0,0,0.046342,0,0,0,1,0,0,0,no
0.338235,0,0,0,0,0,1,0,0,0,0,0,0,1,0,0,0,0,0,1,0,0.046577,1,1,1,0,0,0.2,0,0,0,0,1,0,0,0,0,0,0,0,0.213836,0,0,0,1,0,0,0,no
0.294118,0,0,0,1,0,0,0,0,0,0,0,0,0,1,0,0,0,0,1,0,0.049234,1,0,0,0,1,0.8,0,0,0,0,0,0,0,1,0,0,0,0,0.102284,0.081633,0,0,1,0,0,0,no
0.382353,0,0,0,1,0,0,0,0,0,0,0,0,0,1,0,0,0,0,1,0,0.047422,1,0,1,0,0,0.566667,0,0,0,0,0,1,0,0,0,0,0,0,0.028136,0.061224,0,0,1,0,0,0,no
0.455882,0,0,0,0,0,0,0,0,0,0,1,0,0,1,0,1,0,0,0,0,0.080791,1,0,1,0,0,0.9,0,0,0,0,1,0,0,0,0,0,0,0,0.057928,0.040816,0,0,1,0,0,0,no
0.132353,0,0,0,0,0,0,0,1,0,0,0,0,0,0,1,0,1,0,0,0,0.044469,1,0,1,0,0,0.9,0,0,0,0,1,0,0,0,0,0,0,0,0.126448,0,0,0,1,0,0,0,no
0.514706,0,0,0,0,0,0,0,0,0,0,0,1,0,1,0,0,1,0,0,0,0.058053,1,0,0,0,1,0.366667,0,0,0,0,1,0,0,0,0,0,0,0,0.009599,0.040816,0.201835,0.08,0,1,0,0,no
0.205882,0,0,0,1,0,0,0,0,0,0,0,0,1,0,0,0,0,0,1,0,0.07263,0,0,0,0,1,0.633333,0,0,0,0,0,0,0,0,0,0,1,0,0.020854,0,0,0,1,0,0,0,no
0.294118,0,0,0,0,0,0,0,0,0,0,0,1,0,1,0,0,1,0,0,0,0.048254,1,0,0,0,1,0.533333,0,0,0,0,0,0,1,0,0,0,0,0,0.079113,0,0,0,1,0,0,0,no
0.176471,0,0,1,0,0,0,0,0,0,0,0,0,1,0,0,0,0,0,1,0,0.148414,0,0,0,0,1,0.833333,0,0,0,0,0,0,0,1,0,0,0,0,0.123469,0.142857,0,0,1,0,0,0,no
0.573529,0,0,0,0,0,0,0,0,0,1,0,0,0,0,1,0,1,0,0,0,0.066482,0,1,0,0,1,0.1,0,1,0,0,0,0,0,0,0,0,0,0,0.022509,0.102041,0.315367,0.16,0,0,1,0,no
0.117647,0,0,0,0,0,0,0,0,0,0,0,1,0,0,1,0,1,0,0,0,0.042805,0,0,0,0,1,0.566667,0,0,0,0,0,0,1,0,0,0,0,0,0.070506,0,0,0,1,0,0,0,no
0.426471,0,0,0,1,0,0,0,0,0,0,0,0,1,0,0,0,0,0,1,0,0.057865,1,0,0,0,1,0.933333,1,0,0,0,0,0,0,0,0,0,0,0,0.038729,0.040816,0,0,1,0,0,0,no
0.176471,0,0,0,0,0,0,0,1,0,0,0,0,0,0,1,0,1,0,0,0,0.069731,0,0,0,0,1,0.2,0,0,0,0,1,0,0,0,0,0,0,0,0.173784,0.020408,0,0,1,0,0,0,no
0.323529,0,0,0,0,0,0,0,1,0,0,0,0,1,0,0,0,1,0,0,0,0.054939,1,0,0,0,1,0.466667,0,0,0,0,1,0,0,0,0,0,0,0,0.141675,0.040816,0,0,1,0,0,0,no
0.205882,0,0,0,0,0,0,0,0,0,0,1,0,1,0,0,0,0,0,1,0,0.045476,0,0,0,0,1,0.666667,0,0,0,0,0,0,1,0,0,0,0,0,0.066203,0.061224,0,0,1,0,0,0,no
0.279412,0,0,0,0,0,0,0,0,0,0,0,1,1,0,0,0,1,0,0,0,0.034241,1,1,1,0,0,0.966667,0,0,0,0,1,0,0,0,0,0,0,0,0.133731,0.020408,0,0,1,0,0,0,no
0.161765,0,0,0,0,0,0,0,0,0,0,1,0,0,0,1,0,0,0,1,0,0.053852,1,0,0,0,1,0.333333,0,0,0,0,0,0,0,1,0,0,0,0,0.069182,0.061224,0,0,1,0,0,0,no
0.470588,0,0,0,0,0,0,0,1,0,0,0,0,1,0,0,0,1,0,0,0,0.074496,1,0,1,0,0,0.933333,0,0,0,0,1,0,0,0,0,0,0,0,0.203575,0,0,0,1,0,0,0,no
0.176471,0,0,0,0,0,0,0,1,0,0,0,0,1,0,0,0,1,0,0,0,0.050805,1,0,1,0,0,0.4,0,0,0,0,1,0,0,0,0,0,0,0,0.298908,0.020408,0,0,1,0,0,0,no
0.161765,1,0,0,0,0,0,0,0,0,0,0,0,0,0,1,0,1,0,0,0,0.058013,1,0,0,0,1,0.933333,1,0,0,0,0,0,0,0,0,0,0,0,0.082423,0,0,0,1,0,0,0,no
0.426471,0,0,0,0,0,0,0,1,0,0,0,0,1,0,0,0,0,1,0,0,0.052174,0,0,0,0,1,0.133333,0,0,0,0,0,0,0,1,0,0,0,0,0.11387,0,0,0,1,0,0,0,no
0.205882,1,0,0,0,0,0,0,0,0,0,0,0,0,0,1,0,0,0,1,0,0.052805,0,0,0,0,1,0.233333,0,0,0,0,0,0,1,0,0,0,0,0,0.070506,0,0,0,1,0,0,0,no
0.470588,0,0,0,1,0,0,0,0,0,0,0,0,1,0,0,1,0,0,0,0,0.054026,0,0,0,0,1,0.4,0,0,0,0,0,0,0,1,0,0,0,0,0.093678,0.020408,0,0,1,0,0,0,no
0.308824,0,0,0,0,0,0,0,0,0,0,0,1,0,1,0,1,0,0,0,0,0.103314,1,0,1,0,0,0.133333,0,0,0,0,1,0,0,0,0,0,0,0,0.102946,0,0,0,1,0,0,0,no
0.058824,0,0,0,0,0,0,0,0,0,0,0,1,1,0,0,0,1,0,0,0,0.044214,1,0,1,0,0,0.633333,0,0,0,0,0,1,0,0,0,0,0,0,0.002979,0.183673,0,0,1,0,0,0,no
0.323529,0,0,0,0,0,0,0,1,0,0,0,0,1,0,0,0,0,1,0,0,0.044469,1,0,1,0,0,0.966667,0,0,0,0,1,0,0,0,0,0,0,0,0.075472,0.040816,0,0,1,0,0,0,no
0.147059,0,0,0,0,0,0,0,0,0,0,0,1,0,1,0,0,1,0,0,0,0.048899,1,0,1,0,0,0.366667,0,0,0,0,1,0,0,0,0,0,0,0,0.027805,0.020408,0,0,1,0,0,0,no
0.426471,0,0,0,1,0,0,0,0,0,0,0,0,1,0,0,0,0,0,1,0,0.060133,1,1,0,0,1,0,0,0,0,0,0,1,0,0,0,0,0,0,0.086064,0,0,0,1,0,0,0,yes
0.485294,0,0,0,0,0,1,0,0,0,0,0,0,1,0,0,0,0,0,1,0,0.045194,1,1,0,1,0,0.566667,0,0,0,0,0,0,0,0,0,0,1,0,0.032771,0,0,0,1,0,0,0,no
0.338235,0,0,0,0,0,0,0,0,1,0,0,0,0,1,0,0,0,0,1,0,0.049301,1,0,1,0,0,0.766667,0,0,0,0,0,1,0,0,0,0,0,0,0.035088,0.081633,0,0,1,0,0,0,no
0.735294,0,0,0,0,0,0,0,0,0,1,0,0,1,0,0,1,0,0,0,0,0.050187,0,0,0,1,0,0.266667,0,0,1,0,0,0,0,0,0,0,0,0,0.073155,0,0.104358,0.04,0,0,0,1,yes
0.264706,0,0,0,0,0,1,0,0,0,0,0,0,1,0,0,0,0,0,1,0,0.151099,0,0,0,0,1,0.666667,0,0,0,0,0,0,0,0,0,0,1,0,0.03244,0,0,0,1,0,0,0,no
0.220588,0,0,0,0,0,1,0,0,0,0,0,0,1,0,0,0,0,0,1,0,0.050845,1,1,0,0,1,0.266667,0,0,0,0,0,0,1,0,0,0,0,0,0.381331,0,0,0,1,0,0,0,no
0.191176,0,0,0,0,0,0,0,1,0,0,0,0,1,0,0,0,0,1,0,0,0.053087,0,1,0,0,1,0.233333,0,0,0,0,0,0,1,0,0,0,0,0,0.172128,0,0,0,1,0,0,0,no
0.205882,0,0,0,0,0,0,0,0,0,0,0,1,1,0,0,0,1,0,0,0,0.047288,1,1,1,0,0,0.633333,0,0,0,0,1,0,0,0,0,0,0,0,0.06521,0,0,0,1,0,0,0,no
0.205882,0,0,0,0,0,0,0,0,0,0,1,0,1,0,0,0,1,0,0,0,0.069221,1,0,1,0,0,0.933333,0,0,0,0,1,0,0,0,0,0,0,0,0.078451,0.040816,0,0,1,0,0,0,no
0.176471,0,0,0,1,0,0,0,0,0,0,0,0,0,0,1,0,0,0,1,0,0.059637,1,0,0,0,1,0.533333,0,0,0,1,0,0,0,0,0,0,0,0,0.072824,0.040816,0.086009,0.16,0,0,1,0,no
0.220588,0,0,0,0,0,0,0,1,0,0,0,0,1,0,0,0,0,1,0,0,0.049181,0,1,0,0,1,0.433333,0,0,0,0,0,0,1,0,0,0,0,0,0.106587,0.204082,0,0,1,0,0,0,no
0.25,0,0,0,0,0,0,0,0,0,0,1,0,0,0,1,0,1,0,0,0,0.167273,1,0,0,0,1,0.4,0,0,0,0,0,0,0,1,0,0,0,0,0.045349,0.040816,0,0,1,0,0,0,no
0.382353,0,0,0,0,0,0,0,0,0,0,1,0,0,0,1,0,1,0,0,0,0.049972,1,0,1,0,0,0.966667,0,0,0,0,1,0,0,0,0,0,0,0,0.293611,0.061224,0,0,1,0,0,0,yes
0.323529,0,0,0,0,0,0,0,0,0,0,1,0,0,0,1,0,1,0,0,0,0.056268,0,1,0,0,1,0.2,0,0,0,0,0,0,1,0,0,0,0,0,0.018537,0.061224,0,0,1,0,0,0,no
0.191176,0,0,0,0,0,0,0,0,1,0,0,0,1,0,0,0,0,0,1,0,0.047006,1,0,1,0,0,0.166667,0,0,0,0,0,1,0,0,0,0,0,0,0.033764,0.020408,0,0,1,0,0,0,no
0.411765,0,0,0,0,0,0,0,0,0,0,0,1,1,0,0,0,1,0,0,0,0.089207,1,1,0,0,1,0.933333,0,0,0,0,0,0,1,0,0,0,0,0,0.036412,0.020408,0,0,1,0,0,0,no
0.352941,0,0,0,0,0,0,0,0,1,0,0,0,1,0,0,0,0,0,1,0,0.045328,0,0,1,0,0,0.166667,0,0,0,0,0,1,0,0,0,0,0,0,0.07481,0.020408,0,0,1,0,0,0,no
0.397059,0,0,0,1,0,0,0,0,0,0,0,0,0,1,0,0,0,0,1,0,0.042402,1,1,1,0,0,0.866667,0,0,0,0,1,0,0,0,0,0,0,0,0.034095,0.020408,0,0,1,0,0,0,no
0.558824,1,0,0,0,0,0,0,0,0,0,0,0,1,0,0,0,1,0,0,0,0.03149,1,0,0,1,0,0.466667,0,0,0,0,1,0,0,0,0,0,0,0,0.001324,0.122449,0,0,1,0,0,0,no
0.191176,0,0,0,1,0,0,0,0,0,0,0,0,0,0,1,0,0,0,1,0,0.04502,0,0,0,0,1,0.666667,0,0,0,0,0,0,0,1,0,0,0,0,0.225753,0.081633,0,0,1,0,0,0,yes
0.161765,0,0,0,1,0,0,0,0,0,0,0,0,0,0,1,0,0,0,1,0,0.062885,0,0,0,0,1,0.633333,0,0,0,0,0,0,0,0,0,0,1,0,0.07812,0.020408,0,0,1,0,0,0,no
0.132353,0,0,0,0,0,0,0,0,0,0,1,0,0,0,1,0,1,0,0,0,0.044509,0,0,0,1,0,0.566667,0,0,0,0,1,0,0,0,0,0,0,0,0.011917,0.142857,0.401376,0.24,0,0,1,0,no
0.220588,0,0,0,0,0,0,0,1,0,0,0,0,1,0,0,0,0,0,1,0,0.044738,0,0,1,0,0,0.1,0,0,0,0,0,0,0,0,0,1,0,0,0.001986,0,0,0,1,0,0,0,no
0.544118,0,0,0,0,0,0,0,0,0,1,0,0,1,0,0,0,1,0,0,0,0.058482,0,0,0,1,0,0.066667,0,0,0,0,0,0,1,0,0,0,0,0,0.115525,0.020408,0,0,1,0,0,0,yes
0.485294,1,0,0,0,0,0,0,0,0,0,0,0,0,0,1,1,0,0,0,0,0.074361,0,0,0,0,1,0.766667,0,1,0,0,0,0,0,0,0,0,0,0,0.078782,0.020408,0,0,1,0,0,0,yes
0.529412,0,0,0,1,0,0,0,0,0,0,0,0,1,0,0,0,0,0,1,0,0.051717,0,0,0,0,1,0.6,0,0,0,0,0,0,0,0,0,0,1,0,0.039722,0.020408,0,0,1,0,0,0,no
0.264706,0,0,0,0,0,0,0,1,0,0,0,0,1,0,0,0,1,0,0,0,0.057274,1,0,1,0,0,0.033333,0,0,0,0,0,1,0,0,0,0,0,0,0.131744,0.163265,0,0,1,0,0,0,no
0.529412,0,0,0,1,0,0,0,0,0,0,0,0,0,1,0,1,0,0,0,0,0.044496,1,0,1,0,0,0.6,0,0,0,0,1,0,0,0,0,0,0,0,0.030122,0,0,0,1,0,0,0,no
0.205882,0,0,0,1,0,0,0,0,0,0,0,0,0,0,1,0,0,0,1,0,0.044778,0,0,0,0,1,0.633333,0,0,0,0,0,0,0,1,0,0,0,0,0.070175,0.040816,0,0,1,0,0,0,no
0.352941,0,0,0,1,0,0,0,0,0,0,0,0,1,0,0,0,0,0,1,0,0.04914,0,1,0,0,1,0.466667,0,0,0,0,0,0,1,0,0,0,0,0,0.027805,0.040816,0,0,1,0,0,0,no
0.176471,0,0,1,0,0,0,0,0,0,0,0,0,1,0,0,0,1,0,0,0,0.048442,1,0,1,0,0,0.633333,0,0,0,0,1,0,0,0,0,0,0,0,0.1238,0.040816,0,0,1,0,0,0,no
0.397059,0,0,0,0,0,0,0,1,0,0,0,0,1,0,0,0,0,1,0,0,0.046805,0,1,0,0,1,0.466667,0,0,0,0,0,0,1,0,0,0,0,0,0.028467,0,0,0,1,0,0,0,no
0.205882,0,0,0,0,0,0,0,0,0,0,1,0,0,0,1,0,0,0,1,0,0.04612,0,0,0,0,1,0.6,0,0,0,0,0,0,0,1,0,0,0,0,0.086064,0,0,0,1,0,0,0,no
0.558824,1,0,0,0,0,0,0,0,0,0,0,0,0,1,0,1,0,0,0,0,0.098321,0,0,0,0,1,0.633333,0,0,0,0,0,0,0,0,0,0,1,0,0.301556,0,0,0,1,0,0,0,no
0.397059,1,0,0,0,0,0,0,0,0,0,0,0,1,0,0,0,1,0,0,0,0.044764,1,0,0,0,1,0.2,0,0,0,0,0,0,0,1,0,0,0,0,0.135717,0.061224,0,0,1,0,0,0,no
0.176471,1,0,0,0,0,0,0,0,0,0,0,0,1,0,0,0,1,0,0,0,0.044469,1,1,1,0,0,0.166667,0,0,0,0,1,0,0,0,0,0,0,0,0.046342,0.020408,0,0,1,0,0,0,no
0.382353,0,0,1,0,0,0,0,0,0,0,0,0,0,1,0,0,0,1,0,0,0.05463,0,0,0,0,1,0.633333,0,0,0,1,0,0,0,0,0,0,0,0,0.032771,0,0.373853,0.16,0,0,1,0,no
0.235294,0,0,0,0,0,0,0,0,0,0,1,0,1,0,0,0,1,0,0,0,0.073851,0,0,0,0,1,0.6,0,0,0,0,0,0,0,0,0,0,1,0,0.083416,0.040816,0,0,1,0,0,0,no
0.308824,0,0,0,1,0,0,0,0,0,0,0,0,0,0,1,0,0,0,1,0,0.044952,1,0,1,0,0,0.866667,0,0,0,0,1,0,0,0,0,0,0,0,0.07812,0.040816,0,0,1,0,0,0,no
0.235294,0,0,0,0,0,0,0,0,0,0,0,1,1,0,0,0,1,0,0,0,0.046899,1,0,0,0,1,1,0,0,0,0,0,0,1,0,0,0,0,0,0.000331,0.040816,0,0,1,0,0,0,no
0.279412,0,0,0,0,0,0,0,0,0,0,1,0,1,0,0,0,0,0,1,0,0.058456,1,0,0,0,1,0.1,0,1,0,0,0,0,0,0,0,0,0,0,0.137372,0.020408,0,0,1,0,0,0,no
0.058824,0,0,0,0,0,0,0,1,0,0,0,0,0,0,1,0,0,1,0,0,0.160266,1,0,0,0,1,0.466667,0,0,0,0,1,0,0,0,0,0,0,0,0.054618,0,0.397936,0.04,0,0,1,0,no
0.338235,0,0,0,0,0,1,0,0,0,0,0,0,0,1,0,0,0,0,1,1,0.044496,1,0,1,0,0,0.133333,0,0,0,0,1,0,0,0,0,0,0,0,0.124462,0,0,0,1,0,0,0,no
0.161765,0,0,0,0,0,0,0,0,1,0,0,0,0,0,1,0,1,0,0,0,0.047046,0,0,0,0,1,0.7,0,0,0,0,0,0,1,0,0,0,0,0,0.138696,0,0,0,1,0,0,0,no
0.117647,1,0,0,0,0,0,0,0,0,0,0,0,1,0,0,0,1,0,0,1,0.03753,1,0,0,0,1,0.433333,0,0,0,0,0,0,1,0,0,0,0,0,0.055611,0.040816,0,0,1,0,0,0,no
0.132353,1,0,0,0,0,0,0,0,0,0,0,0,0,0,1,0,1,0,0,0,0.047006,1,0,0,0,1,1,0,0,0,0,0,0,1,0,0,0,0,0,0.021185,0.020408,0,0,1,0,0,0,no
0.294118,1,0,0,0,0,0,0,0,0,0,0,0,0,0,1,0,1,0,0,0,0.044657,1,1,1,0,0,0.4,0,0,0,0,1,0,0,0,0,0,0,0,0.004965,0.163265,0,0,1,0,0,0,no
0.323529,0,0,0,1,0,0,0,0,0,0,0,0,1,0,0,0,0,0,1,0,0.045436,1,0,1,0,0,0.2,0,0,0,0,1,0,0,0,0,0,0,0,0.251572,0.040816,0,0,1,0,0,0,no
0.367647,1,0,0,0,0,0,0,0,0,0,0,0,1,0,0,0,1,0,0,0,0.076724,1,0,0,0,1,0.9,1,0,0,0,0,0,0,0,0,0,0,0,0.058259,0.020408,0,0,1,0,0,0,no
0.073529,0,0,0,0,0,0,0,1,0,0,0,0,0,0,1,0,1,0,0,0,0.046805,1,1,0,0,1,0.566667,0,0,0,0,1,0,0,0,0,0,0,0,0.159881,0,0,0,1,0,0,0,yes
0.470588,0,0,0,1,0,0,0,0,0,0,0,0,0,0,1,0,0,0,1,1,0.043731,1,0,0,0,1,0.566667,0,0,0,0,0,0,0,1,0,0,0,0,0.038067,0.102041,0,0,1,0,0,0,no
0.176471,0,0,0,0,0,0,0,0,0,0,0,1,0,0,1,0,1,0,0,0,0.044469,1,0,1,0,0,0.9,0,0,0,0,1,0,0,0,0,0,0,0,0.075141,0.020408,0,0,1,0,0,0,no
0.191176,1,0,0,0,0,0,0,0,0,0,0,0,0,0,1,0,1,0,0,0,0.045073,1,1,0,0,1,0.433333,0,0,0,0,1,0,0,0,0,0,0,0,0.299239,0.040816,0.395642,0.28,0,1,0,0,no
0.132353,0,0,0,0,0,0,0,1,0,0,0,0,1,0,0,0,1,0,0,0,0.049476,1,0,0,0,1,0.433333,0,0,0,0,1,0,0,0,0,0,0,0,0.001986,0.163265,0.395642,0.04,0,0,1,0,no
0.397059,0,0,0,1,0,0,0,0,0,0,0,0,0,0,1,0,0,1,0,0,0.051691,0,0,1,0,0,0.533333,0,0,0,0,0,1,0,0,0,0,0,0,0.037736,0.040816,0,0,1,0,0,0,no
0.25,0,0,0,0,0,0,0,0,1,0,0,0,1,0,0,0,0,0,1,0,0.04859,1,0,0,0,1,0.433333,0,0,0,0,1,0,0,0,0,0,0,0,0.111552,0,0.379587,0.08,0,1,0,0,no
0.220588,0,0,0,1,0,0,0,0,0,0,0,0,0,0,1,0,0,0,1,0,0.046764,1,0,0,0,1,0.2,0,0,0,0,1,0,0,0,0,0,0,0,0.0619,0,0.338303,0.04,0,0,1,0,no
0.75,0,0,0,0,0,0,0,0,0,1,0,0,0,1,0,0,1,0,0,0,0.136414,0,0,0,1,0,0.133333,0,0,1,0,0,0,0,0,0,0,0,0,0.082092,0.040816,0.211009,0.04,0,0,1,0,no
0.25,0,0,0,1,0,0,0,0,0,0,0,0,1,0,0,0,0,0,1,0,0.05259,1,0,1,0,0,0.833333,0,0,0,0,1,0,0,0,0,0,0,0,0.066203,0,0,0,1,0,0,0,no
0.220588,0,0,0,1,0,0,0,0,0,0,0,0,0,0,1,0,0,0,1,0,0.044469,0,0,0,0,1,0.666667,0,0,0,0,0,0,0,1,0,0,0,0,0.0619,0.020408,0,0,1,0,0,0,no
0.323529,0,0,0,1,0,0,0,0,0,0,0,0,0,1,0,0,0,0,1,0,0.049422,1,0,0,1,0,0.7,0,0,0,0,0,0,0,1,0,0,0,0,0.001655,0.040816,0,0,1,0,0,0,no
0.411765,0,0,0,0,0,0,0,0,1,0,0,0,1,0,0,0,1,0,0,1,0.044496,0,0,0,0,1,0.133333,0,1,0,0,0,0,0,0,0,0,0,0,0.076796,0.020408,0,0,1,0,0,0,no
0.176471,0,0,0,0,0,0,0,0,0,0,0,1,0,0,1,0,1,0,0,0,0.056066,1,0,0,0,1,0.166667,0,0,0,0,1,0,0,0,0,0,0,0,0.031778,0,0,0,1,0,0,0,no
0.102941,0,0,0,0,0,0,0,0,0,0,0,1,0,0,1,0,1,0,0,0,0.04514,1,0,0,0,1,0.366667,0,0,0,0,0,0,0,1,0,0,0,0,0.049321,0,0,0,1,0,0,0,no
0.352941,0,0,0,0,0,0,0,1,0,0,0,0,0,0,1,0,0,1,0,0,0.044872,1,0,1,0,0,0.966667,0,0,0,0,1,0,0,0,0,0,0,0,0.124131,0.326531,0,0,1,0,0,0,no
0.117647,0,0,0,0,0,0,0,0,0,0,0,1,0,0,1,0,1,0,0,0,0.045194,1,0,1,0,0,0.9,0,0,0,0,1,0,0,0,0,0,0,0,0.178418,0.020408,0,0,1,0,0,0,yes
0.382353,0,0,0,0,0,0,0,0,0,0,1,0,1,0,0,0,1,0,0,0,0.064294,1,0,0,0,1,0.233333,0,0,0,0,0,0,1,0,0,0,0,0,0.116187,0,0,0,1,0,0,0,no
0.205882,0,0,0,1,0,0,0,0,0,0,0,0,0,0,1,0,1,0,0,0,0.065382,1,0,0,0,1,0.533333,0,0,0,1,0,0,0,0,0,0,0,0,0.030785,0,0,0,1,0,0,0,no
0.367647,0,0,0,0,0,0,0,1,0,0,0,0,1,0,0,0,1,0,0,0,0.042026,1,1,0,0,1,0.433333,0,0,0,0,1,0,0,0,0,0,0,0,0.001986,0.183673,0,0,1,0,0,0,no
0.235294,0,0,0,0,0,0,0,0,0,0,0,1,0,0,1,0,1,0,0,0,0.044939,1,0,0,0,1,0.433333,0,0,0,0,1,0,0,0,0,0,0,0,0.04899,0,0,0,1,0,0,0,no
0.470588,0,0,0,1,0,0,0,0,0,0,0,0,1,0,0,0,0,0,1,0,0.066106,0,0,0,0,1,0.5,0,0,1,0,0,0,0,0,0,0,0,0,0.125786,0,0.209862,0.2,0,0,1,0,no
0.558824,0,0,0,0,0,0,0,1,0,0,0,0,1,0,0,0,0,1,0,1,0.047087,0,1,0,1,0,0.966667,0,0,0,0,0,0,1,0,0,0,0,0,0.059914,0.061224,0,0,1,0,0,0,no
0.485294,0,0,0,1,0,0,0,0,0,0,0,0,1,0,0,0,0,0,1,0,0.031449,1,0,0,0,1,0.1,0,1,0,0,0,0,0,0,0,0,0,0,0.160543,0,0,0,1,0,0,0,yes
0.323529,0,0,0,0,0,0,0,0,0,0,1,0,1,0,0,0,0,0,1,0,0.046845,1,0,0,1,0,0.333333,0,0,0,0,0,0,1,0,0,0,0,0,0.037405,0.020408,0,0,1,0,0,0,no
0.191176,0,0,0,0,0,0,0,0,0,0,1,0,0,0,1,0,0,0,1,0,0.053932,1,0,0,0,1,0.633333,0,0,0,1,0,0,0,0,0,0,0,0,0.005296,0.061224,0,0,1,0,0,0,no
0.573529,0,0,0,0,0,0,0,0,0,0,1,0,1,0,0,0,0,1,0,0,0.098361,0,0,1,0,0,0.633333,0,0,0,0,0,1,0,0,0,0,0,0,0.033764,0.040816,0,0,1,0,0,0,no
0.205882,0,0,0,1,0,0,0,0,0,0,0,0,0,0,1,0,0,0,1,0,0.043758,0,0,0,0,1,0.933333,1,0,0,0,0,0,0,0,0,0,0,0,0.202913,0.020408,0,0,1,0,0,0,no
0.367647,0,0,1,0,0,0,0,0,0,0,0,0,1,0,0,0,1,0,0,0,0.04855,1,0,1,0,0,0.366667,0,0,0,0,1,0,0,0,0,0,0,0,0.041377,0.020408,0,0,1,0,0,0,no
0.25,0,0,0,0,0,0,0,1,0,0,0,0,1,0,0,0,1,0,0,0,0.050362,1,0,1,0,0,0.666667,0,0,0,0,1,0,0,0,0,0,0,0,0.08474,0.081633,0,0,1,0,0,0,no
0.25,0,0,0,0,0,0,0,1,0,0,0,0,0,0,1,0,1,0,0,0,0.044939,1,0,1,0,0,0.066667,0,0,0,0,0,1,0,0,0,0,0,0,0.142668,0.040816,0,0,1,0,0,0,no
0.279412,0,0,0,0,0,0,0,0,0,0,1,0,1,0,0,0,1,0,0,0,0.098562,1,0,0,0,1,0.6,0,0,0,0,0,0,0,0,0,0,1,0,0.023502,0.020408,0.204128,0.2,0,0,1,0,no
0.25,0,0,0,0,0,0,0,0,0,0,1,0,0,1,0,0,1,0,0,0,0.124428,1,0,0,0,1,0.566667,0,0,0,0,0,0,0,0,0,0,1,0,0.044356,0.020408,0,0,1,0,0,0,no
0.191176,0,0,0,1,0,0,0,0,0,0,0,0,0,0,1,0,0,0,1,0,0.052174,1,0,0,0,1,0.433333,0,0,0,1,0,0,0,0,0,0,0,0,0.084409,0.020408,0.167431,0.12,0,0,1,0,no
0.558824,0,0,0,0,0,0,0,0,0,1,0,0,1,0,0,0,1,0,0,0,0.045905,0,0,0,0,1,0.433333,0,0,0,0,0,0,1,0,0,0,0,0,0.026812,0.020408,0,0,1,0,0,0,no
0.367647,1,0,0,0,0,0,0,0,0,0,0,0,1,0,0,0,1,0,0,0,0.047986,1,0,0,0,1,0.266667,0,0,0,0,0,0,1,0,0,0,0,0,0.023171,0,0,0,1,0,0,0,no
0.397059,1,0,0,0,0,0,0,0,0,0,0,0,1,0,0,0,1,0,0,0,0.050724,1,0,0,0,1,0.933333,1,0,0,0,0,0,0,0,0,0,0,0,0.054618,0,0,0,1,0,0,0,no
0.191176,0,0,0,0,0,0,0,0,0,0,1,0,0,0,1,0,1,0,0,0,0.048107,1,0,0,0,1,0.4,0,0,0,0,1,0,0,0,0,0,0,0,0.025157,0.020408,0.308486,0.08,0,1,0,0,no
0.220588,0,0,0,0,0,0,0,0,0,0,1,0,1,0,0,0,1,0,0,0,0.047275,1,1,0,0,1,0.233333,0,0,0,1,0,0,0,0,0,0,0,0,0.122807,0.020408,0,0,1,0,0,0,no
0.279412,1,0,0,0,0,0,0,0,0,0,0,0,1,0,0,0,1,0,0,0,0.069328,1,0,0,0,1,0.466667,0,0,0,0,1,0,0,0,0,0,0,0,0.097319,0.020408,0,0,1,0,0,0,no
0.764706,0,0,0,0,0,0,0,0,0,1,0,0,1,0,0,0,1,0,0,0,0.082724,0,0,0,0,1,0.533333,0,1,0,0,0,0,0,0,0,0,0,0,0.059914,0,0,0,1,0,0,0,yes
0.220588,0,0,0,0,0,0,0,0,1,0,0,0,0,0,1,0,0,0,1,0,0.117784,0,0,0,0,1,0.966667,0,0,0,1,0,0,0,0,0,0,0,0,0.141013,0,0,0,1,0,0,0,yes
0.735294,0,0,0,0,0,0,0,0,0,1,0,0,1,0,0,0,1,0,0,0,0.054469,0,0,0,1,0,0.266667,0,0,0,0,0,0,0,0,1,0,0,0,0.195631,0,0,0,1,0,0,0,no
0.264706,0,0,0,0,0,0,0,0,0,0,1,0,0,0,1,0,1,0,0,0,0.045288,1,0,1,0,0,0.6,0,0,0,0,1,0,0,0,0,0,0,0,0.058921,0.142857,0,0,1,0,0,0,no
0.235294,0,0,0,0,0,0,0,0,0,0,1,0,0,1,0,0,1,0,0,0,0.050818,1,1,1,0,0,0.833333,0,0,0,0,1,0,0,0,0,0,0,0,0.142337,0.061224,0,0,1,0,0,0,no
0.426471,0,0,0,1,0,0,0,0,0,0,0,0,1,0,0,0,0,0,1,0,0.068737,1,0,0,0,1,0.833333,0,1,0,0,0,0,0,0,0,0,0,0,0.079775,0,0,0,1,0,0,0,yes
0.529412,0,0,0,0,0,0,0,1,0,0,0,0,1,0,0,0,0,1,0,0,0.099542,0,0,0,0,1,0.6,0,0,0,0,0,0,0,0,0,0,1,0,0.095002,0,0,0,1,0,0,0,no
0.25,1,0,0,0,0,0,0,0,0,0,0,0,1,0,0,0,1,0,0,0,0.057865,1,0,1,0,0,0.433333,0,0,0,0,1,0,0,0,0,0,0,0,0.344257,0.020408,0,0,1,0,0,0,no
0.602941,0,0,0,0,0,0,0,0,1,0,0,0,1,0,0,0,0,1,0,0,0.049328,0,1,0,0,1,0.933333,0,0,0,0,0,0,1,0,0,0,0,0,0.268785,0.102041,0,0,1,0,0,0,yes
0.352941,0,0,0,0,0,0,0,0,0,0,1,0,1,0,0,0,1,0,0,0,0.050295,1,0,1,0,0,0.133333,0,0,0,0,1,0,0,0,0,0,0,0,0.037405,0,0,0,1,0,0,0,no
0.191176,0,0,0,0,0,0,0,0,0,0,1,0,1,0,0,0,1,0,0,0,0.045597,0,1,0,0,1,0.933333,0,0,0,0,0,0,1,0,0,0,0,0,0.132075,0.040816,0,0,1,0,0,0,no
0.073529,0,0,0,0,0,0,0,0,0,0,1,0,0,0,1,0,1,0,0,0,0.043852,1,0,1,0,0,0.6,0,0,0,0,1,0,0,0,0,0,0,0,0.006289,0,0,0,1,0,0,0,no
0.279412,1,0,0,0,0,0,0,0,0,0,0,0,0,0,1,0,1,0,0,0,0.056321,1,0,0,0,1,0.366667,0,0,0,0,1,0,0,0,0,0,0,0,0.030122,0,0.376147,0.36,0,1,0,0,no
0.573529,1,0,0,0,0,0,0,0,0,0,0,0,1,0,0,0,1,0,0,0,0.044496,1,1,0,1,0,0.8,0,0,0,0,0,0,1,0,0,0,0,0,0.092023,0.163265,0,0,1,0,0,0,no
0.308824,0,0,0,0,0,0,0,0,0,0,1,0,1,0,0,0,1,0,0,0,0.039154,1,0,1,0,0,0.833333,0,0,0,0,1,0,0,0,0,0,0,0,0.040715,0,0,0,1,0,0,0,no
0.382353,1,0,0,0,0,0,0,0,0,0,0,0,1,0,0,0,1,0,0,0,0.044469,0,0,0,0,1,0.6,0,0,0,0,0,0,0,1,0,0,0,0,0.046673,0.183673,0,0,1,0,0,0,no
0.161765,0,0,0,0,0,0,0,0,0,0,0,1,0,1,0,0,1,0,0,0,0.043207,1,0,0,0,1,0.433333,0,0,0,0,0,0,1,0,0,0,0,0,0.012248,0.020408,0,0,1,0,0,0,no
0.602941,0,0,0,1,0,0,0,0,0,0,0,0,0,1,0,0,0,0,1,0,0.049382,0,0,0,0,1,0.066667,0,0,0,0,0,1,0,0,0,0,0,0,0.194969,0,0,0,1,0,0,0,yes
0.279412,0,0,0,0,0,0,0,0,0,0,0,1,0,1,0,0,1,0,0,0,0.0551,0,0,1,0,0,0.166667,0,0,0,0,0,1,0,0,0,0,0,0,0.141013,0,0,0,1,0,0,0,no
0.470588,0,0,0,0,0,0,0,0,0,0,1,0,0,1,0,0,1,0,0,0,0.07565,1,1,0,0,1,0.566667,0,0,0,0,0,0,0,1,0,0,0,0,0.048659,0.183673,0,0,1,0,0,0,no
0.352941,0,0,0,0,0,0,0,0,0,0,1,0,1,0,0,0,1,0,0,0,0.031959,1,0,0,0,1,0.5,0,0,0,1,0,0,0,0,0,0,0,0,0.186362,0,0,0,1,0,0,0,no
0.558824,1,0,0,0,0,0,0,0,0,0,0,0,0,1,0,0,0,1,0,0,0.044483,0,0,1,0,0,0.466667,0,0,0,0,1,0,0,0,0,0,0,0,0.004303,0.183673,0,0,1,0,0,0,no
0.191176,0,0,0,0,0,0,0,0,0,0,1,0,0,0,1,0,1,0,0,0,0.044469,0,0,0,0,1,0.666667,0,0,0,0,0,0,0,1,0,0,0,0,0.040384,0.020408,0,0,1,0,0,0,no
0.102941,0,0,0,0,0,0,0,1,0,0,0,0,0,0,1,0,0,1,0,0,0.04655,1,0,0,0,1,0.933333,1,0,0,0,0,0,0,0,0,0,0,0,0.095002,0,0.280963,0.16,0,0,1,0,no
0.426471,0,0,0,0,0,0,0,1,0,0,0,0,1,0,0,0,1,0,0,0,0.055758,1,0,1,0,0,0.6,0,0,0,0,1,0,0,0,0,0,0,0,0.069844,0,0,0,1,0,0,0,no
0.073529,0,0,0,0,0,0,0,1,0,0,0,0,0,0,1,0,1,0,0,0,0.045503,1,0,1,0,0,0.5,0,0,0,0,1,0,0,0,0,0,0,0,0.076796,0.020408,0,0,1,0,0,0,no
0.352941,0,0,0,0,0,1,0,0,0,0,0,0,1,0,0,0,0,0,1,0,0.065596,1,0,0,0,1,0.6,0,0,0,0,0,0,0,0,0,0,1,0,0.053956,0.040816,0,0,1,0,0,0,no
0.264706,0,0,0,0,0,0,0,0,0,0,0,1,1,0,0,0,0,1,0,0,0.045167,1,0,1,0,0,0.2,0,0,0,0,1,0,0,0,0,0,0,0,0.117511,0,0,0,1,0,0,0,no
0.25,0,0,0,1,0,0,0,0,0,0,0,0,1,0,0,0,0,0,1,0,0.168884,1,1,0,0,1,0.6,0,0,0,0,0,0,0,0,0,0,1,0,0.034095,0.020408,0,0,1,0,0,0,no
0.117647,0,0,0,0,0,0,0,0,0,0,0,1,1,0,0,0,1,0,0,0,0.044469,1,0,0,0,1,0.7,0,0,0,0,0,0,1,0,0,0,0,0,0.53095,0.244898,0,0,1,0,0,0,yes
0.235294,0,0,0,0,0,0,0,0,0,0,1,0,0,1,0,0,1,0,0,0,0.045221,0,0,0,0,1,0.933333,0,0,0,0,0,0,0,1,0,0,0,0,0.00662,0.22449,0,0,1,0,0,0,no
0.205882,0,0,0,1,0,0,0,0,0,0,0,0,1,0,0,0,0,0,1,0,0.046483,0,0,0,0,1,0.666667,0,0,0,0,0,0,0,1,0,0,0,0,0.048659,0.020408,0,0,1,0,0,0,no
0.382353,0,0,0,0,0,0,0,0,1,0,0,0,1,0,0,0,1,0,0,0,0.053946,0,0,0,0,1,0.966667,0,0,0,1,0,0,0,0,0,0,0,0,0.024495,0.020408,0.202982,0.04,0,0,0,1,no
0.147059,0,0,0,0,0,1,0,0,0,0,0,0,1,0,0,0,1,0,0,0,0.046858,1,0,0,0,1,0.133333,0,0,0,0,1,0,0,0,0,0,0,0,0.075141,0.061224,0,0,1,0,0,0,no
0.132353,0,0,0,1,0,0,0,0,0,0,0,0,0,0,1,0,0,0,1,0,0.040067,1,0,0,1,0,0.033333,0,1,0,0,0,0,0,0,0,0,0,0,0.103939,0.020408,0,0,1,0,0,0,no
0.176471,0,0,0,1,0,0,0,0,0,0,0,0,0,0,1,0,0,0,1,0,0.049637,1,0,1,0,0,0.666667,0,0,0,0,1,0,0,0,0,0,0,0,0.099305,0,0,0,1,0,0,0,no
0.235294,0,0,0,0,0,0,0,0,0,0,0,1,1,0,0,0,1,0,0,0,0.046187,1,0,0,0,1,0.366667,0,0,0,0,1,0,0,0,0,0,0,0,0.043694,0,0,0,1,0,0,0,no
0.544118,0,0,0,1,0,0,0,0,0,0,0,0,0,1,0,0,0,0,1,0,0.058107,1,0,1,0,0,0.266667,0,0,0,0,0,1,0,0,0,0,0,0,0.059583,0.081633,0,0,1,0,0,0,no
0.088235,0,0,0,0,0,0,0,0,0,0,1,0,0,0,1,0,1,0,0,0,0.057342,0,0,0,0,1,0.266667,0,0,0,0,0,0,1,0,0,0,0,0,0.046342,0.081633,0,0,1,0,0,0,no
0.147059,0,0,0,0,0,0,0,0,0,0,0,1,1,0,0,0,1,0,0,0,0.094777,0,0,0,0,1,0.9,0,0,0,0,1,0,0,0,0,0,0,0,0.105263,0.040816,0,0,1,0,0,0,no
0.455882,0,0,0,0,0,0,0,1,0,0,0,0,1,0,0,0,1,0,0,0,0.049462,1,0,0,1,0,0.333333,0,0,0,0,1,0,0,0,0,0,0,0,0.005627,0,0,0,1,0,0,0,no
0.191176,0,0,0,0,0,0,0,0,0,0,0,1,0,0,1,0,1,0,0,0,0.049919,1,0,1,0,0,0.166667,0,0,0,0,1,0,0,0,0,0,0,0,0.073817,0,0,0,1,0,0,0,no
0.470588,0,0,0,0,0,0,0,1,0,0,0,0,0,1,0,0,0,1,0,0,0.044966,1,0,0,0,1,0.4,0,0,0,0,1,0,0,0,0,0,0,0,0.111552,0,0,0,1,0,0,0,no
0.411765,0,0,0,1,0,0,0,0,0,0,0,0,0,0,1,0,0,0,1,0,0.050375,0,0,0,0,1,0.666667,0,0,0,0,0,0,0,1,0,0,0,0,0.022178,0.061224,0,0,1,0,0,0,no
0.220588,0,0,0,0,0,0,0,1,0,0,0,0,1,0,0,0,1,0,0,0,0.055959,1,0,0,0,1,0.633333,0,0,0,1,0,0,0,0,0,0,0,0,0.154254,0,0.173165,0.2,0,1,0,0,no
0.441176,0,0,0,0,0,1,0,0,0,0,0,0,1,0,0,0,1,0,0,0,0.048134,0,0,0,0,1,0.733333,0,0,0,0,0,0,1,0,0,0,0,0,0.017875,0,0,0,1,0,0,0,no
0.441176,0,0,0,0,0,0,0,0,0,0,1,0,1,0,0,1,0,0,0,0,0.048805,1,0,0,0,1,0.566667,0,0,0,0,0,0,0,0,0,0,1,0,0.012248,0.020408,0,0,1,0,0,0,no
0.176471,0,0,0,1,0,0,0,0,0,0,0,0,1,0,0,0,0,0,1,0,0.05063,0,0,0,0,1,0.9,0,0,0,0,0,0,0,1,0,0,0,0,0.002979,0.265306,0,0,1,0,0,0,no
0.323529,0,0,0,1,0,0,0,0,0,0,0,0,1,0,0,0,0,0,1,0,0.123435,0,0,0,0,1,0.633333,0,0,0,0,0,0,0,0,0,0,1,0,0.058921,0.020408,0,0,1,0,0,0,no
0.5,0,0,0,1,0,0,0,0,0,0,0,0,1,0,0,0,0,0,1,0,0.104146,1,0,1,0,0,0.433333,0,0,0,0,1,0,0,0,0,0,0,0,0.140682,0,0,0,1,0,0,0,no
0.264706,0,0,0,1,0,0,0,0,0,0,0,0,1,0,0,0,0,0,1,0,0.113005,0,0,0,0,1,0.966667,0,0,0,1,0,0,0,0,0,0,0,0,0.079444,0,0,0,1,0,0,0,yes
0.852941,0,0,0,0,0,0,0,0,0,1,0,0,0,1,0,0,0,0,1,0,0.107005,0,0,0,0,1,0.433333,0,0,0,1,0,0,0,0,0,0,0,0,0.05197,0,0,0,1,0,0,0,yes
0.308824,0,0,0,1,0,0,0,0,0,0,0,0,1,0,0,0,0,0,1,0,0.037825,0,1,0,0,1,0.933333,0,0,0,0,0,0,1,0,0,0,0,0,0.098974,0.020408,0,0,1,0,0,0,no
0.191176,1,0,0,0,0,0,0,0,0,0,0,0,1,0,0,0,0,0,1,0,0.044469,1,0,1,0,0,0.133333,0,0,0,0,1,0,0,0,0,0,0,0,0.044356,0,0,0,1,0,0,0,no
0.161765,1,0,0,0,0,0,0,0,0,0,0,0,1,0,0,0,1,0,0,0,0.051422,1,0,0,0,1,0.233333,0,0,0,0,1,0,0,0,0,0,0,0,0.040715,0,0,0,1,0,0,0,no
0.573529,0,0,0,0,1,0,0,0,0,0,0,0,1,0,0,0,1,0,0,0,0.080777,0,0,0,1,0,0.433333,0,0,0,0,0,0,0,1,0,0,0,0,0.044025,0,0,0,1,0,0,0,no
0.264706,0,0,0,0,0,0,0,0,0,0,1,0,1,0,0,0,1,0,0,1,0.044469,0,0,1,0,0,0.566667,0,0,0,0,0,1,0,0,0,0,0,0,0.076796,0,0,0,1,0,0,0,no
0.102941,0,0,0,0,0,0,0,1,0,0,0,0,1,0,0,0,0,1,0,0,0.113139,1,0,0,0,1,0.7,0,0,0,0,0,0,1,0,0,0,0,0,0.080106,0.040816,0,0,1,0,0,0,no
0.647059,0,0,0,0,0,0,0,0,0,1,0,0,1,0,0,0,1,0,0,0,0.081341,0,0,0,0,1,0.333333,0,0,0,0,0,0,0,0,1,0,0,0,0.036081,0,0.09289,0.04,0,0,1,0,no
0.323529,0,0,0,0,0,0,0,0,1,0,0,0,1,0,0,0,0,0,1,0,0.125005,1,0,0,0,1,0.566667,0,0,0,0,0,0,0,0,0,0,1,0,0.086395,0,0,0,1,0,0,0,no
0.411765,1,0,0,0,0,0,0,0,0,0,0,0,0,0,1,0,1,0,0,0,0.065194,1,0,0,0,1,0.166667,0,0,0,1,0,0,0,0,0,0,0,0,0.033102,0,0.358945,0.04,0,0,1,0,no
0.308824,0,0,0,1,0,0,0,0,0,0,0,0,1,0,0,0,1,0,0,0,0.045798,0,0,0,0,1,0.266667,0,1,0,0,0,0,0,0,0,0,0,0,0.003641,0.081633,0,0,1,0,0,0,no
0.338235,1,0,0,0,0,0,0,0,0,0,0,0,0,0,1,0,1,0,0,0,0.044872,1,0,0,0,1,0.1,0,1,0,0,0,0,0,0,0,0,0,0,0.031116,0,0.306193,0.12,0,0,1,0,no
0.235294,0,0,0,1,0,0,0,0,0,0,0,0,1,0,0,0,0,0,1,0,0.051878,1,1,0,0,1,0.6,0,0,0,0,0,0,0,0,0,0,1,0,0.102615,0.020408,0.143349,0.04,0,0,1,0,no
0.132353,0,0,0,0,0,0,0,0,0,0,1,0,1,0,0,0,1,0,0,0,0.047583,1,1,0,0,1,0.933333,1,0,0,0,0,0,0,0,0,0,0,0,0.022509,0,0.300459,0.04,0,0,1,0,no
0.529412,0,0,0,0,0,0,0,0,0,0,0,1,1,0,0,0,1,0,0,0,0.044053,0,1,0,0,1,0.4,0,0,0,0,0,0,0,1,0,0,0,0,0.025488,0.020408,0,0,1,0,0,0,no
0.323529,0,0,0,1,0,0,0,0,0,0,0,0,1,0,0,0,0,0,1,0,0.048845,1,0,0,0,1,0.133333,0,0,0,0,1,0,0,0,0,0,0,0,0.259517,0,0,0,1,0,0,0,yes
0.338235,0,0,0,1,0,0,0,0,0,0,0,0,0,0,1,0,0,0,1,0,0.19087,0,0,0,0,1,0.1,0,0,0,0,1,0,0,0,0,0,0,0,0.023171,0.040816,0,0,1,0,0,0,no
0.25,0,0,0,0,0,0,0,0,0,0,1,0,1,0,0,0,0,0,1,0,0.045275,0,0,0,0,1,0.6,0,0,0,0,0,0,0,1,0,0,0,0,0.067858,0.020408,0,0,1,0,0,0,no
0.220588,0,0,0,0,0,0,0,0,0,0,1,0,1,0,0,0,0,0,1,0,0.112388,1,0,0,0,1,0.666667,0,0,0,0,0,0,0,1,0,0,0,0,0.002648,0.408163,0,0,1,0,0,0,no
0.132353,0,0,0,1,0,0,0,0,0,0,0,0,0,0,1,0,0,0,1,0,0.044469,1,0,0,0,1,0.5,0,0,0,0,0,0,1,0,0,0,0,0,0.252565,0.081633,0,0,1,0,0,0,yes
0.323529,0,0,0,0,0,1,0,0,0,0,0,0,1,0,0,0,1,0,0,0,0.061234,1,0,0,0,1,0.266667,0,0,0,0,0,0,1,0,0,0,0,0,0.128103,0,0,0,1,0,0,0,no
0.264706,0,0,0,0,0,0,0,0,0,0,1,0,1,0,0,0,1,0,0,0,0.050241,0,0,0,0,1,0.866667,0,0,0,0,0,0,0,1,0,0,0,0,0.049652,0.061224,0,0,1,0,0,0,no
0.279412,0,0,0,0,0,0,0,0,0,0,1,0,1,0,0,0,1,0,0,0,0.134777,0,0,0,0,1,0.8,0,0,0,0,0,0,0,0,0,0,1,0,0.075472,0,0.111239,0.16,0,0,0,1,yes
0.382353,0,0,0,0,0,0,0,0,0,0,0,1,0,1,0,0,0,1,0,0,0.0962,1,0,1,0,0,0.633333,0,0,0,0,0,1,0,0,0,0,0,0,0.001986,0.040816,0,0,1,0,0,0,no
0.176471,0,0,0,1,0,0,0,0,0,0,0,0,1,0,0,0,0,0,1,0,0.079408,1,0,0,0,1,0.333333,0,1,0,0,0,0,0,0,0,0,0,0,0.09136,0.061224,0,0,1,0,0,0,yes
0.514706,0,0,0,0,0,0,0,0,0,0,1,0,1,0,0,0,1,0,0,0,0.044469,0,0,0,1,0,0.5,0,0,0,0,0,0,0,0,0,0,1,0,0.325058,0,0.108945,0.32,0,0,1,0,no
0.25,0,0,0,1,0,0,0,0,0,0,0,0,1,0,0,0,1,0,0,0,0.042483,0,0,0,0,1,0.566667,0,0,0,0,0,0,0,0,0,0,1,0,0.046342,0.020408,0,0,1,0,0,0,no
0.323529,0,0,0,1,0,0,0,0,0,0,0,0,1,0,0,0,0,0,1,0,0.084952,1,0,0,0,1,0.433333,0,0,0,0,0,0,1,0,0,0,0,0,0.025157,0.040816,0,0,1,0,0,0,no
0.264706,0,0,0,0,0,0,0,0,0,0,1,0,0,1,0,0,1,0,0,0,0.044778,0,0,0,0,1,0.633333,0,0,0,0,0,0,0,1,0,0,0,0,0.09434,0.020408,0,0,1,0,0,0,no
0.588235,0,0,0,1,0,0,0,0,0,0,0,0,1,0,0,0,0,0,1,0,0.065744,0,0,0,1,0,0.9,0,0,0,0,0,0,0,1,0,0,0,0,0.028798,0.081633,0,0,1,0,0,0,no
0.117647,0,0,0,1,0,0,0,0,0,0,0,0,0,0,1,0,0,0,1,0,0.047315,1,0,0,0,1,0.466667,0,0,0,0,1,0,0,0,0,0,0,0,0.122145,0,0,0,1,0,0,0,no
0.235294,0,0,0,0,0,0,0,1,0,0,0,0,1,0,0,0,0,1,0,0,0.044469,1,0,0,0,1,0.766667,0,0,0,0,0,0,1,0,0,0,0,0,0.028467,0.102041,0,0,1,0,0,0,no
0.397059,0,0,0,0,0,0,0,1,0,0,0,0,1,0,0,0,1,0,0,0,0.109636,1,0,0,0,1,0.3,0,0,0,0,0,0,0,1,0,0,0,0,0.5048,0,0.456422,0.04,0,0,1,0,no
0.220588,0,0,0,0,0,0,0,0,1,0,0,0,1,0,0,0,0,1,0,0,0.054026,1,0,1,0,0,0.033333,0,0,0,0,0,1,0,0,0,0,0,0,0.106587,0.040816,0,0,1,0,0,0,no
0.220588,0,0,0,0,0,0,0,0,0,0,1,0,0,0,1,0,1,0,0,0,0.112106,0,0,0,0,1,0.633333,0,0,0,0,0,0,0,0,0,0,1,0,0.066534,0.102041,0,0,1,0,0,0,no
0.073529,0,0,0,0,0,0,0,1,0,0,0,0,0,0,1,0,0,1,0,0,0.045959,1,1,1,0,0,0.866667,0,0,0,0,1,0,0,0,0,0,0,0,0.012579,0.061224,0,0,1,0,0,0,no
0.147059,0,0,0,1,0,0,0,0,0,0,0,0,0,0,1,0,0,0,1,0,0.044469,0,0,1,0,0,0.5,0,0,0,0,1,0,0,0,0,0,0,0,0.003972,0.489796,0,0,1,0,0,0,no
0.205882,0,0,0,0,0,0,0,1,0,0,0,0,0,0,1,0,1,0,0,0,0.038885,1,0,1,0,0,0.5,0,0,0,0,1,0,0,0,0,0,0,0,0.252565,0.020408,0,0,1,0,0,0,yes
0,0,0,0,0,0,0,1,0,0,0,0,0,0,0,1,0,1,0,0,0,0.048523,0,0,0,0,1,0.5,0,0,0,0,0,0,1,0,0,0,0,0,0.066534,0,0,0,1,0,0,0,yes
0.338235,1,0,0,0,0,0,0,0,0,0,0,0,1,0,0,0,1,0,0,0,0.086952,1,0,1,0,0,0.5,0,0,0,0,0,1,0,0,0,0,0,0,0.097319,0.061224,0,0,1,0,0,0,no
0.367647,0,0,0,0,0,0,0,0,0,0,1,0,0,1,0,0,1,0,0,0,0.044469,0,0,0,0,1,0.9,0,0,0,0,0,0,1,0,0,0,0,0,0.086064,0.081633,0,0,1,0,0,0,no
0.235294,0,0,0,0,0,0,0,0,0,0,1,0,0,1,0,0,1,0,0,0,0.045395,1,0,1,0,0,0.233333,0,0,0,0,1,0,0,0,0,0,0,0,0.151274,0.040816,0,0,1,0,0,0,no
0.191176,0,0,0,0,0,0,0,1,0,0,0,0,0,0,1,0,1,0,0,0,0.044912,1,0,0,0,1,0.566667,0,0,0,0,1,0,0,0,0,0,0,0,0.040053,0,0.423165,0.16,0,0,1,0,no
0.294118,0,0,0,1,0,0,0,0,0,0,0,0,0,0,1,0,0,0,1,0,0.044469,1,0,0,0,1,0.5,0,0,0,1,0,0,0,0,0,0,0,0,0.025488,0.020408,0,0,1,0,0,0,no
0.176471,0,0,0,0,0,1,0,0,0,0,0,0,0,0,1,0,0,0,1,0,0.070737,0,0,0,0,1,0.1,0,1,0,0,0,0,0,0,0,0,0,0,0.03575,0.040816,0,0,1,0,0,0,no
0.352941,0,0,0,0,0,1,0,0,0,0,0,0,1,0,0,0,0,0,1,0,0.047288,0,0,0,0,1,0.933333,0,0,0,0,0,0,1,0,0,0,0,0,0.212512,0.020408,0,0,1,0,0,0,no
0.25,0,0,0,1,0,0,0,0,0,0,0,0,0,1,0,0,0,0,1,0,0.092938,1,0,1,0,0,0.1,0,0,0,0,0,1,0,0,0,0,0,0,0.113539,0.040816,0,0,1,0,0,0,no
0.308824,1,0,0,0,0,0,0,0,0,0,0,0,0,0,1,0,1,0,0,0,0.047999,1,0,1,0,0,0.166667,0,0,0,0,1,0,0,0,0,0,0,0,0.075141,0,0,0,1,0,0,0,no
0.411765,0,0,0,0,0,0,0,1,0,0,0,0,1,0,0,0,0,1,0,0,0.056295,1,0,0,0,1,0.433333,0,0,0,0,1,0,0,0,0,0,0,0,0.046011,0,0.425459,0.08,0,0,1,0,no
0.279412,0,0,0,0,0,0,0,0,0,0,1,0,0,0,1,0,1,0,0,0,0.048644,1,0,0,0,1,0.9,0,0,0,0,1,0,0,0,0,0,0,0,0.018868,0.020408,0,0,1,0,0,0,no
0.147059,0,0,0,0,0,0,1,0,0,0,0,0,0,0,1,0,1,0,0,0,0.056174,1,0,1,0,0,0.2,0,0,0,0,1,0,0,0,0,0,0,0,0.07481,0,0,0,1,0,0,0,no
0.426471,0,0,0,0,0,0,0,0,0,1,0,0,1,0,0,0,0,1,0,1,0.040644,0,1,0,0,1,0.6,0,0,0,0,0,0,0,0,0,0,1,0,0.050645,0,0,0,1,0,0,0,no
0.352941,0,0,0,0,0,0,0,0,1,0,0,0,0,0,1,0,0,0,1,0,0.044469,0,0,1,0,0,0.6,0,0,0,0,0,1,0,0,0,0,0,0,0.047335,0,0,0,1,0,0,0,no
0.794118,0,0,0,0,0,0,0,0,0,1,0,0,1,0,0,0,1,0,0,0,0.044724,0,0,0,0,1,0.133333,0,0,0,0,0,0,0,0,0,0,1,0,0.167163,0.020408,0,0,1,0,0,0,no
0.308824,0,0,0,0,0,0,0,0,0,0,1,0,0,1,0,0,0,0,1,0,0.069583,1,0,0,0,1,0.533333,0,0,0,0,0,0,0,0,0,0,1,0,0.019861,0,0,0,1,0,0,0,no
0.176471,0,0,0,1,0,0,0,0,0,0,0,0,1,0,0,0,0,0,1,0,0.060174,0,0,0,0,1,0.633333,0,0,0,0,0,0,0,1,0,0,0,0,0.064879,0.061224,0,0,1,0,0,0,no
0.308824,0,0,0,0,0,0,0,0,0,0,0,1,1,0,0,0,0,0,1,0,0.044939,0,0,0,0,1,0.066667,0,0,0,0,0,0,1,0,0,0,0,0,0.103939,0.061224,0.364679,0.12,0,0,1,0,no
0.426471,0,0,0,1,0,0,0,0,0,0,0,0,0,1,0,0,1,0,0,0,0.065919,1,0,1,0,0,0.933333,0,0,0,0,1,0,0,0,0,0,0,0,0.026481,0,0,0,1,0,0,0,no
0.205882,0,0,0,0,0,0,0,0,0,0,0,1,1,0,0,0,0,1,0,0,0.137139,0,0,0,1,0,0.633333,0,0,0,0,0,0,0,0,0,0,1,0,0.036412,0.020408,0,0,1,0,0,0,no
0.147059,0,0,0,1,0,0,0,0,0,0,0,0,1,0,0,0,0,0,1,0,0.056241,0,0,0,0,1,0.066667,0,1,0,0,0,0,0,0,0,0,0,0,0.053625,0.040816,0,0,1,0,0,0,no
0.455882,0,0,0,0,0,0,0,0,0,0,0,1,1,0,0,0,0,1,0,0,0.061382,0,0,0,0,1,0.566667,0,0,0,0,0,0,0,0,0,0,1,0,0.055611,0,0,0,1,0,0,0,no
0.5,0,0,0,0,0,0,0,1,0,0,0,0,0,0,1,1,0,0,0,0,0.044469,0,0,1,0,0,0.366667,0,0,0,0,1,0,0,0,0,0,0,0,0.045018,0.122449,0,0,1,0,0,0,no
0.264706,0,0,0,0,0,0,0,1,0,0,0,0,1,0,0,0,1,0,0,0,0.049771,1,0,1,0,0,0.166667,0,0,0,0,1,0,0,0,0,0,0,0,0.071168,0.020408,0,0,1,0,0,0,no
0.455882,0,0,0,0,0,0,0,1,0,0,0,0,1,0,0,1,0,0,0,0,0.050536,0,0,0,0,1,0.633333,0,0,0,0,0,0,0,1,0,0,0,0,0.05859,0.020408,0,0,1,0,0,0,no
0.529412,0,0,0,0,0,0,0,0,0,0,1,0,1,0,0,1,0,0,0,0,0.052174,1,0,0,0,1,0.933333,1,0,0,0,0,0,0,0,0,0,0,0,0.079113,0.020408,0,0,1,0,0,0,no
0.25,0,0,0,1,0,0,0,0,0,0,0,0,0,0,1,0,0,0,1,0,0.051046,0,0,0,0,1,0.9,0,0,0,0,0,0,0,1,0,0,0,0,0.067196,0.142857,0.113532,0.04,0,0,1,0,yes
0.117647,0,0,0,1,0,0,0,0,0,0,0,0,1,0,0,0,0,0,1,0,0.055234,0,0,0,0,1,0.7,0,0,0,0,0,0,0,0,1,0,0,0,0.187024,0,0,0,1,0,0,0,yes
0.558824,0,0,0,0,0,0,0,0,0,0,1,0,1,0,0,0,0,0,1,0,0.407807,0,1,1,0,0,0.633333,0,0,0,0,0,1,0,0,0,0,0,0,0.056273,0.040816,0,0,1,0,0,0,no
0.382353,0,0,0,0,0,0,0,1,0,0,0,0,1,0,0,0,0,1,0,0,0.045771,1,0,1,0,0,0.2,0,0,0,0,1,0,0,0,0,0,0,0,0.304204,0.040816,0,0,1,0,0,0,no
0.132353,0,0,0,0,0,0,0,1,0,0,0,0,0,0,1,0,0,1,0,0,0.060563,1,0,0,0,1,0.966667,0,0,0,0,0,0,1,0,0,0,0,0,0.333333,0.387755,0,0,1,0,0,0,no
0.544118,1,0,0,0,0,0,0,0,0,0,0,0,1,0,0,0,1,0,0,0,0.270949,0,0,0,0,1,0.2,0,0,0,0,0,0,0,0,0,1,0,0,0.072493,0,0,0,1,0,0,0,no
0.514706,0,0,0,0,0,0,0,0,1,0,0,0,1,0,0,0,1,0,0,0,0.053073,1,0,0,0,1,0.533333,0,0,0,1,0,0,0,0,0,0,0,0,0.154916,0,0.170872,0.08,0,0,1,0,no
0.338235,0,0,0,1,0,0,0,0,0,0,0,0,0,1,0,1,0,0,0,0,0.14785,0,0,0,0,1,0.5,0,1,0,0,0,0,0,0,0,0,0,0,0.044356,0.020408,0,0,1,0,0,0,yes
0.220588,0,0,0,0,0,0,0,0,0,0,1,0,0,0,1,0,0,0,1,0,0.04753,1,0,0,0,1,0.7,0,0,0,0,0,0,1,0,0,0,0,0,0.126779,0.061224,0,0,1,0,0,0,no
0.441176,0,0,1,0,0,0,0,0,0,0,0,0,1,0,0,0,0,1,0,0,0.039315,1,0,1,0,0,0.866667,0,0,0,0,1,0,0,0,0,0,0,0,0.006951,0,0,0,1,0,0,0,no
0.338235,0,0,0,0,0,0,0,1,0,0,0,0,1,0,0,0,1,0,0,0,0.044469,1,0,0,0,1,0.666667,0,0,0,0,0,0,0,0,0,0,1,0,0.107249,0.102041,0,0,1,0,0,0,no
0.382353,0,0,0,0,0,0,0,0,0,0,1,0,1,0,0,0,1,0,0,0,0.045127,0,0,0,0,1,0.933333,0,0,0,0,0,0,1,0,0,0,0,0,0.020192,0.020408,0,0,1,0,0,0,no
0.294118,0,0,0,0,0,0,0,1,0,0,0,0,1,0,0,0,1,0,0,0,0.048295,1,1,1,0,0,0.166667,0,0,0,0,1,0,0,0,0,0,0,0,0.067858,0,0,0,1,0,0,0,no
0.308824,0,0,0,0,0,0,0,0,0,0,0,1,1,0,0,0,1,0,0,0,0.039879,1,0,1,0,0,0.833333,0,0,0,0,1,0,0,0,0,0,0,0,0.248262,0,0,0,1,0,0,0,no
0.264706,0,0,0,0,0,0,0,1,0,0,0,0,1,0,0,0,0,1,0,0,0.053717,1,0,0,0,1,0.433333,0,0,0,0,0,0,1,0,0,0,0,0,0.120159,0.020408,0,0,1,0,0,0,no
0.176471,0,0,0,0,0,0,0,0,1,0,0,0,0,0,1,0,1,0,0,0,0.049301,1,0,1,0,0,0.833333,0,0,0,0,1,0,0,0,0,0,0,0,0.194638,0.061224,0,0,1,0,0,0,no
0.161765,0,0,0,1,0,0,0,0,0,0,0,0,0,0,1,0,0,0,1,0,0.046469,1,0,1,0,0,0.066667,0,0,0,0,0,1,0,0,0,0,0,0,0.0715,0.020408,0,0,1,0,0,0,no
0.161765,0,0,0,1,0,0,0,0,0,0,0,0,0,0,1,0,0,0,1,0,0.054872,1,0,1,0,0,0.5,0,0,0,0,0,1,0,0,0,0,0,0,0.039722,0.020408,0,0,1,0,0,0,no
0.514706,0,0,0,0,0,0,0,1,0,0,0,0,0,1,0,0,0,1,0,0,0.042026,0,0,0,0,1,0.266667,0,0,0,0,0,0,1,0,0,0,0,0,0.031116,0,0,0,1,0,0,0,no
0.441176,0,0,0,0,0,0,0,1,0,0,0,0,1,0,0,0,0,1,0,0,0.050832,1,1,0,1,0,0.266667,0,1,0,0,0,0,0,0,0,0,0,0,0.04899,0.040816,0.254587,0.04,0,0,1,0,no
0.426471,0,0,0,1,0,0,0,0,0,0,0,0,1,0,0,0,0,0,1,0,0.059865,0,0,0,0,1,0.133333,0,0,0,0,0,0,0,1,0,0,0,0,0.127441,0,0.074541,0.08,0,0,0,1,yes
0.294118,0,0,0,1,0,0,0,0,0,0,0,0,0,0,1,0,1,0,0,0,0.044952,0,0,0,0,1,0.933333,0,0,0,0,0,0,0,1,0,0,0,0,0.021847,0.020408,0,0,1,0,0,0,no
0.191176,0,0,0,0,0,0,0,1,0,0,0,0,0,1,0,0,1,0,0,0,0.054389,1,0,1,0,0,0.266667,0,0,0,0,1,0,0,0,0,0,0,0,0.05528,0,0,0,1,0,0,0,no
0.426471,0,0,0,1,0,0,0,0,0,0,0,0,0,1,0,0,0,0,1,0,0.045919,1,0,1,0,0,0.866667,0,0,0,0,1,0,0,0,0,0,0,0,0.028136,0.020408,0,0,1,0,0,0,no
0.235294,0,0,0,0,0,0,0,1,0,0,0,0,1,0,0,0,0,1,0,0,0.045087,0,0,0,0,1,0.233333,0,0,0,0,0,0,1,0,0,0,0,0,0.110559,0.040816,0,0,1,0,0,0,no
0.264706,0,0,0,0,0,0,0,0,0,0,1,0,0,0,1,0,1,0,0,0,0.041221,1,0,0,0,1,0.4,0,0,0,0,0,0,0,1,0,0,0,0,0.379014,0.102041,0,0,1,0,0,0,yes
0.176471,0,0,0,0,0,0,0,0,0,0,1,0,0,0,1,0,1,0,0,0,0.066294,0,0,0,0,1,0.2,0,0,0,0,1,0,0,0,0,0,0,0,0.116518,0.020408,0.329128,0.12,0,0,1,0,no
0.117647,0,0,0,0,0,0,0,0,0,0,0,1,0,1,0,0,1,0,0,0,0.044603,1,0,0,0,1,0.7,0,0,0,0,0,0,1,0,0,0,0,0,0.173121,0,0,0,1,0,0,0,no
0.455882,0,0,0,0,0,0,0,1,0,0,0,0,1,0,0,1,0,0,0,0,0.075127,1,0,0,1,0,1,0,0,0,0,0,0,1,0,0,0,0,0,0.358822,0.326531,0,0,1,0,0,0,yes
0.279412,0,0,0,1,0,0,0,0,0,0,0,0,0,0,1,0,0,0,1,0,0.044939,1,0,0,0,1,0.533333,0,0,0,1,0,0,0,0,0,0,0,0,0.050314,0,0.31422,0.12,0,0,1,0,no
0.235294,0,0,0,0,0,0,0,0,0,0,1,0,1,0,0,0,1,0,0,0,0.044469,0,0,0,0,1,0.866667,0,0,0,0,0,0,0,1,0,0,0,0,0.033764,0.061224,0,0,1,0,0,0,no
0.279412,0,0,0,1,0,0,0,0,0,0,0,0,0,0,1,0,0,0,1,0,0.062898,0,0,0,0,1,0.7,0,0,0,0,0,0,0,0,0,1,0,0,0.038067,0.061224,0,0,1,0,0,0,no
0.338235,0,0,0,0,0,0,0,1,0,0,0,0,1,0,0,0,0,1,0,0,0.047959,1,0,0,1,0,1,0,0,0,0,0,0,1,0,0,0,0,0,0.056604,0.020408,0,0,1,0,0,0,no
0.25,0,0,0,1,0,0,0,0,0,0,0,0,1,0,0,0,0,0,1,0,0.056885,0,0,0,0,1,0.433333,0,0,0,0,0,0,0,0,0,0,0,1,0.104932,0.040816,0.21789,0.16,0,0,0,1,yes
0.088235,0,0,0,0,0,0,0,0,0,0,0,1,0,0,1,0,1,0,0,0,0.049865,0,1,0,0,1,0.2,0,0,0,0,0,0,1,0,0,0,0,0,0.086064,0,0,0,1,0,0,0,no
0.235294,0,0,0,1,0,0,0,0,0,0,0,0,0,0,1,0,0,0,1,0,0.084402,0,0,0,0,1,0.233333,0,0,0,0,0,0,0,1,0,0,0,0,0.081099,0.020408,0,0,1,0,0,0,no
0.514706,0,0,0,1,0,0,0,0,0,0,0,0,0,1,0,0,0,0,1,0,0.044469,0,1,0,0,1,0.3,0,0,0,0,0,0,1,0,0,0,0,0,0.027805,0,0,0,1,0,0,0,no
0.279412,0,0,0,0,0,0,0,1,0,0,0,0,0,1,0,0,1,0,0,0,0.056402,0,1,1,0,0,0.566667,0,0,0,0,0,1,0,0,0,0,0,0,0.118504,0,0,0,1,0,0,0,no
0.705882,0,0,0,0,0,0,0,0,0,1,0,0,1,0,0,1,0,0,0,0,0.053811,0,0,0,1,0,0.1,0,0,0,0,1,0,0,0,0,0,0,0,0.024164,0.020408,0,0,1,0,0,0,no
0.205882,0,0,0,0,0,0,0,1,0,0,0,0,1,0,0,0,1,0,0,0,0.052858,1,0,1,0,0,0.9,0,0,0,0,1,0,0,0,0,0,0,0,0.134393,0,0,0,1,0,0,0,no
0.220588,1,0,0,0,0,0,0,0,0,0,0,0,0,0,1,0,0,0,1,0,0.044711,1,1,0,0,1,0.966667,0,0,0,1,0,0,0,0,0,0,0,0,0.117511,0,0,0,1,0,0,0,yes
0.514706,0,0,0,0,0,0,0,0,0,1,0,0,0,1,0,0,0,0,1,0,0.044469,0,0,1,0,0,0.4,0,0,0,0,1,0,0,0,0,0,0,0,0.203244,0,0,0,1,0,0,0,yes
0.941176,0,0,0,0,0,0,0,0,0,1,0,0,0,1,0,0,0,1,0,0,0.044469,0,0,0,1,0,1,0,0,0,0,1,0,0,0,0,0,0,0,0.218471,0,0.08945,0.12,0,0,0,1,no
0.132353,0,0,0,0,0,0,0,1,0,0,0,0,0,0,1,0,1,0,0,0,0.050053,1,0,1,0,0,0.4,0,0,0,0,1,0,0,0,0,0,0,0,0.148295,0.020408,0,0,1,0,0,0,no
0.558824,0,0,0,1,0,0,0,0,0,0,0,0,1,0,0,0,0,0,1,0,0.044469,0,0,0,0,1,0.6,0,0,0,0,0,0,0,1,0,0,0,0,0.060907,0.061224,0,0,1,0,0,0,no
0.426471,0,0,0,0,0,0,0,0,0,0,1,0,1,0,0,0,1,0,0,0,0.101717,1,0,1,0,0,0.4,0,0,0,0,1,0,0,0,0,0,0,0,0.0715,0.020408,0,0,1,0,0,0,no
0.411765,0,0,0,0,1,0,0,0,0,0,0,0,1,0,0,0,0,1,0,0,0.044469,0,0,0,0,1,0.3,0,0,0,0,0,0,0,1,0,0,0,0,0.404171,0.020408,0,0,1,0,0,0,no
0.544118,0,0,0,0,0,0,0,0,1,0,0,0,1,0,0,0,1,0,0,0,0.055207,0,1,0,0,1,0.266667,0,0,0,0,0,0,1,0,0,0,0,0,0.054949,0,0,0,1,0,0,0,no
0.455882,0,0,0,0,0,1,0,0,0,0,0,0,1,0,0,0,1,0,0,0,0.053395,0,0,0,1,0,0.533333,0,0,0,0,0,0,0,0,0,0,1,0,0.077458,0,0,0,1,0,0,0,no
0.558824,0,0,0,0,0,1,0,0,0,0,0,0,0,1,0,0,1,0,0,1,0.044805,1,0,0,0,1,0.333333,0,0,0,0,1,0,0,0,0,0,0,0,0.214499,0,0.425459,0.16,0,1,0,0,no
0.220588,0,0,0,0,0,0,0,0,0,0,1,0,0,0,1,0,1,0,0,0,0.057127,0,0,0,0,1,0.933333,0,0,0,0,0,0,0,1,0,0,0,0,0.030453,0.061224,0,0,1,0,0,0,no
0.455882,0,0,0,1,0,0,0,0,0,0,0,0,1,0,0,0,1,0,0,0,0.054295,0,0,0,0,1,0.2,0,0,0,1,0,0,0,0,0,0,0,0,0.242304,0.122449,0,0,1,0,0,0,no
0.220588,0,0,0,0,0,0,0,0,0,0,1,0,0,0,1,0,1,0,0,0,0.049046,0,1,0,0,1,0.933333,1,0,0,0,0,0,0,0,0,0,0,0,0.043694,0,0.301606,0.12,0,0,1,0,no
0.176471,0,0,0,0,0,0,0,0,0,0,1,0,0,0,1,0,1,0,0,0,0.045006,0,0,0,0,1,0.2,0,0,0,0,0,0,0,1,0,0,0,0,0.039391,0.020408,0,0,1,0,0,0,no
0.235294,0,0,0,1,0,0,0,0,0,0,0,0,1,0,0,0,0,0,1,0,0.101999,1,0,1,0,0,0.266667,0,0,0,0,1,0,0,0,0,0,0,0,0.116849,0,0,0,1,0,0,0,no
0.161765,0,0,0,0,0,0,0,1,0,0,0,0,0,0,1,0,1,0,0,1,0.044523,1,0,1,0,0,0.733333,0,0,0,0,1,0,0,0,0,0,0,0,0.026481,0.040816,0,0,1,0,0,0,no
0.102941,1,0,0,0,0,0,0,0,0,0,0,0,0,0,1,0,1,0,0,0,0.055234,0,0,0,0,1,0.966667,1,0,0,0,0,0,0,0,0,0,0,0,0.024164,0,0.00344,0.08,0,1,0,0,no
0.147059,0,0,0,0,0,0,0,0,0,0,1,0,1,0,0,0,0,0,1,0,0.055986,1,0,0,0,1,0.366667,0,0,0,0,0,1,0,0,0,0,0,0,0.076134,0.122449,0.379587,0.04,0,0,1,0,no
0.338235,1,0,0,0,0,0,0,0,0,0,0,0,0,0,1,0,1,0,0,0,0.058187,1,0,1,0,0,0.133333,0,0,0,0,1,0,0,0,0,0,0,0,0.047004,0.020408,0,0,1,0,0,0,no
0.191176,0,0,0,0,0,0,0,0,0,0,1,0,1,0,0,0,0,0,1,0,0.030335,1,0,0,0,1,0.666667,0,0,0,0,0,0,1,0,0,0,0,0,0.116849,0.040816,0,0,1,0,0,0,no
0.367647,0,0,0,0,0,0,0,0,0,0,1,0,0,1,0,0,1,0,0,0,0.044469,0,0,0,0,1,0.366667,0,0,0,0,0,0,0,1,0,0,0,0,0.017213,0.020408,0,0,1,0,0,0,no
0.191176,0,0,0,1,0,0,0,0,0,0,0,0,1,0,0,0,0,0,1,0,0.045301,1,0,0,0,1,0.433333,0,0,0,0,1,0,0,0,0,0,0,0,0.053625,0,0,0,1,0,0,0,no
0.411765,0,0,0,0,0,0,0,0,0,0,0,1,1,0,0,0,0,0,1,0,0.05616,0,0,0,0,1,0.7,0,0,0,0,0,0,0,1,0,0,0,0,0.197948,0.163265,0,0,1,0,0,0,no
0.397059,0,0,0,1,0,0,0,0,0,0,0,0,1,0,0,0,0,0,1,0,0.048134,1,0,0,0,1,0.566667,0,0,1,0,0,0,0,0,0,0,0,0,0.299901,0.020408,0.212156,0.16,0,0,0,1,yes
0.205882,0,0,0,0,0,0,0,0,0,0,1,0,0,1,0,0,0,0,1,0,0.039288,1,0,1,0,0,0.733333,0,0,0,0,1,0,0,0,0,0,0,0,0.174115,0,0,0,1,0,0,0,no
0.558824,0,0,0,0,0,0,0,1,0,0,0,0,1,0,0,0,0,1,0,0,0.044778,1,0,0,1,0,1,0,0,0,0,0,0,1,0,0,0,0,0,0.006951,0.142857,0,0,1,0,0,0,no
0.352941,1,0,0,0,0,0,0,0,0,0,0,0,1,0,0,0,1,0,0,0,0.044469,1,0,0,0,1,0.533333,0,0,0,0,0,0,1,0,0,0,0,0,0.221781,0.040816,0,0,1,0,0,0,no
0.573529,0,0,0,0,0,0,0,1,0,0,0,0,1,0,0,0,0,1,0,0,0.044778,1,0,1,0,0,0.633333,0,0,0,0,1,0,0,0,0,0,0,0,0.028798,0.102041,0,0,1,0,0,0,no
0.382353,0,0,0,0,0,1,0,0,0,0,0,0,1,0,0,0,0,0,1,0,0.044469,1,0,0,0,1,0.933333,0,0,0,0,0,0,1,0,0,0,0,0,0.031778,0.040816,0,0,1,0,0,0,no
0.588235,0,0,0,0,0,0,0,0,0,1,0,0,1,0,0,0,0,1,0,0,0.045087,0,0,0,0,1,0.433333,0,0,0,0,0,0,0,1,0,0,0,0,0.024495,0.020408,0,0,1,0,0,0,no
0.176471,0,0,0,0,0,0,0,1,0,0,0,0,0,1,0,0,1,0,0,0,0.038402,1,0,1,0,0,0.833333,0,0,0,0,1,0,0,0,0,0,0,0,0.058921,0.081633,0,0,1,0,0,0,no
0.279412,0,0,0,0,0,0,0,0,0,0,0,1,1,0,0,0,1,0,0,0,0.040254,1,0,1,0,0,0.9,0,0,0,0,1,0,0,0,0,0,0,0,0.020523,0.020408,0,0,1,0,0,0,no
0.205882,0,0,0,0,0,0,0,1,0,0,0,0,1,0,0,0,1,0,0,0,0.047811,1,0,0,0,1,1,0,0,0,0,0,0,1,0,0,0,0,0,0.018868,0.061224,0,0,1,0,0,0,no
0.176471,0,0,0,0,0,0,0,0,0,0,0,1,0,0,1,0,1,0,0,0,0.04561,0,0,0,0,1,0.5,0,0,0,0,0,0,1,0,0,0,0,0,0.048659,0,0,0,1,0,0,0,no
0.338235,0,0,0,1,0,0,0,0,0,0,0,0,1,0,0,0,1,0,0,1,0.044013,0,0,0,0,1,0.133333,0,1,0,0,0,0,0,0,0,0,0,0,0.056935,0,0,0,1,0,0,0,no
0.102941,0,0,0,0,0,0,0,1,0,0,0,0,1,0,0,0,1,0,0,0,0.08165,1,0,1,0,0,0.233333,0,0,0,0,1,0,0,0,0,0,0,0,0.045349,0,0,0,1,0,0,0,no
0.205882,0,0,0,0,0,0,0,0,0,0,1,0,1,0,0,0,1,0,0,0,0.045248,1,0,0,1,0,0.933333,0,0,0,0,0,0,0,1,0,0,0,0,0.017544,0.020408,0,0,1,0,0,0,no
0.397059,0,0,0,1,0,0,0,0,0,0,0,0,1,0,0,0,0,0,1,0,0.044469,0,0,1,0,0,0.2,0,0,0,0,1,0,0,0,0,0,0,0,0.021847,0.020408,0,0,1,0,0,0,no
0.205882,0,0,0,1,0,0,0,0,0,0,0,0,0,0,1,0,0,0,1,0,0.061113,1,0,0,0,1,0.1,0,1,0,0,0,0,0,0,0,0,0,0,0.165839,0.020408,0.299312,0.04,0,1,0,0,no
0.294118,1,0,0,0,0,0,0,0,0,0,0,0,0,0,1,0,1,0,0,0,0.046657,1,0,0,0,1,0.966667,1,0,0,0,0,0,0,0,0,0,0,0,0.034095,0.020408,0,0,1,0,0,0,no
0.132353,1,0,0,0,0,0,0,0,0,0,0,0,0,0,1,0,1,0,0,0,0.10816,0,0,0,1,0,0.366667,0,0,0,0,1,0,0,0,0,0,0,0,0.117842,0,0.208716,0.2,0,0,0,1,yes
0.529412,0,0,0,0,0,1,0,0,0,0,0,0,1,0,0,0,1,0,0,0,0.153246,0,0,0,0,1,0.166667,0,1,0,0,0,0,0,0,0,0,0,0,0.069182,0.020408,0,0,1,0,0,0,no
0.5,0,0,0,0,0,0,0,0,0,0,0,1,1,0,0,0,1,0,0,0,0.062966,1,0,0,0,1,0.566667,0,0,0,0,0,0,1,0,0,0,0,0,0.028798,0.020408,0,0,1,0,0,0,no
0.264706,0,0,0,1,0,0,0,0,0,0,0,0,0,0,1,0,0,0,1,0,0.051301,1,0,0,0,1,0.166667,0,0,0,0,1,0,0,0,0,0,0,0,0.042701,0,0,0,1,0,0,0,no
0.323529,0,0,0,0,0,0,0,1,0,0,0,0,1,0,0,0,0,1,0,0,0.037543,0,1,0,1,0,0.233333,0,0,0,0,0,0,1,0,0,0,0,0,0.182059,0.040816,0,0,1,0,0,0,no
0.235294,0,0,0,0,1,0,0,0,0,0,0,0,0,1,0,0,1,0,0,0,0.044993,0,0,0,0,1,1,0,0,0,0,0,0,1,0,0,0,0,0,0.047997,0.020408,0,0,1,0,0,0,no
0.441176,0,0,0,0,0,0,0,1,0,0,0,0,1,0,0,0,0,1,0,0,0.058321,1,0,1,0,0,0.033333,0,0,0,0,0,1,0,0,0,0,0,0,0.012248,0.081633,0,0,1,0,0,0,no
0.161765,0,0,0,0,0,0,0,1,0,0,0,0,0,0,1,0,1,0,0,0,0.050442,1,0,0,0,1,0.5,0,0,0,1,0,0,0,0,0,0,0,0,0.070837,0,0.379587,0.08,0,0,1,0,no
0.176471,0,0,0,0,0,0,0,0,0,0,1,0,1,0,0,0,1,0,0,0,0.046764,0,0,0,0,1,0.866667,0,0,0,0,0,0,0,1,0,0,0,0,0.025488,0.040816,0,0,1,0,0,0,no
0.441176,0,0,0,0,0,0,0,1,0,0,0,0,0,0,1,0,0,1,0,0,0.084979,1,0,1,0,0,0.466667,0,0,0,0,1,0,0,0,0,0,0,0,0.02946,0,0,0,1,0,0,0,no
0.794118,0,0,0,0,0,0,0,0,0,1,0,0,1,0,0,1,0,0,0,0,0.051436,0,0,0,1,0,0.5,0,0,0,0,0,0,0,0,0,1,0,0,0.142337,0,0.066514,0.04,0,0,1,0,yes
0.294118,0,0,0,1,0,0,0,0,0,0,0,0,1,0,0,0,1,0,0,0,0.044469,1,0,0,0,1,0.866667,0,0,0,0,0,0,0,1,0,0,0,0,0.01953,0.040816,0,0,1,0,0,0,no
0.441176,0,0,0,0,0,0,0,1,0,0,0,0,0,1,0,1,0,0,0,0,0.044993,1,0,0,0,1,0.4,0,0,0,0,1,0,0,0,0,0,0,0,0.007613,0.081633,0,0,1,0,0,0,no
0.323529,0,0,0,0,0,0,0,1,0,0,0,0,1,0,0,0,1,0,0,0,0.049073,1,0,1,0,0,0.433333,0,0,0,0,1,0,0,0,0,0,0,0,0.028136,0.122449,0,0,1,0,0,0,no
0.191176,0,0,0,0,0,0,0,1,0,0,0,0,1,0,0,0,0,1,0,0,0.048885,1,0,0,0,1,0.066667,0,1,0,0,0,0,0,0,0,0,0,0,0.104932,0,0,0,1,0,0,0,no
0.338235,0,0,0,0,0,0,0,0,0,0,0,1,0,1,0,0,1,0,0,0,0.049462,1,1,1,0,0,0.166667,0,0,0,0,1,0,0,0,0,0,0,0,0.038729,0.020408,0,0,1,0,0,0,no
0.5,0,0,0,0,0,0,0,1,0,0,0,0,1,0,0,0,1,0,0,0,0.074415,1,0,0,0,1,0.433333,0,0,0,0,0,0,1,0,0,0,0,0,0.088712,0.040816,0,0,1,0,0,0,no
0.573529,0,0,0,0,0,0,0,0,0,1,0,0,1,0,0,0,0,1,0,0,0.09012,1,0,0,0,1,0.066667,0,1,0,0,0,0,0,0,0,0,0,0,0.026481,0.040816,0.305046,0.08,0,0,1,0,no
0.25,0,0,0,0,0,0,0,0,0,0,0,1,0,0,1,0,1,0,0,0,0.054858,1,0,0,0,1,0.066667,0,1,0,0,0,0,0,0,0,0,0,0,0.075141,0.020408,0.298165,0.04,0,0,1,0,no
0.25,0,0,0,0,0,0,0,1,0,0,0,0,1,0,0,0,1,0,0,0,0.065328,1,0,1,0,0,0.366667,0,0,0,0,1,0,0,0,0,0,0,0,0.106256,0.061224,0,0,1,0,0,0,no
0.308824,0,0,0,0,0,1,0,0,0,0,0,0,1,0,0,0,1,0,0,0,0.065033,1,1,0,0,1,0.566667,0,0,0,0,0,0,0,0,0,0,1,0,0.055942,0.122449,0,0,1,0,0,0,no
0.102941,0,0,0,0,0,0,0,0,0,0,0,1,0,0,1,0,1,0,0,0,0.047905,1,0,0,0,1,0.1,0,0,0,0,1,0,0,0,0,0,0,0,0.032109,0.020408,0,0,1,0,0,0,no
0.544118,0,0,0,1,0,0,0,0,0,0,0,0,1,0,0,0,0,1,0,0,0.054831,1,0,0,1,0,0.633333,0,0,0,0,0,0,0,0,0,0,1,0,0.095002,0,0,0,1,0,0,0,no
0.426471,0,0,0,1,0,0,0,0,0,0,0,0,0,1,0,0,0,0,1,0,0.051731,1,0,0,0,1,0.433333,0,0,0,0,1,0,0,0,0,0,0,0,0.022509,0,0.417431,0.08,0,1,0,0,no
0.455882,0,0,0,1,0,0,0,0,0,0,0,0,1,0,0,0,0,0,1,0,0.090952,0,1,0,0,1,0.9,0,0,0,0,0,0,0,0,0,1,0,0,0.030453,0,0,0,1,0,0,0,yes
0.308824,0,0,0,1,0,0,0,0,0,0,0,0,1,0,0,0,0,0,1,0,0.067744,1,0,1,0,0,0.033333,0,0,0,0,0,1,0,0,0,0,0,0,0.054618,0,0,0,1,0,0,0,no
0.147059,0,0,0,0,0,0,0,0,1,0,0,0,1,0,0,0,1,0,0,0,0.043449,1,0,1,0,0,0.866667,0,0,0,0,1,0,0,0,0,0,0,0,0.099636,0.020408,0,0,1,0,0,0,no
0.220588,0,0,0,0,0,0,0,1,0,0,0,0,0,0,1,0,0,0,1,0,0.058039,1,0,1,0,0,0.166667,0,0,0,0,1,0,0,0,0,0,0,0,0.043694,0,0,0,1,0,0,0,no
0.132353,0,0,0,1,0,0,0,0,0,0,0,0,0,0,1,0,0,0,1,0,0.064147,1,0,0,0,1,0.8,0,0,0,0,0,0,1,0,0,0,0,0,0.011917,0,0,0,1,0,0,0,no
0.397059,0,0,0,0,0,0,0,1,0,0,0,0,1,0,0,0,1,0,0,0,0.054952,0,0,1,0,0,0.4,0,0,0,0,1,0,0,0,0,0,0,0,0.04899,0,0,0,1,0,0,0,no
0.176471,0,0,0,0,0,0,0,0,0,0,0,1,1,0,0,0,1,0,0,0,0.051181,1,0,1,0,0,0.166667,0,0,0,0,0,1,0,0,0,0,0,0,0.004965,0.346939,0,0,1,0,0,0,no
0.397059,0,0,0,0,0,0,0,0,0,0,1,0,1,0,0,0,1,0,0,0,0.051167,1,0,0,0,1,1,0,0,0,0,0,0,1,0,0,0,0,0,0.010924,0.183673,0,0,1,0,0,0,no
0.220588,0,0,0,0,0,1,0,0,0,0,0,0,1,0,0,0,0,0,1,0,0.045879,1,0,1,0,0,0.9,0,0,0,0,1,0,0,0,0,0,0,0,0.081099,0.020408,0,0,1,0,0,0,no
0.441176,0,0,0,1,0,0,0,0,0,0,0,0,0,0,1,0,0,1,0,0,0.051825,0,0,0,1,0,1,0,0,0,0,0,0,1,0,0,0,0,0,0.036743,0.102041,0,0,1,0,0,0,no
0.294118,0,0,0,0,0,0,0,0,0,0,0,1,1,0,0,0,1,0,0,0,0.070912,1,0,1,0,0,0.233333,0,0,0,0,0,1,0,0,0,0,0,0,0.008606,0,0.46445,0.08,0,0,0,1,no
0.264706,0,0,0,1,0,0,0,0,0,0,0,0,1,0,0,0,0,0,1,0,0.099354,1,0,0,0,1,0.033333,0,1,0,0,0,0,0,0,0,0,0,0,0.09434,0.020408,0.200688,0.16,0,1,0,0,yes
0.441176,0,0,0,0,0,1,0,0,0,0,0,0,0,1,0,1,0,0,0,1,0.03506,1,0,0,0,1,0.966667,0,0,0,0,0,0,1,0,0,0,0,0,0.32572,0.020408,0,0,1,0,0,0,yes
0.470588,1,0,0,0,0,0,0,0,0,0,0,0,1,0,0,0,1,0,0,0,0.0802,0,0,0,1,0,0.9,1,0,0,0,0,0,0,0,0,0,0,0,0.047666,0.020408,0,0,1,0,0,0,no
0.294118,0,0,0,0,0,0,0,1,0,0,0,0,1,0,0,0,0,1,0,0,0.064684,1,0,0,0,1,0.333333,0,0,0,0,1,0,0,0,0,0,0,0,0.09765,0.020408,0,0,1,0,0,0,no
0.441176,0,0,0,0,0,0,0,1,0,0,0,0,0,0,1,0,0,1,0,0,0.058429,0,0,0,0,1,0.233333,0,0,0,0,0,0,1,0,0,0,0,0,0.155578,0.020408,0,0,1,0,0,0,no
0.205882,0,0,0,0,0,0,0,1,0,0,0,0,0,1,0,0,1,0,0,0,0.050832,0,0,0,0,1,0.7,0,0,0,0,0,0,1,0,0,0,0,0,0.131082,0.020408,0,0,1,0,0,0,no
0.426471,0,0,0,0,0,0,0,0,0,0,1,0,1,0,0,0,1,0,0,0,0.187487,0,0,0,1,0,1,0,0,0,0,0,0,1,0,0,0,0,0,0.000331,0.040816,0,0,1,0,0,0,no
0.617647,1,0,0,0,0,0,0,0,0,0,0,0,1,0,0,0,1,0,0,0,0.106321,0,0,0,0,1,0.366667,0,0,1,0,0,0,0,0,0,0,0,0,0.068851,0,0,0,1,0,0,0,yes
0.294118,0,0,0,1,0,0,0,0,0,0,0,0,0,1,0,0,0,0,1,0,0.06212,1,0,0,0,1,0.6,0,0,0,0,0,0,0,0,0,0,1,0,0.441245,0.061224,0.145642,0.04,0,0,1,0,no
0.294118,1,0,0,0,0,0,0,0,0,0,0,0,0,0,1,1,0,0,0,0,0.044469,1,0,0,0,1,0.333333,0,0,0,0,1,0,0,0,0,0,0,0,0.019199,0,0,0,1,0,0,0,no
0.352941,0,0,0,0,0,0,0,0,0,0,1,0,0,0,1,0,0,0,1,0,0.05812,1,0,1,0,0,0.6,0,0,0,0,1,0,0,0,0,0,0,0,0.083747,0.020408,0,0,1,0,0,0,no
0.235294,0,0,0,0,0,0,0,0,0,0,1,0,0,0,1,0,0,0,1,0,0.07518,0,0,0,1,0,0.9,0,0,0,0,1,0,0,0,0,0,0,0,0.009268,0.020408,0,0,1,0,0,0,no
0.588235,0,0,0,1,0,0,0,0,0,0,0,0,1,0,0,0,0,1,0,0,0.07612,1,0,0,0,1,0.533333,0,0,0,1,0,0,0,0,0,0,0,0,0.008606,0,0,0,1,0,0,0,no
0.441176,0,0,0,1,0,0,0,0,0,0,0,0,0,1,0,0,0,0,1,0,0.054603,0,0,0,0,1,1,0,0,0,0,0,0,1,0,0,0,0,0,0.399868,0.061224,0,0,1,0,0,0,yes
0.367647,0,0,0,1,0,0,0,0,0,0,0,0,0,1,0,0,0,0,1,0,0.072093,0,1,0,0,1,0.666667,0,0,0,0,0,0,0,0,0,0,1,0,0.217478,0,0,0,1,0,0,0,no
0.25,0,0,0,1,0,0,0,0,0,0,0,0,1,0,0,0,0,0,1,0,0.044469,1,0,1,0,0,0.866667,0,0,0,0,1,0,0,0,0,0,0,0,0.046673,0.020408,0,0,1,0,0,0,no
0.235294,0,0,0,0,0,0,0,1,0,0,0,0,1,0,0,0,1,0,0,0,0.048563,1,0,0,0,1,0.566667,0,0,0,0,1,0,0,0,0,0,0,0,0.000993,0.122449,0.422018,1,0,0,1,0,no
0.382353,0,0,0,1,0,0,0,0,0,0,0,0,1,0,0,0,0,0,1,0,0.047717,0,0,0,0,1,0.966667,0,0,0,1,0,0,0,0,0,0,0,0,0.192982,0,0,0,1,0,0,0,yes
0.602941,0,0,0,0,0,0,0,0,0,1,0,0,1,0,0,0,0,1,0,0,1,0,0,0,0,1,0.166667,0,0,0,0,0,0,0,0,0,1,0,0,0.066534,0,0,0,1,0,0,0,no
0.132353,0,0,0,0,0,0,0,0,0,0,1,0,0,0,1,0,1,0,0,1,0.040469,1,0,1,0,0,0.066667,0,0,0,0,0,1,0,0,0,0,0,0,0.183714,0.122449,0,0,1,0,0,0,no
0.220588,0,0,0,1,0,0,0,0,0,0,0,0,0,1,0,0,1,0,0,0,0.048375,0,0,0,0,1,0.2,0,0,0,0,0,0,0,1,0,0,0,0,0.028798,0.020408,0,0,1,0,0,0,no
0.176471,0,0,0,0,1,0,0,0,0,0,0,0,1,0,0,0,0,1,0,0,0.044805,0,0,0,0,1,0.666667,0,0,0,0,0,0,0,1,0,0,0,0,0.054618,0.081633,0,0,1,0,0,0,no
0.235294,0,0,0,0,0,1,0,0,0,0,0,0,0,0,1,0,0,0,1,0,0.046415,1,0,0,0,1,0.566667,0,0,0,0,0,0,1,0,0,0,0,0,0.263158,0.020408,0,0,1,0,0,0,yes
0.485294,0,0,0,0,0,0,0,0,0,0,0,1,1,0,0,0,1,0,0,0,0.03255,0,0,0,0,1,0.5,0,0,0,0,0,0,1,0,0,0,0,0,0.043363,0,0,0,1,0,0,0,no
0.088235,0,0,0,0,0,0,0,1,0,0,0,0,0,0,1,0,1,0,0,0,0.056724,1,0,0,0,1,0.2,0,0,0,0,0,0,1,0,0,0,0,0,0.036081,0.061224,0,0,1,0,0,0,no
0.205882,0,0,0,0,0,0,0,1,0,0,0,0,1,0,0,0,1,0,0,0,0.039825,1,1,1,0,0,0.733333,0,0,0,0,1,0,0,0,0,0,0,0,0.008275,0.040816,0,0,1,0,0,0,no
0.132353,0,0,0,0,0,0,0,0,0,0,1,0,0,0,1,0,1,0,0,0,0.04616,0,0,0,0,1,0.066667,0,0,1,0,0,0,0,0,0,0,0,0,0.074479,0,0,0,1,0,0,0,no
0.264706,0,0,0,0,0,0,0,0,0,0,1,0,0,0,1,0,1,0,0,0,0.04753,1,0,0,0,1,0.633333,0,0,0,0,0,0,0,1,0,0,0,0,0.574644,0.020408,0,0,1,0,0,0,no
0.338235,0,0,0,0,0,0,0,0,0,0,1,0,0,0,1,1,0,0,0,0,0.049087,1,0,1,0,0,0.066667,0,0,0,0,0,1,0,0,0,0,0,0,0.007282,0.122449,0,0,1,0,0,0,no
0.323529,0,0,0,1,0,0,0,0,0,0,0,0,1,0,0,0,0,0,1,0,0.096442,0,0,0,0,1,0.466667,0,0,0,0,0,0,0,0,0,1,0,0,0.075141,0,0,0,1,0,0,0,no
0.485294,0,0,0,0,0,0,0,1,0,0,0,0,1,0,0,0,0,1,0,0,0.062335,1,0,0,0,1,0.933333,0,0,0,0,0,0,1,0,0,0,0,0,0.069182,0.020408,0,0,1,0,0,0,no
0.191176,0,0,0,0,0,0,0,1,0,0,0,0,0,0,1,0,1,0,0,0,0.04753,0,0,0,1,0,0.133333,0,1,0,0,0,0,0,0,0,0,0,0,0.056935,0,0.331422,0.12,0,0,1,0,no
0.779412,0,0,0,0,0,0,0,0,0,1,0,0,1,0,0,0,0,1,0,0,0.055154,0,0,0,0,1,0.766667,0,0,0,1,0,0,0,0,0,0,0,0,0.055942,0.020408,0,0,1,0,0,0,no
0.588235,0,0,0,0,1,0,0,0,0,0,0,0,1,0,0,0,0,0,1,0,0.044469,0,1,0,0,1,0.933333,0,0,0,0,0,0,1,0,0,0,0,0,0.123138,0.020408,0,0,1,0,0,0,no
0.161765,0,0,0,1,0,0,0,0,0,0,0,0,1,0,0,0,0,0,1,0,0.056241,0,0,0,0,1,0.4,0,0,0,0,0,0,0,1,0,0,0,0,0.065541,0,0.09633,0.2,0,0,1,0,no
0.941176,0,0,0,0,0,0,0,0,0,1,0,0,0,1,0,0,0,1,0,0,0.059194,0,0,0,1,0,0.133333,0,0,1,0,0,0,0,0,0,0,0,0,0.05859,0,0,0,1,0,0,0,yes
0.161765,0,0,0,1,0,0,0,0,0,0,0,0,0,0,1,0,0,0,1,0,0.131649,0,0,0,0,1,0.966667,0,0,1,0,0,0,0,0,0,0,0,0,0.024495,0.040816,0,0,1,0,0,0,no
0.308824,0,0,0,0,0,0,0,0,1,0,0,0,1,0,0,0,0,0,1,0,0.227943,0,0,0,0,1,0.466667,0,0,0,0,0,0,0,0,0,1,0,0,0.044356,0,0.15711,0.32,0,1,0,0,no
0.308824,0,0,0,0,0,0,0,0,1,0,0,0,1,0,0,0,0,0,1,0,0.053087,0,0,0,0,1,0.566667,0,0,0,0,0,0,0,0,0,0,1,0,0.047335,0.040816,0,0,1,0,0,0,no
0.308824,0,0,0,0,0,0,0,1,0,0,0,0,1,0,0,0,0,1,0,0,0.060657,0,1,0,1,0,0.5,0,0,0,0,0,0,1,0,0,0,0,0,0.06521,0.081633,0,0,1,0,0,0,no
0.176471,1,0,0,0,0,0,0,0,0,0,0,0,1,0,0,0,1,0,0,0,0.044536,1,1,0,0,1,0.5,0,0,0,0,0,0,1,0,0,0,0,0,0.032109,0.122449,0,0,1,0,0,0,no
0.529412,0,0,0,0,0,0,0,0,0,0,1,0,1,0,0,0,1,0,0,0,0.044469,1,0,1,0,0,0.966667,0,0,0,0,1,0,0,0,0,0,0,0,0.038067,0.020408,0,0,1,0,0,0,no
0.397059,0,0,0,0,0,0,0,1,0,0,0,0,1,0,0,0,1,0,0,0,0.04612,0,0,0,0,1,0.633333,0,0,0,0,0,0,0,1,0,0,0,0,0.124793,0.040816,0,0,1,0,0,0,no
0.382353,0,0,0,0,0,0,0,1,0,0,0,0,1,0,0,0,0,1,0,0,0.044469,0,0,1,0,0,0.733333,0,0,0,0,1,0,0,0,0,0,0,0,0.188679,0.081633,0,0,1,0,0,0,no
0.235294,0,0,0,0,0,0,0,0,1,0,0,0,1,0,0,0,0,0,1,0,0.057623,0,0,0,0,1,0.033333,0,0,0,0,0,0,0,1,0,0,0,0,0.140351,0.020408,0.386468,0.24,0,0,1,0,no
0.176471,1,0,0,0,0,0,0,0,0,0,0,0,1,0,0,0,1,0,0,0,0.075395,1,0,0,0,1,0.633333,0,0,0,0,0,0,0,0,0,0,1,0,0.083747,0.020408,0,0,1,0,0,0,no
0.294118,0,0,0,0,0,0,0,0,1,0,0,0,1,0,0,0,1,0,0,0,0.046711,1,1,0,0,1,0.533333,0,0,0,0,0,0,1,0,0,0,0,0,0.107911,0,0,0,1,0,0,0,no
0.25,0,0,0,0,0,0,0,0,0,0,1,0,1,0,0,0,1,0,0,0,0.076603,0,0,0,0,1,0.433333,0,0,0,0,0,0,0,1,0,0,0,0,0.059583,0.020408,0,0,1,0,0,0,no
0.102941,1,0,0,0,0,0,0,0,0,0,0,0,0,1,0,0,1,0,0,1,0.044429,1,0,1,0,0,0.4,0,0,0,0,1,0,0,0,0,0,0,0,0.05859,0.081633,0,0,1,0,0,0,no
0.411765,0,0,0,0,0,0,0,1,0,0,0,0,0,1,0,0,0,1,0,0,0.061637,1,0,0,0,1,0.166667,0,1,0,0,0,0,0,0,0,0,0,0,0.157233,0.020408,0,0,1,0,0,0,no
0.308824,0,0,0,0,0,0,0,0,1,0,0,0,1,0,0,0,1,0,0,0,0.064818,1,1,1,0,0,0.733333,0,0,0,0,1,0,0,0,0,0,0,0,0.122145,0,0,0,1,0,0,0,no
0.602941,0,0,0,0,0,0,0,1,0,0,0,0,1,0,0,0,0,1,0,0,0.051087,0,0,0,0,1,0.566667,0,0,0,0,0,0,0,1,0,0,0,0,0.220788,0.061224,0,0,1,0,0,0,yes
0.323529,0,0,0,0,0,0,0,0,0,0,0,1,1,0,0,1,0,0,0,0,0.04565,1,0,0,0,1,0.333333,0,0,0,0,1,0,0,0,0,0,0,0,0.033433,0,0.386468,0.08,0,0,1,0,no
0.117647,0,0,0,0,0,0,0,0,0,0,0,1,0,0,1,0,1,0,0,0,0.042442,0,0,0,0,1,0.233333,0,0,0,0,0,0,1,0,0,0,0,0,0.092354,0.020408,0,0,1,0,0,0,no
0.220588,0,0,0,0,0,0,0,1,0,0,0,0,1,0,0,0,1,0,0,0,0.044563,1,1,0,0,1,0.033333,0,1,0,0,0,0,0,0,0,0,0,0,0.05528,0.020408,0.222477,0.08,0,1,0,0,no
0.544118,0,0,0,0,0,0,0,0,0,1,0,0,1,0,0,0,0,1,0,0,0.070053,0,1,1,0,0,0.6,0,0,0,0,0,1,0,0,0,0,0,0,0.013572,0.163265,0,0,1,0,0,0,no
0.602941,1,0,0,0,0,0,0,0,0,0,0,0,1,0,0,0,1,0,0,0,0.094603,0,0,0,0,1,0.7,0,0,0,0,0,0,0,0,0,0,0,1,0.061569,0,0.216743,0.36,0,0,0,1,yes
0.323529,0,0,0,1,0,0,0,0,0,0,0,0,1,0,0,0,0,0,1,0,0.045154,0,0,0,0,1,0.8,0,0,0,0,0,0,0,1,0,0,0,0,0.045018,0.142857,0,0,1,0,0,0,no
0.205882,0,0,0,1,0,0,0,0,0,0,0,0,0,0,1,0,0,0,1,0,0.063395,1,0,0,0,1,0.133333,0,1,0,0,0,0,0,0,0,0,0,0,0.001324,0,0.292431,0.2,0,0,1,0,no
0.294118,0,0,0,0,0,0,0,0,0,0,1,0,1,0,0,0,1,0,0,0,0.046442,1,0,0,0,1,0.166667,0,0,0,0,1,0,0,0,0,0,0,0,0.048659,0.020408,0,0,1,0,0,0,no
0.220588,1,0,0,0,0,0,0,0,0,0,0,0,1,0,0,0,1,0,0,0,0.076335,1,0,0,0,1,0.266667,0,0,0,0,0,0,0,0,0,0,1,0,0.05197,0,0.240826,0.08,0,0,1,0,yes
0.514706,0,0,0,0,0,0,0,0,0,0,0,1,1,0,0,0,1,0,0,0,0.055368,0,0,0,0,1,1,0,0,0,0,0,0,1,0,0,0,0,0,0.036081,0.102041,0,0,1,0,0,0,no
0.529412,0,0,0,0,1,0,0,0,0,0,0,0,1,0,0,0,1,0,0,0,0.046335,0,0,0,0,1,0.7,0,0,0,0,0,0,0,1,0,0,0,0,0.083416,0.020408,0,0,1,0,0,0,no
0.117647,0,0,0,0,0,0,0,1,0,0,0,0,0,0,1,0,1,0,0,0,0.045986,0,0,0,0,1,0.7,0,0,0,0,0,0,1,0,0,0,0,0,0.011586,0.326531,0,0,1,0,0,0,no
0.205882,0,0,0,0,0,0,0,0,0,0,0,1,1,0,0,0,1,0,0,0,0.055261,1,1,1,0,0,0.233333,0,0,0,0,1,0,0,0,0,0,0,0,0.086726,0,0,0,1,0,0,0,no
0.338235,0,0,0,1,0,0,0,0,0,0,0,0,0,0,1,0,0,0,1,0,0.051382,1,0,0,0,1,0.6,0,0,0,0,0,0,0,0,0,0,1,0,0.164515,0.020408,0,0,1,0,0,0,no
0.132353,0,0,0,0,0,0,0,1,0,0,0,0,0,0,1,0,0,1,0,0,0.044469,1,1,1,0,0,0.066667,0,0,0,0,0,1,0,0,0,0,0,0,0.124462,0.061224,0,0,1,0,0,0,no
0.294118,1,0,0,0,0,0,0,0,0,0,0,0,0,0,1,0,1,0,0,0,0.06114,1,0,1,0,0,0.366667,0,0,0,0,1,0,0,0,0,0,0,0,0.098974,0.040816,0,0,1,0,0,0,no
0.264706,0,0,0,0,0,0,0,0,0,0,1,0,0,1,0,0,1,0,0,0,0.04553,0,0,0,0,1,0.666667,0,0,0,0,0,0,1,0,0,0,0,0,0.0619,0,0,0,1,0,0,0,no
0.235294,0,0,0,0,0,0,0,0,0,0,1,0,0,0,1,0,1,0,0,0,0.121394,1,0,0,0,1,0.1,0,0,0,0,1,0,0,0,0,0,0,0,0.052963,0.020408,0.192661,0.16,0,1,0,0,no
0.132353,0,0,0,1,0,0,0,0,0,0,0,0,0,0,1,0,0,0,1,0,0.054952,0,0,0,0,1,0.266667,0,0,0,1,0,0,0,0,0,0,0,0,0.040053,0.102041,0,0,1,0,0,0,no
0.161765,0,0,0,0,0,0,0,1,0,0,0,0,0,0,1,0,1,0,0,0,0.046858,1,0,1,0,0,0.633333,0,0,0,0,1,0,0,0,0,0,0,0,0.245945,0.081633,0,0,1,0,0,0,no
0.367647,0,0,0,0,0,0,0,0,0,0,0,1,0,0,1,0,1,0,0,0,0.045892,0,0,1,0,0,0.366667,0,0,0,0,0,1,0,0,0,0,0,0,0.034757,0.020408,0,0,1,0,0,0,no
0.397059,0,0,0,0,0,0,0,0,0,0,1,0,1,0,0,0,1,0,0,0,0.045234,0,0,1,0,0,0.9,0,0,0,0,1,0,0,0,0,0,0,0,0.262165,0,0,0,1,0,0,0,yes
0.161765,0,0,0,1,0,0,0,0,0,0,0,0,0,0,1,0,0,0,1,0,0.101019,0,0,0,0,1,0.8,0,0,0,0,0,0,0,1,0,0,0,0,0.04568,0.061224,0,0,1,0,0,0,no
0.441176,0,0,0,0,0,0,0,1,0,0,0,0,1,0,0,1,0,0,0,0,0.086026,0,0,1,0,0,0.5,0,0,0,0,0,1,0,0,0,0,0,0,0.047335,0.020408,0,0,1,0,0,0,no
0.529412,1,0,0,0,0,0,0,0,0,0,0,0,1,0,0,0,1,0,0,0,0.05255,0,0,0,0,1,0,0,0,0,0,0,1,0,0,0,0,0,0,0.105925,0.040816,0.104358,0.08,0,0,0,1,yes
0.191176,0,0,0,0,0,0,0,0,0,0,1,0,0,0,1,0,0,0,1,0,0.228507,1,0,0,0,1,0.433333,0,0,0,0,1,0,0,0,0,0,0,0,0.209864,0,0.201835,0.12,0,0,0,1,no
0.588235,0,1,0,0,0,0,0,0,0,0,0,0,1,0,0,1,0,0,0,0,0.097354,0,0,1,0,0,0.133333,0,0,0,0,0,1,0,0,0,0,0,0,0.014565,0.020408,0,0,1,0,0,0,no
0.102941,0,0,0,0,0,0,0,0,0,0,1,0,0,0,1,0,1,0,0,0,0.061583,1,0,1,0,0,0.633333,0,0,0,0,0,1,0,0,0,0,0,0,0.004634,0.163265,0,0,1,0,0,0,no
0.088235,0,0,0,0,0,0,0,0,0,0,0,1,0,0,1,0,1,0,0,0,0.049409,0,0,0,1,0,0.8,0,0,0,0,0,0,1,0,0,0,0,0,0.054287,0,0,0,1,0,0,0,no
0.191176,0,0,0,1,0,0,0,0,0,0,0,0,0,0,1,0,0,0,1,0,0.044469,0,0,0,0,1,0.133333,0,1,0,0,0,0,0,0,0,0,0,0,0.180735,0.061224,0,0,1,0,0,0,yes
0.294118,0,0,0,0,0,1,0,0,0,0,0,0,1,0,0,0,0,0,1,0,0.044496,1,0,0,0,1,0.533333,0,0,0,0,0,0,0,0,0,0,1,0,0.058259,0,0,0,1,0,0,0,no
0.088235,0,0,0,0,0,0,1,0,0,0,0,0,0,0,1,0,1,0,0,0,0.068496,0,0,0,0,1,0.533333,0,0,0,1,0,0,0,0,0,0,0,0,0.072824,0,0.370413,0.12,0,0,1,0,no
0.191176,0,0,0,0,0,0,0,0,0,0,0,1,0,0,1,0,1,0,0,0,0.046509,1,0,0,0,1,0.8,0,0,0,0,1,0,0,0,0,0,0,0,0.050976,0.020408,0,0,1,0,0,0,yes
0.338235,0,0,0,0,0,0,0,1,0,0,0,0,1,0,0,0,0,1,0,0,0.059986,1,0,0,1,0,0.633333,0,0,0,1,0,0,0,0,0,0,0,0,0.010924,0,0,0,1,0,0,0,no
0.220588,0,0,0,0,0,0,0,0,0,0,1,0,0,0,1,0,1,0,0,0,0.045275,0,0,0,0,1,0.2,0,0,0,0,0,0,0,1,0,0,0,0,0.089374,0.020408,0,0,1,0,0,0,no
0.235294,0,0,0,0,0,0,0,0,0,0,1,0,1,0,0,0,1,0,0,0,0.045731,1,1,1,0,0,0.433333,0,0,0,0,1,0,0,0,0,0,0,0,0.067527,0.081633,0,0,1,0,0,0,no
0.117647,0,0,0,0,0,0,0,0,0,0,0,1,0,0,1,0,1,0,0,1,0.044456,0,0,0,0,1,0.7,0,0,0,0,0,0,1,0,0,0,0,0,0.018537,0.020408,0,0,1,0,0,0,no
0.235294,0,0,0,1,0,0,0,0,0,0,0,0,1,0,0,0,0,0,1,0,0.045892,0,1,0,0,1,0.333333,0,0,0,0,0,0,0,1,0,0,0,0,0.193313,0.020408,0,0,1,0,0,0,no
0.205882,0,1,0,0,0,0,0,0,0,0,0,0,1,0,0,0,1,0,0,0,0.081073,0,0,0,0,1,0.166667,0,0,0,0,0,0,0,1,0,0,0,0,0.066534,0.040816,0,0,1,0,0,0,no
0.176471,0,0,0,1,0,0,0,0,0,0,0,0,0,0,1,0,1,0,0,0,0.044952,0,0,0,0,1,0.866667,0,0,0,0,0,0,0,1,0,0,0,0,0.033433,0.020408,0,0,1,0,0,0,no
0.161765,0,0,0,0,0,1,0,0,0,0,0,0,1,0,0,0,1,0,0,0,0.057167,1,0,0,0,1,0.6,0,0,0,0,0,0,0,0,0,0,1,0,0.351208,0,0.211009,0.04,0,1,0,0,no
0.264706,0,0,1,0,0,0,0,0,0,0,0,0,1,0,0,1,0,0,0,0,0.105744,0,0,0,0,1,0.1,0,0,0,0,0,0,0,0,1,0,0,0,0.120821,0,0,0,1,0,0,0,no
0.573529,0,0,0,1,0,0,0,0,0,0,0,0,0,0,1,0,0,0,1,0,0.044496,1,0,0,1,0,0.333333,0,0,0,0,1,0,0,0,0,0,0,0,0.054287,0.040816,0,0,1,0,0,0,no
0.279412,1,0,0,0,0,0,0,0,0,0,0,0,0,0,1,0,1,0,0,0,0.056576,1,0,0,1,0,1,0,0,0,0,0,0,1,0,0,0,0,0,0.017875,0.244898,0,0,1,0,0,0,no
0.205882,0,0,0,0,0,0,0,1,0,0,0,0,0,1,0,0,1,0,0,0,0.042711,1,0,1,0,0,0.5,0,0,0,0,1,0,0,0,0,0,0,0,0.046673,0,0,0,1,0,0,0,no
0.161765,0,0,1,0,0,0,0,0,0,0,0,0,1,0,0,0,1,0,0,0,0.046375,1,0,1,0,0,0.633333,0,0,0,0,1,0,0,0,0,0,0,0,0.114532,0.061224,0,0,1,0,0,0,no
0.338235,0,0,0,0,0,0,0,1,0,0,0,0,1,0,0,0,0,1,0,0,0.051248,1,0,1,0,0,0.433333,0,0,0,0,1,0,0,0,0,0,0,0,0.171135,0.020408,0,0,1,0,0,0,no
0.470588,0,0,0,1,0,0,0,0,0,0,0,0,1,0,0,0,0,0,1,0,0.032496,1,1,0,0,1,0.433333,0,0,0,0,0,0,0,1,0,0,0,0,0.080768,0.020408,0,0,1,0,0,0,no
0.176471,0,0,0,0,0,0,0,1,0,0,0,0,0,0,1,0,0,0,1,0,0.05067,1,1,1,0,0,0.6,0,0,0,0,1,0,0,0,0,0,0,0,0.047335,0,0,0,1,0,0,0,no
0.294118,0,0,0,0,0,0,0,0,0,0,0,1,0,1,0,0,1,0,0,0,0.053691,1,0,0,0,1,0.266667,0,0,0,0,0,0,1,0,0,0,0,0,0.286329,0,0,0,1,0,0,0,yes
0.411765,0,0,0,1,0,0,0,0,0,0,0,0,0,1,0,0,0,0,1,0,0.045731,1,0,0,0,1,1,0,0,0,0,0,0,1,0,0,0,0,0,0.001655,0.367347,0,0,1,0,0,0,no
0.117647,0,0,0,0,0,0,0,0,0,0,1,0,0,0,1,1,0,0,0,0,0.045261,0,0,0,0,1,0.466667,0,0,0,0,0,0,1,0,0,0,0,0,0.260841,0.061224,0,0,1,0,0,0,no
0.367647,0,0,0,1,0,0,0,0,0,0,0,0,1,0,0,0,0,0,1,0,0.094965,0,0,0,0,1,0.9,0,0,0,0,0,0,0,1,0,0,0,0,0.040053,0.22449,0,0,1,0,0,0,no
0.088235,0,0,0,0,0,0,1,0,0,0,0,0,0,0,1,1,0,0,0,0,0.189273,0,0,0,0,1,0.733333,0,0,0,0,0,0,0,0,0,0,0,1,0.03244,0.020408,0.241972,0.08,0,1,0,0,no
0.191176,0,0,0,0,0,0,0,1,0,0,0,0,1,0,0,0,1,0,0,0,0.051409,1,0,1,0,0,0.133333,0,0,0,0,1,0,0,0,0,0,0,0,0.173452,0,0,0,1,0,0,0,no
0.308824,1,0,0,0,0,0,0,0,0,0,0,0,1,0,0,0,1,0,0,0,0.062281,1,1,1,0,0,0.833333,0,0,0,0,1,0,0,0,0,0,0,0,0.023833,0.020408,0,0,1,0,0,0,no
0.191176,0,0,0,1,0,0,0,0,0,0,0,0,1,0,0,0,0,0,1,0,0.086173,1,1,0,0,1,0.8,0,0,0,0,0,0,1,0,0,0,0,0,0.101291,0,0,0,1,0,0,0,no
0.897059,0,0,0,0,0,0,0,0,0,1,0,0,1,0,0,0,1,0,0,0,0.05067,0,0,0,0,1,0.2,0,0,0,0,0,0,0,0,0,0,0,1,0.040715,0.020408,0,0,1,0,0,0,no
0.088235,0,0,0,0,0,0,0,0,0,0,1,0,0,0,1,0,1,0,0,0,0.043395,1,1,1,0,0,0.066667,0,0,0,0,0,1,0,0,0,0,0,0,0.028136,0,0,0,1,0,0,0,no
0.235294,1,0,0,0,0,0,0,0,0,0,0,0,0,0,1,0,1,0,0,0,0.068764,1,0,0,0,1,0.8,0,0,0,0,1,0,0,0,0,0,0,0,0.020192,0.020408,0,0,1,0,0,0,no
0.220588,0,0,0,0,0,1,0,0,0,0,0,0,1,0,0,0,0,0,1,0,0.049999,1,1,0,0,1,0.233333,0,0,0,0,0,0,1,0,0,0,0,0,0.052963,0,0,0,1,0,0,0,no
0.191176,0,0,0,0,0,0,0,0,0,0,1,0,1,0,0,0,1,0,0,0,0.047865,1,0,1,0,0,0.1,0,0,0,0,0,1,0,0,0,0,0,0,0.083747,0.040816,0,0,1,0,0,0,no
0.602941,0,0,0,1,0,0,0,0,0,0,0,0,1,0,0,0,0,1,0,0,0.047852,1,1,0,0,1,0.4,0,0,0,1,0,0,0,0,0,0,0,0,0.039391,0.020408,0.169725,0.12,0,0,1,0,no
0.426471,0,0,0,0,0,1,0,0,0,0,0,0,1,0,0,0,1,0,0,0,0.054201,0,1,0,0,1,0.3,0,0,0,0,0,0,1,0,0,0,0,0,0.033433,0,0,0,1,0,0,0,no
0.205882,0,0,0,0,0,0,0,1,0,0,0,0,1,0,0,0,1,0,0,0,0.046335,1,1,0,0,1,0.566667,0,0,0,0,1,0,0,0,0,0,0,0,0.24098,0.020408,0.334862,0.2,0,0,1,0,yes
0.602941,1,0,0,0,0,0,0,0,0,0,0,0,1,0,0,0,1,0,0,0,0.085314,0,0,0,0,1,0.6,0,0,0,0,0,0,0,1,0,0,0,0,0.076465,0.040816,0,0,1,0,0,0,no
0.161765,0,0,0,1,0,0,0,0,0,0,0,0,1,0,0,0,0,0,1,0,0.069731,1,0,0,0,1,0.333333,0,0,0,0,0,0,0,1,0,0,0,0,0.081099,0.081633,0,0,1,0,0,0,no
0.573529,0,0,0,0,0,0,0,1,0,0,0,0,1,0,0,0,1,0,0,0,0.05255,1,0,0,0,1,0.4,0,0,0,0,1,0,0,0,0,0,0,0,0.06521,0,0,0,1,0,0,0,no
0.397059,1,0,0,0,0,0,0,0,0,0,0,0,0,0,1,0,1,0,0,0,0.068496,1,0,1,0,0,0.133333,0,0,0,0,0,1,0,0,0,0,0,0,0.069513,0.081633,0,0,1,0,0,0,no
0.147059,0,0,0,0,0,0,0,1,0,0,0,0,1,0,0,0,0,1,0,0,0.047154,1,0,1,0,0,0.966667,0,0,0,0,1,0,0,0,0,0,0,0,0.105263,0.020408,0,0,1,0,0,0,no
0.338235,1,0,0,0,0,0,0,0,0,0,0,0,0,1,0,0,1,0,0,0,0.045315,0,0,1,0,0,0.5,0,0,0,0,1,0,0,0,0,0,0,0,0.027805,0.102041,0,0,1,0,0,0,no
0.25,0,0,0,0,0,0,0,0,1,0,0,0,1,0,0,0,0,0,1,0,0.051261,0,0,0,0,1,0.8,0,0,0,0,0,0,0,1,0,0,0,0,0.014234,0,0.138761,0.04,0,0,1,0,no
0.470588,0,0,0,0,0,0,0,1,0,0,0,0,1,0,0,1,0,0,0,0,0.069744,1,0,1,0,0,0.133333,0,0,0,0,1,0,0,0,0,0,0,0,0.017544,0,0,0,1,0,0,0,no
0.102941,0,0,1,0,0,0,0,0,0,0,0,0,1,0,0,0,0,0,1,0,0.050563,1,1,1,0,0,0.733333,0,0,0,0,1,0,0,0,0,0,0,0,0.007944,0.346939,0,0,1,0,0,0,no
0.264706,0,0,0,1,0,0,0,0,0,0,0,0,1,0,0,0,0,0,1,0,0.044469,0,0,0,0,1,0.5,0,0,0,0,0,0,1,0,0,0,0,0,0.087388,0.020408,0.209862,0.12,0,0,0,1,yes
0.102941,0,0,0,0,0,0,0,0,1,0,0,0,0,0,1,0,0,0,1,0,0.059946,0,0,0,0,1,0.1,0,0,0,0,1,0,0,0,0,0,0,0,0.077458,0.040816,0,0,1,0,0,0,no
0.323529,0,0,0,0,0,0,0,0,1,0,0,0,1,0,0,0,0,1,0,0,0.049033,0,0,1,0,0,0.166667,0,0,0,0,0,1,0,0,0,0,0,0,0.010924,0.040816,0,0,1,0,0,0,no
0.323529,0,0,0,0,0,0,0,1,0,0,0,0,1,0,0,0,0,1,0,0,0.044523,0,0,0,0,1,0.733333,0,0,0,0,0,0,1,0,0,0,0,0,0.023171,0.081633,0,0,1,0,0,0,no
0.205882,0,0,0,0,0,0,0,0,0,0,1,0,0,0,1,0,1,0,0,0,0.053154,1,1,0,0,1,0.1,0,1,0,0,0,0,0,0,0,0,0,0,0.039722,0,0.31422,0.04,0,1,0,0,no
0.058824,0,0,0,0,0,0,0,0,0,0,0,1,0,0,1,0,1,0,0,0,0.051181,1,0,1,0,0,0.1,0,0,0,0,0,1,0,0,0,0,0,0,0.035419,0.040816,0,0,1,0,0,0,no
0.205882,0,0,0,0,0,0,0,1,0,0,0,0,1,0,0,0,1,0,0,0,0.056979,1,0,1,0,0,0.666667,0,0,0,0,1,0,0,0,0,0,0,0,0.073486,0,0,0,1,0,0,0,no
0.147059,0,0,0,0,0,0,0,0,0,0,0,1,0,0,1,0,1,0,0,0,0.044469,0,0,0,0,1,0.533333,0,0,0,0,0,0,1,0,0,0,0,0,0.017875,0,0,0,1,0,0,0,no
0.455882,0,0,0,1,0,0,0,0,0,0,0,0,1,0,0,0,0,0,1,0,0.045973,1,0,0,0,1,0.1,0,0,0,0,0,0,0,0,0,0,1,0,0.021847,0.081633,0.098624,0.2,0,1,0,0,no
0.132353,0,0,1,0,0,0,0,0,0,0,0,0,0,0,1,0,1,0,0,0,0.044684,0,0,0,0,1,0.366667,0,0,0,0,0,0,0,1,0,0,0,0,0.038067,0.061224,0,0,1,0,0,0,no
0.161765,0,0,0,1,0,0,0,0,0,0,0,0,1,0,0,0,0,0,1,0,0.046496,0,0,0,0,1,0.6,0,0,0,0,0,0,0,1,0,0,0,0,0.025819,0.061224,0,0,1,0,0,0,no
0.147059,0,0,0,0,0,0,0,0,0,0,0,1,1,0,0,0,1,0,0,0,0.046912,1,0,0,1,0,0.4,0,0,0,0,1,0,0,0,0,0,0,0,0.011255,0.040816,0,0,1,0,0,0,no
0.426471,0,0,0,0,0,0,0,0,0,0,1,0,1,0,0,0,0,0,1,0,0.044469,0,0,0,1,0,0.833333,0,0,0,0,0,0,0,1,0,0,0,0,0.056935,0.285714,0,0,1,0,0,0,no
0.411765,0,0,0,0,0,0,0,0,1,0,0,0,1,0,0,0,1,0,0,0,0.059516,0,0,1,0,0,0.633333,0,0,0,0,0,1,0,0,0,0,0,0,0.148957,0.102041,0,0,1,0,0,0,no
0.411765,0,0,0,1,0,0,0,0,0,0,0,0,1,0,0,0,0,0,1,0,0.048429,1,0,0,0,1,0.133333,0,0,0,0,0,0,0,1,0,0,0,0,0.050645,0,0,0,1,0,0,0,no
0.441176,0,0,0,0,0,0,0,1,0,0,0,0,1,0,0,0,0,1,0,0,0.057046,1,0,1,0,0,0.366667,0,0,0,0,0,1,0,0,0,0,0,0,0.020523,0,0,0,1,0,0,0,no
0.529412,0,0,0,0,0,0,0,1,0,0,0,0,1,0,0,0,0,1,0,0,0.066603,1,0,0,0,1,0.366667,0,0,0,0,1,0,0,0,0,0,0,0,0.015889,0.040816,0,0,1,0,0,0,no
0.5,0,0,0,0,0,0,0,0,0,0,0,1,0,1,0,0,1,0,0,0,0.032322,1,0,1,0,0,0.9,0,0,0,0,1,0,0,0,0,0,0,0,0.069182,0,0,0,1,0,0,0,no
0.220588,0,0,0,0,0,0,0,1,0,0,0,0,1,0,0,0,1,0,0,0,0.052308,1,0,0,0,1,0.566667,0,0,0,0,0,0,1,0,0,0,0,0,0.049652,0.020408,0,0,1,0,0,0,no
0.220588,1,0,0,0,0,0,0,0,0,0,0,0,1,0,0,0,1,0,0,0,0.04553,1,0,1,0,0,0.733333,0,0,0,0,1,0,0,0,0,0,0,0,0.02615,0,0,0,1,0,0,0,no
0.117647,0,0,0,0,0,0,0,0,0,0,1,0,0,0,1,0,1,0,0,0,0.054791,1,0,1,0,0,0.266667,0,0,0,0,1,0,0,0,0,0,0,0,0.103608,0.020408,0,0,1,0,0,0,no
0.352941,0,0,0,0,0,0,0,1,0,0,0,0,1,0,0,0,0,1,0,0,0.051006,1,0,1,0,0,0.2,0,0,0,0,1,0,0,0,0,0,0,0,0.180073,0.020408,0,0,1,0,0,0,no
0.235294,1,0,0,0,0,0,0,0,0,0,0,0,1,0,0,0,1,0,0,0,0.160602,1,0,1,0,0,0.766667,0,0,0,0,0,1,0,0,0,0,0,0,0.032771,0.102041,0,0,1,0,0,0,no
0.485294,0,0,0,1,0,0,0,0,0,0,0,0,1,0,0,0,0,0,1,0,0.070563,1,0,0,0,1,0.466667,0,0,0,1,0,0,0,0,0,0,0,0,0.077458,0.040816,0.37156,0.08,0,0,1,0,no
0.117647,1,0,0,0,0,0,0,0,0,0,0,0,0,0,1,0,0,0,1,0,0.093757,1,0,0,0,1,0.466667,0,0,0,0,1,0,0,0,0,0,0,0,0.050645,0.020408,0.40367,0.2,0,0,1,0,no
0.573529,0,0,0,1,0,0,0,0,0,0,0,0,1,0,0,0,0,0,1,0,0.048483,0,0,0,0,1,0.5,0,0,0,0,0,0,1,0,0,0,0,0,0.038398,0.061224,0,0,1,0,0,0,no
0.441176,0,0,0,0,0,0,0,1,0,0,0,0,1,0,0,1,0,0,0,0,0.045154,1,0,1,0,0,0.2,0,0,0,0,1,0,0,0,0,0,0,0,0.324396,0,0,0,1,0,0,0,no
0.544118,0,1,0,0,0,0,0,0,0,0,0,0,1,0,0,1,0,0,0,0,0.044469,0,0,1,0,0,0.633333,0,0,0,0,0,1,0,0,0,0,0,0,0.154585,0.020408,0,0,1,0,0,0,no
0.602941,0,0,0,0,0,0,0,1,0,0,0,0,1,0,0,1,0,0,0,0,0.045865,1,0,1,0,0,0.133333,0,0,0,0,1,0,0,0,0,0,0,0,0.005958,0,0,0,1,0,0,0,no
0.382353,0,0,0,0,0,0,0,0,0,0,1,0,1,0,0,0,1,0,0,0,0.057878,1,0,0,0,1,0.633333,0,0,0,0,0,0,0,0,0,0,1,0,0.069844,0.102041,0.216743,0.08,0,0,1,0,no
0.235294,0,0,0,0,0,0,0,0,0,0,1,0,1,0,0,0,1,0,0,0,0.044496,0,0,0,1,0,0.9,1,0,0,0,0,0,0,0,0,0,0,0,0.21483,0.040816,0,0,1,0,0,0,no
0.205882,0,0,0,0,0,0,0,1,0,0,0,0,1,0,0,0,1,0,0,0,0.041234,1,1,1,0,0,0.866667,0,0,0,0,1,0,0,0,0,0,0,0,0.054618,0,0,0,1,0,0,0,no
0.411765,0,0,0,0,0,0,0,0,0,0,1,0,1,0,0,0,1,0,0,0,0.060133,1,0,0,0,1,0.966667,0,0,0,1,0,0,0,0,0,0,0,0,0.3191,0,0.100917,0.2,0,0,1,0,yes
0.220588,0,0,0,0,0,0,0,1,0,0,0,0,1,0,0,0,0,1,0,0,0.050577,1,0,1,0,0,0.633333,0,0,0,0,0,1,0,0,0,0,0,0,0.121814,0.040816,0,0,1,0,0,0,no
0.558824,0,0,0,0,0,0,0,0,1,0,0,0,1,0,0,0,1,0,0,0,0.198749,0,0,0,0,1,0.6,0,0,0,0,0,0,0,0,0,0,1,0,0.064217,0,0,0,1,0,0,0,no
0.235294,0,0,0,0,0,0,0,0,0,0,0,1,0,0,1,0,1,0,0,0,0.050026,1,0,0,0,1,0.633333,0,0,0,1,0,0,0,0,0,0,0,0,0.002317,0.081633,0.366972,0.08,0,1,0,0,no
0.161765,0,0,0,1,0,0,0,0,0,0,0,0,0,0,1,0,0,0,1,0,0.047167,1,0,0,0,1,0.533333,0,0,1,0,0,0,0,0,0,0,0,0,0.106256,0.020408,0,0,1,0,0,0,yes
0.573529,0,0,0,0,0,0,0,0,0,1,0,0,1,0,0,0,1,0,0,0,0.047624,0,0,0,0,1,0.866667,0,0,0,0,0,0,0,1,0,0,0,0,0.027805,0.061224,0,0,1,0,0,0,no
0.088235,0,0,0,0,0,0,0,0,0,0,1,0,1,0,0,0,0,0,1,0,0.056737,1,0,0,0,1,0.366667,0,0,0,0,1,0,0,0,0,0,0,0,0.059914,0.020408,0,0,1,0,0,0,no
0.411765,0,0,0,0,0,0,0,0,1,0,0,0,1,0,0,0,0,0,1,0,0.075382,1,0,0,0,1,0.166667,0,0,0,0,1,0,0,0,0,0,0,0,0.105594,0.020408,0.418578,0.04,0,0,1,0,no
0.073529,0,0,0,0,0,0,0,1,0,0,0,0,1,0,0,0,1,0,0,0,0.041516,1,0,0,0,1,0.033333,0,0,0,1,0,0,0,0,0,0,0,0,0.028467,0,0,0,1,0,0,0,no
0.220588,0,0,0,0,0,1,0,0,0,0,0,0,1,0,0,0,1,0,0,0,0.042603,1,1,1,0,0,0.866667,0,0,0,0,1,0,0,0,0,0,0,0,0.161536,0.020408,0,0,1,0,0,0,no
0.117647,0,0,0,1,0,0,0,0,0,0,0,0,0,0,1,0,0,0,1,0,0.053905,1,0,1,0,0,0.133333,0,0,0,0,0,1,0,0,0,0,0,0,0.193976,0.040816,0,0,1,0,0,0,yes
0.235294,0,0,0,0,0,1,0,0,0,0,0,0,1,0,0,0,0,0,1,0,0.081019,1,1,0,0,1,0.233333,0,0,0,0,0,0,0,1,0,0,0,0,0.089705,0.061224,0,0,1,0,0,0,no
0.397059,0,0,0,0,0,0,0,1,0,0,0,0,1,0,0,0,0,1,0,0,0.047449,0,0,0,0,1,0.233333,0,0,0,0,0,0,0,1,0,0,0,0,0.022178,0.020408,0,0,1,0,0,0,no
0.132353,1,0,0,0,0,0,0,0,0,0,0,0,0,0,1,0,1,0,0,0,0.046845,1,1,0,0,1,0.166667,0,0,0,0,1,0,0,0,0,0,0,0,0.048328,0,0,0,1,0,0,0,no
0.220588,0,0,0,1,0,0,0,0,0,0,0,0,1,0,0,0,0,0,1,0,0.083287,1,1,0,0,1,0.966667,0,0,0,0,0,0,1,0,0,0,0,0,0.38431,0.122449,0,0,1,0,0,0,no
0.676471,0,0,0,0,1,0,0,0,0,0,0,0,1,0,0,0,0,1,0,0,0.073717,1,0,0,0,1,0.1,0,0,0,0,0,0,0,0,1,0,0,0,0.03575,0.122449,0,0,1,0,0,0,no
0.264706,0,0,0,0,0,0,0,0,0,0,0,1,1,0,0,0,1,0,0,0,0.044483,0,0,1,0,0,0.466667,0,0,0,0,1,0,0,0,0,0,0,0,0.129427,0.020408,0,0,1,0,0,0,no
0.117647,0,0,0,0,0,0,0,0,0,0,1,0,1,0,0,0,1,0,0,0,0.065637,1,1,1,0,0,0.9,0,0,0,0,1,0,0,0,0,0,0,0,0.086726,0.020408,0,0,1,0,0,0,no
0.25,0,0,0,0,0,0,0,0,0,0,1,0,0,1,0,0,1,0,0,0,0.053409,1,1,0,0,1,0.066667,0,0,0,1,0,0,0,0,0,0,0,0,0.061569,0,0.15367,0.04,0,1,0,0,no
0.235294,0,0,0,0,0,0,0,1,0,0,0,0,1,0,0,0,1,0,0,0,0.115663,1,0,0,0,1,0.633333,0,0,0,0,0,0,0,0,0,0,1,0,0.111221,0,0.211009,0.08,0,0,1,0,no
0.279412,0,0,0,0,0,0,0,1,0,0,0,0,1,0,0,0,1,0,0,0,0.039261,1,0,1,0,0,0.266667,0,0,0,0,1,0,0,0,0,0,0,0,0.135055,0,0,0,1,0,0,0,no
0.397059,0,0,0,0,0,0,0,1,0,0,0,0,1,0,0,0,1,0,0,0,0.051436,1,0,0,0,1,0.8,0,0,0,0,0,0,0,1,0,0,0,0,0.070506,0.102041,0,0,1,0,0,0,no
0.279412,1,0,0,0,0,0,0,0,0,0,0,0,1,0,0,0,1,0,0,0,0.045087,1,1,1,0,0,0.166667,0,0,0,0,1,0,0,0,0,0,0,0,0.063224,0,0,0,1,0,0,0,no
0.220588,0,0,0,0,0,0,0,1,0,0,0,0,0,0,1,0,1,0,0,0,0.043503,1,0,0,0,1,0.2,0,0,0,0,0,0,1,0,0,0,0,0,0.089043,0.081633,0,0,1,0,0,0,no
0.235294,0,0,0,1,0,0,0,0,0,0,0,0,0,0,1,0,0,0,1,0,0.044469,0,1,0,0,1,0.433333,0,0,0,0,0,0,0,1,0,0,0,0,0.121152,0.061224,0,0,1,0,0,0,no
0.25,0,0,0,0,0,0,1,0,0,0,0,0,0,0,1,1,0,0,0,0,0.04965,0,0,1,0,0,0.566667,0,0,0,0,0,1,0,0,0,0,0,0,0.117511,0.020408,0,0,1,0,0,0,no
0.220588,0,0,0,0,0,0,0,0,0,0,0,1,0,0,1,0,1,0,0,0,0.045597,1,0,1,0,0,0.733333,0,0,0,0,1,0,0,0,0,0,0,0,0.09765,0,0,0,1,0,0,0,no
0.264706,0,0,0,0,0,0,0,0,0,0,1,0,0,0,1,0,1,0,0,0,0.050308,1,0,1,0,0,0.833333,0,0,0,0,1,0,0,0,0,0,0,0,0.068189,0,0,0,1,0,0,0,no
0.117647,1,0,0,0,0,0,0,0,0,0,0,0,1,0,0,0,1,0,0,0,0.053999,1,1,0,0,1,0.166667,0,0,0,0,1,0,0,0,0,0,0,0,0.21483,0,0.384174,0.08,0,0,0,1,yes
0.176471,0,0,0,0,0,0,0,1,0,0,0,0,1,0,0,0,1,0,0,0,0.043865,1,0,1,0,0,0.033333,0,0,0,0,0,1,0,0,0,0,0,0,0.059583,0,0,0,1,0,0,0,no
0.161765,0,0,0,0,0,0,0,1,0,0,0,0,0,0,1,0,1,0,0,0,0.053167,1,1,1,0,0,0.233333,0,0,0,0,1,0,0,0,0,0,0,0,0.093678,0,0,0,1,0,0,0,no
0.367647,0,0,0,1,0,0,0,0,0,0,0,0,1,0,0,0,0,0,1,0,0.05867,0,0,0,0,1,0.333333,0,0,1,0,0,0,0,0,0,0,0,0,0.060907,0.040816,0,0,1,0,0,0,yes
0.323529,0,0,0,0,0,0,0,1,0,0,0,0,1,0,0,0,1,0,0,0,0.064053,0,0,1,0,0,0.133333,0,0,0,0,0,1,0,0,0,0,0,0,0.025819,0,0,0,1,0,0,0,no
0.367647,0,0,0,0,0,0,0,0,0,0,1,0,0,1,0,0,1,0,0,0,0.040053,1,0,1,0,0,0.2,0,0,0,0,1,0,0,0,0,0,0,0,0.05528,0,0,0,1,0,0,0,no
0.338235,0,0,1,0,0,0,0,0,0,0,0,0,1,0,0,0,1,0,0,0,0.153609,1,0,1,0,0,0.966667,0,0,0,0,1,0,0,0,0,0,0,0,0.021516,0,0,0,1,0,0,0,no
0.25,0,0,0,0,0,1,0,0,0,0,0,0,1,0,0,0,0,1,0,0,0.046845,1,0,1,0,0,0.366667,0,0,0,0,1,0,0,0,0,0,0,0,0.01953,0.081633,0,0,1,0,0,0,no
0.367647,1,0,0,0,0,0,0,0,0,0,0,0,0,0,1,0,1,0,0,0,0.043114,1,0,0,0,1,0.3,0,0,0,0,0,0,1,0,0,0,0,0,0.031447,0,0,0,1,0,0,0,no
0.514706,0,0,0,0,0,0,0,0,0,0,0,1,1,0,0,1,0,0,0,0,0.04965,0,1,0,0,1,0.6,0,0,0,0,0,0,0,0,0,0,1,0,0.023171,0,0.175459,0.04,0,0,0,1,no
0.176471,0,0,0,1,0,0,0,0,0,0,0,0,1,0,0,0,0,0,1,0,0.076616,0,0,0,0,1,0.866667,0,0,0,1,0,0,0,0,0,0,0,0,0.070837,0,0,0,1,0,0,0,no
0.235294,1,0,0,0,0,0,0,0,0,0,0,0,0,1,0,0,1,0,0,0,0.046456,0,1,0,0,1,0.233333,0,0,0,0,0,0,1,0,0,0,0,0,0.064548,0,0,0,1,0,0,0,no
0.161765,0,0,0,0,0,0,0,0,0,0,1,0,0,0,1,0,0,0,1,0,0.047637,1,0,1,0,0,0.5,0,0,0,0,1,0,0,0,0,0,0,0,0.063886,0,0,0,1,0,0,0,no
0.117647,0,0,0,0,0,0,0,0,0,0,1,0,1,0,0,0,1,0,0,0,0.046214,1,0,0,0,1,0.2,0,0,0,0,1,0,0,0,0,0,0,0,0.086395,0.040816,0,0,1,0,0,0,no
0.132353,1,0,0,0,0,0,0,0,0,0,0,0,0,0,1,0,1,0,0,0,0.044818,1,0,0,0,1,0.2,0,0,0,0,1,0,0,0,0,0,0,0,0.073817,0.020408,0,0,1,0,0,0,no
0.191176,0,0,0,0,0,0,0,0,0,0,0,1,0,0,1,0,1,0,0,0,0.08314,0,0,0,0,1,0.033333,0,0,0,0,0,0,1,0,0,0,0,0,0.116518,0,0,0,1,0,0,0,yes
0.235294,1,0,0,0,0,0,0,0,0,0,0,0,0,0,1,0,1,0,0,0,0.045234,0,1,0,0,1,0.233333,0,0,0,0,0,0,1,0,0,0,0,0,0.207878,0.020408,0,0,1,0,0,0,no
0.088235,0,0,0,0,0,0,0,0,0,0,1,0,0,0,1,0,1,0,0,0,0.073422,1,0,0,0,1,0.666667,0,0,0,0,0,0,1,0,0,0,0,0,0.11089,0,0,0,1,0,0,0,no
0.426471,0,0,0,1,0,0,0,0,0,0,0,0,1,0,0,0,0,0,1,0,0.049342,0,0,0,0,1,0.566667,0,0,0,0,0,0,0,0,0,0,1,0,0.020854,0,0,0,1,0,0,0,no
0.279412,0,0,1,0,0,0,0,0,0,0,0,0,0,0,1,0,0,0,1,0,0.044469,0,0,0,0,1,0.166667,0,1,0,0,0,0,0,0,0,0,0,0,0.011586,0.020408,0,0,1,0,0,0,no
0.367647,0,0,0,0,0,0,0,0,0,0,1,0,1,0,0,0,0,0,1,0,0.067382,0,0,0,0,1,0.233333,0,0,0,0,0,0,0,1,0,0,0,0,0.133069,0.040816,0,0,1,0,0,0,no
0.323529,0,0,0,0,0,1,0,0,0,0,0,0,1,0,0,0,0,1,0,0,0.044993,1,0,0,0,1,0.666667,0,0,0,0,0,0,0,0,0,0,1,0,0.180404,0.020408,0,0,1,0,0,0,yes
0.117647,0,0,0,0,0,0,0,0,1,0,0,0,1,0,0,0,1,0,0,0,0.041516,1,0,1,0,0,0.833333,0,0,0,0,1,0,0,0,0,0,0,0,0.044356,0.020408,0,0,1,0,0,0,no
0.294118,1,0,0,0,0,0,0,0,0,0,0,0,1,0,0,0,1,0,0,0,0.049919,0,0,0,0,1,0.966667,0,0,0,0,0,0,1,0,0,0,0,0,0.082423,0.081633,0,0,1,0,0,0,no
0.514706,0,0,0,0,0,0,0,0,0,0,1,0,1,0,0,0,0,0,1,0,0.045785,0,0,0,0,1,0.233333,0,0,0,0,0,0,0,1,0,0,0,0,0.137703,0.061224,0,0,1,0,0,0,no
0.5,1,0,0,0,0,0,0,0,0,0,0,0,0,1,0,0,1,0,0,0,0.044469,1,1,0,0,1,0.966667,0,0,0,1,0,0,0,0,0,0,0,0,0.192651,0.020408,0,0,1,0,0,0,no
0.308824,0,0,0,0,0,0,0,0,0,0,0,1,1,0,0,0,1,0,0,0,0.045154,1,0,0,0,1,0.333333,0,0,0,0,1,0,0,0,0,0,0,0,0.015227,0,0,0,1,0,0,0,no
0.176471,0,0,0,1,0,0,0,0,0,0,0,0,1,0,0,0,0,0,1,1,0.041073,0,0,0,0,1,0.366667,0,0,0,0,0,0,0,1,0,0,0,0,0.0715,0.061224,0,0,1,0,0,0,no
0.25,0,0,0,1,0,0,0,0,0,0,0,0,0,0,1,0,1,0,0,0,0.044469,0,0,0,0,1,0.4,0,0,0,0,0,0,0,1,0,0,0,0,0.108904,0.081633,0,0,1,0,0,0,no
0.191176,0,0,0,0,0,0,0,0,0,0,0,1,0,0,1,0,1,0,0,0,0.046254,0,0,0,0,1,0.466667,0,0,0,1,0,0,0,0,0,0,0,0,0.05528,0,0,0,1,0,0,0,yes
0.264706,0,0,0,0,0,0,0,0,0,0,0,1,0,1,0,0,0,1,0,0,0.047959,1,0,0,0,1,0.533333,0,0,0,1,0,0,0,0,0,0,0,0,0.146309,0.020408,0,0,1,0,0,0,no
0.308824,0,0,0,0,0,0,0,1,0,0,0,0,1,0,0,0,0,1,0,0,0.08212,1,0,0,0,1,0.433333,0,0,0,0,1,0,0,0,0,0,0,0,0.055942,0.102041,0.405963,0.92,0,0,1,0,no
0.161765,0,0,0,1,0,0,0,0,0,0,0,0,1,0,0,0,0,0,1,0,0.056966,0,0,0,0,1,0.533333,0,0,0,0,0,0,1,0,0,0,0,0,0.390268,0,0,0,1,0,0,0,no
0.382353,0,0,0,0,0,0,0,0,0,0,1,0,1,0,0,0,1,0,0,0,0.042469,1,0,0,0,1,0.433333,0,0,0,0,0,0,1,0,0,0,0,0,0.093678,0.020408,0,0,1,0,0,0,no
0.191176,0,0,0,0,0,0,0,1,0,0,0,0,0,0,1,0,0,0,1,0,0.084925,1,0,0,0,1,0.2,0,0,0,0,1,0,0,0,0,0,0,0,0.095002,0.020408,0,0,1,0,0,0,no
0.235294,0,0,0,0,0,0,0,0,1,0,0,0,0,0,1,0,1,0,0,0,0.067717,0,0,0,1,0,0.666667,0,0,0,0,0,0,0,0,0,0,1,0,0.47567,0.040816,0,0,1,0,0,0,no
0.647059,0,0,0,0,0,0,0,0,0,1,0,0,1,0,0,0,1,0,0,0,0.050832,0,0,0,0,1,0.8,1,0,0,0,0,0,0,0,0,0,0,0,0.138696,0,0,0,1,0,0,0,yes
0.264706,0,0,0,0,0,0,0,0,1,0,0,0,1,0,0,0,0,0,1,0,0.046308,0,0,0,0,1,0.4,0,0,0,0,0,0,0,1,0,0,0,0,0.079444,0.102041,0,0,1,0,0,0,no
0.529412,0,0,0,1,0,0,0,0,0,0,0,0,1,0,0,0,0,0,1,0,0.039436,0,0,0,0,1,0.966667,0,0,0,0,0,0,1,0,0,0,0,0,0.268123,0.020408,0,0,1,0,0,0,yes
0.411765,0,0,0,0,0,0,0,1,0,0,0,0,1,0,0,0,1,0,0,0,0.07867,1,0,0,0,1,0.333333,0,0,0,0,1,0,0,0,0,0,0,0,0.189672,0,0.423165,0.04,0,1,0,0,no
0.25,0,0,0,0,0,0,0,0,1,0,0,0,1,0,0,0,0,0,1,0,0.044684,1,1,0,0,1,0.566667,0,0,0,0,0,0,1,0,0,0,0,0,0.030122,0.061224,0,0,1,0,0,0,no
0.220588,1,0,0,0,0,0,0,0,0,0,0,0,1,0,0,0,1,0,0,0,0.049785,1,0,0,0,1,0.5,0,0,0,0,0,0,1,0,0,0,0,0,0.032109,0.040816,0,0,1,0,0,0,no
0.191176,0,0,0,0,0,0,0,1,0,0,0,0,1,0,0,0,1,0,0,0,0.072509,1,0,0,0,1,0.433333,0,0,0,0,0,0,0,0,0,0,1,0,0.04237,0,0,0,1,0,0,0,yes
0.382353,0,0,0,1,0,0,0,0,0,0,0,0,1,0,0,0,0,0,1,0,0.041892,1,0,0,0,1,0.166667,0,0,0,0,1,0,0,0,0,0,0,0,0.044356,0.040816,0,0,1,0,0,0,no
0.205882,0,0,0,0,0,0,0,1,0,0,0,0,0,1,0,0,0,1,0,0,0.046375,1,0,0,1,0,0.333333,0,0,0,0,1,0,0,0,0,0,0,0,0.012248,0.020408,0.345183,0.2,0,0,1,0,no
0.544118,0,0,0,0,0,0,0,0,0,1,0,0,0,1,0,0,1,0,0,0,0.047315,0,1,0,1,0,0.533333,0,0,0,0,0,0,1,0,0,0,0,0,0.007613,0,0,0,1,0,0,0,no
0.323529,0,0,0,0,0,0,0,0,1,0,0,0,1,0,0,0,0,1,0,0,0.047207,0,0,0,0,1,0.4,0,0,0,0,0,0,0,1,0,0,0,0,0.035419,0.122449,0,0,1,0,0,0,no
0.279412,0,0,0,1,0,0,0,0,0,0,0,0,0,1,0,1,0,0,0,0,0.044469,1,0,0,0,1,0.566667,0,0,0,0,0,0,0,0,0,0,1,0,0.030453,0.020408,0,0,1,0,0,0,no
0.205882,0,0,0,0,0,0,0,0,0,0,0,1,1,0,0,0,0,1,0,0,0.044469,1,0,0,0,1,0.566667,0,0,0,0,0,0,1,0,0,0,0,0,0.114863,0.020408,0,0,1,0,0,0,no
0.397059,1,0,0,0,0,0,0,0,0,0,0,0,1,0,0,0,1,0,0,0,0.042845,1,1,0,0,1,0.233333,0,0,0,0,0,0,1,0,0,0,0,0,0.069513,0.061224,0,0,1,0,0,0,no
0.147059,0,0,1,0,0,0,0,0,0,0,0,0,0,0,1,0,1,0,0,0,0.050993,0,0,0,1,0,0.966667,0,0,0,1,0,0,0,0,0,0,0,0,0.030122,0,0,0,1,0,0,0,no
0.367647,0,0,0,1,0,0,0,0,0,0,0,0,1,0,0,0,0,0,1,0,0.2775,0,0,1,0,0,0.566667,0,0,0,0,0,1,0,0,0,0,0,0,0.15624,0,0,0,1,0,0,0,no
0.426471,0,0,0,1,0,0,0,0,0,0,0,0,1,0,0,0,0,0,1,0,0.142307,1,0,0,0,1,0.033333,0,1,0,0,0,0,0,0,0,0,0,0,0.103277,0.040816,0,0,1,0,0,0,no
0.25,0,0,0,1,0,0,0,0,0,0,0,0,1,0,0,0,0,0,1,0,0.039355,1,0,0,0,1,1,0,0,0,0,0,0,1,0,0,0,0,0,0.008606,0.571429,0,0,1,0,0,0,no
0.25,0,0,0,0,0,0,0,0,0,0,1,0,1,0,0,0,1,0,0,0,0.046429,1,1,1,0,0,0.466667,0,0,0,0,1,0,0,0,0,0,0,0,0.092685,0.020408,0,0,1,0,0,0,no
0.220588,0,0,0,0,0,0,0,0,0,0,1,0,1,0,0,0,1,0,0,0,0.065315,0,0,0,0,1,0.633333,0,0,0,0,0,0,0,1,0,0,0,0,0.064879,0.020408,0,0,1,0,0,0,no
0.5,0,0,0,1,0,0,0,0,0,0,0,0,1,0,0,0,0,0,1,0,0.044966,0,0,0,0,1,0.9,0,0,0,0,0,0,0,1,0,0,0,0,0.015558,0.163265,0,0,1,0,0,0,no
0.558824,1,0,0,0,0,0,0,0,0,0,0,0,1,0,0,0,1,0,0,0,0.073153,0,0,0,1,0,0.233333,0,0,0,0,0,0,1,0,0,0,0,0,0.04237,0.122449,0,0,1,0,0,0,no
0.308824,0,0,0,0,0,0,0,0,1,0,0,0,1,0,0,0,1,0,0,0,0.044496,0,0,0,0,1,0.7,0,0,0,0,0,0,0,1,0,0,0,0,0.063886,0.081633,0,0,1,0,0,0,no
0.279412,0,0,0,0,0,0,0,0,0,0,1,0,0,0,1,0,0,0,1,0,0.047436,0,0,0,0,1,0.633333,0,0,0,0,0,0,0,1,0,0,0,0,0.024826,0.040816,0,0,1,0,0,0,no
0.205882,0,0,0,0,0,0,0,1,0,0,0,0,1,0,0,0,1,0,0,0,0.048912,1,0,0,0,1,0.433333,0,0,0,0,1,0,0,0,0,0,0,0,0.057597,0.122449,0.419725,0.2,0,1,0,0,no
0.161765,0,0,1,0,0,0,0,0,0,0,0,0,1,0,0,0,0,1,0,0,0.068455,0,0,0,0,1,0.6,0,0,0,0,0,0,0,0,0,1,0,0,0.024826,0,0,0,1,0,0,0,no
0.191176,0,0,0,1,0,0,0,0,0,0,0,0,0,0,1,0,0,0,1,0,0.049127,1,0,0,0,1,0.566667,0,0,0,0,1,0,0,0,0,0,0,0,0.069182,0,0.303899,0.24,0,0,1,0,no
0.235294,0,0,0,0,0,0,0,0,0,0,1,0,1,0,0,0,1,0,0,0,0.067382,1,0,1,0,0,0.033333,0,0,0,0,0,1,0,0,0,0,0,0,0.139689,0.040816,0,0,1,0,0,0,no
0.264706,0,0,0,0,0,0,0,0,0,0,0,1,0,0,1,0,0,0,1,0,0.047462,1,0,1,0,0,0.9,0,0,0,0,1,0,0,0,0,0,0,0,0.006951,0,0,0,1,0,0,0,no
0.132353,0,0,0,0,0,0,0,1,0,0,0,0,1,0,0,0,1,0,0,0,0.045811,1,1,1,0,0,0.866667,0,0,0,0,1,0,0,0,0,0,0,0,0.04237,0.020408,0,0,1,0,0,0,no
0.588235,0,0,0,0,0,0,0,0,0,0,1,0,1,0,0,0,1,0,0,0,0.044483,0,0,0,0,1,0.466667,0,0,0,1,0,0,0,0,0,0,0,0,0.051308,0.020408,0.434633,0.12,0,0,1,0,yes
0.397059,0,0,0,0,0,0,0,0,0,0,1,0,1,0,0,0,0,0,1,0,0.047382,1,0,0,0,1,0.433333,0,0,0,0,1,0,0,0,0,0,0,0,0.045349,0,0.397936,0.08,0,1,0,0,no
0.176471,0,0,0,1,0,0,0,0,0,0,0,0,0,0,1,0,0,0,1,0,0.064523,0,0,0,0,1,0.4,0,0,0,0,0,0,0,1,0,0,0,0,0.089705,0.22449,0,0,1,0,0,0,no
0.176471,0,0,0,0,0,0,0,1,0,0,0,0,1,0,0,1,0,0,0,0,0.042858,1,0,0,0,1,0.066667,0,1,0,0,0,0,0,0,0,0,0,0,0.031778,0.040816,0.231651,0.08,0,0,1,0,no
0.102941,0,0,0,0,0,0,0,0,0,0,0,1,0,0,1,0,1,0,0,0,0.118737,1,0,0,0,1,0.2,0,0,0,0,1,0,0,0,0,0,0,0,0.191327,0.020408,0.325688,0.16,0,0,1,0,no
0.455882,0,0,0,0,0,0,0,0,0,0,1,0,1,0,0,0,1,0,0,0,0.055758,1,0,1,0,0,0.933333,0,0,0,0,1,0,0,0,0,0,0,0,0.016551,0.020408,0,0,1,0,0,0,no
0.279412,0,0,0,1,0,0,0,0,0,0,0,0,1,0,0,0,0,0,1,0,0.140092,0,0,1,0,0,0.5,0,0,0,0,0,1,0,0,0,0,0,0,0.098312,0.102041,0,0,1,0,0,0,no
0.529412,0,0,0,1,0,0,0,0,0,0,0,0,1,0,0,0,0,0,1,0,0.046764,1,0,0,0,1,0.233333,0,0,0,0,0,0,0,1,0,0,0,0,0.02284,0.102041,0,0,1,0,0,0,no
0.176471,0,0,0,0,0,0,0,1,0,0,0,0,0,0,1,0,0,1,0,0,0.037731,1,0,1,0,0,0.933333,0,0,0,0,1,0,0,0,0,0,0,0,0.023833,0.061224,0,0,1,0,0,0,no
0.220588,0,0,0,0,0,0,0,1,0,0,0,0,1,0,0,0,1,0,0,0,0.049744,1,0,0,0,1,0.133333,0,0,0,0,1,0,0,0,0,0,0,0,0.002317,0.163265,0,0,1,0,0,0,no
0.294118,0,0,0,1,0,0,0,0,0,0,0,0,1,0,0,0,0,0,1,0,0.081556,1,0,1,0,0,0.033333,0,0,0,0,0,1,0,0,0,0,0,0,0.17279,0.020408,0,0,1,0,0,0,yes
0.279412,0,0,0,0,0,0,0,0,0,0,0,1,1,0,0,0,1,0,0,0,0.04259,0,0,1,0,0,0.8,0,0,0,0,0,1,0,0,0,0,0,0,0.149619,0.040816,0,0,1,0,0,0,no
0.294118,0,0,0,0,0,0,0,0,1,0,0,0,1,0,0,0,1,0,0,0,0.044885,1,0,0,0,1,0.633333,0,0,0,0,0,0,0,0,0,0,1,0,0.018868,0.020408,0.208716,0.16,0,0,1,0,no
0.764706,0,0,0,0,0,0,0,0,0,1,0,0,1,0,0,0,0,0,1,0,0.235339,1,0,0,0,1,0.266667,0,0,0,0,0,0,0,0,1,0,0,0,0.130089,0,0,0,1,0,0,0,yes
0.308824,0,0,0,0,0,0,0,1,0,0,0,0,1,0,0,0,0,1,0,0,0.046845,1,1,0,1,0,0.666667,0,0,0,0,0,0,1,0,0,0,0,0,0.24429,0.061224,0,0,1,0,0,0,no
0.205882,0,0,0,1,0,0,0,0,0,0,0,0,0,0,1,0,0,0,1,0,0.1713,1,0,0,0,1,0.233333,0,0,0,0,1,0,0,0,0,0,0,0,0.140351,0,0,0,1,0,0,0,no
0.352941,0,0,0,0,0,0,0,0,0,0,1,0,1,0,0,0,1,0,0,0,0.046295,0,0,0,0,1,0.8,0,0,0,0,0,0,0,1,0,0,0,0,0.118835,0.122449,0,0,1,0,0,0,yes
0.426471,0,0,0,0,0,0,0,1,0,0,0,0,1,0,0,0,1,0,0,0,0.053932,0,0,1,0,0,0.4,0,0,0,0,1,0,0,0,0,0,0,0,0.034426,0.020408,0,0,1,0,0,0,no
0.308824,0,0,0,0,0,0,0,1,0,0,0,0,1,0,0,0,1,0,0,0,0.057248,0,1,1,0,0,0.366667,0,0,0,0,0,1,0,0,0,0,0,0,0.045018,0,0,0,1,0,0,0,no
0.485294,0,0,0,0,0,0,0,0,0,0,1,0,1,0,0,0,1,0,0,0,0.068375,1,0,1,0,0,0.6,0,0,0,0,1,0,0,0,0,0,0,0,0.046342,0.020408,0,0,1,0,0,0,no
0.426471,0,0,0,0,0,0,0,0,0,0,1,0,1,0,0,0,1,0,0,0,0.047113,0,1,0,0,1,0.066667,0,1,0,0,0,0,0,0,0,0,0,0,0.014234,0.020408,0.255734,0.12,0,1,0,0,no
0.485294,0,0,1,0,0,0,0,0,0,0,0,0,1,0,0,0,0,1,0,0,0.044738,1,0,0,1,0,0.9,1,0,0,0,0,0,0,0,0,0,0,0,0.055611,0,0,0,1,0,0,0,no
0.25,0,0,0,0,0,0,0,1,0,0,0,0,1,0,0,0,0,1,0,0,0.045127,1,0,0,0,1,0.466667,0,0,0,0,1,0,0,0,0,0,0,0,0.075472,0.020408,0.419725,0.2,0,1,0,0,no
0.205882,0,0,0,1,0,0,0,0,0,0,0,0,1,0,0,0,0,0,1,0,0.048442,0,0,0,0,1,0.5,0,0,0,0,0,0,1,0,0,0,0,0,0.028467,0.020408,0,0,1,0,0,0,no
0.529412,0,0,0,0,0,0,0,0,0,1,0,0,1,0,0,0,1,0,0,0,0.081368,1,1,1,0,0,0.933333,0,0,0,0,1,0,0,0,0,0,0,0,0.017875,0.020408,0,0,1,0,0,0,no
0.573529,0,0,0,0,0,0,0,1,0,0,0,0,1,0,0,0,0,1,0,0,0.048617,0,0,0,0,1,0.6,0,0,0,0,0,0,0,1,0,0,0,0,0.050314,0.020408,0,0,1,0,0,0,no
0.338235,0,0,0,0,0,0,0,1,0,0,0,0,1,0,0,0,0,1,0,0,0.044335,1,0,1,0,0,0.266667,0,0,0,0,1,0,0,0,0,0,0,0,0.095002,0.061224,0,0,1,0,0,0,no
0.088235,0,0,0,0,0,0,0,0,0,0,0,1,0,0,1,0,1,0,0,0,0.039744,0,0,0,0,1,0.466667,0,0,0,0,0,0,1,0,0,0,0,0,0.080106,0,0,0,1,0,0,0,no
0.911765,0,0,0,0,0,0,0,0,0,1,0,0,1,0,0,0,1,0,0,0,0.044483,0,0,0,0,1,0.6,0,0,0,0,0,0,0,1,0,0,0,0,0.020192,0.081633,0,0,1,0,0,0,no
0.073529,0,0,0,0,0,0,1,0,0,0,0,0,0,0,1,0,1,0,0,0,0.051288,1,0,0,1,0,0.566667,0,0,0,0,1,0,0,0,0,0,0,0,0.002648,0.040816,0.430046,0.04,0,1,0,0,no
