@relation zoo

@ATTRIBUTE hair {0,1}
@ATTRIBUTE feather {0,1}
@ATTRIBUTE eggs {0,1}
@ATTRIBUTE milk {0,1}
@ATTRIBUTE airborne {0,1}
@ATTRIBUTE aquatic {0,1}
@ATTRIBUTE predator {0,1}
@ATTRIBUTE toothed {0,1}
@ATTRIBUTE backbone {0,1}
@ATTRIBUTE breathes {0,1}
@ATTRIBUTE venomous {0,1}
@ATTRIBUTE fins {0,1}
@ATTRIBUTE legs numeric
@ATTRIBUTE tail {0,1}
@ATTRIBUTE domestic {0,1}
@ATTRIBUTE catsize {0,1}
@ATTRIBUTE type {1,2,3,4,5,6,7}
 
@data
0,0,1,0,0,1,1,1,1,1,0,0,4,1,0,0,5
1,0,0,1,0,0,0,1,1,1,0,0,4,1,0,1,1
1,0,0,1,0,0,1,1,1,1,0,0,4,1,0,0,1
1,0,0,1,1,0,0,1,1,1,0,0,2,1,0,0,1
1,0,0,1,0,0,0,1,1,1,0,0,4,1,1,1,1
1,0,0,1,0,0,0,1,1,1,0,0,2,0,0,1,1
0,1,1,0,1,0,0,0,1,1,0,0,2,1,0,0,2
0,1,1,0,1,1,0,0,1,1,0,0,2,1,0,1,2
1,0,0,1,0,0,1,1,1,1,0,0,4,1,0,1,1
1,0,0,1,0,0,0,1,1,1,0,0,4,1,1,1,1
0,1,1,0,1,0,0,0,1,1,0,0,2,1,1,0,2
1,0,0,1,1,0,0,1,1,1,0,0,2,1,0,0,1
1,0,0,1,0,0,1,1,1,1,0,0,4,1,0,1,1
0,0,1,0,0,1,1,1,1,0,0,1,0,1,0,0,4
0,1,1,0,1,1,0,0,1,1,0,0,2,1,0,0,2
0,0,1,0,0,1,1,0,0,0,0,0,6,0,0,0,7
1,0,0,1,0,0,0,1,1,1,0,0,4,1,0,0,1
1,0,0,1,0,1,1,1,1,1,0,1,2,1,0,1,1
1,0,0,1,0,0,0,1,1,1,0,0,4,1,0,1,1
0,0,1,0,0,1,0,1,1,0,0,1,0,1,0,0,4
1,0,0,1,0,0,0,1,1,1,0,0,4,0,1,0,1
0,0,1,0,0,1,1,0,0,0,0,0,4,0,0,0,7
0,1,1,0,1,0,1,0,1,1,0,0,2,1,0,1,2
1,0,0,1,0,0,1,1,1,1,0,0,4,1,0,1,1
0,1,1,0,1,0,0,0,1,1,0,0,2,1,0,1,2
0,0,0,1,0,1,1,1,1,1,0,1,0,1,0,1,1
1,0,1,0,1,0,0,0,0,1,0,0,6,0,0,0,6
0,0,1,0,0,1,1,0,0,0,0,0,5,0,0,0,7
0,0,1,0,0,1,1,0,0,0,1,0,0,0,0,0,7
1,0,0,1,0,0,1,1,1,1,0,0,4,1,0,1,1
0,0,1,0,0,0,0,0,0,1,0,0,6,0,0,0,6
0,0,1,0,0,0,1,1,1,1,0,0,0,1,0,0,3
0,1,1,0,1,0,0,0,1,1,0,0,2,1,0,0,2
0,1,1,0,1,0,0,0,1,1,0,0,2,1,1,0,2
1,0,0,1,0,0,0,1,1,1,0,0,4,1,0,1,1
0,0,1,0,0,1,1,1,1,1,0,0,4,0,0,0,5
1,0,0,1,0,0,0,1,1,1,0,0,2,1,0,0,1
0,0,1,0,0,0,1,1,1,1,1,0,0,1,0,0,3
1,0,1,1,0,1,1,0,1,1,0,0,4,1,0,1,1
0,1,1,0,0,1,1,0,1,1,0,0,2,1,0,1,2
1,0,0,1,0,0,0,1,1,1,0,0,4,1,1,1,1
0,0,1,0,0,0,0,0,0,1,0,0,0,0,0,0,7
1,0,0,1,0,1,1,1,1,1,0,1,0,0,0,1,1
1,0,0,1,0,0,0,1,1,1,0,0,4,1,0,1,1
0,0,0,0,0,0,1,0,0,1,1,0,8,1,0,0,7
0,1,1,0,0,0,0,0,1,1,0,0,2,1,0,1,2
0,0,1,0,0,0,1,1,1,1,0,0,4,1,0,0,3
0,0,1,0,0,1,1,1,1,0,0,1,0,1,0,0,4
1,0,0,1,0,0,1,1,1,1,0,0,2,0,1,1,1
0,0,1,0,0,0,0,0,1,1,0,0,4,1,0,1,3
1,0,0,1,0,0,1,1,1,1,0,0,4,0,0,1,1
0,0,0,0,0,1,1,1,1,0,1,0,0,1,0,0,3
1,0,0,1,0,0,0,1,1,1,0,0,2,1,0,1,1
0,0,1,0,0,0,0,0,0,1,0,0,0,0,0,0,7
0,0,1,0,0,1,1,1,1,1,1,0,4,0,0,0,5
1,0,0,1,0,0,0,1,1,1,0,0,4,1,1,1,1
0,0,1,0,0,1,1,1,1,0,0,1,0,1,0,1,4
1,0,0,1,0,1,1,1,1,1,0,0,4,1,0,1,1
0,1,1,0,1,0,0,0,1,1,0,0,2,1,1,0,2
1,0,1,0,1,0,0,0,0,1,0,0,6,0,0,0,6
0,1,1,0,0,0,1,0,1,1,0,0,2,1,0,0,2
1,0,1,0,1,0,0,0,0,1,1,0,6,0,1,0,6
0,0,1,0,0,0,1,0,0,0,0,0,0,0,0,0,7
1,0,0,1,0,0,1,1,1,1,0,0,4,1,0,1,1
0,1,1,0,1,0,1,0,1,1,0,0,2,1,0,0,2
0,0,1,0,0,1,0,1,1,0,0,1,0,1,0,0,4
1,0,0,1,0,0,1,1,1,1,0,0,4,1,0,0,1
0,0,1,0,0,1,1,1,1,0,0,1,0,1,0,1,4
1,0,0,1,0,0,0,1,1,1,0,0,4,1,0,1,1
0,0,1,0,0,1,1,1,1,0,1,1,0,1,0,1,4
0,0,1,0,0,1,1,0,0,0,0,0,6,0,0,0,7
1,0,0,1,0,0,1,1,1,1,0,0,4,1,0,1,1
0,0,1,0,0,1,1,0,0,0,0,0,8,0,0,1,7
1,0,0,1,0,0,0,1,1,1,0,0,4,1,0,1,1
0,0,1,0,0,1,0,1,1,0,0,1,0,1,1,0,4
1,0,0,1,0,0,1,1,1,1,0,0,4,1,0,1,1
0,1,1,0,1,1,1,0,1,1,0,0,2,1,0,0,2
0,1,1,0,1,0,1,0,1,1,0,0,2,1,0,0,2
0,1,1,0,1,1,1,0,1,1,0,0,2,1,0,0,2
1,0,0,1,0,0,1,1,1,1,0,0,4,1,0,1,1
0,0,1,0,1,0,1,0,0,1,0,0,6,0,0,0,6
